[
    {
        "title": "武汉青年人才公寓（黄陂驿站）入驻盘龙城宋家岗龙樾上城",
        "docid": "IN5PI63H0552QWCS",
        "url": "https://www.163.com/dy/article/IN5PI63H0552QWCS.html"
    },
    {
        "title": "有房贷和没房贷的打工人有什么区别",
        "docid": "IMOH3DA10542M5JD",
        "url": "https://www.163.com/dy/article/IMOH3DA10542M5JD.html"
    },
    {
        "title": "为什么说4楼是“特殊楼层”？很多人都不敢选，听听过来人的解释",
        "docid": "IMONANLP054057BR",
        "url": "https://www.163.com/dy/article/IMONANLP054057BR.html"
    },
    {
        "title": "比房价暴跌更可怕的，是最低房贷断供！",
        "docid": "IN1MMG8N0535KAWB",
        "url": "https://www.163.com/dy/article/IN1MMG8N0535KAWB.html"
    },
    {
        "title": "负债最多的开发商排名出炉！",
        "docid": "IN1SFR7K0553CGLS",
        "url": "https://www.163.com/dy/article/IN1SFR7K0553CGLS.html"
    },
    {
        "title": "机构：年底重点房企拿地翘尾 全年拿地规模正增长",
        "docid": "IN5LS6I30539AP40",
        "url": "https://www.163.com/dy/article/IN5LS6I30539AP40.html"
    },
    {
        "title": "80%的购房人或面临收割",
        "docid": "VFLNL9274",
        "url": "https://www.163.com/dy/article/VFLNL9274.html"
    },
    {
        "title": "买房楼层怎么挑？坚持“3选2不选”准没错",
        "docid": "VTLT4KF33",
        "url": "https://www.163.com/dy/article/VTLT4KF33.html"
    },
    {
        "title": "别傻了，唯一住房真的不会被法拍吗？别让自己成为房财两空的老赖",
        "docid": "VVM4VB48U",
        "url": "https://www.163.com/dy/article/VVM4VB48U.html"
    },
    {
        "title": "华侨城！再降300万！249平复式6房11××！赶紧",
        "docid": "IN5PGH220552F71X",
        "url": "https://www.163.com/dy/article/IN5PGH220552F71X.html"
    },
    {
        "title": "农村宅基地批不下来？注意看这些坑！",
        "docid": "IMOM60NB0532Q69P",
        "url": "https://www.163.com/dy/article/IMOM60NB0532Q69P.html"
    },
    {
        "title": "年前买房好，还是年后好？今年的答案是：年前！",
        "docid": "IN4VHOM70553TDVP",
        "url": "https://www.163.com/dy/article/IN4VHOM70553TDVP.html"
    },
    {
        "title": "同一个楼层，为什么西边户比东边户更好卖？内行人终于说出了真相",
        "docid": "IMOKURTD054057BR",
        "url": "https://www.163.com/dy/article/IMOKURTD054057BR.html"
    },
    {
        "title": "市民：建议白沙洲引进万象城大型商业",
        "docid": "IN5QFQQG0545PEDS",
        "url": "https://www.163.com/dy/article/IN5QFQQG0545PEDS.html"
    },
    {
        "title": "男子仅有10万, 冲动购191万房子, 每月还房贷7000多元, 后悔莫及",
        "docid": "IMQ4VK6A05534CRD",
        "url": "https://www.163.com/dy/article/IMQ4VK6A05534CRD.html"
    },
    {
        "title": "196平方正大户型，极有品味！",
        "docid": "IMOJS1J50540KYB8",
        "url": "https://www.163.com/dy/article/IMOJS1J50540KYB8.html"
    },
    {
        "title": "中经智库┃政府平台公司如何盘活手中的存量土地",
        "docid": "IN4UANF90552ZQMM",
        "url": "https://www.163.com/dy/article/IN4UANF90552ZQMM.html"
    },
    {
        "title": "央行释放新信号！2024年可以放心买房了？懂行：不妨看看3句忠告",
        "docid": "VGM7PQTRH",
        "url": "https://www.163.com/dy/article/VGM7PQTRH.html"
    },
    {
        "title": "世界“最瘦”房子，仅2米宽却卖出890万天价，比地铁还要窄！",
        "docid": "VNLPM8NLG",
        "url": "https://www.163.com/dy/article/VNLPM8NLG.html"
    },
    {
        "title": "大量房子卖不出去，想找穷人来接盘！穷人买房三点忠告",
        "docid": "VMM4M30CB",
        "url": "https://www.163.com/dy/article/VMM4M30CB.html"
    },
    {
        "title": "省直屏西拆迁，据说以后的价格5万起步",
        "docid": "VDLVUN45D",
        "url": "https://www.163.com/dy/article/VDLVUN45D.html"
    },
    {
        "title": "大家要做好准备，不出意外的话，再过俩月，楼市或将迎来3大转变",
        "docid": "VCM7C1OA1",
        "url": "https://www.163.com/dy/article/VCM7C1OA1.html"
    },
    {
        "title": "老婆，你觉得我老家的房子有必要修修补补吗？",
        "docid": "VALAOF60T",
        "url": "https://www.163.com/dy/article/VALAOF60T.html"
    },
    {
        "title": "东北最大城市法拍房烂大街，房贷不还了，孩子也不要了！",
        "docid": "VCLP2JPN5",
        "url": "https://www.163.com/dy/article/VCLP2JPN5.html"
    },
    {
        "title": "简约时尚二层现代风别墅，5室3厅2卫，布局舒适实用，有全套图纸",
        "docid": "VBM595UQ0",
        "url": "https://www.163.com/dy/article/VBM595UQ0.html"
    },
    {
        "title": "房子被法拍到底有多可怕？还好当年我果断，躲过一劫",
        "docid": "VVM511PF8",
        "url": "https://www.163.com/dy/article/VVM511PF8.html"
    },
    {
        "title": "向太宣布出售位于澳门名为“TiffanyHouse”的豪宅 耗时十年建成",
        "docid": "VUM6GH5ND",
        "url": "https://www.163.com/dy/article/VUM6GH5ND.html"
    },
    {
        "title": "明年入市！老黄埔，杀出新一哥？",
        "docid": "IN54188Q0553TB9L",
        "url": "https://www.163.com/dy/article/IN54188Q0553TB9L.html"
    },
    {
        "title": "给新房上了把特殊的「锁」，她说这是花小钱保大钱！",
        "docid": "IN5AG8Q70553TEV3",
        "url": "https://www.163.com/dy/article/IN5AG8Q70553TEV3.html"
    },
    {
        "title": "60m²现代奶油风大客厅，绿意盎然的儒雅书房，重庆楼市回归理性",
        "docid": "VBM7RH6UN",
        "url": "https://www.163.com/dy/article/VBM7RH6UN.html"
    },
    {
        "title": "2年前买的房子把我套牢了，到了现场心如刀割，房子还是钢筋水泥",
        "docid": "VGM7QJF9Q",
        "url": "https://www.163.com/dy/article/VGM7QJF9Q.html"
    },
    {
        "title": "普通人、白领和富豪都在卖房，但买房的人呢？卖房又为了什么？",
        "docid": "VJM50HIUK",
        "url": "https://www.163.com/dy/article/VJM50HIUK.html"
    },
    {
        "title": "出乎预料，暴雷房企不仅工资正常，还有不菲年终奖",
        "docid": "VAM1OC4D8",
        "url": "https://www.163.com/dy/article/VAM1OC4D8.html"
    },
    {
        "title": "很多业主都担心会跌，提前开始抛了！此地水分很大很大！",
        "docid": "VWM6TFHTC",
        "url": "https://www.163.com/dy/article/VWM6TFHTC.html"
    },
    {
        "title": "省吃俭用提前还了20万房贷，由于选择的还款方式不对又掉坑里了！",
        "docid": "VCLNB1RKF",
        "url": "https://www.163.com/dy/article/VCLNB1RKF.html"
    },
    {
        "title": "600万房子卖280万都没人要，半年都没还房贷了，怎么办？",
        "docid": "VGM7U8CTR",
        "url": "https://www.163.com/dy/article/VGM7U8CTR.html"
    },
    {
        "title": "专家建议国家拿出30万亿回购房产！全国城市房价排行榜，68城过万",
        "docid": "VQM6C4K5I",
        "url": "https://www.163.com/dy/article/VQM6C4K5I.html"
    },
    {
        "title": "有房赶紧卖了吧，追求一种全新的生活方式！",
        "docid": "VBM7VR93V",
        "url": "https://www.163.com/dy/article/VBM7VR93V.html"
    },
    {
        "title": "这样的西边户楼层被谁选了？真是太“幸运”了，冬天1小时的阳光",
        "docid": "VBM731EQ4",
        "url": "https://www.163.com/dy/article/VBM731EQ4.html"
    },
    {
        "title": "看了两年房总算要买，去年没买今年直接省20万，却发生啥事很无奈",
        "docid": "VGM809LRV",
        "url": "https://www.163.com/dy/article/VGM809LRV.html"
    },
    {
        "title": "只有这12个城市才能买房，国家早已经明确就告诉你了呀",
        "docid": "VGM5ITF86",
        "url": "https://www.163.com/dy/article/VGM5ITF86.html"
    },
    {
        "title": "这套房子外观设计的有点意思，室内装修更是让人惊叹不已",
        "docid": "VWLNM4PSH",
        "url": "https://www.163.com/dy/article/VWLNM4PSH.html"
    },
    {
        "title": "资产价格大幅缩水，现金何去何从？",
        "docid": "VUM2UCL81",
        "url": "https://www.163.com/dy/article/VUM2UCL81.html"
    },
    {
        "title": "农村一层小别墅，不怕再爬楼梯，很适合老人家居住",
        "docid": "VBM73CVE4",
        "url": "https://www.163.com/dy/article/VBM73CVE4.html"
    },
    {
        "title": "房地产大逃亡！巨量房产无人问津！",
        "docid": "VWM2S2TAF",
        "url": "https://www.163.com/dy/article/VWM2S2TAF.html"
    },
    {
        "title": "2023年房地产行业终于熬过最寒冷的冬天。2024年将迎来发展机遇。",
        "docid": "IN5KUJ4V0534M7IC",
        "url": "https://www.163.com/dy/article/IN5KUJ4V0534M7IC.html"
    },
    {
        "title": "向太宣布出售耗时十年建成豪宅！为何说豪宅投资从来不坑穷人？",
        "docid": "VCM7PPMHI",
        "url": "https://www.163.com/dy/article/VCM7PPMHI.html"
    },
    {
        "title": "30年房贷就是纸老虎，钱贬值速度更可怕",
        "docid": "VGLPKOU50",
        "url": "https://www.163.com/dy/article/VGLPKOU50.html"
    },
    {
        "title": "九层烂尾楼当初造价二千万现在如今二百万都没人要，地皮也不值钱",
        "docid": "VCM0CLCHJ",
        "url": "https://www.163.com/dy/article/VCM0CLCHJ.html"
    },
    {
        "title": "三代同堂的大花园别墅 棕榈泉花园365平 全南户型套房",
        "docid": "VELNBO8I5",
        "url": "https://www.163.com/dy/article/VELNBO8I5.html"
    },
    {
        "title": "二楼三室一厅115平方，家具家电齐全有车库，只要26w你说值吗？",
        "docid": "VYM826K3B",
        "url": "https://www.163.com/dy/article/VYM826K3B.html"
    },
    {
        "title": "这样的户型算好户型吗？2个缺点“赫然存在”！天然缺陷只能适应",
        "docid": "VBLNVVB96",
        "url": "https://www.163.com/dy/article/VBLNVVB96.html"
    },
    {
        "title": "消除乡村户籍，让农民大胆买房，这逻辑绝了！",
        "docid": "VCM27A80H",
        "url": "https://www.163.com/dy/article/VCM27A80H.html"
    },
    {
        "title": "宏宇陶瓷星链计划-轻奢之上星耀豪宅 感受??看法??星主播怎么说",
        "docid": "VFM3V0JAV",
        "url": "https://www.163.com/dy/article/VFM3V0JAV.html"
    },
    {
        "title": "2880万苏州精装修中式园林别墅，占地1.5亩，拎包入住",
        "docid": "VZM7G26J3",
        "url": "https://www.163.com/dy/article/VZM7G26J3.html"
    },
    {
        "title": "【温视频】德信新希望江屿云庄丨重塑瓯北人居奢宅新坐标",
        "docid": "VLM4G5C58",
        "url": "https://www.163.com/dy/article/VLM4G5C58.html"
    },
    {
        "title": "今明两年，无论楼市怎么变，买这4种房产都不会贬值",
        "docid": "VTM4QQDGA",
        "url": "https://www.163.com/dy/article/VTM4QQDGA.html"
    },
    {
        "title": "能够替代房地产的支柱行业，目前尚未出现",
        "docid": "VLM6O9VGJ",
        "url": "https://www.163.com/dy/article/VLM6O9VGJ.html"
    },
    {
        "title": "六个步骤教你简单申请公租房，还不知道的赶紧进来看看吧！",
        "docid": "VPLMU8D67",
        "url": "https://www.163.com/dy/article/VPLMU8D67.html"
    },
    {
        "title": "五家渠的房子，君豪反水了",
        "docid": "VIM63UBEE",
        "url": "https://www.163.com/dy/article/VIM63UBEE.html"
    },
    {
        "title": "员工手一抖 让老板多花500万！杭州土拍出现离奇一幕",
        "docid": "VTM7ABH0L",
        "url": "https://www.163.com/dy/article/VTM7ABH0L.html"
    },
    {
        "title": "一层楼的自建房，可比城市里32层的高楼，住的舒服",
        "docid": "VRLQGB8DB",
        "url": "https://www.163.com/dy/article/VRLQGB8DB.html"
    },
    {
        "title": "日本东京房价暴涨，失去30年回来了，中国房地产终将暴涨？",
        "docid": "VVM50FRTF",
        "url": "https://www.163.com/dy/article/VVM50FRTF.html"
    },
    {
        "title": "买的房子被地震“摧毁”，欠银行的钱还要还吗？答案让人难以接受",
        "docid": "IMOPJKU305565U4O",
        "url": "https://www.163.com/dy/article/IMOPJKU305565U4O.html"
    },
    {
        "title": "流金日志|七面锦旗，七次双向奔赴的大情小事",
        "docid": "IN35CSQ505566IZ1",
        "url": "https://www.163.com/dy/article/IN35CSQ505566IZ1.html"
    },
    {
        "title": "太难了！被卖了十次的南城海雅百货，最终会花落谁家",
        "docid": "VELPVRVD3",
        "url": "https://www.163.com/dy/article/VELPVRVD3.html"
    },
    {
        "title": "60平超舒服的院子，放假哪都不想去",
        "docid": "VGM4C5DUJ",
        "url": "https://www.163.com/dy/article/VGM4C5DUJ.html"
    },
    {
        "title": "现在什么样的，房子最难卖！",
        "docid": "VLLOMS10Q",
        "url": "https://www.163.com/dy/article/VLLOMS10Q.html"
    },
    {
        "title": "当前房地产政策重点是什么？",
        "docid": "VSM7HPFSR",
        "url": "https://www.163.com/dy/article/VSM7HPFSR.html"
    },
    {
        "title": "不会选房别瞎选！选到不好的楼层，阳光遮挡严重，住着难受没精神",
        "docid": "VBLO289VT",
        "url": "https://www.163.com/dy/article/VBLO289VT.html"
    },
    {
        "title": "房价报复性下跌不是偶然，资本大逃亡，我们的房子卖给谁？",
        "docid": "VPM4GN2HN",
        "url": "https://www.163.com/dy/article/VPM4GN2HN.html"
    },
    {
        "title": "你会买安装了电梯的老房子吗？",
        "docid": "VGLSECKCR",
        "url": "https://www.163.com/dy/article/VGLSECKCR.html"
    },
    {
        "title": "房地产专家预测：美国房市明年会“逆转命运”",
        "docid": "IN642HGD0552JRS3",
        "url": "https://www.163.com/dy/article/IN642HGD0552JRS3.html"
    },
    {
        "title": "47㎡一镜到底 | 从老破小到小豪宅，他们家处处是宝藏！  原户型中只有一间卧室，难以满足四口人的居",
        "docid": "VYLQSA5B3",
        "url": "https://www.163.com/dy/article/VYLQSA5B3.html"
    },
    {
        "title": "780平大平层，买得起他的是有钱人，那租得起他的是什么人",
        "docid": "VYM81CAG6",
        "url": "https://www.163.com/dy/article/VYM81CAG6.html"
    },
    {
        "title": "2023年房价是现在的5倍，你相信吗？",
        "docid": "VGM22JJJ4",
        "url": "https://www.163.com/dy/article/VGM22JJJ4.html"
    },
    {
        "title": "拆迁的安置房到底能不能买？",
        "docid": "VFLVC272V",
        "url": "https://www.163.com/dy/article/VFLVC272V.html"
    },
    {
        "title": "买房请等一等：房价降一成少打几年工，房价降一半、少奋斗半辈子",
        "docid": "VJM6N3ICS",
        "url": "https://www.163.com/dy/article/VJM6N3ICS.html"
    },
    {
        "title": "90%以上的烂尾楼都是从封顶开始",
        "docid": "VELNRJ7K4",
        "url": "https://www.163.com/dy/article/VELNRJ7K4.html"
    },
    {
        "title": "海景房为什么跌得那么厉害，未来还能买吗？",
        "docid": "VAM2BS4IH",
        "url": "https://www.163.com/dy/article/VAM2BS4IH.html"
    },
    {
        "title": "用教育和医疗逼农民进城，让农民为房产泡沫买单",
        "docid": "VUM1VGS8Q",
        "url": "https://www.163.com/dy/article/VUM1VGS8Q.html"
    },
    {
        "title": "为什么90%以上的烂尾楼都是从封顶开始的",
        "docid": "VGLMR1N54",
        "url": "https://www.163.com/dy/article/VGLMR1N54.html"
    },
    {
        "title": "预制板楼的5大危害！不能全面拆除的4个原因！由衷的2点建议！",
        "docid": "VCM88OLSV",
        "url": "https://www.163.com/dy/article/VCM88OLSV.html"
    },
    {
        "title": "做抖音真的不需要花钱，短视频想火比你想象的要容易",
        "docid": "VGLOCFACU",
        "url": "https://www.163.com/dy/article/VGLOCFACU.html"
    },
    {
        "title": "12月底房子真的降价了，之前11000现在9000，公交50分钟到国贸！",
        "docid": "VWM2JP352",
        "url": "https://www.163.com/dy/article/VWM2JP352.html"
    },
    {
        "title": "融合咖啡厅、文化书吧、艺术品长廊、商品展览区、自助餐厅为一体",
        "docid": "VGM5LASQ0",
        "url": "https://www.163.com/dy/article/VGM5LASQ0.html"
    },
    {
        "title": "2024年起 我省住宅物业服务执行新标准",
        "docid": "VXM861ORH",
        "url": "https://www.163.com/dy/article/VXM861ORH.html"
    },
    {
        "title": "花600万在东莞买的房子，现在280万都没人要",
        "docid": "VWM7MFKF1",
        "url": "https://www.163.com/dy/article/VWM7MFKF1.html"
    },
    {
        "title": "1号10号哪个是楼王，这楼盘有没有楼王？",
        "docid": "VCM49V388",
        "url": "https://www.163.com/dy/article/VCM49V388.html"
    },
    {
        "title": "水泥大佬豪掷24.3亿拿下上海宝格丽酒店",
        "docid": "VWM6A3PKD",
        "url": "https://www.163.com/dy/article/VWM6A3PKD.html"
    },
    {
        "title": "鉴证城建交付力｜武汉城建·悦享湖璟盛大交付！",
        "docid": "IN69MCOH0545PEDS",
        "url": "https://www.163.com/dy/article/IN69MCOH0545PEDS.html"
    },
    {
        "title": "王健林继续出售万达广场，太仓万达广场转手中联基金，你怎么看？",
        "docid": "IN564HJD05566C1Z",
        "url": "https://www.163.com/dy/article/IN564HJD05566C1Z.html"
    },
    {
        "title": "男子只有10万元却准备买200万的房子?买下房子后后悔了",
        "docid": "IMUUKIB10556142K",
        "url": "https://www.163.com/dy/article/IMUUKIB10556142K.html"
    },
    {
        "title": "商品房陷阱39：前期物业服务合同对全体业主具有约束力",
        "docid": "IN6579830552QWCS",
        "url": "https://www.163.com/dy/article/IN6579830552QWCS.html"
    },
    {
        "title": "又要到还房贷的日子了，你有房贷的压力吗？",
        "docid": "IN2ULVDH05566AS4",
        "url": "https://www.163.com/dy/article/IN2ULVDH05566AS4.html"
    },
    {
        "title": "长三角地区探路前瞻性调控",
        "docid": "IN66KGAE05199NHJ",
        "url": "https://www.163.com/dy/article/IN66KGAE05199NHJ.html"
    },
    {
        "title": "600万房子280万没人要！从此世上又多了一位伤心人！",
        "docid": "VJM7S17NS",
        "url": "https://www.163.com/dy/article/VJM7S17NS.html"
    },
    {
        "title": "专家呼吁：不要让年轻人房屋继承？",
        "docid": "VLM81MB91",
        "url": "https://www.163.com/dy/article/VLM81MB91.html"
    },
    {
        "title": "房地产最新消息来咯！楼市迎来180度大反转",
        "docid": "VIM7SBS2A",
        "url": "https://www.163.com/dy/article/VIM7SBS2A.html"
    },
    {
        "title": "三层别墅主体完工了，还没做外墙就这么大气，越看越喜欢",
        "docid": "VBLPFKN5U",
        "url": "https://www.163.com/dy/article/VBLPFKN5U.html"
    },
    {
        "title": "6号楼能不能选？注意立向不同，选择不同",
        "docid": "VCLVFFQPB",
        "url": "https://www.163.com/dy/article/VCLVFFQPB.html"
    },
    {
        "title": "什刹海宜居小院，欢迎品鉴",
        "docid": "VRLTT5LGJ",
        "url": "https://www.163.com/dy/article/VRLTT5LGJ.html"
    },
    {
        "title": "当下楼市的真实现状，你真的了解么？",
        "docid": "VWLPBSUFK",
        "url": "https://www.163.com/dy/article/VWLPBSUFK.html"
    },
    {
        "title": "男子仅有10万元，买下191万元房子后悔！工资5000多，月供7000多",
        "docid": "VCM2663OU",
        "url": "https://www.163.com/dy/article/VCM2663OU.html"
    },
    {
        "title": "物业每年请人帮业主擦窗户，网友：这么做了你会不交物业费吗？",
        "docid": "VHM7HFAC9",
        "url": "https://www.163.com/dy/article/VHM7HFAC9.html"
    },
    {
        "title": "温铁军谈农民进城买房，资本逼迫他们离开农村，为房地产泡沫买单",
        "docid": "VUM1R3626",
        "url": "https://www.163.com/dy/article/VUM1R3626.html"
    },
    {
        "title": "宏宇陶瓷星链计划-轻奢之上星耀豪宅 宏宇陶瓷的5个破圈关键在哪?",
        "docid": "VFM3VETT4",
        "url": "https://www.163.com/dy/article/VFM3VETT4.html"
    },
    {
        "title": "农村里的钉子户，拒绝300w的赔偿，不签字就是钉子户吗？",
        "docid": "VBM2765D0",
        "url": "https://www.163.com/dy/article/VBM2765D0.html"
    },
    {
        "title": "首套利率最低3.6%？最快1月执行！佛山10银行回应！",
        "docid": "IN54KE180515U01J",
        "url": "https://www.163.com/dy/article/IN54KE180515U01J.html"
    },
    {
        "title": "如果你家阳台外高楼林立怎么处理？",
        "docid": "VYLNGKQKK",
        "url": "https://www.163.com/dy/article/VYLNGKQKK.html"
    },
    {
        "title": "请问：如果房价跌回十年前，你会买吗？",
        "docid": "VCM191UA6",
        "url": "https://www.163.com/dy/article/VCM191UA6.html"
    },
    {
        "title": "年底了，应该买房还是卖房",
        "docid": "VCM5J8I55",
        "url": "https://www.163.com/dy/article/VCM5J8I55.html"
    },
    {
        "title": "搬家入宅黄道吉日1月乔迁新居最旺日子，2024搬新家最佳时间一览",
        "docid": "VCM89S4I0",
        "url": "https://www.163.com/dy/article/VCM89S4I0.html"
    },
    {
        "title": "楼市恐慌性抛售正在发生",
        "docid": "VWM7JRBV3",
        "url": "https://www.163.com/dy/article/VWM7JRBV3.html"
    },
    {
        "title": "文艺范小小花园，270万装修的简约欧式，地下室的中式茶台最亮眼",
        "docid": "VBM7MBLNS",
        "url": "https://www.163.com/dy/article/VBM7MBLNS.html"
    },
    {
        "title": "一个敢说真话的房产人 大连",
        "docid": "VEM6KNSAN",
        "url": "https://www.163.com/dy/article/VEM6KNSAN.html"
    },
    {
        "title": "2023年10大房地产专家言论",
        "docid": "VAM7KMKH7",
        "url": "https://www.163.com/dy/article/VAM7KMKH7.html"
    },
    {
        "title": "聪明人买房都会选西户，你知道为什么吗？",
        "docid": "VZM1ER7CN",
        "url": "https://www.163.com/dy/article/VZM1ER7CN.html"
    },
    {
        "title": "169m²大平层只做三房？老户型该何去何从？300 万一线江景平层",
        "docid": "VZLRGBE74",
        "url": "https://www.163.com/dy/article/VZLRGBE74.html"
    },
    {
        "title": "怪不得中国人现在都不买房了！看完后房奴们都哭了，真是太现实了",
        "docid": "VGLR8EA01",
        "url": "https://www.163.com/dy/article/VGLR8EA01.html"
    },
    {
        "title": "户口即将合并，这三件事抓紧去做",
        "docid": "VIM73LJJG",
        "url": "https://www.163.com/dy/article/VIM73LJJG.html"
    },
    {
        "title": "烂尾楼的业主，真的是太阴了！",
        "docid": "VGM1PIMG7",
        "url": "https://www.163.com/dy/article/VGM1PIMG7.html"
    },
    {
        "title": "为什么大家热衷于买房？未来楼市情况怎么样？ ",
        "docid": "VGM83GHFE",
        "url": "https://www.163.com/dy/article/VGM83GHFE.html"
    },
    {
        "title": "环京楼盘房子哪里值得买/环京买房哪个区域最值得入手",
        "docid": "VWLR5J0VG",
        "url": "https://www.163.com/dy/article/VWLR5J0VG.html"
    },
    {
        "title": "听说马上要严查农村户口了",
        "docid": "VYM7S9VB8",
        "url": "https://www.163.com/dy/article/VYM7S9VB8.html"
    },
    {
        "title": "未来5年，多大面积的房子更值钱？王健林13字点明",
        "docid": "VTLVM1I86",
        "url": "https://www.163.com/dy/article/VTLVM1I86.html"
    },
    {
        "title": "房地产进入新阶段 房企整装再出发",
        "docid": "IN66KHB805199NHJ",
        "url": "https://www.163.com/dy/article/IN66KHB805199NHJ.html"
    },
    {
        "title": "婆婆当初不顾家里反对，借钱买的180平房子，现在值多少后悔吗？",
        "docid": "VQM8GRJC0",
        "url": "https://www.163.com/dy/article/VQM8GRJC0.html"
    },
    {
        "title": "小县城的房子为什么没有下跌",
        "docid": "VCLN4INH0",
        "url": "https://www.163.com/dy/article/VCLN4INH0.html"
    },
    {
        "title": "石家庄一个主打小户型别墅的小区!190万左右起一套，还是集中供热!家家带院子送露台!空气和环境真是适",
        "docid": "VGM5ILVFP",
        "url": "https://www.163.com/dy/article/VGM5ILVFP.html"
    },
    {
        "title": "为什么建议各位赶紧卖掉房子，这是我听过最标准的答案！真敢讲",
        "docid": "VWM8GPV06",
        "url": "https://www.163.com/dy/article/VWM8GPV06.html"
    },
    {
        "title": "2023“大势已去”，2024才是楼市的变局之年",
        "docid": "VCM7CGM3R",
        "url": "https://www.163.com/dy/article/VCM7CGM3R.html"
    },
    {
        "title": "房价暴涨要的是你的钱，房价暴跌要的是你的命！",
        "docid": "VWLN06CO3",
        "url": "https://www.163.com/dy/article/VWLN06CO3.html"
    },
    {
        "title": "阿姨炫耀儿子厉害，买400万的房子，如今房贷还不起，有苦说不出",
        "docid": "VWM66GN6M",
        "url": "https://www.163.com/dy/article/VWM66GN6M.html"
    },
    {
        "title": "新年将至，部分存量贷款即将迎来重新定价。据了解，对于每年1月1日作为“重定价日”且在6月20日前定价",
        "docid": "VCM22B9U8",
        "url": "https://www.163.com/dy/article/VCM22B9U8.html"
    },
    {
        "title": "城市火爆楼盘，如今成了“鬼蜮”小区，到底发生了什么？",
        "docid": "IN6IVIMF05561J3R",
        "url": "https://www.163.com/dy/article/IN6IVIMF05561J3R.html"
    },
    {
        "title": "我手握3套房，却完全卖不掉",
        "docid": "IN64ES62055615IC",
        "url": "https://www.163.com/dy/article/IN64ES62055615IC.html"
    },
    {
        "title": "建投·臻府 | 12月27日，首期7",
        "docid": "IN6G4G9A0556123R",
        "url": "https://www.163.com/dy/article/IN6G4G9A0556123R.html"
    },
    {
        "title": "到2035年房价估计是现在的4-5倍",
        "docid": "VCM7RRRBP",
        "url": "https://www.163.com/dy/article/VCM7RRRBP.html"
    },
    {
        "title": "买到这样的户型，后期装修须要大改动！户型布局有问题，不改难住",
        "docid": "VBM53V4CA",
        "url": "https://www.163.com/dy/article/VBM53V4CA.html"
    },
    {
        "title": "房价暴跌，1,000,000的房子，现在150,000一套",
        "docid": "VWM72ADOB",
        "url": "https://www.163.com/dy/article/VWM72ADOB.html"
    },
    {
        "title": "豪宅入住率，为什么很低？",
        "docid": "VLLTJDAK6",
        "url": "https://www.163.com/dy/article/VLLTJDAK6.html"
    },
    {
        "title": "银行贷款2.8，2023年底卖房逃跑",
        "docid": "VQM76AH6C",
        "url": "https://www.163.com/dy/article/VQM76AH6C.html"
    },
    {
        "title": "农村建一栋这样的二层中式小别墅就不错，实用好看",
        "docid": "VDM5ILNQO",
        "url": "https://www.163.com/dy/article/VDM5ILNQO.html"
    },
    {
        "title": "为何越来越多的人搬离“1梯2户”？住户透露了6个缺点，太现实了",
        "docid": "IMNEO3350553SQD3",
        "url": "https://www.163.com/dy/article/IMNEO3350553SQD3.html"
    },
    {
        "title": "唱衰房地产是大忽悠，房价大跌是大骗局，房价还在稳步上涨！",
        "docid": "IN6BA3G00535MP84",
        "url": "https://www.163.com/dy/article/IN6BA3G00535MP84.html"
    },
    {
        "title": "逛街无聊买了房子！老婆竟默许了？！",
        "docid": "IN6JAPF9055627OU",
        "url": "https://www.163.com/dy/article/IN6JAPF9055627OU.html"
    },
    {
        "title": "2023年全国土拍市场“变局”与“定局”",
        "docid": "IN6L7A850553TEQM",
        "url": "https://www.163.com/dy/article/IN6L7A850553TEQM.html"
    },
    {
        "title": "198平米的漂亮户型，值得欣赏",
        "docid": "IN6B63IS0552QWCS",
        "url": "https://www.163.com/dy/article/IN6B63IS0552QWCS.html"
    },
    {
        "title": "风水不好穷三代？这些房子不能碰？你信吗",
        "docid": "IN6AIHL70535MP84",
        "url": "https://www.163.com/dy/article/IN6AIHL70535MP84.html"
    },
    {
        "title": "上万人弃城而去，碧桂园留下大量空房，半价出售无人问津！",
        "docid": "VCM8GV3PQ",
        "url": "https://www.163.com/dy/article/VCM8GV3PQ.html"
    },
    {
        "title": "向太宣布将出售耗时十年建成豪宅，一栋与向太同名的澳门豪宅 12月28日，向太陈岚发文宣布，2024年",
        "docid": "VLM6M4360",
        "url": "https://www.163.com/dy/article/VLM6M4360.html"
    },
    {
        "title": "物业的权，还是家属的情？老人房改宿舍引争议！",
        "docid": "VTLOPT9VA",
        "url": "https://www.163.com/dy/article/VTLOPT9VA.html"
    },
    {
        "title": "期房购买注意事项，避免后悔与不满！",
        "docid": "IN6J0HA205561J3R",
        "url": "https://www.163.com/dy/article/IN6J0HA205561J3R.html"
    },
    {
        "title": "如今，农村也在进行不动产登记确权，房产证怎么办理？去哪里办？",
        "docid": "IN6LA39E0556123R",
        "url": "https://www.163.com/dy/article/IN6LA39E0556123R.html"
    },
    {
        "title": "300平米漂亮大平层，自带八角窗",
        "docid": "IMPGALB70552QWCE",
        "url": "https://www.163.com/dy/article/IMPGALB70552QWCE.html"
    },
    {
        "title": "买房故事：为了15000元的购房款，居然难倒了一个洛阳小伙！",
        "docid": "IMPLR5IA0525A5GL",
        "url": "https://www.163.com/dy/article/IMPLR5IA0525A5GL.html"
    },
    {
        "title": "“失去”房地产的中国经济会怎样？",
        "docid": "IMPEP3650535KYBT",
        "url": "https://www.163.com/dy/article/IMPEP3650535KYBT.html"
    },
    {
        "title": "房价下跌80万，业主怒砸售楼部",
        "docid": "VJM7K5DQE",
        "url": "https://www.163.com/dy/article/VJM7K5DQE.html"
    },
    {
        "title": "农村自建房楼板做多厚多厚合适？沈阳农村建房攻略 北方别墅建房",
        "docid": "VCM8RVE00",
        "url": "https://www.163.com/dy/article/VCM8RVE00.html"
    },
    {
        "title": "看完这个视频，你们买房会省下好几万 都是干货",
        "docid": "VZLOD52BE",
        "url": "https://www.163.com/dy/article/VZLOD52BE.html"
    },
    {
        "title": "印度首富的豪宅，无限加层",
        "docid": "VCM8LE09L",
        "url": "https://www.163.com/dy/article/VCM8LE09L.html"
    },
    {
        "title": "我，15年承包120间房做公寓，当年就巨亏100万！如今年入150万。",
        "docid": "IMPGDOND0552QWCE",
        "url": "https://www.163.com/dy/article/IMPGDOND0552QWCE.html"
    },
    {
        "title": "女子185万买江景房完全看不到江",
        "docid": "IN6N0VID055628N9",
        "url": "https://www.163.com/dy/article/IN6N0VID055628N9.html"
    },
    {
        "title": "这款239平米的户型，大多数人都会心动的",
        "docid": "IN6B4TNU0535LAX2",
        "url": "https://www.163.com/dy/article/IN6B4TNU0535LAX2.html"
    },
    {
        "title": "祥顺课堂|农业用地可以享受城镇土地使用税税收优惠政策吗？",
        "docid": "IN6OEVJN0519S9C9",
        "url": "https://www.163.com/dy/article/IN6OEVJN0519S9C9.html"
    },
    {
        "title": "小红书卖房，龙湖、万科拿到结果了",
        "docid": "IN6MTHCD05158B67",
        "url": "https://www.163.com/dy/article/IN6MTHCD05158B67.html"
    },
    {
        "title": "今天10点25：著名演员刘晓庆在北京的豪宅，发现一怪事，啥情况？",
        "docid": "VZLRPCTIG",
        "url": "https://www.163.com/dy/article/VZLRPCTIG.html"
    },
    {
        "title": "楼市上涨 会有两大前兆",
        "docid": "VKM7SJ758",
        "url": "https://www.163.com/dy/article/VKM7SJ758.html"
    },
    {
        "title": "上海北京开始出现洗房，很多父母都\n慌了！不少家庭都受影响",
        "docid": "VMM4RTEFL",
        "url": "https://www.163.com/dy/article/VMM4RTEFL.html"
    },
    {
        "title": "北三县最新房价！结果有点儿出乎意料",
        "docid": "VCM7N175S",
        "url": "https://www.163.com/dy/article/VCM7N175S.html"
    },
    {
        "title": "国家要“动真格”了?催买房无效后，智囊又提出了1个“新方案”",
        "docid": "IN6BAASI0552CPHG",
        "url": "https://www.163.com/dy/article/IN6BAASI0552CPHG.html"
    },
    {
        "title": "260平方适合三代同堂的完美大宅户型",
        "docid": "IN6C4TPE0535KYBT",
        "url": "https://www.163.com/dy/article/IN6C4TPE0535KYBT.html"
    },
    {
        "title": "购房者一味等低价，能等到什么？开发商一味降价不好用了！",
        "docid": "IN6OF0L20535J6J8",
        "url": "https://www.163.com/dy/article/IN6OF0L20535J6J8.html"
    },
    {
        "title": "国家动真格了，楼市大局已定，内行人：建议普通人要做好两个准备",
        "docid": "IMKMAQOI0553SQD3",
        "url": "https://www.163.com/dy/article/IMKMAQOI0553SQD3.html"
    },
    {
        "title": "代建的短板，暴露出来了",
        "docid": "IMPNT02Q05158B67",
        "url": "https://www.163.com/dy/article/IMPNT02Q05158B67.html"
    },
    {
        "title": "聪明人开始布局旧小区，你还在买高层住宅？听听聪明人如何说",
        "docid": "VWM8LHLLD",
        "url": "https://www.163.com/dy/article/VWM8LHLLD.html"
    },
    {
        "title": "“10万买191万房”的疯狂与后悔：购房需冷静",
        "docid": "VWLRQVHK3",
        "url": "https://www.163.com/dy/article/VWLRQVHK3.html"
    },
    {
        "title": "土地过度集中是否有利于国家粮食安全",
        "docid": "VYM6OL7M5",
        "url": "https://www.163.com/dy/article/VYM6OL7M5.html"
    },
    {
        "title": "第一次买房啥也不懂，冲销售说这个户型最好，入住以后才知道，采光太差了",
        "docid": "VCLRVFO27",
        "url": "https://www.163.com/dy/article/VCLRVFO27.html"
    },
    {
        "title": "为啥有人专挑带4的楼层买",
        "docid": "VFM1U9DEC",
        "url": "https://www.163.com/dy/article/VFM1U9DEC.html"
    },
    {
        "title": "再有钱，也千万别买大房子！法律名嘴：20年前买了，现在后悔得睡不着",
        "docid": "VWLRN9UEF",
        "url": "https://www.163.com/dy/article/VWLRN9UEF.html"
    },
    {
        "title": "你见过最高的独栋是多少层",
        "docid": "VKM91FT76",
        "url": "https://www.163.com/dy/article/VKM91FT76.html"
    },
    {
        "title": "恒大在美国一千多亿美元外债到期，却暴露了烂尾楼的银行真面目",
        "docid": "VSM8026TL",
        "url": "https://www.163.com/dy/article/VSM8026TL.html"
    },
    {
        "title": "91号图纸建成的四合院，看下效果怎么样 ",
        "docid": "VBM774VCG",
        "url": "https://www.163.com/dy/article/VBM774VCG.html"
    },
    {
        "title": "武汉这五个地方，买了就是活生生的踩坑！",
        "docid": "VWLRRVK5K",
        "url": "https://www.163.com/dy/article/VWLRRVK5K.html"
    },
    {
        "title": "这种人现在是不是真的很多？",
        "docid": "VWLQNTNLJ",
        "url": "https://www.163.com/dy/article/VWLQNTNLJ.html"
    },
    {
        "title": "2023年没买房的6个好消息",
        "docid": "VFM1U9ARG",
        "url": "https://www.163.com/dy/article/VFM1U9ARG.html"
    },
    {
        "title": "保障房价格多少合理？建设资金从哪儿来？",
        "docid": "VWM87O0NU",
        "url": "https://www.163.com/dy/article/VWM87O0NU.html"
    },
    {
        "title": "320平米三梯一户的轻奢大平层，超爱的一款“精致大宅”",
        "docid": "IMPGA2L40535MP84",
        "url": "https://www.163.com/dy/article/IMPGA2L40535MP84.html"
    },
    {
        "title": "震惊！当今楼市下，90平三房居然是最好卖的户型？",
        "docid": "IN6SGP21055622A5",
        "url": "https://www.163.com/dy/article/IN6SGP21055622A5.html"
    },
    {
        "title": "这应该是比较完美的四室户型了，值得欣赏",
        "docid": "IN6C861M0535MP84",
        "url": "https://www.163.com/dy/article/IN6C861M0535MP84.html"
    },
    {
        "title": "随着国际学生的大量涌入，他们也面临着新加坡住房难和教育挑战！",
        "docid": "IMOGVFLT05566936",
        "url": "https://www.163.com/dy/article/IMOGVFLT05566936.html"
    },
    {
        "title": "华发地产：这几年的区域与城市合并",
        "docid": "IMPSRRDM05566IIT",
        "url": "https://www.163.com/dy/article/IMPSRRDM05566IIT.html"
    },
    {
        "title": "一楼业主不用电梯物业也要向他们交电梯费，合理吗？",
        "docid": "VTM80U5SS",
        "url": "https://www.163.com/dy/article/VTM80U5SS.html"
    },
    {
        "title": "买房合同上一定要加上这句话",
        "docid": "VFM1U9BMH",
        "url": "https://www.163.com/dy/article/VFM1U9BMH.html"
    },
    {
        "title": "河北哪个县城房子最便宜？2023最新河北各县房价排行榜，5个破万",
        "docid": "VQM226QO4",
        "url": "https://www.163.com/dy/article/VQM226QO4.html"
    },
    {
        "title": "买不起房已经不算啥，更烦恼的困境已在各大城市出现，看看咋回事",
        "docid": "VCLRN7PMD",
        "url": "https://www.163.com/dy/article/VCLRN7PMD.html"
    },
    {
        "title": "开日租房让我认清了男人",
        "docid": "IN6PH13A0552QWCE",
        "url": "https://www.163.com/dy/article/IN6PH13A0552QWCE.html"
    },
    {
        "title": "恭喜！购房者的月供，又要降了！",
        "docid": "IN6P30HQ0535KAWB",
        "url": "https://www.163.com/dy/article/IN6P30HQ0535KAWB.html"
    },
    {
        "title": "攒下第一笔安家费后，拥有一套动漫里的独栋房，会是多少人的梦想？",
        "docid": "IN6SFFA705359JWY",
        "url": "https://www.163.com/dy/article/IN6SFFA705359JWY.html"
    },
    {
        "title": "美国商业地产雷声不断！抵押贷款REIT公司JER申请破产",
        "docid": "IN6QAPHC05198UNI",
        "url": "https://www.163.com/dy/article/IN6QAPHC05198UNI.html"
    },
    {
        "title": "华发地产：外聘中高层经理人全集",
        "docid": "IMPSDGC305566IIT",
        "url": "https://www.163.com/dy/article/IMPSDGC305566IIT.html"
    },
    {
        "title": "花300万买的婚房，总高70层大楼的57层，却五味杂陈，肠子悔青",
        "docid": "VCM8NS5CE",
        "url": "https://www.163.com/dy/article/VCM8NS5CE.html"
    },
    {
        "title": "英国42万英镑3卧室的房子，花园大的可以踢足球",
        "docid": "VDM18BVF2",
        "url": "https://www.163.com/dy/article/VDM18BVF2.html"
    },
    {
        "title": "保障房是同片区房价的托底！",
        "docid": "VKLGCH23C",
        "url": "https://www.163.com/dy/article/VKLGCH23C.html"
    },
    {
        "title": "中国房地产每年精确销售数据",
        "docid": "VMM6NIJ69",
        "url": "https://www.163.com/dy/article/VMM6NIJ69.html"
    },
    {
        "title": "地产行业，为什么有人宁可高薪工作不要，也不愿意担任法人代表",
        "docid": "IN6V3DVQ0552I6MA",
        "url": "https://www.163.com/dy/article/IN6V3DVQ0552I6MA.html"
    },
    {
        "title": "后悔了！当初430w有人要买我别墅，我嫌低，现在400w也没人要",
        "docid": "VGLRQOJOV",
        "url": "https://www.163.com/dy/article/VGLRQOJOV.html"
    },
    {
        "title": "保利水木芳华，120万买81方南向三房",
        "docid": "VLM560HFS",
        "url": "https://www.163.com/dy/article/VLM560HFS.html"
    },
    {
        "title": "北部湾东路独栋别墅实地拍摄 高性价比好房 独门独院",
        "docid": "VGM7UTSQ0",
        "url": "https://www.163.com/dy/article/VGM7UTSQ0.html"
    },
    {
        "title": "国内最大的废弃别墅区，一百多栋，一栋价值两三千万，几十个亿在这里，太浪费了，为何无人敢住，给你一栋，",
        "docid": "VDM91D4R7",
        "url": "https://www.163.com/dy/article/VDM91D4R7.html"
    },
    {
        "title": "探索国内最大废弃商场，把商场设计改造成外星基地",
        "docid": "VJLR4P0O8",
        "url": "https://www.163.com/dy/article/VJLR4P0O8.html"
    },
    {
        "title": "高杠杆买房手里还有余粮吗？ 明年的房产形势会更加困难！",
        "docid": "VGM6K43U7",
        "url": "https://www.163.com/dy/article/VGM6K43U7.html"
    },
    {
        "title": "青岛远郊区，房价跌成，什么样了？蓝谷岭海为例",
        "docid": "VGM940EIT",
        "url": "https://www.163.com/dy/article/VGM940EIT.html"
    },
    {
        "title": "韩后创始人回应豪宅被法拍 起拍价7000万元以偿还个人债务",
        "docid": "VCM1J6GI0",
        "url": "https://www.163.com/dy/article/VCM1J6GI0.html"
    },
    {
        "title": "心中的理想家园，你喜欢农村自建房还是城市商品房？",
        "docid": "IMQ4BR96055668MM",
        "url": "https://www.163.com/dy/article/IMQ4BR96055668MM.html"
    },
    {
        "title": "承包或租赁期间国家征收土地，补偿款怎么分？",
        "docid": "IN7220E80532AYDR",
        "url": "https://www.163.com/dy/article/IN7220E80532AYDR.html"
    },
    {
        "title": "科学研究表明:租房子的人老得快，影响是失业的两倍",
        "docid": "IN6U6JPE0535LAX2",
        "url": "https://www.163.com/dy/article/IN6U6JPE0535LAX2.html"
    },
    {
        "title": "45岁突然失业,月供1.4万的房贷让人寝食难安",
        "docid": "IMQ3RJBD0553RRFF",
        "url": "https://www.163.com/dy/article/IMQ3RJBD0553RRFF.html"
    },
    {
        "title": "赖办称侯友宜太太炒地皮，唐湘龙怒斥：难道你希望财产贬值吗",
        "docid": "IN6O3CCL0542RI7Z",
        "url": "https://www.163.com/dy/article/IN6O3CCL0542RI7Z.html"
    },
    {
        "title": "中国第一批满70年的房子到期了",
        "docid": "VWM8V50RE",
        "url": "https://www.163.com/dy/article/VWM8V50RE.html"
    },
    {
        "title": "这么气派的自建房，还是让人羡慕的",
        "docid": "VDM830ILA",
        "url": "https://www.163.com/dy/article/VDM830ILA.html"
    },
    {
        "title": "马耳他超高性价比住宅小区究竟什么样？",
        "docid": "VULS3ATJ7",
        "url": "https://www.163.com/dy/article/VULS3ATJ7.html"
    },
    {
        "title": "选楼层的真相，售楼小姐悄悄告诉你",
        "docid": "VGLN9DOSQ",
        "url": "https://www.163.com/dy/article/VGLN9DOSQ.html"
    },
    {
        "title": "首开股份国风海岸｜成为了家人最惬意的生活场",
        "docid": "IMQ1AN9N0552RXIY",
        "url": "https://www.163.com/dy/article/IMQ1AN9N0552RXIY.html"
    },
    {
        "title": "上海楼市新政后的元旦假期，嘉定新城这个楼盘将迎大客流……",
        "docid": "IN5FODB70550A0OW",
        "url": "https://www.163.com/dy/article/IN5FODB70550A0OW.html"
    },
    {
        "title": "为什么住宅中房多人少不宜居住？郭极中告诉你原因。",
        "docid": "IMPREC1B055629IE",
        "url": "https://www.163.com/dy/article/IMPREC1B055629IE.html"
    },
    {
        "title": "比房价下跌更可怕的事情来了，一旦出现钱财两空，想想都觉得可怕",
        "docid": "VCLRSRHT7",
        "url": "https://www.163.com/dy/article/VCLRSRHT7.html"
    },
    {
        "title": "跌麻了，恐慌性抛售潮席卷全国",
        "docid": "VPM8UG1L7",
        "url": "https://www.163.com/dy/article/VPM8UG1L7.html"
    },
    {
        "title": "房价下跌70%的房子，你知道是哪里吗？",
        "docid": "VGLRNF1H5",
        "url": "https://www.163.com/dy/article/VGLRNF1H5.html"
    },
    {
        "title": "武汉88平别墅，还有这小的吗？",
        "docid": "VZLSA64GI",
        "url": "https://www.163.com/dy/article/VZLSA64GI.html"
    },
    {
        "title": "长春一小区老旧楼房意外成网红打卡点，即将拆迁，要去看的速度去",
        "docid": "VWM87MSAJ",
        "url": "https://www.163.com/dy/article/VWM87MSAJ.html"
    },
    {
        "title": "房子已经赔钱了为什么还要交增值税",
        "docid": "VIM7M53RO",
        "url": "https://www.163.com/dy/article/VIM7M53RO.html"
    },
    {
        "title": "日本的房价到底有没有触到天花板",
        "docid": "IN6VDCG60521RN24",
        "url": "https://www.163.com/dy/article/IN6VDCG60521RN24.html"
    },
    {
        "title": "最新消息！临沂这个项目，交付！",
        "docid": "IN4QSU770550E6NG",
        "url": "https://www.163.com/dy/article/IN4QSU770550E6NG.html"
    },
    {
        "title": "拆迁补偿新政！农村四类无证房屋也可获得全额补偿！",
        "docid": "IN754QJ90530ICNH",
        "url": "https://www.163.com/dy/article/IN754QJ90530ICNH.html"
    },
    {
        "title": "2024银行房贷展望|开发贷和按揭增量均有望修复 存量按揭利率下调仍使银行承压",
        "docid": "IN72K5JB05198CJN",
        "url": "https://www.163.com/dy/article/IN72K5JB05198CJN.html"
    },
    {
        "title": "生命在时光交替中前行，遇见另一个美好自己，金地环湾城",
        "docid": "IMQ1NGA305565TIT",
        "url": "https://www.163.com/dy/article/IMQ1NGA305565TIT.html"
    },
    {
        "title": "嫂夫人看了激动不已，太湖檀宫448平上下四层，环境优美",
        "docid": "VBM151ELB",
        "url": "https://www.163.com/dy/article/VBM151ELB.html"
    },
    {
        "title": "现实中，廉租房也都是配有厕所的吧？ 这是居住条件的基本底线",
        "docid": "VBLRPUSN3",
        "url": "https://www.163.com/dy/article/VBLRPUSN3.html"
    },
    {
        "title": "盖了一个多月终于停下来了，本来只为父母争口气，反被现实打败，现在什么都贵",
        "docid": "VGM9BC3QU",
        "url": "https://www.163.com/dy/article/VGM9BC3QU.html"
    },
    {
        "title": "为什么有钱人都买小户型的房子？",
        "docid": "VWLRVLM3Q",
        "url": "https://www.163.com/dy/article/VWLRVLM3Q.html"
    },
    {
        "title": "二手房陷阱31：共同共有的未成年人，未出资也享有一定比例的份额",
        "docid": "IN76HS610553RRD3",
        "url": "https://www.163.com/dy/article/IN76HS610553RRD3.html"
    },
    {
        "title": "2023年住房租赁行业政策盘点与分析",
        "docid": "IMVV7DGV05198R91",
        "url": "https://www.163.com/dy/article/IMVV7DGV05198R91.html"
    },
    {
        "title": "多数存量房贷利率明年1月将小幅下调",
        "docid": "VGM6ABNU1",
        "url": "https://www.163.com/dy/article/VGM6ABNU1.html"
    },
    {
        "title": "男子仅有10万，买下191万房子后悔，中国各省房价排行榜，9省破万",
        "docid": "VQLS24CPO",
        "url": "https://www.163.com/dy/article/VQLS24CPO.html"
    },
    {
        "title": "人家售楼员追着你买房，不料你一脚油门，看完我忍不住笑了！(2)",
        "docid": "VAM97433F",
        "url": "https://www.163.com/dy/article/VAM97433F.html"
    },
    {
        "title": "二套房贷利率也能省息了？",
        "docid": "VPM22ELA3",
        "url": "https://www.163.com/dy/article/VPM22ELA3.html"
    },
    {
        "title": "设计师访谈：存量房市场带来的新竞争",
        "docid": "VZM6HC2TG",
        "url": "https://www.163.com/dy/article/VZM6HC2TG.html"
    },
    {
        "title": "未来3–5年楼市变化预测:",
        "docid": "VMM20NUD6",
        "url": "https://www.163.com/dy/article/VMM20NUD6.html"
    },
    {
        "title": "许家印最终的结局都有哪些",
        "docid": "VYM4RTTEJ",
        "url": "https://www.163.com/dy/article/VYM4RTTEJ.html"
    },
    {
        "title": "商业办公综合体智能化弱电系统汇报方案",
        "docid": "IN74QF72055616WO",
        "url": "https://www.163.com/dy/article/IN74QF72055616WO.html"
    },
    {
        "title": "上万人离去，剩下大量楼房没人住，最低5万一套，依然无人问津！",
        "docid": "VWLRST34U",
        "url": "https://www.163.com/dy/article/VWLRST34U.html"
    },
    {
        "title": "一年可以收入几十万的房子，因为一个决定后悔莫及",
        "docid": "VGLO8ITB1",
        "url": "https://www.163.com/dy/article/VGLO8ITB1.html"
    },
    {
        "title": "带媳妇看一套200平米大平层，850万暴跌至700万，近期能否买房？",
        "docid": "VCLSGCN0K",
        "url": "https://www.163.com/dy/article/VCLSGCN0K.html"
    },
    {
        "title": "如果你的城市也有了以旧换新，你会不会接受？",
        "docid": "VFM31ES5M",
        "url": "https://www.163.com/dy/article/VFM31ES5M.html"
    },
    {
        "title": "老楼加装新电梯  居民享受“一键直达”的便利",
        "docid": "VOM31NBTH",
        "url": "https://www.163.com/dy/article/VOM31NBTH.html"
    },
    {
        "title": "房地产未来的五大趋势！",
        "docid": "VMM221T56",
        "url": "https://www.163.com/dy/article/VMM221T56.html"
    },
    {
        "title": "房型多元，精装入住，还提供24小时管家服务，这样的保障性租赁房太好了",
        "docid": "VLLVTE5SE",
        "url": "https://www.163.com/dy/article/VLLVTE5SE.html"
    },
    {
        "title": "你们评价房子的逻辑从根本上就错了！",
        "docid": "VOM1F172Q",
        "url": "https://www.163.com/dy/article/VOM1F172Q.html"
    },
    {
        "title": "高层与别墅混搭的小区, 为何再便宜也不能买! 过来人吐槽3大隐患",
        "docid": "IN79QO5E055322E3",
        "url": "https://www.163.com/dy/article/IN79QO5E055322E3.html"
    },
    {
        "title": "买了高层房子千万别得意，不注意这些问题，被人坑了都还不知道！",
        "docid": "IN4BC0S10540H6M7",
        "url": "https://www.163.com/dy/article/IN4BC0S10540H6M7.html"
    },
    {
        "title": "卖房人现在真的很难受····",
        "docid": "IMQ7PKRB0515UN97",
        "url": "https://www.163.com/dy/article/IMQ7PKRB0515UN97.html"
    },
    {
        "title": "房地产专家的一席话一针见血",
        "docid": "VWM9FHIUV",
        "url": "https://www.163.com/dy/article/VWM9FHIUV.html"
    },
    {
        "title": "2024年房价上涨已成定局",
        "docid": "VQM4ITFVA",
        "url": "https://www.163.com/dy/article/VQM4ITFVA.html"
    },
    {
        "title": "你知道，房价跌的最厉害的三座城市，在哪里吗？",
        "docid": "VHLNL3O2K",
        "url": "https://www.163.com/dy/article/VHLNL3O2K.html"
    },
    {
        "title": "恒大的好消息终于来了，部分烂尾楼已经开始动工了！",
        "docid": "VWM4KQBJP",
        "url": "https://www.163.com/dy/article/VWM4KQBJP.html"
    },
    {
        "title": "600万东莞买房想翻一翻，现在280万没人要，违约断供不知道怎么办",
        "docid": "VAM6M6SG5",
        "url": "https://www.163.com/dy/article/VAM6M6SG5.html"
    },
    {
        "title": "当方舱变身保租房：拎包入住，月租1200",
        "docid": "VKLUR8K90",
        "url": "https://www.163.com/dy/article/VKLUR8K90.html"
    },
    {
        "title": "2024年，这5类房子将遭到哄抢，至少升值40%，建议早做一些打算",
        "docid": "IN2ALSQ90540A6F8",
        "url": "https://www.163.com/dy/article/IN2ALSQ90540A6F8.html"
    },
    {
        "title": "买房的人后悔了吗？网友：已经亏了30多万了，焦虑得睡不着",
        "docid": "IMQ4PVSM05561LHW",
        "url": "https://www.163.com/dy/article/IMQ4PVSM05561LHW.html"
    },
    {
        "title": "专家建议国家拿出30万亿回购房产，房企债务交付问题全解决！",
        "docid": "IN7D4D8J0552YY4J",
        "url": "https://www.163.com/dy/article/IN7D4D8J0552YY4J.html"
    },
    {
        "title": "房子要涨价了还没有买房的赶紧去看房",
        "docid": "VQM5CSQ90",
        "url": "https://www.163.com/dy/article/VQM5CSQ90.html"
    },
    {
        "title": "200平藏式别墅啥装修？藏族姑娘展示细节，60万的房子现在值多少",
        "docid": "VWLQPCV5L",
        "url": "https://www.163.com/dy/article/VWLQPCV5L.html"
    },
    {
        "title": "是什么样的商圈？南城香居然也不是这条街上最靓的崽?",
        "docid": "VWM6FT7V1",
        "url": "https://www.163.com/dy/article/VWM6FT7V1.html"
    },
    {
        "title": "看看这样的两层楼房子怎么样？",
        "docid": "VSM6SIDT5",
        "url": "https://www.163.com/dy/article/VSM6SIDT5.html"
    },
    {
        "title": "自从住上230平的大平层，整个人都变了",
        "docid": "VSM3I0BOA",
        "url": "https://www.163.com/dy/article/VSM3I0BOA.html"
    },
    {
        "title": "马云预言成真：房子白菜价，但卖不出去",
        "docid": "VTLQH25IK",
        "url": "https://www.163.com/dy/article/VTLQH25IK.html"
    },
    {
        "title": "东四环 保利朝央和煦+人大附+央企，地铁200米",
        "docid": "IN704Q1M05563WHD",
        "url": "https://www.163.com/dy/article/IN704Q1M05563WHD.html"
    },
    {
        "title": "只有79户的豪宅有多绝！Ashton 41，264万买74平大两居，靠近地铁",
        "docid": "IN77AG1N0553TB8M",
        "url": "https://www.163.com/dy/article/IN77AG1N0553TB8M.html"
    },
    {
        "title": "2024澳洲房市，冰火两重天！",
        "docid": "IN7DTJ3P05199N88",
        "url": "https://www.163.com/dy/article/IN7DTJ3P05199N88.html"
    },
    {
        "title": "年底专家关于房地产的最新奇葩言论，到底有多么靠谱？",
        "docid": "IN77B9CF05565OJR",
        "url": "https://www.163.com/dy/article/IN77B9CF05565OJR.html"
    },
    {
        "title": "父母背着我买了房，50多岁还要背上房贷，也不知道是咋想的",
        "docid": "IN7A7F1805562G6U",
        "url": "https://www.163.com/dy/article/IN7A7F1805562G6U.html"
    },
    {
        "title": "2024展望｜中铁建物业党委书记邓秋生：2024年物企竞争会更激烈，行业估值预计会有一定抬升",
        "docid": "IN2HT5LQ0512B07B",
        "url": "https://www.163.com/dy/article/IN2HT5LQ0512B07B.html"
    },
    {
        "title": "看这个房子来猜一下，这是江苏哪里的民房？",
        "docid": "VGM9GD7HO",
        "url": "https://www.163.com/dy/article/VGM9GD7HO.html"
    },
    {
        "title": "二手房谈价，要往崩了谈",
        "docid": "VZM1P0LRM",
        "url": "https://www.163.com/dy/article/VZM1P0LRM.html"
    },
    {
        "title": "卖房子8年，这事颠覆我的三观",
        "docid": "VWM9DEA6V",
        "url": "https://www.163.com/dy/article/VWM9DEA6V.html"
    },
    {
        "title": "横店新城居民，要银行，要麦当劳、要商业体……",
        "docid": "IN7GAN0K0545ACCK",
        "url": "https://www.163.com/dy/article/IN7GAN0K0545ACCK.html"
    },
    {
        "title": "美国最贵的豪华别墅什么水平？占地面积2公顷，一个柱子30万美金",
        "docid": "IMTVT87C05565ANP",
        "url": "https://www.163.com/dy/article/IMTVT87C05565ANP.html"
    },
    {
        "title": "别上当了！每天1000元住酒店的8口之家没那么简单，资产背景被扒",
        "docid": "IN77TO5N055645ZN",
        "url": "https://www.163.com/dy/article/IN77TO5N055645ZN.html"
    },
    {
        "title": "我国这3座城市“留不住”人了：人均工资三四千，房价高达一两万",
        "docid": "IN79U3O30553TEV3",
        "url": "https://www.163.com/dy/article/IN79U3O30553TEV3.html"
    },
    {
        "title": "大局已定，从长远发展来看，大部分家庭可能会面对“3个”难题！",
        "docid": "IN7DL3I20553RRD3",
        "url": "https://www.163.com/dy/article/IN7DL3I20553RRD3.html"
    },
    {
        "title": "灵魂有一个可以停靠的港湾，能够自由随意释放，金地环湾城",
        "docid": "IMQ6I56105565TIT",
        "url": "https://www.163.com/dy/article/IMQ6I56105565TIT.html"
    },
    {
        "title": "到底还要不撑多久，一套房亏300万，炒房客都洗干净该涨了",
        "docid": "VEM9537C7",
        "url": "https://www.163.com/dy/article/VEM9537C7.html"
    },
    {
        "title": "模拟采光，大高层中下楼层采光真的不怎么样",
        "docid": "VZLO7J4B4",
        "url": "https://www.163.com/dy/article/VZLO7J4B4.html"
    },
    {
        "title": "商铺40年产权，期满后产权归谁？土地归谁？",
        "docid": "VULTNIO34",
        "url": "https://www.163.com/dy/article/VULTNIO34.html"
    },
    {
        "title": "中央公园「最佳机会」出现！五大必买理由...",
        "docid": "IN73FIM90515N3UJ",
        "url": "https://www.163.com/dy/article/IN73FIM90515N3UJ.html"
    },
    {
        "title": "专家预测未来几年房价上涨，网友:专家的话你得反着听",
        "docid": "IN7BGNPG0553TDVP",
        "url": "https://www.163.com/dy/article/IN7BGNPG0553TDVP.html"
    },
    {
        "title": "在世界深情地活着，岁月对我们温柔以待，金地环湾城",
        "docid": "IN7E9FRH05565R0S",
        "url": "https://www.163.com/dy/article/IN7E9FRH05565R0S.html"
    },
    {
        "title": "2023年马上结束，感谢每一位按时支付物业费的业主！",
        "docid": "IN6QCKR20535R288",
        "url": "https://www.163.com/dy/article/IN6QCKR20535R288.html"
    },
    {
        "title": "房地产改善、结婚、投资需求大减，2024年抄底还是抄在半山腰",
        "docid": "VWM9GOIDO",
        "url": "https://www.163.com/dy/article/VWM9GOIDO.html"
    },
    {
        "title": "上海北京开始出现洗房，很多父母都慌了，不少家庭都受到了影响",
        "docid": "VGM9MNLRD",
        "url": "https://www.163.com/dy/article/VGM9MNLRD.html"
    },
    {
        "title": "人住几楼寿命最长，不是迷信，难怪有钱人都争着买这几层",
        "docid": "VMLQJVMHS",
        "url": "https://www.163.com/dy/article/VMLQJVMHS.html"
    },
    {
        "title": "白岩松：当房价超过三四万，就和我们普通人没什么关系了",
        "docid": "VGLSNS3F8",
        "url": "https://www.163.com/dy/article/VGLSNS3F8.html"
    },
    {
        "title": "明年楼市如果不出台刺激政策会更加惨！",
        "docid": "VJM6MK6S0",
        "url": "https://www.163.com/dy/article/VJM6MK6S0.html"
    },
    {
        "title": "2023年TOP100房企拿地总额微增1.7%，保利发展成“最大地主”，平均每月近100亿拿地",
        "docid": "IN7K2J2Q0531SC48",
        "url": "https://www.163.com/dy/article/IN7K2J2Q0531SC48.html"
    },
    {
        "title": "千万别买1梯2户的房子，邻居现在天天吵着要卖房，后悔都来不及！",
        "docid": "IMQI11CM0540H6M7",
        "url": "https://www.163.com/dy/article/IMQI11CM0540H6M7.html"
    },
    {
        "title": "2023年全国房价下跌最快的十个城市",
        "docid": "VMM9NMPQI",
        "url": "https://www.163.com/dy/article/VMM9NMPQI.html"
    },
    {
        "title": "啊，被折腾了1年半，投进去120万，终于完成建房的使命了！",
        "docid": "VRLRNOTMS",
        "url": "https://www.163.com/dy/article/VRLRNOTMS.html"
    },
    {
        "title": "我先来，20年买的，亏了差不多100捆，",
        "docid": "VCM0FCS63",
        "url": "https://www.163.com/dy/article/VCM0FCS63.html"
    },
    {
        "title": "日本当年房价下跌全过程",
        "docid": "VWLS4DOQA",
        "url": "https://www.163.com/dy/article/VWLS4DOQA.html"
    },
    {
        "title": "钱不要投房子，要投孩子",
        "docid": "VNM6UE0U1",
        "url": "https://www.163.com/dy/article/VNM6UE0U1.html"
    },
    {
        "title": "非必要，别卖房！看懂市场，守住财富！",
        "docid": "VKLPOLMC9",
        "url": "https://www.163.com/dy/article/VKLPOLMC9.html"
    },
    {
        "title": "重要提醒：农村这5类房子不能强拆",
        "docid": "VFM7PKC7L",
        "url": "https://www.163.com/dy/article/VFM7PKC7L.html"
    },
    {
        "title": "一家8口住酒店，不是没钱买房，恰恰是因为买了太多房子",
        "docid": "IN7FRNNM0552I6MA",
        "url": "https://www.163.com/dy/article/IN7FRNNM0552I6MA.html"
    },
    {
        "title": "这家新中式国企 竟然把改善项目做到这种程度了",
        "docid": "IMQF2RB7051590L9",
        "url": "https://www.163.com/dy/article/IMQF2RB7051590L9.html"
    },
    {
        "title": "30岁女高管买房得出的经验，你认同吗？",
        "docid": "VCM55CP95",
        "url": "https://www.163.com/dy/article/VCM55CP95.html"
    },
    {
        "title": "交房拿钥匙时需要注意的问题！每天分享一些房产知识",
        "docid": "VZM519BJ1",
        "url": "https://www.163.com/dy/article/VZM519BJ1.html"
    },
    {
        "title": "要是你敢停工我就敢停贷",
        "docid": "VYLVUF506",
        "url": "https://www.163.com/dy/article/VYLVUF506.html"
    },
    {
        "title": "提前交房才是硬实力，中房爱悦城·鸿府社区全面交付！",
        "docid": "VMM713IED",
        "url": "https://www.163.com/dy/article/VMM713IED.html"
    },
    {
        "title": "中国商品房都是70年长租房",
        "docid": "VDLR0LLJG",
        "url": "https://www.163.com/dy/article/VDLR0LLJG.html"
    },
    {
        "title": "贷款买房三大坑，看你踩了几个坑",
        "docid": "VQLSN7M1K",
        "url": "https://www.163.com/dy/article/VQLSN7M1K.html"
    },
    {
        "title": "知名专家建议国家出资30亿回收地产",
        "docid": "VKM6VQ6N0",
        "url": "https://www.163.com/dy/article/VKM6VQ6N0.html"
    },
    {
        "title": "房贷断供，房子被拍卖后还倒欠银行120万，我该怎么办？",
        "docid": "IN7MO29F0542M5JD",
        "url": "https://www.163.com/dy/article/IN7MO29F0542M5JD.html"
    },
    {
        "title": "韭菜割不动了，开始拔韭菜根了！银行和开发商“吃相”实在太难看",
        "docid": "IN7MRRU4055658CB",
        "url": "https://www.163.com/dy/article/IN7MRRU4055658CB.html"
    },
    {
        "title": "女子买房疑似被套路，江景房成自己邻居，奋斗八年的结果到底如何",
        "docid": "IN7MOMJ90553K45K",
        "url": "https://www.163.com/dy/article/IN7MOMJ90553K45K.html"
    },
    {
        "title": "楼市开始“恐慌式卖房”？3大逆转消息，明年房价或已确定",
        "docid": "IN7L0RVH055658CG",
        "url": "https://www.163.com/dy/article/IN7L0RVH055658CG.html"
    },
    {
        "title": "武汉炒房客大溃败房价1万3降到8千，300多套房子甩卖不出去",
        "docid": "VMLVIJ01F",
        "url": "https://www.163.com/dy/article/VMLVIJ01F.html"
    },
    {
        "title": "房子降价了 能怪别人吗？",
        "docid": "VGM69I0EM",
        "url": "https://www.163.com/dy/article/VGM69I0EM.html"
    },
    {
        "title": "城中村改造，曾经的谢营社区至今还是瓦砾一片",
        "docid": "VDLO0U5O2",
        "url": "https://www.163.com/dy/article/VDLO0U5O2.html"
    },
    {
        "title": "邻居家别墅突然长胖一圈？ 一查竟加盖了超100㎡！",
        "docid": "VTM4OPO8M",
        "url": "https://www.163.com/dy/article/VTM4OPO8M.html"
    },
    {
        "title": "《何以为家》第二集丨住汇悦台并非荣耀，更不是终点",
        "docid": "VZLS4NLGQ",
        "url": "https://www.163.com/dy/article/VZLS4NLGQ.html"
    },
    {
        "title": "韩国向新生儿父母提供优惠抵押贷款 最高可贷5亿韩元",
        "docid": "IN7JRCU905377PO6",
        "url": "https://www.163.com/dy/article/IN7JRCU905377PO6.html"
    },
    {
        "title": "不听劝买了中间户，入住后肠子都悔青了，这5个缺点实在太坑人了",
        "docid": "IMQOE00C054057BR",
        "url": "https://www.163.com/dy/article/IMQOE00C054057BR.html"
    },
    {
        "title": "想不到吧？就算人口下降，未来房价还能涨？你难以反驳的3个理由",
        "docid": "IMQN2ETA055657EH",
        "url": "https://www.163.com/dy/article/IMQN2ETA055657EH.html"
    },
    {
        "title": "为什么越来越多的中国人，跑到日本买房？",
        "docid": "IN7I4VRS05399MBQ",
        "url": "https://www.163.com/dy/article/IN7I4VRS05399MBQ.html"
    },
    {
        "title": "“抢地大战”：溢价率14.9%！高新CID摇号地块落定",
        "docid": "IN768MJ30535A8XD",
        "url": "https://www.163.com/dy/article/IN768MJ30535A8XD.html"
    },
    {
        "title": "委托亲戚卖房办理公证需要什么材料",
        "docid": "IMQJS8PC055644JE",
        "url": "https://www.163.com/dy/article/IMQJS8PC055644JE.html"
    },
    {
        "title": "捡拾点点滴滴快乐，生活变得轻松愉快，金地环湾城",
        "docid": "IN7K2D0E05565R0S",
        "url": "https://www.163.com/dy/article/IN7K2D0E05565R0S.html"
    },
    {
        "title": "郑州航空港区支持高层次人才和产业人才购房 最高给予300万！",
        "docid": "VIM9QHFT2",
        "url": "https://www.163.com/dy/article/VIM9QHFT2.html"
    },
    {
        "title": "这房子 一个水龙头8万块你敢信",
        "docid": "VWLP11D4U",
        "url": "https://www.163.com/dy/article/VWLP11D4U.html"
    },
    {
        "title": "听我一句劝，建房安全第一，别为了省钱不做圈梁和柱子",
        "docid": "IN7PRTCV055658CH",
        "url": "https://www.163.com/dy/article/IN7PRTCV055658CH.html"
    },
    {
        "title": "某宇宙房企裁员70%，总部十分冷清！",
        "docid": "IN7P0FHM0552CAGB",
        "url": "https://www.163.com/dy/article/IN7P0FHM0552CAGB.html"
    },
    {
        "title": "自建房这款怎么样？开间只有7.88米，占地101平方三层新中式别墅",
        "docid": "IN7Q74NJ0535LAX2",
        "url": "https://www.163.com/dy/article/IN7Q74NJ0535LAX2.html"
    },
    {
        "title": "专家与资深地产高管激辩：民营房企扩张策略有无不妥",
        "docid": "IN7LCNNU055634N1",
        "url": "https://www.163.com/dy/article/IN7LCNNU055634N1.html"
    },
    {
        "title": "楼市“先立后破” 2023年各地出台房地产政策700余条",
        "docid": "IN4JLA6M0519DDQ2",
        "url": "https://www.163.com/dy/article/IN4JLA6M0519DDQ2.html"
    },
    {
        "title": "为什么豪宅，没有封阳台的习惯",
        "docid": "VDM3V6ARE",
        "url": "https://www.163.com/dy/article/VDM3V6ARE.html"
    },
    {
        "title": "楼市整体价值回归，买的比卖的多，房价还怎么普涨？",
        "docid": "VGM90DNO9",
        "url": "https://www.163.com/dy/article/VGM90DNO9.html"
    },
    {
        "title": "低价盘下临湖景观房，以为捡了大便宜，住进去才发现是天坑",
        "docid": "VGM9SNKD6",
        "url": "https://www.163.com/dy/article/VGM9SNKD6.html"
    },
    {
        "title": "买100万的房子，五年后值多少钱",
        "docid": "VPLSKPRFP",
        "url": "https://www.163.com/dy/article/VPLSKPRFP.html"
    },
    {
        "title": "为啥开发商没钱了可以烂尾，老百姓拿不到房却不可以断供？",
        "docid": "IN7J061J05564B67",
        "url": "https://www.163.com/dy/article/IN7J061J05564B67.html"
    },
    {
        "title": "听我一句劝，别跟风做罗马柱，试下这款外观，省钱又好看",
        "docid": "IN7QQO93055658CH",
        "url": "https://www.163.com/dy/article/IN7QQO93055658CH.html"
    },
    {
        "title": "买房故事丨通勤从1.5小时变成10分钟，置换是有意义的",
        "docid": "IN7OE2AM0545PEDS",
        "url": "https://www.163.com/dy/article/IN7OE2AM0545PEDS.html"
    },
    {
        "title": "碧桂园原执行董事吴建斌提议：国家拿出30万亿，回购房产！",
        "docid": "IN7F8HPR0535KAWB",
        "url": "https://www.163.com/dy/article/IN7F8HPR0535KAWB.html"
    },
    {
        "title": "十问2024国内房地产市场丨宏观经济",
        "docid": "IN7P5U1I0530P452",
        "url": "https://www.163.com/dy/article/IN7P5U1I0530P452.html"
    },
    {
        "title": "建筑设计师，免费分享选房策略！购房小白看3遍，以后买房不入坑",
        "docid": "VBM54FS9T",
        "url": "https://www.163.com/dy/article/VBM54FS9T.html"
    },
    {
        "title": "聪明人都在悄悄搬走！未来10年避开这3类房子",
        "docid": "VTLT2T9UA",
        "url": "https://www.163.com/dy/article/VTLT2T9UA.html"
    },
    {
        "title": "你猜老北京一套四合院能分几套房？看来投胎也是技术活，羡慕不？",
        "docid": "VWM9QI0IN",
        "url": "https://www.163.com/dy/article/VWM9QI0IN.html"
    },
    {
        "title": "一夜之间仿佛全国的房子都在降价",
        "docid": "VCM9Q0EOC",
        "url": "https://www.163.com/dy/article/VCM9Q0EOC.html"
    },
    {
        "title": "三人合伙贷款200万买了一套投资房3年爆亏100万，最后彻底翻脸了",
        "docid": "IMQEA77B05564NUO",
        "url": "https://www.163.com/dy/article/IMQEA77B05564NUO.html"
    },
    {
        "title": "专家预言：到 2025年，房价将会是现在的三到五倍！",
        "docid": "IMV5D0730553SQD3",
        "url": "https://www.163.com/dy/article/IMV5D0730553SQD3.html"
    },
    {
        "title": "涨知识啦，一套100万的房子成本到底是多少呢？",
        "docid": "IN7T64KU0553TEV3",
        "url": "https://www.163.com/dy/article/IN7T64KU0553TEV3.html"
    },
    {
        "title": "风靡一时的1梯2户，为何越来越不受欢迎？这4个缺点让人望而却步",
        "docid": "IMQMOUNM054057BR",
        "url": "https://www.163.com/dy/article/IMQMOUNM054057BR.html"
    },
    {
        "title": "200万留学生和外籍临工涌入，特鲁多将推出新版住房措施",
        "docid": "IN7RESEA0549RI77",
        "url": "https://www.163.com/dy/article/IN7RESEA0549RI77.html"
    },
    {
        "title": "为什么？中国老百姓不愿意买房了",
        "docid": "IN7SSPSS05563TCH",
        "url": "https://www.163.com/dy/article/IN7SSPSS05563TCH.html"
    },
    {
        "title": "装配式建筑未来十大趋势",
        "docid": "IMQG633F0553DDQW",
        "url": "https://www.163.com/dy/article/IMQG633F0553DDQW.html"
    },
    {
        "title": "安居客副总裁赵彤阳：房地产市场将愈发细分 数字化营销将带来利好",
        "docid": "IN0PQNBF0512B07B",
        "url": "https://www.163.com/dy/article/IN0PQNBF0512B07B.html"
    },
    {
        "title": "赔得太惨了，现在选房要谨慎",
        "docid": "VCM9P8SJR",
        "url": "https://www.163.com/dy/article/VCM9P8SJR.html"
    },
    {
        "title": "一旦房地产救不起来，后果比想象中可能更严峻，你了解吗？",
        "docid": "IN7UQBUQ0553TDXU",
        "url": "https://www.163.com/dy/article/IN7UQBUQ0553TDXU.html"
    },
    {
        "title": "虹口弘安里售楼处发布：首开34套6000万起，历史风貌纯别墅社区",
        "docid": "IN7R3OFC05564414",
        "url": "https://www.163.com/dy/article/IN7R3OFC05564414.html"
    },
    {
        "title": "邓紫棋等了9年，西山岛大院子中式大宅，来晚了就不等你了",
        "docid": "VDLRTC9GH",
        "url": "https://www.163.com/dy/article/VDLRTC9GH.html"
    },
    {
        "title": "封顶是假象？停工是真相！",
        "docid": "VELSS28HV",
        "url": "https://www.163.com/dy/article/VELSS28HV.html"
    },
    {
        "title": "美国加息失败，就是房价上涨之时",
        "docid": "VWM9I7RTA",
        "url": "https://www.163.com/dy/article/VWM9I7RTA.html"
    },
    {
        "title": "最快的破产方式就是买了房，你都不敢相信",
        "docid": "VMM7DUPIA",
        "url": "https://www.163.com/dy/article/VMM7DUPIA.html"
    },
    {
        "title": "同样一条马路，动迁房和商品房，总价相差400万左右",
        "docid": "VLM2DGTQD",
        "url": "https://www.163.com/dy/article/VLM2DGTQD.html"
    },
    {
        "title": "明年房价会涨吗？大家还一直期盼着呢",
        "docid": "VLM6CTD04",
        "url": "https://www.163.com/dy/article/VLM6CTD04.html"
    },
    {
        "title": "这房子的设计师是个天才",
        "docid": "VIM49Q1V8",
        "url": "https://www.163.com/dy/article/VIM49Q1V8.html"
    },
    {
        "title": "有人说中国房地产是反人类工程，这个说法对吗？",
        "docid": "VGLRKQLFE",
        "url": "https://www.163.com/dy/article/VGLRKQLFE.html"
    },
    {
        "title": "新房房顶莫名没了？“交房时候还好好的，物业费也交了”",
        "docid": "VDMA1IS9U",
        "url": "https://www.163.com/dy/article/VDMA1IS9U.html"
    },
    {
        "title": "宝妈去看了几套新房 300多万一套 回家老公说给我买一套",
        "docid": "VCM2TV7BN",
        "url": "https://www.163.com/dy/article/VCM2TV7BN.html"
    },
    {
        "title": "房子已经进入法拍流程，该怎么自救呢？",
        "docid": "VVMA007AH",
        "url": "https://www.163.com/dy/article/VVMA007AH.html"
    },
    {
        "title": "#专家称未来两三年房地产市场仍然会比较困难，房企要活下来非常不容易",
        "docid": "VAM9ONC2I",
        "url": "https://www.163.com/dy/article/VAM9ONC2I.html"
    },
    {
        "title": "不听劝贷款45万买房，入住不到一年就断供了！气的瞬间血压飙升!",
        "docid": "VPM78UTHC",
        "url": "https://www.163.com/dy/article/VPM78UTHC.html"
    },
    {
        "title": "现在房地产的真实现状！",
        "docid": "VGM0470GA",
        "url": "https://www.163.com/dy/article/VGM0470GA.html"
    },
    {
        "title": "要是敢停工，我就敢停贷。",
        "docid": "VHLNKVROE",
        "url": "https://www.163.com/dy/article/VHLNKVROE.html"
    },
    {
        "title": "碧桂园预测房地产市场需三至五年走出低谷",
        "docid": "VCM34GEBG",
        "url": "https://www.163.com/dy/article/VCM34GEBG.html"
    },
    {
        "title": "你说一个月挣多少钱才敢买房呢？",
        "docid": "IN82MOEP0553VNKO",
        "url": "https://www.163.com/dy/article/IN82MOEP0553VNKO.html"
    },
    {
        "title": "宏程·云棠 | 2024共赴下一程精彩",
        "docid": "IN7V572T0556123R",
        "url": "https://www.163.com/dy/article/IN7V572T0556123R.html"
    },
    {
        "title": "2024年，房贷利率会不会继续下降吗？部分人至少降10个基点",
        "docid": "IN81C62605564G35",
        "url": "https://www.163.com/dy/article/IN81C62605564G35.html"
    },
    {
        "title": "开间11米，进深9.7米，不带罗马柱门厅，也漂亮大气",
        "docid": "VYM523AMJ",
        "url": "https://www.163.com/dy/article/VYM523AMJ.html"
    },
    {
        "title": "现在卖房的房主要小心了",
        "docid": "VQLSN8Q2E",
        "url": "https://www.163.com/dy/article/VQLSN8Q2E.html"
    },
    {
        "title": "京沪楼市新政效果如何？多家机构被邀请座谈",
        "docid": "VAM9OKFJ3",
        "url": "https://www.163.com/dy/article/VAM9OKFJ3.html"
    },
    {
        "title": "准备买房先收藏！超简单的，楼层挡光计算方法，购房小白易学就会",
        "docid": "VBLQMFONG",
        "url": "https://www.163.com/dy/article/VBLQMFONG.html"
    },
    {
        "title": "买了房子贷款下来了想退房怎么办？",
        "docid": "VDLPL4NCS",
        "url": "https://www.163.com/dy/article/VDLPL4NCS.html"
    },
    {
        "title": "预售制到底有没有错？专家和碧桂园前高管激辩房屋预售制：到底是“非常好的政策”还是“纯欺负买房人”？",
        "docid": "VAM42K2IA",
        "url": "https://www.163.com/dy/article/VAM42K2IA.html"
    },
    {
        "title": "楼市全面回暖：专家都说了不要等房价暴跌，中介门店成交暴涨50%",
        "docid": "IMV59BF10553SQD3",
        "url": "https://www.163.com/dy/article/IMV59BF10553SQD3.html"
    },
    {
        "title": "青山滨江一住宅项目规划方案公示！",
        "docid": "IN84LMBO0534SV3Y",
        "url": "https://www.163.com/dy/article/IN84LMBO0534SV3Y.html"
    },
    {
        "title": "“05后”巧解“50后”之需！来看老楼“变形计”",
        "docid": "IN6VFGRK0512DU6N",
        "url": "https://www.163.com/dy/article/IN6VFGRK0512DU6N.html"
    },
    {
        "title": "为啥有人专门买老旧小区顶层？背后竟暗藏商机",
        "docid": "VTM7ET6AK",
        "url": "https://www.163.com/dy/article/VTM7ET6AK.html"
    },
    {
        "title": "公园旁的城市别墅 酒店般的服务体验 不限购#别墅#精装修#不限购",
        "docid": "VELQJVEQJ",
        "url": "https://www.163.com/dy/article/VELQJVEQJ.html"
    },
    {
        "title": "好消息！让人苦不堪言的公摊面积，终于要被取消了！",
        "docid": "VMM9TE8PH",
        "url": "https://www.163.com/dy/article/VMM9TE8PH.html"
    },
    {
        "title": "十年后没房的人是哭还是笑",
        "docid": "VGLKVEBH0",
        "url": "https://www.163.com/dy/article/VGLKVEBH0.html"
    },
    {
        "title": "演员宋丹丹在北京的顶级豪宅，价值一个亿，真的太气派了",
        "docid": "VGM5KED2S",
        "url": "https://www.163.com/dy/article/VGM5KED2S.html"
    },
    {
        "title": "大型纪录片，真沪上阿姨",
        "docid": "VPM2L37IV",
        "url": "https://www.163.com/dy/article/VPM2L37IV.html"
    },
    {
        "title": "楼市惨淡！加拿大多伦多房主割肉！最低仅售$70w！有人 血亏$60w",
        "docid": "IN5CVLE40552QDEA",
        "url": "https://www.163.com/dy/article/IN5CVLE40552QDEA.html"
    },
    {
        "title": "【官宣】南山西丽总章翡翠公欢迎您！售楼处电话_地址_价格_户型",
        "docid": "IN83PHI1055636TK",
        "url": "https://www.163.com/dy/article/IN83PHI1055636TK.html"
    },
    {
        "title": "堂堂一个国企，每个月按照最低工资来缴纳公积金，真是可笑至极！",
        "docid": "IN5H449005564Z4P",
        "url": "https://www.163.com/dy/article/IN5H449005564Z4P.html"
    },
    {
        "title": "保持轻装前行良好心态，活得自在从容，金地环湾城",
        "docid": "IN5EU2BL055667UK",
        "url": "https://www.163.com/dy/article/IN5EU2BL055667UK.html"
    },
    {
        "title": "什么样的江景，才入得了你的法眼？来套270度每个房间都江景的顶复！",
        "docid": "VCLRUT8T5",
        "url": "https://www.163.com/dy/article/VCLRUT8T5.html"
    },
    {
        "title": "“炒房客”变“接盘侠”，600万买房280卖不出去",
        "docid": "VCM9UOAU5",
        "url": "https://www.163.com/dy/article/VCM9UOAU5.html"
    },
    {
        "title": "新年第一炮！利率下调10个基点，能救房地产吗？",
        "docid": "VVM9HBJSA",
        "url": "https://www.163.com/dy/article/VVM9HBJSA.html"
    },
    {
        "title": "100多万买观音桥商圈旁！豪装了50万的装修顶跃",
        "docid": "VYLS0M2ML",
        "url": "https://www.163.com/dy/article/VYLS0M2ML.html"
    },
    {
        "title": "首付比例下降有什么影响横屏",
        "docid": "VLM76FNH9",
        "url": "https://www.163.com/dy/article/VLM76FNH9.html"
    },
    {
        "title": "曙光！恒大集团突然宣布开始还债了，但还债方式却让人大跌眼镜！",
        "docid": "IN83HV4I0553TDVP",
        "url": "https://www.163.com/dy/article/IN83HV4I0553TDVP.html"
    },
    {
        "title": "给秋天交上一份完美的答案，静守自己的三寸光阴，金地环湾城",
        "docid": "IN5C95I3055667UK",
        "url": "https://www.163.com/dy/article/IN5C95I3055667UK.html"
    },
    {
        "title": "房地产是民生产业，房价上涨呼声高涨！",
        "docid": "IN87PO6N0553TDVP",
        "url": "https://www.163.com/dy/article/IN87PO6N0553TDVP.html"
    },
    {
        "title": "武汉耗资120亿打造的商场，据说是全球最大，开业1年看看现状如何",
        "docid": "VWMA51AS4",
        "url": "https://www.163.com/dy/article/VWMA51AS4.html"
    },
    {
        "title": "压住房价只涨不跌的，将付出沉重的代价！",
        "docid": "VJM7CJJDS",
        "url": "https://www.163.com/dy/article/VJM7CJJDS.html"
    },
    {
        "title": "融汇半岛精装洋房，一梯两户，四房双卫，大阳台，视野无敌",
        "docid": "VZLT7TLDR",
        "url": "https://www.163.com/dy/article/VZLT7TLDR.html"
    },
    {
        "title": "房地产又现奇葩言论，专家学者的建议靠谱吗？",
        "docid": "VNM9FJG59",
        "url": "https://www.163.com/dy/article/VNM9FJG59.html"
    },
    {
        "title": "房子越卖越多，价格越卖越低，三环淮安半岛成交案例",
        "docid": "VUM6JR6QD",
        "url": "https://www.163.com/dy/article/VUM6JR6QD.html"
    },
    {
        "title": "5分钟懂透，房贷应该如何选？",
        "docid": "VXM77CV8T",
        "url": "https://www.163.com/dy/article/VXM77CV8T.html"
    },
    {
        "title": "为什么现在房子卖不动了？网友：对着空气还房贷听着就不是滋味",
        "docid": "IMSVPRT105561LHW",
        "url": "https://www.163.com/dy/article/IMSVPRT105561LHW.html"
    },
    {
        "title": "2023年的地产人，行业没有消亡，眼里没有了光",
        "docid": "IN5L13N10552I6MA",
        "url": "https://www.163.com/dy/article/IN5L13N10552I6MA.html"
    },
    {
        "title": "邻居家的老房子想卖了，要价11万，这价钱能买吗？",
        "docid": "IN88NB9F0553TDTY",
        "url": "https://www.163.com/dy/article/IN88NB9F0553TDTY.html"
    },
    {
        "title": "我们有一块值钱的隐形资产，很多人都不知道。",
        "docid": "IN82S0H50553VNKO",
        "url": "https://www.163.com/dy/article/IN82S0H50553VNKO.html"
    },
    {
        "title": "建发华润缦云（建发华润缦云）售楼处电话_建发华润缦云售楼中心_",
        "docid": "IN89B8G105566J9K",
        "url": "https://www.163.com/dy/article/IN89B8G105566J9K.html"
    },
    {
        "title": "小城市的房子没人买，为何房价不下跌？行内人终于透露实情了",
        "docid": "IN86FMBR054057BR",
        "url": "https://www.163.com/dy/article/IN86FMBR054057BR.html"
    },
    {
        "title": "房企破与立：展望2024年，机会在哪？",
        "docid": "IN5CF7D50539B1P0",
        "url": "https://www.163.com/dy/article/IN5CF7D50539B1P0.html"
    },
    {
        "title": "16年前老别墅，起码也是赫赫有名的蓝湖郡，如今廉颇老矣了吗？",
        "docid": "VBMADQQ9P",
        "url": "https://www.163.com/dy/article/VBMADQQ9P.html"
    },
    {
        "title": "学区房炒的越来越贵，大学生却越来越不值钱",
        "docid": "VGLS8V074",
        "url": "https://www.163.com/dy/article/VGLS8V074.html"
    }
]