[
    {
        "title": "商业贷款利率高，转住房公积金需满足5个条件，操作流程有哪些？",
        "docid": "ILD003SC0535AX4A",
        "url": "https://www.163.com/dy/article/ILD003SC0535AX4A.html"
    },
    {
        "title": "东京新宿区2018年建2LDK公寓，近新宿御苑，4站4线路可利用！",
        "docid": "ILFC6DAC05359JWY",
        "url": "https://www.163.com/dy/article/ILFC6DAC05359JWY.html"
    },
    {
        "title": "侯友宜称厌恶口水战 抛青年购房免首付全额贷款政策",
        "docid": "ILFLS1KM05526RB5",
        "url": "https://www.163.com/dy/article/ILFLS1KM05526RB5.html"
    },
    {
        "title": "为什么最近很多人说：房价要涨，他们看到了什么？",
        "docid": "VCKHROQCM",
        "url": "https://www.163.com/dy/article/VCKHROQCM.html"
    },
    {
        "title": "陪读房，买旧房子没意义",
        "docid": "VKJV53QB0",
        "url": "https://www.163.com/dy/article/VKJV53QB0.html"
    },
    {
        "title": "卖房就送奥迪A4和iPhone15手机？上海业主为卖房太拼了",
        "docid": "VTKEO935K",
        "url": "https://www.163.com/dy/article/VTKEO935K.html"
    },
    {
        "title": "懂行人眼中的好户型，南北通透，西北厨房，东北厨房，正北卫生间",
        "docid": "VCK4NOFGJ",
        "url": "https://www.163.com/dy/article/VCK4NOFGJ.html"
    },
    {
        "title": "1990年，发哥以1470万港元购买，香港九龙塘豪宅，目前价值三亿！",
        "docid": "VQKED839Q",
        "url": "https://www.163.com/dy/article/VQKED839Q.html"
    },
    {
        "title": "有一套属于自己的房子是一种归属感，一镜到底69平连廊中户小家",
        "docid": "VCKHGQJ96",
        "url": "https://www.163.com/dy/article/VCKHGQJ96.html"
    },
    {
        "title": "远洋集团：前11月累计协议销售额约475.5亿元",
        "docid": "ILFHD20P0534A4SC",
        "url": "https://www.163.com/dy/article/ILFHD20P0534A4SC.html"
    },
    {
        "title": "头部房企销售保持稳定，龙湖前11月销售额超1600亿元",
        "docid": "ILFJVVDQ051590L9",
        "url": "https://www.163.com/dy/article/ILFJVVDQ051590L9.html"
    },
    {
        "title": "未来中国近40%的家庭，将不得不面临“3大麻烦”",
        "docid": "IL3F5NL60535KYBT",
        "url": "https://www.163.com/dy/article/IL3F5NL60535KYBT.html"
    },
    {
        "title": "总价26.8万！55平+200平！",
        "docid": "VWKEERPC7",
        "url": "https://www.163.com/dy/article/VWKEERPC7.html"
    },
    {
        "title": "老旧小区加装电梯又出新模式，高楼层住户美滋滋",
        "docid": "VSKCL9SJH",
        "url": "https://www.163.com/dy/article/VSKCL9SJH.html"
    },
    {
        "title": "横厅户型中的“小垃圾”户型，混鸡犬而乱放，空间拥挤而线路受阻",
        "docid": "VBKF06HN2",
        "url": "https://www.163.com/dy/article/VBKF06HN2.html"
    },
    {
        "title": "国家统计局原副局长贺铿：现有住房14亿人可能都住不完 楼市供应过剩 地产商须尽早转型 ",
        "docid": "VNKF5H2K3",
        "url": "https://www.163.com/dy/article/VNKF5H2K3.html"
    },
    {
        "title": "现在应该买房或保全房子而不是卖房，恶意唱空房价的不是好人",
        "docid": "VCK4D9OVS",
        "url": "https://www.163.com/dy/article/VCK4D9OVS.html"
    },
    {
        "title": "各省市区农村宅基地面积标准！",
        "docid": "VRKHHGE64",
        "url": "https://www.163.com/dy/article/VRKHHGE64.html"
    },
    {
        "title": "没有套路的双12购房攻略来了",
        "docid": "ILFNVQ8T05526O4T",
        "url": "https://www.163.com/dy/article/ILFNVQ8T05526O4T.html"
    },
    {
        "title": "距海1000米，这样的房子曾经毛坯30多万买不到，如今精装才21万？",
        "docid": "VWKHTHPP1",
        "url": "https://www.163.com/dy/article/VWKHTHPP1.html"
    },
    {
        "title": "个人网贷信息正全面接入征信系统，网贷是否影响房贷？个人网贷信息正全面接入征信系统 社会",
        "docid": "VQKHVOJVA",
        "url": "https://www.163.com/dy/article/VQKHVOJVA.html"
    },
    {
        "title": "明天等待结果，没卖掉很您们说",
        "docid": "VCKHVGVLE",
        "url": "https://www.163.com/dy/article/VCKHVGVLE.html"
    },
    {
        "title": "乐高作风的屋宇建造商瞄准进入南佛罗里达房地产市场",
        "docid": "VQKHVM31N",
        "url": "https://www.163.com/dy/article/VQKHVM31N.html"
    },
    {
        "title": "500亿大标，垫多少合适？",
        "docid": "VOKHS613O",
        "url": "https://www.163.com/dy/article/VOKHS613O.html"
    },
    {
        "title": "耗资几千万如今却成了空无一人的烂尾楼，当年不为人知的至今成谜",
        "docid": "VVK49EIB2",
        "url": "https://www.163.com/dy/article/VVK49EIB2.html"
    },
    {
        "title": "大家觉得未使用的物业要交物业费合理吗？",
        "docid": "VIKHRT9GB",
        "url": "https://www.163.com/dy/article/VIKHRT9GB.html"
    },
    {
        "title": "三者齐聚，买房好时机（2023版）",
        "docid": "VRKER53PE",
        "url": "https://www.163.com/dy/article/VRKER53PE.html"
    },
    {
        "title": "物业管理工程部全部表格（62个）",
        "docid": "ILFOHRF20552QWCL",
        "url": "https://www.163.com/dy/article/ILFOHRF20552QWCL.html"
    },
    {
        "title": "我在建筑领域工作了15年，我总结出房地产甲方是最没人情味的单位",
        "docid": "IL2Q6JUJ05561MSN",
        "url": "https://www.163.com/dy/article/IL2Q6JUJ05561MSN.html"
    },
    {
        "title": "煤老板，嗅到不寻常信号",
        "docid": "ILFM0I300519B9KP",
        "url": "https://www.163.com/dy/article/ILFM0I300519B9KP.html"
    },
    {
        "title": "我一个月公积金2700元，却不能用公积金贷款买房",
        "docid": "ILFODD3V0553TDVP",
        "url": "https://www.163.com/dy/article/ILFODD3V0553TDVP.html"
    },
    {
        "title": "农村自建房省钱5条，轻松省下小几万，别不信！",
        "docid": "ILFN2E1C0535KYBM",
        "url": "https://www.163.com/dy/article/ILFN2E1C0535KYBM.html"
    },
    {
        "title": "真是不算不知道一算吓一跳",
        "docid": "VCKHSTE4K",
        "url": "https://www.163.com/dy/article/VCKHSTE4K.html"
    },
    {
        "title": "明年是房价暴跌元年吗？房价暴跌会持续多久？",
        "docid": "VGKHS5EO3",
        "url": "https://www.163.com/dy/article/VGKHS5EO3.html"
    },
    {
        "title": "恕我直言：这个户型可以吊打市面大多数户型，使用率更是高人一等",
        "docid": "VBK9RVI03",
        "url": "https://www.163.com/dy/article/VBK9RVI03.html"
    },
    {
        "title": "美国楼市平均房价指数再创新高，美国房价是什么水平？",
        "docid": "VQKEDS4NU",
        "url": "https://www.163.com/dy/article/VQKEDS4NU.html"
    },
    {
        "title": "289平米优雅大户型，阳台阔绰",
        "docid": "ILFOPF1S0534M7IC",
        "url": "https://www.163.com/dy/article/ILFOPF1S0534M7IC.html"
    },
    {
        "title": "张朝阳说租房就有闲钱养孩子，你会租房吗？",
        "docid": "ILFRIC7R0552QWCS",
        "url": "https://www.163.com/dy/article/ILFRIC7R0552QWCS.html"
    },
    {
        "title": "阿莲家下水道返水成水帘洞，阿莲哭成泪人，再也不买最低层",
        "docid": "VGKI0O958",
        "url": "https://www.163.com/dy/article/VGKI0O958.html"
    },
    {
        "title": "高新区这套房业主花了30多个一天没住过，真的是比较急啊",
        "docid": "VCKI1UPB6",
        "url": "https://www.163.com/dy/article/VCKI1UPB6.html"
    },
    {
        "title": "房价跌惨了！25000元跌到8500元，什么想法也没有了",
        "docid": "VCKI0RLG3",
        "url": "https://www.163.com/dy/article/VCKI0RLG3.html"
    },
    {
        "title": "汉普斯特德伦敦罕见的历史悠久的Inverforth房屋",
        "docid": "VCK37HGFT",
        "url": "https://www.163.com/dy/article/VCK37HGFT.html"
    },
    {
        "title": "现在的售楼处，还有买房的吗？",
        "docid": "VWKH1GJFT",
        "url": "https://www.163.com/dy/article/VWKH1GJFT.html"
    },
    {
        "title": "2023投资淡年后 房子股市怎么走 （下）",
        "docid": "VOKHIST16",
        "url": "https://www.163.com/dy/article/VOKHIST16.html"
    },
    {
        "title": "马老师团队带你来看看开盘后的保利天汇。",
        "docid": "VGKHKU8R8",
        "url": "https://www.163.com/dy/article/VGKHKU8R8.html"
    },
    {
        "title": "王健林下了决心，万达打算甩卖一二线城市大量的万达广场",
        "docid": "ILFQ869V0553TB9L",
        "url": "https://www.163.com/dy/article/ILFQ869V0553TB9L.html"
    },
    {
        "title": "农村地区房屋建设中的风水学说思考",
        "docid": "IL2UNIFS0532D0CK",
        "url": "https://www.163.com/dy/article/IL2UNIFS0532D0CK.html"
    },
    {
        "title": "AMC“接力官宣”与房企座谈，“主攻” 房地产 市场风险化解",
        "docid": "ILFU9AFD0539AP40",
        "url": "https://www.163.com/dy/article/ILFU9AFD0539AP40.html"
    },
    {
        "title": "11月以来超300亿元贷款投向民营房企",
        "docid": "ILFKP3UG05346RC6",
        "url": "https://www.163.com/dy/article/ILFKP3UG05346RC6.html"
    },
    {
        "title": "人只管善良，福所未致，祸已远行  一个敢说真话的房产人",
        "docid": "VPKI19S7N",
        "url": "https://www.163.com/dy/article/VPKI19S7N.html"
    },
    {
        "title": "家里有矿就是不一样，百万海景房说买就买，一般人羡慕不来！",
        "docid": "VRKI252V6",
        "url": "https://www.163.com/dy/article/VRKI252V6.html"
    },
    {
        "title": "一代年轻人，被中国的房地产模式毁了",
        "docid": "VMK47GU2R",
        "url": "https://www.163.com/dy/article/VMK47GU2R.html"
    },
    {
        "title": "2024年普通人容易赚钱的宝藏行业！",
        "docid": "VCKHEFS54",
        "url": "https://www.163.com/dy/article/VCKHEFS54.html"
    },
    {
        "title": "还剩20天交房，满怀期待来看现房，结果让人大跌眼镜，不会烂尾吧",
        "docid": "VGKHRTFTL",
        "url": "https://www.163.com/dy/article/VGKHRTFTL.html"
    },
    {
        "title": "一个物体，标明为1kg，实际称重也是1kg，这是科学",
        "docid": "IL2U6ID50532D0CK",
        "url": "https://www.163.com/dy/article/IL2U6ID50532D0CK.html"
    },
    {
        "title": "刚刚，重要会议为明年经济形势定调，房地产何去何从？",
        "docid": "VAKHNUT8N",
        "url": "https://www.163.com/dy/article/VAKHNUT8N.html"
    },
    {
        "title": "售楼部36计，偷梁换柱，你中计了吗？",
        "docid": "VZKI61QP6",
        "url": "https://www.163.com/dy/article/VZKI61QP6.html"
    },
    {
        "title": "香蜜湖（香蜜新村）待拆迁的老房子",
        "docid": "VIK22OOLI",
        "url": "https://www.163.com/dy/article/VIK22OOLI.html"
    },
    {
        "title": "新中式别院的设计不错吧大家看看怎么样",
        "docid": "VRKI5O29S",
        "url": "https://www.163.com/dy/article/VRKI5O29S.html"
    },
    {
        "title": "上海愚园路｜江苏路，一楼独用院子，麻雀虽小，五脏俱全",
        "docid": "VLKFIQOD3",
        "url": "https://www.163.com/dy/article/VLKFIQOD3.html"
    },
    {
        "title": "降价2000万！1.7亿起拍！上海又一超级豪宅拍卖",
        "docid": "VTKHF2694",
        "url": "https://www.163.com/dy/article/VTKHF2694.html"
    },
    {
        "title": "为什么恒大新任董事长赵长龙卸任恒大地产董事长一职，那么多烂尾楼又该何去何从？究竟发生了什么",
        "docid": "VCKHDGK1S",
        "url": "https://www.163.com/dy/article/VCKHDGK1S.html"
    },
    {
        "title": "这下人人都买得起房子了，两房一厅的现房，首付三万月供1380",
        "docid": "VGKHQSCHA",
        "url": "https://www.163.com/dy/article/VGKHQSCHA.html"
    },
    {
        "title": "加装电梯无法推进的原因主要是什么？",
        "docid": "IL319BEG05561J3R",
        "url": "https://www.163.com/dy/article/IL319BEG05561J3R.html"
    },
    {
        "title": "【荷兰】荷兰按揭利率回落至一月份水平",
        "docid": "ILFTBHVF0514DCDB",
        "url": "https://www.163.com/dy/article/ILFTBHVF0514DCDB.html"
    },
    {
        "title": "【#七折租房# 丨湘江世纪城附近的一居室，收纳空间拉满的民水民电公寓】七折租房，我们的目标是把长沙租",
        "docid": "VOKH7JF0I",
        "url": "https://www.163.com/dy/article/VOKH7JF0I.html"
    },
    {
        "title": "狠，真狠，现在没有房贷的都是狠人",
        "docid": "VMK20MS4D",
        "url": "https://www.163.com/dy/article/VMK20MS4D.html"
    },
    {
        "title": "碰上对门邻居同时一起卖房子，会是什么样的感受？",
        "docid": "VGK4ADI1Q",
        "url": "https://www.163.com/dy/article/VGK4ADI1Q.html"
    },
    {
        "title": "武汉富人住的小区排行榜",
        "docid": "VXK6KORFT",
        "url": "https://www.163.com/dy/article/VXK6KORFT.html"
    },
    {
        "title": "云南富贵人家的别墅，既有面子又气派，太令人羡慕了",
        "docid": "VJK1VFN5Q",
        "url": "https://www.163.com/dy/article/VJK1VFN5Q.html"
    },
    {
        "title": "买房必记：10条铁律，投资保值无烦恼",
        "docid": "VWK4BOFQ8",
        "url": "https://www.163.com/dy/article/VWK4BOFQ8.html"
    },
    {
        "title": "不喜欢城市的高楼大厦，就喜欢这样的新农村，看着都喜人",
        "docid": "VOK1UGDGU",
        "url": "https://www.163.com/dy/article/VOK1UGDGU.html"
    },
    {
        "title": "12月8日武汉房价播报：武昌区内环，约12700元/平！",
        "docid": "ILEDM0VB0553RRD3",
        "url": "https://www.163.com/dy/article/ILEDM0VB0553RRD3.html"
    },
    {
        "title": "武汉楼市：买房对板块认知不能局限当下！",
        "docid": "ILCKE56R05560R20",
        "url": "https://www.163.com/dy/article/ILCKE56R05560R20.html"
    },
    {
        "title": "武汉部分房价已崩？2021年160万的房，如今卖掉还欠银行22",
        "docid": "ILE6P8CL055616ZT",
        "url": "https://www.163.com/dy/article/ILE6P8CL055616ZT.html"
    },
    {
        "title": "双地铁，双公园，白沙洲新增新盘",
        "docid": "ILFNQUH205524ETU",
        "url": "https://www.163.com/dy/article/ILFNQUH205524ETU.html"
    },
    {
        "title": "中指研究院：内地楼市2023年跌速超预期，2024上半年或完成筑底",
        "docid": "ILFAD6KF055616ZT",
        "url": "https://www.163.com/dy/article/ILFAD6KF055616ZT.html"
    },
    {
        "title": "有一种痛苦叫买了“横厅”，卖不出去也不想住，彻底沦为不动产",
        "docid": "ILFO38020542M5JD",
        "url": "https://www.163.com/dy/article/ILFO38020542M5JD.html"
    },
    {
        "title": "总价1.62亿起! 顶豪再上场! 厦门史上最贵法拍房将诞生?",
        "docid": "ILE788RN0530OLSK",
        "url": "https://www.163.com/dy/article/ILE788RN0530OLSK.html"
    },
    {
        "title": "老人卖房委托子女必须要公证吗",
        "docid": "ILA90Q40055668JD",
        "url": "https://www.163.com/dy/article/ILA90Q40055668JD.html"
    },
    {
        "title": "行业透视｜年末供应微增且刚需改善参半，预期成交“翘尾”有限",
        "docid": "ILD25M6A055244D0",
        "url": "https://www.163.com/dy/article/ILD25M6A055244D0.html"
    },
    {
        "title": "楼层别瞎选！缺阳光的楼层，缺生机与活力，室内不明媚住着不舒服",
        "docid": "VBKF133FP",
        "url": "https://www.163.com/dy/article/VBKF133FP.html"
    },
    {
        "title": "西海岸低迷洋房，买了就能住，价格不高，要你你会买吗？",
        "docid": "VWKHSOVAH",
        "url": "https://www.163.com/dy/article/VWKHSOVAH.html"
    },
    {
        "title": "金融城怎么看？是画饼吗？",
        "docid": "VBK2DB1SB",
        "url": "https://www.163.com/dy/article/VBK2DB1SB.html"
    },
    {
        "title": "房子免费给你住，你要吗",
        "docid": "VCKHQUR6D",
        "url": "https://www.163.com/dy/article/VCKHQUR6D.html"
    },
    {
        "title": "国人理想住宅，中式合院，经典不过时，回农村建房首选 超大堂屋，多套卧设计，布局舒适实用",
        "docid": "VPK4OT025",
        "url": "https://www.163.com/dy/article/VPK4OT025.html"
    },
    {
        "title": "大和房屋、积水房屋和住友林业寻求美国并购机会",
        "docid": "VJKDQ1G70",
        "url": "https://www.163.com/dy/article/VJKDQ1G70.html"
    },
    {
        "title": "住建部：在地级及以上城市全面开展城市体检工作",
        "docid": "VGKGH7O2B",
        "url": "https://www.163.com/dy/article/VGKGH7O2B.html"
    },
    {
        "title": "房子离地几十米，猜猜人是怎么上去的",
        "docid": "VVKI3ISLG",
        "url": "https://www.163.com/dy/article/VVKI3ISLG.html"
    },
    {
        "title": "龙虎榜 | 中化岩土今日涨停，机构合计净卖出992.9万元",
        "docid": "VDKF2FJ9B",
        "url": "https://www.163.com/dy/article/VDKF2FJ9B.html"
    },
    {
        "title": "武汉楼市：买房对板块认知不能局限当下！",
        "docid": "ILCKE56R05560R20",
        "url": "https://www.163.com/dy/article/ILCKE56R05560R20.html"
    },
    {
        "title": "武汉11月涨跌榜出炉！最高涨了4026元/平 看看你关注的项目涨了没~",
        "docid": "ILCSH41O0553TDVP",
        "url": "https://www.163.com/dy/article/ILCSH41O0553TDVP.html"
    },
    {
        "title": "武汉楼市：2023，主流产品，将会诞生在这些区域！",
        "docid": "IL9O992705560R20",
        "url": "https://www.163.com/dy/article/IL9O992705560R20.html"
    },
    {
        "title": "二手房周报 | 14城成交环增2%，杭深再增蓉宁转跌（11.27-12.03）",
        "docid": "ILAGMBPG0535A6CE",
        "url": "https://www.163.com/dy/article/ILAGMBPG0535A6CE.html"
    },
    {
        "title": "万达集团准备出售一二线城市万达广场！",
        "docid": "ILBTHTLU0552YPFH",
        "url": "https://www.163.com/dy/article/ILBTHTLU0552YPFH.html"
    },
    {
        "title": "【每日成交】12月6日武汉新建商品住房成交463套，环比上升101.3%",
        "docid": "ILBONL920553TEV3",
        "url": "https://www.163.com/dy/article/ILBONL920553TEV3.html"
    },
    {
        "title": "见过退房扣押金的，首次听说退房还奖励500块！原因太干净！",
        "docid": "ILFS4ACM0552QWCL",
        "url": "https://www.163.com/dy/article/ILFS4ACM0552QWCL.html"
    },
    {
        "title": "武汉楼市：这些垃圾资产正在要你的命",
        "docid": "IL9O6I6905560R20",
        "url": "https://www.163.com/dy/article/IL9O6I6905560R20.html"
    },
    {
        "title": "15×12米二层别墅，外观简约，布局舒适实用，农村建房主体30万",
        "docid": "ILBN6HUA054398PY",
        "url": "https://www.163.com/dy/article/ILBN6HUA054398PY.html"
    },
    {
        "title": "12月8日武汉房价播报：武昌区内环，约12700元/平！",
        "docid": "ILEDM0VB0553RRD3",
        "url": "https://www.163.com/dy/article/ILEDM0VB0553RRD3.html"
    },
    {
        "title": "武汉11月涨跌榜出炉！最高涨了4026元/平 看看你关注的项目涨了没~",
        "docid": "ILCSH41O0553TDVP",
        "url": "https://www.163.com/dy/article/ILCSH41O0553TDVP.html"
    },
    {
        "title": "武汉楼市：2023，主流产品，将会诞生在这些区域！",
        "docid": "IL9O992705560R20",
        "url": "https://www.163.com/dy/article/IL9O992705560R20.html"
    },
    {
        "title": "国际权威评级机构发布报告：楼市或将在24年逐步缓慢恢复",
        "docid": "ILER60SS05565ANG",
        "url": "https://www.163.com/dy/article/ILER60SS05565ANG.html"
    },
    {
        "title": "双地铁，双公园，白沙洲新增新盘",
        "docid": "ILFNQUH205524ETU",
        "url": "https://www.163.com/dy/article/ILFNQUH205524ETU.html"
    },
    {
        "title": "5年后，“电梯房”和“步梯房”谁更值钱？答案已显现",
        "docid": "ILF4LR1V0553TEV3",
        "url": "https://www.163.com/dy/article/ILF4LR1V0553TEV3.html"
    },
    {
        "title": "2024年房价还会下跌吗？金融人士预测：明年房价出乎意料",
        "docid": "ILA4E51H0519GBC0",
        "url": "https://www.163.com/dy/article/ILA4E51H0519GBC0.html"
    },
    {
        "title": "“购房冷静期来了”！武汉8个在售楼盘宣布可以30天无理由退房",
        "docid": "IL8Q6QPI0534P59R",
        "url": "https://www.163.com/dy/article/IL8Q6QPI0534P59R.html"
    },
    {
        "title": "武汉楼市逻辑变了！买房必须关注这些重点！",
        "docid": "ILA1BVE205560R20",
        "url": "https://www.163.com/dy/article/ILA1BVE205560R20.html"
    },
    {
        "title": "12月8日武汉房价播报：武昌区内环，约12700元/平！",
        "docid": "ILEDM0VB0553RRD3",
        "url": "https://www.163.com/dy/article/ILEDM0VB0553RRD3.html"
    },
    {
        "title": "不买房，可以租房一辈子吗？评论让人深思",
        "docid": "ILFPPAP20552QWCS",
        "url": "https://www.163.com/dy/article/ILFPPAP20552QWCS.html"
    },
    {
        "title": "武汉楼市：买房对板块认知不能局限当下！",
        "docid": "ILCKE56R05560R20",
        "url": "https://www.163.com/dy/article/ILCKE56R05560R20.html"
    },
    {
        "title": "武汉楼市：关于武汉买哪，你要明白这些！",
        "docid": "ILCL2R6G05560R20",
        "url": "https://www.163.com/dy/article/ILCL2R6G05560R20.html"
    },
    {
        "title": "武汉楼市：这些垃圾资产正在要你的命",
        "docid": "IL9O6I6905560R20",
        "url": "https://www.163.com/dy/article/IL9O6I6905560R20.html"
    },
    {
        "title": "武汉集中拍卖出让31宗地块 起始价总计超270亿元",
        "docid": "ILAK02BI0553TEV3",
        "url": "https://www.163.com/dy/article/ILAK02BI0553TEV3.html"
    },
    {
        "title": "刚刚！光谷这一大型商超开业时间定了！",
        "docid": "ILAIRG000542M5JD",
        "url": "https://www.163.com/dy/article/ILAIRG000542M5JD.html"
    },
    {
        "title": "万达还是“暴雷”了，王健林能否“渡劫”",
        "docid": "ILF7DS2M0517AAG1",
        "url": "https://www.163.com/dy/article/ILF7DS2M0517AAG1.html"
    },
    {
        "title": "武汉楼市：过去一直想买房，但是一次又一次错过！",
        "docid": "IL9O8GVG05560R20",
        "url": "https://www.163.com/dy/article/IL9O8GVG05560R20.html"
    },
    {
        "title": "知名物业办公室6S管理制度（PPT）",
        "docid": "ILE6C1GK0535R288",
        "url": "https://www.163.com/dy/article/ILE6C1GK0535R288.html"
    },
    {
        "title": "宪法宣传周｜宪法与住房公积金",
        "docid": "ILCS1US80553TDVP",
        "url": "https://www.163.com/dy/article/ILCS1US80553TDVP.html"
    },
    {
        "title": "深圳富基云珑府项目推出“0.5成首付”活动？ 开发商回应为不实消息",
        "docid": "ILE90FR10519D45U",
        "url": "https://www.163.com/dy/article/ILE90FR10519D45U.html"
    },
    {
        "title": "6年前380万买的商铺，你猜猜现在价值多少钱？简直不敢相信！",
        "docid": "VMKBV2FQN",
        "url": "https://www.163.com/dy/article/VMKBV2FQN.html"
    },
    {
        "title": "上海租房，新乐路｜襄阳北路，35—70平精装公寓！",
        "docid": "VLKI6BFDT",
        "url": "https://www.163.com/dy/article/VLKI6BFDT.html"
    },
    {
        "title": "罗杰斯：中国房地产泡沫过大,需要时间",
        "docid": "VDKHSQM4G",
        "url": "https://www.163.com/dy/article/VDKHSQM4G.html"
    },
    {
        "title": "占地五平米的房子，却价值5亿，被称为全市最小“豪宅”！",
        "docid": "VZK22BOLD",
        "url": "https://www.163.com/dy/article/VZK22BOLD.html"
    },
    {
        "title": "龙虎榜 | 元隆雅图今日涨停，营业部席位合计净买入1568.88万元",
        "docid": "VDKHOM9QA",
        "url": "https://www.163.com/dy/article/VDKHOM9QA.html"
    },
    {
        "title": "余向荣：预计2024年全球经济增速将下滑至1.9%",
        "docid": "VMKC2P48D",
        "url": "https://www.163.com/dy/article/VMKC2P48D.html"
    },
    {
        "title": "著名明星在武汉住所一览，多为高端小区别墅，也有些很普通的住宅",
        "docid": "ILB5848D0535MP84",
        "url": "https://www.163.com/dy/article/ILB5848D0535MP84.html"
    },
    {
        "title": "12月8日武汉房价播报：武昌区内环，约12700元/平！",
        "docid": "ILEDM0VB0553RRD3",
        "url": "https://www.163.com/dy/article/ILEDM0VB0553RRD3.html"
    },
    {
        "title": "武汉楼市：买房对板块认知不能局限当下！",
        "docid": "ILCKE56R05560R20",
        "url": "https://www.163.com/dy/article/ILCKE56R05560R20.html"
    },
    {
        "title": "武汉万科楼盘：备案价的71折对外销售！",
        "docid": "ILALORQC0553TDVP",
        "url": "https://www.163.com/dy/article/ILALORQC0553TDVP.html"
    },
    {
        "title": "北京副中心买房攻略一万字干货",
        "docid": "ILFFT1MI0553JP2A",
        "url": "https://www.163.com/dy/article/ILFFT1MI0553JP2A.html"
    },
    {
        "title": "【每日成交】12月6日武汉新建商品住房成交463套，环比上升101.3%",
        "docid": "ILBONL920553TEV3",
        "url": "https://www.163.com/dy/article/ILBONL920553TEV3.html"
    },
    {
        "title": "最值得买房的10个城市！",
        "docid": "IKVCNK5P0553CGSZ",
        "url": "https://www.163.com/dy/article/IKVCNK5P0553CGSZ.html"
    },
    {
        "title": "2023年武汉楼市：买房还需精挑细选！",
        "docid": "ILA1E5I205560R20",
        "url": "https://www.163.com/dy/article/ILA1E5I205560R20.html"
    },
    {
        "title": "北上广深二手房成交量回升",
        "docid": "ILCQLTOO0545PEDS",
        "url": "https://www.163.com/dy/article/ILCQLTOO0545PEDS.html"
    },
    {
        "title": "我，2022年在武汉买下450万的江景房，如今年薪35万却还不上房贷",
        "docid": "IL8ICLE50535KYBT",
        "url": "https://www.163.com/dy/article/IL8ICLE50535KYBT.html"
    },
    {
        "title": "12月8日武汉房价播报：武昌区内环，约12700元/平！",
        "docid": "ILEDM0VB0553RRD3",
        "url": "https://www.163.com/dy/article/ILEDM0VB0553RRD3.html"
    },
    {
        "title": "武汉11月涨跌榜出炉！最高涨了4026元/平 看看你关注的项目涨了没~",
        "docid": "ILCSH41O0553TDVP",
        "url": "https://www.163.com/dy/article/ILCSH41O0553TDVP.html"
    },
    {
        "title": "武汉楼市：关于武汉买哪，你要明白这些！",
        "docid": "ILCL2R6G05560R20",
        "url": "https://www.163.com/dy/article/ILCL2R6G05560R20.html"
    },
    {
        "title": "490平米空中平墅户型，私人露台很漂亮",
        "docid": "ILG8AELS0535KYBT",
        "url": "https://www.163.com/dy/article/ILG8AELS0535KYBT.html"
    },
    {
        "title": "惊！人民币汇率大涨，楼市有2大变化，买卖房者必看",
        "docid": "ILEN9EOG05562KMK",
        "url": "https://www.163.com/dy/article/ILEN9EOG05562KMK.html"
    },
    {
        "title": "武汉买房：楼市下半场进入分化时代！",
        "docid": "ILCKD1SM05560R20",
        "url": "https://www.163.com/dy/article/ILCKD1SM05560R20.html"
    },
    {
        "title": "见过退房扣押金的，首次听说退房还奖励500块！原因太干净！",
        "docid": "ILFS4ACM0552QWCL",
        "url": "https://www.163.com/dy/article/ILFS4ACM0552QWCL.html"
    },
    {
        "title": "武汉270.24亿元挂牌26宗涉宅地、5宗商用地 预计于12月26日出让",
        "docid": "IL8VO5U60519D45U",
        "url": "https://www.163.com/dy/article/IL8VO5U60519D45U.html"
    },
    {
        "title": "29岁每个月还房贷7900元，夫妻失业，全家躺平苦不堪言，后悔买房",
        "docid": "VZKIIN9FT",
        "url": "https://www.163.com/dy/article/VZKIIN9FT.html"
    },
    {
        "title": "开发商收取一年物业费，小区管理却陷“真空”",
        "docid": "VPKIGLN7K",
        "url": "https://www.163.com/dy/article/VPKIGLN7K.html"
    },
    {
        "title": "西双版纳的汤臣一品，明星住的小区",
        "docid": "VWKI2L9EH",
        "url": "https://www.163.com/dy/article/VWKI2L9EH.html"
    },
    {
        "title": "保障房什么人可以申请？如何分配？2023最新申请条件来了！",
        "docid": "VKKHNMTJ9",
        "url": "https://www.163.com/dy/article/VKKHNMTJ9.html"
    },
    {
        "title": "比房价下跌更严重的事情来了，一旦出现钱财两空，大家买房要知道",
        "docid": "VWKIEHE9L",
        "url": "https://www.163.com/dy/article/VWKIEHE9L.html"
    },
    {
        "title": "6.6亿栋房子 谁都有房子",
        "docid": "VWK5O4DFQ",
        "url": "https://www.163.com/dy/article/VWK5O4DFQ.html"
    },
    {
        "title": "政府可以采取哪些措施来解决烂尾楼问题？",
        "docid": "VAKIJ55JB",
        "url": "https://www.163.com/dy/article/VAKIJ55JB.html"
    },
    {
        "title": "3000万的别墅长这样？？？",
        "docid": "VJKIK09L8",
        "url": "https://www.163.com/dy/article/VJKIK09L8.html"
    },
    {
        "title": "现在卖房的房住要小心了",
        "docid": "VQK1HG2PU",
        "url": "https://www.163.com/dy/article/VQK1HG2PU.html"
    },
    {
        "title": "这是一款幸福的户型，实用性确实太强了",
        "docid": "IL3EM0QU0535KYBT",
        "url": "https://www.163.com/dy/article/IL3EM0QU0535KYBT.html"
    },
    {
        "title": "真正理想的房子要配置五个房间，这款户型相当惊艳！",
        "docid": "IL3EO8460535KYBT",
        "url": "https://www.163.com/dy/article/IL3EO8460535KYBT.html"
    },
    {
        "title": "还能投资去投资房地产的城市排名！",
        "docid": "ILGI2SH00553CGHB",
        "url": "https://www.163.com/dy/article/ILGI2SH00553CGHB.html"
    },
    {
        "title": "房子卖不动了？央媒建议：2022年起，要学会过“紧日子”，很真实",
        "docid": "ILGB3C4Q0535MP84",
        "url": "https://www.163.com/dy/article/ILGB3C4Q0535MP84.html"
    },
    {
        "title": "今天听中介的建议，在市场价的基础上降了20万，房子卖出去了。",
        "docid": "IL3E347I0535MP84",
        "url": "https://www.163.com/dy/article/IL3E347I0535MP84.html"
    },
    {
        "title": "房产、契税的热点问题！",
        "docid": "ILGDHQ700553TEV3",
        "url": "https://www.163.com/dy/article/ILGDHQ700553TEV3.html"
    },
    {
        "title": "邓禧：房企良性发展的底线—力保交付",
        "docid": "ILGF75UP05159A0N",
        "url": "https://www.163.com/dy/article/ILGF75UP05159A0N.html"
    },
    {
        "title": "370万买房，负债100多万，丢了工作，无钱还贷款，生活一地鸡毛",
        "docid": "VGKII360B",
        "url": "https://www.163.com/dy/article/VGKII360B.html"
    },
    {
        "title": "上万人弃城离去，留下太多空房，省会周边竟然6万一套房，太震撼",
        "docid": "VGKIFKO6O",
        "url": "https://www.163.com/dy/article/VGKIFKO6O.html"
    },
    {
        "title": "160平米的户型，能美到这个程度，确实非常少见",
        "docid": "ILGC5T220535KYBM",
        "url": "https://www.163.com/dy/article/ILGC5T220535KYBM.html"
    },
    {
        "title": "比抛房潮更难堪一幕出现，三四线发生这种情况，楼市将有重大变化",
        "docid": "ILGBNKLN0535KYBT",
        "url": "https://www.163.com/dy/article/ILGBNKLN0535KYBT.html"
    },
    {
        "title": "潮评丨“网约房”也要成为“阳光房”",
        "docid": "ILGL5K8S055656CA",
        "url": "https://www.163.com/dy/article/ILGL5K8S055656CA.html"
    },
    {
        "title": "“房产证”已成为空壳？房屋产权70年到期后归谁？国家已给出答复",
        "docid": "ILGB2A290552CPHG",
        "url": "https://www.163.com/dy/article/ILGB2A290552CPHG.html"
    },
    {
        "title": "楼市大局已定，无论房价涨还是跌，未来都会面临3大现实买房问题",
        "docid": "IL3EIN860535MP84",
        "url": "https://www.163.com/dy/article/IL3EIN860535MP84.html"
    },
    {
        "title": "230平米的高颜值优雅户型",
        "docid": "IL3DFR640535MP84",
        "url": "https://www.163.com/dy/article/IL3DFR640535MP84.html"
    },
    {
        "title": "磨刀霍霍，他们正在围猎不良资产！",
        "docid": "ILGIRC910552HI5G",
        "url": "https://www.163.com/dy/article/ILGIRC910552HI5G.html"
    },
    {
        "title": "海外置业成高净值人群“刚需”？｜思维生活+",
        "docid": "ILGH7EGE0519C3MG",
        "url": "https://www.163.com/dy/article/ILGH7EGE0519C3MG.html"
    },
    {
        "title": "国家一出手，房地产商不缺钱了？这种现象值得我们深思",
        "docid": "ILEDAJ7M05564LI0",
        "url": "https://www.163.com/dy/article/ILEDAJ7M05564LI0.html"
    },
    {
        "title": "一家8口住50平小房子，只为留在上海居住，父母进退两难",
        "docid": "IL3EFUA70535MP84",
        "url": "https://www.163.com/dy/article/IL3EFUA70535MP84.html"
    },
    {
        "title": "268平米的低密度洋房，让你可以静静享受城市中的绿色生活",
        "docid": "ILG9S1TT0552QWCE",
        "url": "https://www.163.com/dy/article/ILG9S1TT0552QWCE.html"
    },
    {
        "title": "买房别选凸阳台，地产商恨不得白送，入住才知是大坑",
        "docid": "IL3FN2S30535KYBT",
        "url": "https://www.163.com/dy/article/IL3FN2S30535KYBT.html"
    },
    {
        "title": "自带50米空中跑道！386平米的大平层有没有让你眼前一亮？",
        "docid": "ILGAI4JG0552QWCL",
        "url": "https://www.163.com/dy/article/ILGAI4JG0552QWCL.html"
    },
    {
        "title": "以资产缩水绑架民意，鼓吹房价的声音越来越小了",
        "docid": "IL3EMI4K0535MP84",
        "url": "https://www.163.com/dy/article/IL3EMI4K0535MP84.html"
    },
    {
        "title": "谢逸枫：房地产早晚要救！反对救市就是人民的敌人",
        "docid": "ILG8S99V0535KYBT",
        "url": "https://www.163.com/dy/article/ILG8S99V0535KYBT.html"
    },
    {
        "title": "央行行长表态！“主动适应地产市场重大转型”",
        "docid": "ILA74SP10553TDTY",
        "url": "https://www.163.com/dy/article/ILA74SP10553TDTY.html"
    },
    {
        "title": "上万人离开，大量楼房没人住，最低才850元1平，依然无人问津",
        "docid": "VWKILD7KJ",
        "url": "https://www.163.com/dy/article/VWKILD7KJ.html"
    },
    {
        "title": "小区最差的位置，谁买了谁吃亏！建筑环境学专业选房思路，选好房",
        "docid": "VBKHLIMS1",
        "url": "https://www.163.com/dy/article/VBKHLIMS1.html"
    },
    {
        "title": "越南老婆膨胀了.在越南胡志明200万RMB买这样房子合适吗65亿越盾",
        "docid": "VCKIJ72FF",
        "url": "https://www.163.com/dy/article/VCKIJ72FF.html"
    },
    {
        "title": "实拍湖北武汉最贵的豪宅，每平方12万，一套最低就得50000000元",
        "docid": "VWKIMN39D",
        "url": "https://www.163.com/dy/article/VWKIMN39D.html"
    },
    {
        "title": "一天损失100多万，房东当场就崩溃了，不买了我退钱还不行吗",
        "docid": "VCKIMGS2K",
        "url": "https://www.163.com/dy/article/VCKIMGS2K.html"
    },
    {
        "title": "在西双版纳和小龙一个小区，当时买40W，现在值多少钱了呢？",
        "docid": "VWKIQD11R",
        "url": "https://www.163.com/dy/article/VWKIQD11R.html"
    },
    {
        "title": "为什么丁盛说他到生产建设兵团住39平方米房子？事实是这样的",
        "docid": "VSK5LHQT1",
        "url": "https://www.163.com/dy/article/VSK5LHQT1.html"
    },
    {
        "title": "实拍汪小菲大S台北3.6亿的豪宅，超百万一平，周边都是些显赫人物",
        "docid": "VWKIKCU1S",
        "url": "https://www.163.com/dy/article/VWKIKCU1S.html"
    },
    {
        "title": "520元就能买套房屋，成交后卖家却不认账，拍卖过程是否有猫腻？",
        "docid": "VLK5MP0P9",
        "url": "https://www.163.com/dy/article/VLK5MP0P9.html"
    },
    {
        "title": "揭秘海花岛现状，买了海花岛的哭晕在卫生间了吧",
        "docid": "VZKIR22QF",
        "url": "https://www.163.com/dy/article/VZKIR22QF.html"
    },
    {
        "title": "在澳门800w能入什么样的房子？",
        "docid": "VGKIK5KAI",
        "url": "https://www.163.com/dy/article/VGKIK5KAI.html"
    },
    {
        "title": "为什么物业费按房产证面积收取，而不是按公摊面积？",
        "docid": "ILGPOOIB0535R28F",
        "url": "https://www.163.com/dy/article/ILGPOOIB0535R28F.html"
    },
    {
        "title": "央媒集体发声，“支持”房地产行业良性循环，房价走势明朗了",
        "docid": "IL9LNI8K0540SN7V",
        "url": "https://www.163.com/dy/article/IL9LNI8K0540SN7V.html"
    },
    {
        "title": "2023年起，宅基地确权、申请、继承都按新规办，还有四项禁令",
        "docid": "IL9LE4RN0540SN7V",
        "url": "https://www.163.com/dy/article/IL9LE4RN0540SN7V.html"
    },
    {
        "title": "房产证上轻易不要写这两人的名字，以前不懂，现在知道也不晚",
        "docid": "IL3EKLGC0552CPHG",
        "url": "https://www.163.com/dy/article/IL3EKLGC0552CPHG.html"
    },
    {
        "title": "小区电动车规范管理规定",
        "docid": "ILGPOSJL0535R28F",
        "url": "https://www.163.com/dy/article/ILGPOSJL0535R28F.html"
    },
    {
        "title": "2023年中国房地产业大亨命运对比：恒大、万达、碧桂园",
        "docid": "IL3QQ6LO0552O6SX",
        "url": "https://www.163.com/dy/article/IL3QQ6LO0552O6SX.html"
    },
    {
        "title": "【快讯】今年11月份巴西全国住宅租金平均下降0.37%；巴国油公司将其柴油出厂价格每升下调0.27雷亚尔；",
        "docid": "ILGC3HLN0519BOH6",
        "url": "https://www.163.com/dy/article/ILGC3HLN0519BOH6.html"
    },
    {
        "title": "青城·未来院子丨青城山麓，未来院居",
        "docid": "ILE80N6O05566GV5",
        "url": "https://www.163.com/dy/article/ILE80N6O05566GV5.html"
    },
    {
        "title": "日本占东北时，赖着真不想走，看看当时在东北建的住宅有多好",
        "docid": "VAKINRAAE",
        "url": "https://www.163.com/dy/article/VAKINRAAE.html"
    },
    {
        "title": "煤老板归来 “围猎”房地产",
        "docid": "ILGNISEU05199DKK",
        "url": "https://www.163.com/dy/article/ILGNISEU05199DKK.html"
    },
    {
        "title": "比房子卖不动更糟糕的6件事，已开始在各城市蔓延，你发现了吗？",
        "docid": "VNKIU57UH",
        "url": "https://www.163.com/dy/article/VNKIU57UH.html"
    },
    {
        "title": "贷款30年买了90万的恒大海花岛海景房，才住3年，就让我后悔不已",
        "docid": "VZKAVABM8",
        "url": "https://www.163.com/dy/article/VZKAVABM8.html"
    },
    {
        "title": "十几万人弃城离开，遍地空房荒芜，最低几千元一套房，看到底如何",
        "docid": "VCKINKCAG",
        "url": "https://www.163.com/dy/article/VCKINKCAG.html"
    },
    {
        "title": "专家说：房价暴跌老百姓扛不住了！",
        "docid": "VZKITOTO9",
        "url": "https://www.163.com/dy/article/VZKITOTO9.html"
    },
    {
        "title": "国际评级机构乐观预测：中国楼市即将触底反弹",
        "docid": "VZKIU63KP",
        "url": "https://www.163.com/dy/article/VZKIU63KP.html"
    },
    {
        "title": "这两天成交数据挺差的，年底买房人确实变少了",
        "docid": "VCKIVI2U9",
        "url": "https://www.163.com/dy/article/VCKIVI2U9.html"
    },
    {
        "title": "对不起，我真的太爱我家这个客厅了！",
        "docid": "VCKIKCJF4",
        "url": "https://www.163.com/dy/article/VCKIKCJF4.html"
    },
    {
        "title": "64万的房子捡漏40万搞定，没想到中了开发商的奸计！肠子都悔青了",
        "docid": "VCK5Q7VQA",
        "url": "https://www.163.com/dy/article/VCK5Q7VQA.html"
    },
    {
        "title": "马光远、任泽平出手：呼吁救救房地产，救房市就是救经济？错了！",
        "docid": "ILBKFM2R0553SQD3",
        "url": "https://www.163.com/dy/article/ILBKFM2R0553SQD3.html"
    },
    {
        "title": "如何查询购房贷款合同电子版？一文让你轻松掌握，简单又快捷！",
        "docid": "ILGPD7LN0553AF6B",
        "url": "https://www.163.com/dy/article/ILGPD7LN0553AF6B.html"
    },
    {
        "title": "大项目来了？汉南又有两块土地将进行拍卖！",
        "docid": "ILGSD0JG0552TI8F",
        "url": "https://www.163.com/dy/article/ILGSD0JG0552TI8F.html"
    },
    {
        "title": "当市场上的钱多了，就是考验你勇气的时候，金地环湾城",
        "docid": "ILGSO476055667WV",
        "url": "https://www.163.com/dy/article/ILGSO476055667WV.html"
    },
    {
        "title": "地产人从零开始做抖音教程（资料领取）",
        "docid": "ILGKAP2705158B67",
        "url": "https://www.163.com/dy/article/ILGKAP2705158B67.html"
    },
    {
        "title": "房地产萎缩了，生意该怎么做？",
        "docid": "ILGQ69PO05561U8U",
        "url": "https://www.163.com/dy/article/ILGQ69PO05561U8U.html"
    },
    {
        "title": "韩国房价为何大起大落？",
        "docid": "VRKJ3GMGD",
        "url": "https://www.163.com/dy/article/VRKJ3GMGD.html"
    },
    {
        "title": "三千万游艇别墅为伴，806万湖畔大平层，200万装修简约轻奢大横厅",
        "docid": "VBKI0F17M",
        "url": "https://www.163.com/dy/article/VBKI0F17M.html"
    },
    {
        "title": "为什么新房价格都比较坚挺？需要从楼面价说起",
        "docid": "VGKC6RP2A",
        "url": "https://www.163.com/dy/article/VGKC6RP2A.html"
    },
    {
        "title": "物业承接查验与新房交付操作指南",
        "docid": "ILGR6GDH0535R288",
        "url": "https://www.163.com/dy/article/ILGR6GDH0535R288.html"
    },
    {
        "title": "爸妈理想中带院子的房，请耐心看完 #爸妈理想的房子 #昆明",
        "docid": "VQKILCII7",
        "url": "https://www.163.com/dy/article/VQKILCII7.html"
    },
    {
        "title": "中国房地产：未来这个趋势是必然，而且不可逆，你看懂了吗？",
        "docid": "VCKIOTBQ4",
        "url": "https://www.163.com/dy/article/VCKIOTBQ4.html"
    },
    {
        "title": "司马南美国买房问题论述",
        "docid": "VRKISA9NM",
        "url": "https://www.163.com/dy/article/VRKISA9NM.html"
    },
    {
        "title": "千万亿财富去哪了？！地产为何接连暴雷？！",
        "docid": "VGKIQPSRM",
        "url": "https://www.163.com/dy/article/VGKIQPSRM.html"
    },
    {
        "title": "第一集：只需16万，十平米陋室逆天变身两室一厅迷你别墅",
        "docid": "VYK5VNEQB",
        "url": "https://www.163.com/dy/article/VYK5VNEQB.html"
    },
    {
        "title": "业委会表决赶走物业，旧物业聚众堵门，光头带人上门威胁气焰嚣张",
        "docid": "VBKJ0IGK2",
        "url": "https://www.163.com/dy/article/VBKJ0IGK2.html"
    },
    {
        "title": "房子怎样过户最省钱，教你一招能省好几万！",
        "docid": "VZKIQSRA3",
        "url": "https://www.163.com/dy/article/VZKIQSRA3.html"
    },
    {
        "title": "房价就像把双刃剑既不能涨也不能跌",
        "docid": "VUKIRAAO6",
        "url": "https://www.163.com/dy/article/VUKIRAAO6.html"
    },
    {
        "title": "2023年底，武汉这些楼盘即将交付！",
        "docid": "ILGVT2EH0545PEDS",
        "url": "https://www.163.com/dy/article/ILGVT2EH0545PEDS.html"
    },
    {
        "title": "9月1日起，农村宅基地迎来4项“禁令”，老家有房子的朋友要注意",
        "docid": "IL9RFIH40540KLAM",
        "url": "https://www.163.com/dy/article/IL9RFIH40540KLAM.html"
    },
    {
        "title": "不太乐观！曾经贵为超级新区，如今被压制！12XXX也不好卖！",
        "docid": "ILGVVLST0556123R",
        "url": "https://www.163.com/dy/article/ILGVVLST0556123R.html"
    },
    {
        "title": "房产的调整期将是3到5年，未来几年别轻易买房",
        "docid": "ILBJSCF90553SQD3",
        "url": "https://www.163.com/dy/article/ILBJSCF90553SQD3.html"
    },
    {
        "title": "32岁，坐标上海，税前4w多一些，下午工资刚到手",
        "docid": "ILH0JEN10553MZK7",
        "url": "https://www.163.com/dy/article/ILH0JEN10553MZK7.html"
    },
    {
        "title": "什么情况！首付0.5成？",
        "docid": "ILH0K0KT0553TDTY",
        "url": "https://www.163.com/dy/article/ILH0K0KT0553TDTY.html"
    },
    {
        "title": "醒醒吧，不要疯狂买房，人口最高峰1970年，红利消失，没人接盘了",
        "docid": "ILGUM2JG05562DLL",
        "url": "https://www.163.com/dy/article/ILGUM2JG05562DLL.html"
    },
    {
        "title": "从旧小区加装电梯终于知道为什么古人说：嘴大吃四方",
        "docid": "IL3DRPS40552CPHG",
        "url": "https://www.163.com/dy/article/IL3DRPS40552CPHG.html"
    },
    {
        "title": "候鸟老人纷纷离开，炒房客半价抛售，高品质海景房，一万跌到5千",
        "docid": "VCKIFNRMM",
        "url": "https://www.163.com/dy/article/VCKIFNRMM.html"
    },
    {
        "title": "张朝阳：年轻人租房挺好，都租房就有闲钱养孩子了 ",
        "docid": "VCKJ313I9",
        "url": "https://www.163.com/dy/article/VCKJ313I9.html"
    },
    {
        "title": "9234万元八大关别墅遭悔拍，923万元保证金将被罚没？（半岛全媒体首席记者 赵永宝）",
        "docid": "VCKILUF7U",
        "url": "https://www.163.com/dy/article/VCKILUF7U.html"
    },
    {
        "title": "工地房产不挂广告语，竟然挂这个，老板脑回路锈住了",
        "docid": "VAKHTJ6UG",
        "url": "https://www.163.com/dy/article/VAKHTJ6UG.html"
    },
    {
        "title": "大理的小院子二楼带露台端头阳光好",
        "docid": "VCKHNM3FR",
        "url": "https://www.163.com/dy/article/VCKHNM3FR.html"
    },
    {
        "title": "许家印在全国到底有多少豪宅",
        "docid": "VYK3H8E2T",
        "url": "https://www.163.com/dy/article/VYK3H8E2T.html"
    },
    {
        "title": "提前还房贷，你会有什么好处？",
        "docid": "VYK5PUF26",
        "url": "https://www.163.com/dy/article/VYK5PUF26.html"
    },
    {
        "title": "家庭事业两兼顾的洋房你觉得可以嘛？",
        "docid": "VJK40GL0H",
        "url": "https://www.163.com/dy/article/VJK40GL0H.html"
    },
    {
        "title": "国人对房地产的追求是无止境的。",
        "docid": "VGKJ70E87",
        "url": "https://www.163.com/dy/article/VGKJ70E87.html"
    },
    {
        "title": "#观察家TALK  | #陈洪斌 ：对于#地方债务 、房地产链路债务化解的建议 #房地产 #房地产债",
        "docid": "VPKJ73FMD",
        "url": "https://www.163.com/dy/article/VPKJ73FMD.html"
    },
    {
        "title": "开间10米，进深8米三层小别墅，高端大气宜居首选",
        "docid": "ILGUITLQ0552QWCS",
        "url": "https://www.163.com/dy/article/ILGUITLQ0552QWCS.html"
    },
    {
        "title": "多数年轻人的房子车子都是父母支持的，甚至孩子都是父母拿钱养！",
        "docid": "ILH2ONQ20553TEV3",
        "url": "https://www.163.com/dy/article/ILH2ONQ20553TEV3.html"
    },
    {
        "title": "高科、仁恒两大新盘公开！先剧透一波....",
        "docid": "ILH31SLT05522QVI",
        "url": "https://www.163.com/dy/article/ILH31SLT05522QVI.html"
    },
    {
        "title": "一直在卖卖卖，这次万达对“万达广场”动手了",
        "docid": "ILH2DQFE05565ANR",
        "url": "https://www.163.com/dy/article/ILH2DQFE05565ANR.html"
    },
    {
        "title": "醒醒吧，不要冲动买房，收入预期下降，购房需求暴跌，买房人注意",
        "docid": "ILH0979205562DLL",
        "url": "https://www.163.com/dy/article/ILH0979205562DLL.html"
    },
    {
        "title": "别再观望了，赶快买房吧，房价不会暴跌的原因找到了，买房人注意",
        "docid": "ILH2E9I305562DLL",
        "url": "https://www.163.com/dy/article/ILH2E9I305562DLL.html"
    },
    {
        "title": "许家印没有霍霍穷人，买房上当的人都是有钱人",
        "docid": "ILGV6OE505562BBD",
        "url": "https://www.163.com/dy/article/ILGV6OE505562BBD.html"
    },
    {
        "title": "高雄一栋9层大楼几十年来经常听到小孩哭声，到底怎么回事？",
        "docid": "VWKJ72Q6O",
        "url": "https://www.163.com/dy/article/VWKJ72Q6O.html"
    },
    {
        "title": "为何大超市大量倒闭关门了？原因在这里？",
        "docid": "VPKJ7TA2J",
        "url": "https://www.163.com/dy/article/VPKJ7TA2J.html"
    },
    {
        "title": "房价下跌，和很多城市工资下降也有关系",
        "docid": "ILH32T4M05565ANR",
        "url": "https://www.163.com/dy/article/ILH32T4M05565ANR.html"
    },
    {
        "title": "100万的房贷，30年要多少利息？内行人士提醒：不少人选错了",
        "docid": "IL9RMRID0540KLAM",
        "url": "https://www.163.com/dy/article/IL9RMRID0540KLAM.html"
    },
    {
        "title": "【超准】性格测试！做完这几道题，揭露你的“买房人格”",
        "docid": "ILH5BDVA05560VII",
        "url": "https://www.163.com/dy/article/ILH5BDVA05560VII.html"
    },
    {
        "title": "北方第二大城市房价“大事件”，打工16年买房倾家荡产活不下去了",
        "docid": "VOKJ0SSIC",
        "url": "https://www.163.com/dy/article/VOKJ0SSIC.html"
    },
    {
        "title": "中指研究院:房价上涨仍乏力！全国308座城市房价大比拼，68城破万",
        "docid": "VQKGEV4E8",
        "url": "https://www.163.com/dy/article/VQKGEV4E8.html"
    },
    {
        "title": "曹德旺预言已成真？中国二三十层电梯房，将来或面临一个结果？",
        "docid": "VWKJBOB0D",
        "url": "https://www.163.com/dy/article/VWKJBOB0D.html"
    },
    {
        "title": "赤裸裸的真相看完你还敢要吗？",
        "docid": "VGK5QNTK5",
        "url": "https://www.163.com/dy/article/VGK5QNTK5.html"
    },
    {
        "title": "这才是湖北武汉真正的富人区，住在这里非富即贵，普通人只能看看",
        "docid": "VGKIMGPMM",
        "url": "https://www.163.com/dy/article/VGKIMGPMM.html"
    },
    {
        "title": "房地产市场几年能缓过来？",
        "docid": "VGKJ3U7Q6",
        "url": "https://www.163.com/dy/article/VGKJ3U7Q6.html"
    },
    {
        "title": "疯狂，不要太冲动，不要急着买房，跌幅10%，业主终于绷不住了！",
        "docid": "ILH1ASEB05562DLL",
        "url": "https://www.163.com/dy/article/ILH1ASEB05562DLL.html"
    },
    {
        "title": "太难了，市场有多糟糕，200多万的房子中介让我挂140万，注意了！",
        "docid": "ILH0R05U05562DLL",
        "url": "https://www.163.com/dy/article/ILH0R05U05562DLL.html"
    },
    {
        "title": "重磅利好，不要急着买房，楼市还没见底，1~11月住宅成交下降28%",
        "docid": "ILH447SC05566C1Z",
        "url": "https://www.163.com/dy/article/ILH447SC05566C1Z.html"
    },
    {
        "title": "投资600亿的项目，3天就黄了，这可能是新型骗局！",
        "docid": "VQKIV5A4G",
        "url": "https://www.163.com/dy/article/VQKIV5A4G.html"
    },
    {
        "title": "碧桂园杨惠妍表决心：砸锅卖铁也要保交楼，10年不拿地也不担心",
        "docid": "VAKJ9T200",
        "url": "https://www.163.com/dy/article/VAKJ9T200.html"
    },
    {
        "title": "农村建房别攀比，这款经济实用二层小别墅设计就不错",
        "docid": "VDK58JU5N",
        "url": "https://www.163.com/dy/article/VDK58JU5N.html"
    },
    {
        "title": "隐患不小！老小区住房翻新，一室一厅变身“三室两厅” ！#装修 #老小区",
        "docid": "VFKJBHQ1V",
        "url": "https://www.163.com/dy/article/VFKJBHQ1V.html"
    },
    {
        "title": "东北第一大城市房价烽火连城",
        "docid": "VOKITS2N3",
        "url": "https://www.163.com/dy/article/VOKITS2N3.html"
    },
    {
        "title": "上海老陈说房抵：最强解析，黑户花户到底能不能贷款？",
        "docid": "VJKESG3ST",
        "url": "https://www.163.com/dy/article/VJKESG3ST.html"
    },
    {
        "title": "3大信号出现？中国楼市迎来新变化，一场“巨变”，或将上演？",
        "docid": "ILBKAVA80540A6F8",
        "url": "https://www.163.com/dy/article/ILBKAVA80540A6F8.html"
    },
    {
        "title": "王健林一语成谶，2024年的房价，或将出现巨大变化",
        "docid": "ILBKTT420540A6F8",
        "url": "https://www.163.com/dy/article/ILBKTT420540A6F8.html"
    },
    {
        "title": "万达败退，开始割肉“套现”了？！",
        "docid": "ILH8F0V50538O5JP",
        "url": "https://www.163.com/dy/article/ILH8F0V50538O5JP.html"
    },
    {
        "title": "碧桂园杨惠妍说就是砸锅卖铁也要保交楼，你相信她说的话吗？",
        "docid": "ILH2K71705564Q5T",
        "url": "https://www.163.com/dy/article/ILH2K71705564Q5T.html"
    },
    {
        "title": "执行法院能否冻结被执行人的住房公积金",
        "docid": "ILH75T6Q0553TDTY",
        "url": "https://www.163.com/dy/article/ILH75T6Q0553TDTY.html"
    },
    {
        "title": "央媒：楼市供大于求，每年650万套空置房怎么办？降价是唯一选择",
        "docid": "VMKJEKV6B",
        "url": "https://www.163.com/dy/article/VMKJEKV6B.html"
    },
    {
        "title": "房地产神预言，全都说中了!",
        "docid": "VMKGROIUG",
        "url": "https://www.163.com/dy/article/VMKGROIUG.html"
    },
    {
        "title": "网友不在银滩，想通过视频看看自己的家，必须满足他",
        "docid": "VBKIPF1V2",
        "url": "https://www.163.com/dy/article/VBKIPF1V2.html"
    },
    {
        "title": "再探云溪御园品质让我们大吃一惊",
        "docid": "VVKGMBCGK",
        "url": "https://www.163.com/dy/article/VVKGMBCGK.html"
    },
    {
        "title": "武汉部分房价已崩？2021年160万的房，如今卖掉还欠银行22",
        "docid": "ILE6P8CL055616ZT",
        "url": "https://www.163.com/dy/article/ILE6P8CL055616ZT.html"
    },
    {
        "title": "第4代住宅真的来了？多地已经开始试点，传统电梯房会被淘汰吗？",
        "docid": "ILBK5NFD0553SQD3",
        "url": "https://www.163.com/dy/article/ILBK5NFD0553SQD3.html"
    },
    {
        "title": "二手房面临的困境，比房价下跌严重，三点影响楼市走势",
        "docid": "ILH2H38605565ANP",
        "url": "https://www.163.com/dy/article/ILH2H38605565ANP.html"
    },
    {
        "title": "存量房贷利率下调，为何我只能降到4.3%，而别人的是4.2%？",
        "docid": "ILBK3C2S0553SQD3",
        "url": "https://www.163.com/dy/article/ILBK3C2S0553SQD3.html"
    },
    {
        "title": "准备好硬扛30年，和日本当年一模一样，还清房贷经济才会有起色",
        "docid": "ILBLAQNB0553SQD3",
        "url": "https://www.163.com/dy/article/ILBLAQNB0553SQD3.html"
    },
    {
        "title": "抢攻青年票，侯友宜推居住新政策：年轻人购房可全额贷款",
        "docid": "ILH337I305565ANQ",
        "url": "https://www.163.com/dy/article/ILH337I305565ANQ.html"
    },
    {
        "title": "武汉11月涨跌榜出炉！最高涨了4026元/平 看看你关注的项目涨了没~",
        "docid": "ILCSH41O0553TDVP",
        "url": "https://www.163.com/dy/article/ILCSH41O0553TDVP.html"
    },
    {
        "title": "二手房以价换量见效，苏州官方回应新房降价：目前形势不让降不好",
        "docid": "ILH2H0AP05565ANO",
        "url": "https://www.163.com/dy/article/ILH2H0AP05565ANO.html"
    },
    {
        "title": "2024，澳洲楼市迎来变局！",
        "docid": "ILHA39Q605199N88",
        "url": "https://www.163.com/dy/article/ILHA39Q605199N88.html"
    },
    {
        "title": "危房改造进行中，接下来要定期开展住房安全走访摸排工作，咋回事",
        "docid": "ILH8KVHS0553RRD3",
        "url": "https://www.163.com/dy/article/ILH8KVHS0553RRD3.html"
    },
    {
        "title": "明年起，当楼市出现这两个信号以后，做好资产泡沫破灭的准备",
        "docid": "VMKJ7E52R",
        "url": "https://www.163.com/dy/article/VMKJ7E52R.html"
    },
    {
        "title": "支撑房价上涨的城市化率，未来如何实现？",
        "docid": "VPKJGFMQ5",
        "url": "https://www.163.com/dy/article/VPKJGFMQ5.html"
    },
    {
        "title": "天津首个“全现房销售”诞生",
        "docid": "VPKF4EEKL",
        "url": "https://www.163.com/dy/article/VPKF4EEKL.html"
    },
    {
        "title": "买房过程中，很多人不知道的省钱方法",
        "docid": "VGKJDMGGS",
        "url": "https://www.163.com/dy/article/VGKJDMGGS.html"
    },
    {
        "title": "2023PChouseAward私宅设计师大奖年度盛典即将起航",
        "docid": "VYKGKGMHP",
        "url": "https://www.163.com/dy/article/VYKGKGMHP.html"
    },
    {
        "title": "彻底摊牌了！专家说房地产市场，已经严重超调！炒房客~插翅难逃",
        "docid": "VVKISBMOV",
        "url": "https://www.163.com/dy/article/VVKISBMOV.html"
    },
    {
        "title": "一顿看房猛如虎，一旦下定就退缩",
        "docid": "VUKGOBAHS",
        "url": "https://www.163.com/dy/article/VUKGOBAHS.html"
    },
    {
        "title": " 一定程度上会影响房贷，建议保持良好征信记录",
        "docid": "VCKGUJIG6",
        "url": "https://www.163.com/dy/article/VCKGUJIG6.html"
    },
    {
        "title": "武船武泰闸A地块住宅项目公示！",
        "docid": "ILHDTAF20534SV3Y",
        "url": "https://www.163.com/dy/article/ILHDTAF20534SV3Y.html"
    },
    {
        "title": "青菱新城 | 大华公园城市二期项目公示！楼面价6055.68元/平",
        "docid": "ILHDT4D80534SV3Y",
        "url": "https://www.163.com/dy/article/ILHDT4D80534SV3Y.html"
    },
    {
        "title": "专家朱海斌：房地产政策核心要务是保房价，为什么会有如此言论？",
        "docid": "ILH7PACR0515DKDK",
        "url": "https://www.163.com/dy/article/ILH7PACR0515DKDK.html"
    },
    {
        "title": "即日起，一旦房贷利率涨破7%，你将自动收获这5大福利！",
        "docid": "ILH98OUM0515DKDK",
        "url": "https://www.163.com/dy/article/ILH98OUM0515DKDK.html"
    },
    {
        "title": "同一层楼里不同阶层的对比，基层打螺丝，中层啃甘蔗，管理层打牌",
        "docid": "VYKJGNLNA",
        "url": "https://www.163.com/dy/article/VYKJGNLNA.html"
    },
    {
        "title": "买房新骗局入套就无解！男朋友恋爱送婚房，买完房子就失踪！",
        "docid": "VCKJJ04SF",
        "url": "https://www.163.com/dy/article/VCKJJ04SF.html"
    },
    {
        "title": "当我站在这个房子里的时候 我才明白了奋斗的意义",
        "docid": "VCKJKCRAU",
        "url": "https://www.163.com/dy/article/VCKJKCRAU.html"
    },
    {
        "title": "张朝阳称租房就会有闲钱养孩子：真觉得租房挺好的，丈母娘总要房子太傻实际害了女儿",
        "docid": "VOKGJ412G",
        "url": "https://www.163.com/dy/article/VOKGJ412G.html"
    },
    {
        "title": "这房子李白来了也得提一笔",
        "docid": "VGKJF6CI5",
        "url": "https://www.163.com/dy/article/VGKJF6CI5.html"
    },
    {
        "title": "救活房地产的办法：拆掉30年以上的老楼",
        "docid": "ILHDH00005563TCH",
        "url": "https://www.163.com/dy/article/ILHDH00005563TCH.html"
    },
    {
        "title": "明年起，做好资产泡沫破灭准备？两大信号出现，房产走向逐渐明确",
        "docid": "ILC8R86405563TCH",
        "url": "https://www.163.com/dy/article/ILC8R86405563TCH.html"
    },
    {
        "title": "自如资管与中铁建工集团达成合作 计划每年提供5000间以上租赁住房",
        "docid": "ILBLBK7Q0519D45U",
        "url": "https://www.163.com/dy/article/ILBLBK7Q0519D45U.html"
    },
    {
        "title": "注意了！不要看衰房地产，不要等房价暴跌，赶紧买房才是重要事情",
        "docid": "ILFEJG6N05566C1Z",
        "url": "https://www.163.com/dy/article/ILFEJG6N05566C1Z.html"
    },
    {
        "title": "杨惠妍：明年碧桂园预计交付超40万套，会“砸锅卖铁”支持公司",
        "docid": "ILFVHEEC0514R9OM",
        "url": "https://www.163.com/dy/article/ILFVHEEC0514R9OM.html"
    },
    {
        "title": "淡季效应显现 年末住房租赁市场活跃度下降",
        "docid": "IL9T03O305199NHJ",
        "url": "https://www.163.com/dy/article/IL9T03O305199NHJ.html"
    },
    {
        "title": "光谷南（流芳片区）中芯一路赛达锦城项目规划方案批前公示",
        "docid": "ILCSTR6U0534CYN4",
        "url": "https://www.163.com/dy/article/ILCSTR6U0534CYN4.html"
    },
    {
        "title": "当下，买房追求的东西变了",
        "docid": "IL71NE7G0552Q0P5",
        "url": "https://www.163.com/dy/article/IL71NE7G0552Q0P5.html"
    },
    {
        "title": "个人网贷信息全面接入征信系统，你的房贷会受多大影响？",
        "docid": "ILHAKG2905563VMS",
        "url": "https://www.163.com/dy/article/ILHAKG2905563VMS.html"
    },
    {
        "title": "未来的房价和楼市——高房价低流通并存",
        "docid": "ILH1I07U0553XQFH",
        "url": "https://www.163.com/dy/article/ILH1I07U0553XQFH.html"
    },
    {
        "title": "许家印千万祖坟濒临凋落！风水格局已破，有望重掌恒大霸权？",
        "docid": "ILHEEA2A0556539Y",
        "url": "https://www.163.com/dy/article/ILHEEA2A0556539Y.html"
    },
    {
        "title": "发现没？除了卖房难，社会又出现3类&amp;",
        "docid": "ILHIET4P0553TEQM",
        "url": "https://www.163.com/dy/article/ILHIET4P0553TEQM.html"
    },
    {
        "title": "低层房子究竟能不能买？购买低层住宅5大细节切记不可忽略！",
        "docid": "IL4F1UO80520CBAF",
        "url": "https://www.163.com/dy/article/IL4F1UO80520CBAF.html"
    },
    {
        "title": "中指预判2024地产趋势：持续调整，未来可期",
        "docid": "ILE6RVOU05159A0N",
        "url": "https://www.163.com/dy/article/ILE6RVOU05159A0N.html"
    },
    {
        "title": "杨惠妍要“砸锅卖铁”了？",
        "docid": "ILH8QJ0D055381XS",
        "url": "https://www.163.com/dy/article/ILH8QJ0D055381XS.html"
    },
    {
        "title": "物业公司为啥都去卖酒了？",
        "docid": "ILBTU51R0552QWCE",
        "url": "https://www.163.com/dy/article/ILBTU51R0552QWCE.html"
    },
    {
        "title": "曝万达拟抛售旗下万达广场，潜在买家或是险资机构",
        "docid": "ILEU99NB05352LE9",
        "url": "https://www.163.com/dy/article/ILEU99NB05352LE9.html"
    },
    {
        "title": "528户！武汉又一新楼盘！效果图曝光！",
        "docid": "ILHGUQ0D0553TDVP",
        "url": "https://www.163.com/dy/article/ILHGUQ0D0553TDVP.html"
    },
    {
        "title": "深扒算力租赁，百亿市场鱼龙混杂？",
        "docid": "ILHH8HUJ0552QWCL",
        "url": "https://www.163.com/dy/article/ILHH8HUJ0552QWCL.html"
    },
    {
        "title": "中国各个房地产商的健康情况！",
        "docid": "ILHHJFVO0553CGI3",
        "url": "https://www.163.com/dy/article/ILHHJFVO0553CGI3.html"
    },
    {
        "title": "武汉青山的房价为什么抗跌，江夏小夫妻放弃光谷选择青山买房",
        "docid": "VCKJL9VPI",
        "url": "https://www.163.com/dy/article/VCKJL9VPI.html"
    },
    {
        "title": "阿娇鬼哥想买房子，六层小洋楼130平全款80万，阿娇鬼哥犹豫了",
        "docid": "VZKJNMI52",
        "url": "https://www.163.com/dy/article/VZKJNMI52.html"
    },
    {
        "title": "任泽平：二套房老百姓也是人，二套房存量贷款利率也应该降",
        "docid": "VAKJ4TVTN",
        "url": "https://www.163.com/dy/article/VAKJ4TVTN.html"
    },
    {
        "title": "骗局来了，这种房子就是坑",
        "docid": "VLKIQEG24",
        "url": "https://www.163.com/dy/article/VLKIQEG24.html"
    },
    {
        "title": "买二手房是先过户，还是先交钱",
        "docid": "VFKJKTIEG",
        "url": "https://www.163.com/dy/article/VFKJKTIEG.html"
    },
    {
        "title": "王思聪公司删除“帮得物落地线下门店”等商业表述",
        "docid": "VKKE01REJ",
        "url": "https://www.163.com/dy/article/VKKE01REJ.html"
    },
    {
        "title": "光明乳业：签订土地收储协议，各类补偿金额合计4.32亿元",
        "docid": "VDKH92BAF",
        "url": "https://www.163.com/dy/article/VDKH92BAF.html"
    },
    {
        "title": "看到邻居的退休金，我都愣住了",
        "docid": "ILH3291B05564H5A",
        "url": "https://www.163.com/dy/article/ILH3291B05564H5A.html"
    },
    {
        "title": "王健林卖万达广场，杨惠妍砸锅卖铁，地产商为何集体倒在2023年？",
        "docid": "ILHIU2LJ051185C7",
        "url": "https://www.163.com/dy/article/ILHIU2LJ051185C7.html"
    },
    {
        "title": "撑不住了！苏州取消新房“限跌令”：不让降价销售，或致烂尾",
        "docid": "ILHH3CIC05563PN0",
        "url": "https://www.163.com/dy/article/ILHH3CIC05563PN0.html"
    },
    {
        "title": "一分钟看天下潮商2023.12.09",
        "docid": "ILHHRI2D0519A26E",
        "url": "https://www.163.com/dy/article/ILHHRI2D0519A26E.html"
    },
    {
        "title": "深圳梧桐雅苑 一房73W两房91W起",
        "docid": "VDKGOV4RR",
        "url": "https://www.163.com/dy/article/VDKGOV4RR.html"
    },
    {
        "title": "未来五年之后，房子是“白菜价”还是“黄金价”？王健林给出答案",
        "docid": "VGKJQHSUI",
        "url": "https://www.163.com/dy/article/VGKJQHSUI.html"
    },
    {
        "title": "67岁老人握妻子手买人生第一套房：为给儿子减轻负担，买房送孙子",
        "docid": "VCKJLFEOO",
        "url": "https://www.163.com/dy/article/VCKJLFEOO.html"
    },
    {
        "title": "房价肯定会上涨这轮涨幅在30%以上",
        "docid": "VEKH8BD0S",
        "url": "https://www.163.com/dy/article/VEKH8BD0S.html"
    },
    {
        "title": "恒大白珊珊，巨额房产怎么还？",
        "docid": "VFKJQOCV6",
        "url": "https://www.163.com/dy/article/VFKJQOCV6.html"
    },
    {
        "title": "申请住房公积金贷款，贷款额度如何计算？",
        "docid": "ILHLEOSH0534M7IC",
        "url": "https://www.163.com/dy/article/ILHLEOSH0534M7IC.html"
    },
    {
        "title": "地产启示录丨万达腾挪失据：资本“逼宫”与财务谜团",
        "docid": "ILF9TSTC05199NPP",
        "url": "https://www.163.com/dy/article/ILF9TSTC05199NPP.html"
    },
    {
        "title": "2024年楼市继续下跌还是回暖? 会不会逆风翻盘，绝地反击?",
        "docid": "ILCC1HTK0556123R",
        "url": "https://www.163.com/dy/article/ILCC1HTK0556123R.html"
    },
    {
        "title": "武汉十大豪宅小区 武汉最有钱的人都住哪里",
        "docid": "ILGB5OFP0535MP84",
        "url": "https://www.163.com/dy/article/ILGB5OFP0535MP84.html"
    },
    {
        "title": "光谷南（流芳片区）中芯一路赛达锦城项目规划方案批前公示",
        "docid": "ILCSTR6U0534CYN4",
        "url": "https://www.163.com/dy/article/ILCSTR6U0534CYN4.html"
    },
    {
        "title": "大项目来了？汉南又有两块土地将进行拍卖！",
        "docid": "ILGSD0JG0552TI8F",
        "url": "https://www.163.com/dy/article/ILGSD0JG0552TI8F.html"
    },
    {
        "title": "中国金茂：前11月签约销售金额共计1320.3亿元",
        "docid": "ILF8A5H90534A4SC",
        "url": "https://www.163.com/dy/article/ILF8A5H90534A4SC.html"
    },
    {
        "title": "光谷中心城南新增一住宅楼盘！528户",
        "docid": "ILHDTEIB0534SV3Y",
        "url": "https://www.163.com/dy/article/ILHDTEIB0534SV3Y.html"
    },
    {
        "title": "土拍速报：成交1宗延期1宗！武汉城建2.96亿底价竞得一地",
        "docid": "ILCEI7IQ0553TB8M",
        "url": "https://www.163.com/dy/article/ILCEI7IQ0553TB8M.html"
    },
    {
        "title": "528户！武汉又一新楼盘！效果图曝光！",
        "docid": "ILHGUQ0D0553TDVP",
        "url": "https://www.163.com/dy/article/ILHGUQ0D0553TDVP.html"
    },
    {
        "title": "武汉十大豪宅小区 武汉最有钱的人都住哪里",
        "docid": "ILGB5OFP0535MP84",
        "url": "https://www.163.com/dy/article/ILGB5OFP0535MP84.html"
    },
    {
        "title": "光谷南（流芳片区）中芯一路赛达锦城项目规划方案批前公示",
        "docid": "ILCSTR6U0534CYN4",
        "url": "https://www.163.com/dy/article/ILCSTR6U0534CYN4.html"
    },
    {
        "title": "报道称王健林拟出售一二线城市万达广场，万达还剩些什么？能渡过难关吗？",
        "docid": "ILGOU4M40553TEQM",
        "url": "https://www.163.com/dy/article/ILGOU4M40553TEQM.html"
    },
    {
        "title": "武汉经开3宗住宅用地挂牌！",
        "docid": "ILHDTKBG0534SV3Y",
        "url": "https://www.163.com/dy/article/ILHDTKBG0534SV3Y.html"
    },
    {
        "title": "碧桂园杨惠妍：即使不买地，未来十年仍能保持正资产",
        "docid": "ILGR30J005391O4W",
        "url": "https://www.163.com/dy/article/ILGR30J005391O4W.html"
    },
    {
        "title": "MOD穆德设计 | 建发·书香泊月：诗意美学，抒写品质生活",
        "docid": "IL9R9GO9055643J6",
        "url": "https://www.163.com/dy/article/IL9R9GO9055643J6.html"
    },
    {
        "title": "房地产行业大事件汇总(2023.1207)：“中建系”接连入局广州旧改",
        "docid": "ILC35EHR0515APM9",
        "url": "https://www.163.com/dy/article/ILC35EHR0515APM9.html"
    },
    {
        "title": "武汉买房：当下这个区域购买力有限！",
        "docid": "ILA1CUTM05560R20",
        "url": "https://www.163.com/dy/article/ILA1CUTM05560R20.html"
    },
    {
        "title": "2024年房价是否会继续下跌是一个很有可能出现的问题",
        "docid": "ILF3JMIN055639UA",
        "url": "https://www.163.com/dy/article/ILF3JMIN055639UA.html"
    },
    {
        "title": "下周出方案，澳大利亚要收紧移民了",
        "docid": "ILHQN9FJ05198NMR",
        "url": "https://www.163.com/dy/article/ILHQN9FJ05198NMR.html"
    },
    {
        "title": "一辈子租房就有闲钱养孩子？张朝阳发言引热议",
        "docid": "VTKH9L2IV",
        "url": "https://www.163.com/dy/article/VTKH9L2IV.html"
    },
    {
        "title": "天河卷出新高度，产品大战即将打响 ",
        "docid": "VLKJ5R07S",
        "url": "https://www.163.com/dy/article/VLKJ5R07S.html"
    },
    {
        "title": "卖掉上海房子换2千万现金,回老\n家买5套房子，如今过得怎样",
        "docid": "VMKH2MPQ0",
        "url": "https://www.163.com/dy/article/VMKH2MPQ0.html"
    },
    {
        "title": "国家“一锤定音”，老房子统一这样处理，这2类人要笑了",
        "docid": "VSKJJL2D3",
        "url": "https://www.163.com/dy/article/VSKJJL2D3.html"
    },
    {
        "title": "房地产最大的谎言，被彻底捅破了！",
        "docid": "VZKJST49O",
        "url": "https://www.163.com/dy/article/VZKJST49O.html"
    },
    {
        "title": "你感觉现在是买房的好时机吗",
        "docid": "VGKJKU6TP",
        "url": "https://www.163.com/dy/article/VGKJKU6TP.html"
    },
    {
        "title": "40年前后中国物价对比，通货膨胀，还是房子更有性价比",
        "docid": "VPKJPT5Q8",
        "url": "https://www.163.com/dy/article/VPKJPT5Q8.html"
    },
    {
        "title": "青菱新城 | 大华公园城市二期项目公示！楼面价6055.68元/平",
        "docid": "ILHDT4D80534SV3Y",
        "url": "https://www.163.com/dy/article/ILHDT4D80534SV3Y.html"
    },
    {
        "title": "高善文：房地产市场已超调，明年流动性风险有望改善",
        "docid": "ILBEGHHE0514R9P4",
        "url": "https://www.163.com/dy/article/ILBEGHHE0514R9P4.html"
    },
    {
        "title": "物业公司为什么都去卖酒了？",
        "docid": "ILC8AG9605198R91",
        "url": "https://www.163.com/dy/article/ILC8AG9605198R91.html"
    },
    {
        "title": "2023年武汉楼市：当下买房，选择时机窗口是关键！",
        "docid": "ILFHA7TR05560R20",
        "url": "https://www.163.com/dy/article/ILFHA7TR05560R20.html"
    },
    {
        "title": "年轻人租房就有钱养孩子？丈母娘要房是害女儿？张朝阳发言引争议",
        "docid": "ILHEIL9O0553K45K",
        "url": "https://www.163.com/dy/article/ILHEIL9O0553K45K.html"
    },
    {
        "title": "正荣地产：1-11月交付3.59万户 单月交付1800户",
        "docid": "ILBOT59T0519D45U",
        "url": "https://www.163.com/dy/article/ILBOT59T0519D45U.html"
    },
    {
        "title": "光谷中心城南新增一住宅楼盘！528户",
        "docid": "ILHDTEIB0534SV3Y",
        "url": "https://www.163.com/dy/article/ILHDTEIB0534SV3Y.html"
    },
    {
        "title": "大数据解析优秀房企市场领先地位",
        "docid": "ILC4K4N70553TDVP",
        "url": "https://www.163.com/dy/article/ILC4K4N70553TDVP.html"
    },
    {
        "title": "买哪个楼层好？你买的是几楼？",
        "docid": "ILF707E60553TDXU",
        "url": "https://www.163.com/dy/article/ILF707E60553TDXU.html"
    },
    {
        "title": "2024经济工作定下三大基调，房地产应该如何做？同样还是这三方面",
        "docid": "ILHRJH4M0535HK01",
        "url": "https://www.163.com/dy/article/ILHRJH4M0535HK01.html"
    },
    {
        "title": "千人齐聚 亮相即爆场丨大悟瑞信·壹号院营销中心隆重开放",
        "docid": "ILHN7MV70552O3KN",
        "url": "https://www.163.com/dy/article/ILHN7MV70552O3KN.html"
    },
    {
        "title": "衡水市区2地块出让！建新小区",
        "docid": "ILFB9EIB0525DLEK",
        "url": "https://www.163.com/dy/article/ILFB9EIB0525DLEK.html"
    },
    {
        "title": "韩国首尔公寓购买心理创6个月新低",
        "docid": "ILFAR7OO05377PO6",
        "url": "https://www.163.com/dy/article/ILFAR7OO05377PO6.html"
    },
    {
        "title": "日报丨两大纯新盘正式公开示范区，江宁成交量独占全市45%",
        "docid": "ILF5GP210515AR2E",
        "url": "https://www.163.com/dy/article/ILF5GP210515AR2E.html"
    },
    {
        "title": "三四线城市房价降到5千以下，人人买得起房，才会幸福满满",
        "docid": "ILHQQ7MO0553SPQJ",
        "url": "https://www.163.com/dy/article/ILHQQ7MO0553SPQJ.html"
    },
    {
        "title": "武汉买房：这样的地段才有希望！",
        "docid": "ILFHC3AP05560R20",
        "url": "https://www.163.com/dy/article/ILFHC3AP05560R20.html"
    },
    {
        "title": "今年的改善“神盘”，二次发力了！",
        "docid": "VPKHARVD0",
        "url": "https://www.163.com/dy/article/VPKHARVD0.html"
    },
    {
        "title": "550万商铺过户税费300万，商铺出路何在？而老小区如何才卖高价呢",
        "docid": "VGKJPV8DU",
        "url": "https://www.163.com/dy/article/VGKJPV8DU.html"
    },
    {
        "title": "这是一款理想的145平米房子，刚需家庭的福音",
        "docid": "ILHSVL380553RRD3",
        "url": "https://www.163.com/dy/article/ILHSVL380553RRD3.html"
    },
    {
        "title": "2024年房地产市场怎么走？机构这样预测……",
        "docid": "ILI01K2B0545PEDS",
        "url": "https://www.163.com/dy/article/ILI01K2B0545PEDS.html"
    },
    {
        "title": "自建房系统门窗定制价格多少钱一平方米？自建房价格分析",
        "docid": "VSKGT7OS7",
        "url": "https://www.163.com/dy/article/VSKGT7OS7.html"
    },
    {
        "title": "公园里面的独栋别墅你喜欢吗？",
        "docid": "VWKK458QO",
        "url": "https://www.163.com/dy/article/VWKK458QO.html"
    },
    {
        "title": "一起来看看价值4900万的庄园是什么样的！",
        "docid": "VDKK2M5TS",
        "url": "https://www.163.com/dy/article/VDKK2M5TS.html"
    },
    {
        "title": "物业老邢 物业 业主与物业那些事 物业费",
        "docid": "VPKK11R3G",
        "url": "https://www.163.com/dy/article/VPKK11R3G.html"
    },
    {
        "title": "2024，房地产的春天就要来了！",
        "docid": "VIKK01KT4",
        "url": "https://www.163.com/dy/article/VIKK01KT4.html"
    },
    {
        "title": "一线城市郊区的房子能不能买",
        "docid": "VUKHDI69M",
        "url": "https://www.163.com/dy/article/VUKHDI69M.html"
    },
    {
        "title": "为什么要警惕未来2~3年，出现新一轮出乎预料的房价暴涨？",
        "docid": "VGKH4ND8K",
        "url": "https://www.163.com/dy/article/VGKH4ND8K.html"
    },
    {
        "title": "金融街 西单 临街精装四合院 不光有车库 院内还可以停车 着实不错",
        "docid": "ILHV1SV50552QWCS",
        "url": "https://www.163.com/dy/article/ILHV1SV50552QWCS.html"
    },
    {
        "title": "打响了降价无限制的第一枪？住建局回应：允许！2类人或从中受益",
        "docid": "ILI0CFA30549RI77",
        "url": "https://www.163.com/dy/article/ILI0CFA30549RI77.html"
    },
    {
        "title": "青菱新城 | 大华公园城市二期项目公示！楼面价6055.68元/平",
        "docid": "ILHDT4D80534SV3Y",
        "url": "https://www.163.com/dy/article/ILHDT4D80534SV3Y.html"
    },
    {
        "title": "528户！武汉又一新楼盘！效果图曝光！",
        "docid": "ILHGUQ0D0553TDVP",
        "url": "https://www.163.com/dy/article/ILHGUQ0D0553TDVP.html"
    },
    {
        "title": "武汉十大豪宅小区 武汉最有钱的人都住哪里",
        "docid": "ILGB5OFP0535MP84",
        "url": "https://www.163.com/dy/article/ILGB5OFP0535MP84.html"
    },
    {
        "title": "光谷南（流芳片区）中芯一路赛达锦城项目规划方案批前公示",
        "docid": "ILCSTR6U0534CYN4",
        "url": "https://www.163.com/dy/article/ILCSTR6U0534CYN4.html"
    },
    {
        "title": "大项目来了？汉南又有两块土地将进行拍卖！",
        "docid": "ILGSD0JG0552TI8F",
        "url": "https://www.163.com/dy/article/ILGSD0JG0552TI8F.html"
    },
    {
        "title": "张朝阳称一辈子租房就有闲钱养孩子",
        "docid": "ILHRQHI30549M98D",
        "url": "https://www.163.com/dy/article/ILHRQHI30549M98D.html"
    },
    {
        "title": "中海：前11月合约物业销售金额约2870.28亿元",
        "docid": "ILC1K3040514R9NP",
        "url": "https://www.163.com/dy/article/ILC1K3040514R9NP.html"
    },
    {
        "title": "居安物业幸福佳苑小区荣获“湖北省物业服务红榜”！",
        "docid": "ILFAJ7M30535R281",
        "url": "https://www.163.com/dy/article/ILFAJ7M30535R281.html"
    },
    {
        "title": "中国老百姓不喜欢物业的10大理由",
        "docid": "ILFG758I05566CPS",
        "url": "https://www.163.com/dy/article/ILFG758I05566CPS.html"
    },
    {
        "title": "武汉十大豪宅小区 武汉最有钱的人都住哪里",
        "docid": "ILGB5OFP0535MP84",
        "url": "https://www.163.com/dy/article/ILGB5OFP0535MP84.html"
    },
    {
        "title": "光谷南（流芳片区）中芯一路赛达锦城项目规划方案批前公示",
        "docid": "ILCSTR6U0534CYN4",
        "url": "https://www.163.com/dy/article/ILCSTR6U0534CYN4.html"
    },
    {
        "title": "2023年武汉楼市：当下买房，选择时机窗口是关键！",
        "docid": "ILFHA7TR05560R20",
        "url": "https://www.163.com/dy/article/ILFHA7TR05560R20.html"
    },
    {
        "title": "大项目来了？汉南又有两块土地将进行拍卖！",
        "docid": "ILGSD0JG0552TI8F",
        "url": "https://www.163.com/dy/article/ILGSD0JG0552TI8F.html"
    },
    {
        "title": "土拍速报：成交1宗延期1宗！武汉城建2.96亿底价竞得一地",
        "docid": "ILCEI7IQ0553TB8M",
        "url": "https://www.163.com/dy/article/ILCEI7IQ0553TB8M.html"
    },
    {
        "title": "武汉经开3宗住宅用地挂牌！",
        "docid": "ILHDTKBG0534SV3Y",
        "url": "https://www.163.com/dy/article/ILHDTKBG0534SV3Y.html"
    },
    {
        "title": "武汉买房：当下这个区域购买力有限！",
        "docid": "ILA1CUTM05560R20",
        "url": "https://www.163.com/dy/article/ILA1CUTM05560R20.html"
    },
    {
        "title": "天天在网上唱衰楼市的都是什么人？你们居心何在？最终受伤的是谁",
        "docid": "ILI4F1OQ0553TEQM",
        "url": "https://www.163.com/dy/article/ILI4F1OQ0553TEQM.html"
    },
    {
        "title": "不管多有钱，开发商自带的4种东西没必要更换，拒绝做“冤大头”",
        "docid": "ILI1CEJ40552QWCS",
        "url": "https://www.163.com/dy/article/ILI1CEJ40552QWCS.html"
    },
    {
        "title": "青菱新城 | 大华公园城市二期项目公示！楼面价6055.68元/平",
        "docid": "ILHDT4D80534SV3Y",
        "url": "https://www.163.com/dy/article/ILHDT4D80534SV3Y.html"
    },
    {
        "title": "528户！武汉又一新楼盘！效果图曝光！",
        "docid": "ILHGUQ0D0553TDVP",
        "url": "https://www.163.com/dy/article/ILHGUQ0D0553TDVP.html"
    },
    {
        "title": "2023年武汉楼市：当下买房，选择时机窗口是关键！",
        "docid": "ILFHA7TR05560R20",
        "url": "https://www.163.com/dy/article/ILFHA7TR05560R20.html"
    },
    {
        "title": "大项目来了？汉南又有两块土地将进行拍卖！",
        "docid": "ILGSD0JG0552TI8F",
        "url": "https://www.163.com/dy/article/ILGSD0JG0552TI8F.html"
    },
    {
        "title": "公证委托代办房屋买卖有效期",
        "docid": "IL4J7QPT055668JD",
        "url": "https://www.163.com/dy/article/IL4J7QPT055668JD.html"
    },
    {
        "title": "土拍速报：成交1宗延期1宗！武汉城建2.96亿底价竞得一地",
        "docid": "ILCEI7IQ0553TB8M",
        "url": "https://www.163.com/dy/article/ILCEI7IQ0553TB8M.html"
    },
    {
        "title": "武汉经开3宗住宅用地挂牌！",
        "docid": "ILHDTKBG0534SV3Y",
        "url": "https://www.163.com/dy/article/ILHDTKBG0534SV3Y.html"
    },
    {
        "title": "世茂地产集团工程精细化手册（3.0工艺标准）",
        "docid": "ILI3R10Q055616ZT",
        "url": "https://www.163.com/dy/article/ILI3R10Q055616ZT.html"
    },
    {
        "title": "青菱新城 | 大华公园城市二期项目公示！楼面价6055.68元/平",
        "docid": "ILHDT4D80534SV3Y",
        "url": "https://www.163.com/dy/article/ILHDT4D80534SV3Y.html"
    },
    {
        "title": "光谷南（流芳片区）中芯一路赛达锦城项目规划方案批前公示",
        "docid": "ILCSTR6U0534CYN4",
        "url": "https://www.163.com/dy/article/ILCSTR6U0534CYN4.html"
    },
    {
        "title": "武汉十大豪宅小区 武汉最有钱的人都住哪里",
        "docid": "ILGB5OFP0535MP84",
        "url": "https://www.163.com/dy/article/ILGB5OFP0535MP84.html"
    },
    {
        "title": "2023年武汉楼市：当下买房，选择时机窗口是关键！",
        "docid": "ILFHA7TR05560R20",
        "url": "https://www.163.com/dy/article/ILFHA7TR05560R20.html"
    },
    {
        "title": "光谷中心城南新增一住宅楼盘！528户",
        "docid": "ILHDTEIB0534SV3Y",
        "url": "https://www.163.com/dy/article/ILHDTEIB0534SV3Y.html"
    },
    {
        "title": "土拍速报：成交1宗延期1宗！武汉城建2.96亿底价竞得一地",
        "docid": "ILCEI7IQ0553TB8M",
        "url": "https://www.163.com/dy/article/ILCEI7IQ0553TB8M.html"
    },
    {
        "title": "武汉经开3宗住宅用地挂牌！",
        "docid": "ILHDTKBG0534SV3Y",
        "url": "https://www.163.com/dy/article/ILHDTKBG0534SV3Y.html"
    },
    {
        "title": "武汉买房：当下这个区域购买力有限！",
        "docid": "ILA1CUTM05560R20",
        "url": "https://www.163.com/dy/article/ILA1CUTM05560R20.html"
    }
]