[
    {
        "title": "豪宅易主，韩后创始人回应：卖房属个人意愿，为品牌寻找第二增长曲线",
        "docid": "IMTOB2NM0530S72V",
        "url": "https://www.163.com/dy/article/IMTOB2NM0530S72V.html"
    },
    {
        "title": "同样是人口大国，印度是主动把房地产的价格刺破了。",
        "docid": "IME6MPEQ0553VNKO",
        "url": "https://www.163.com/dy/article/IME6MPEQ0553VNKO.html"
    },
    {
        "title": "民企拿地保持低位，机构预计2024年新开工规模将下降15%",
        "docid": "IMTQ9CQA05198R91",
        "url": "https://www.163.com/dy/article/IMTQ9CQA05198R91.html"
    },
    {
        "title": "不想背房贷，美国“终生租房者”崛起：不是买不起，而是租房更有性价比",
        "docid": "IMTPFF5I0550OOTO",
        "url": "https://www.163.com/dy/article/IMTPFF5I0550OOTO.html"
    },
    {
        "title": "买了低层的房子，如今后悔不已！",
        "docid": "IMEBG40T05562BBD",
        "url": "https://www.163.com/dy/article/IMEBG40T05562BBD.html"
    },
    {
        "title": "“两百多万”的佣金，拿不到？",
        "docid": "IMU0Q4680514R9KQ",
        "url": "https://www.163.com/dy/article/IMU0Q4680514R9KQ.html"
    },
    {
        "title": "相当漂亮的中式合院户型是什么样子?",
        "docid": "IMGK6B390552QWCS",
        "url": "https://www.163.com/dy/article/IMGK6B390552QWCS.html"
    },
    {
        "title": "印度房地产网站分析：你知道孟买、班加罗尔、德里-NCR最热门吗？",
        "docid": "IMQ4VB8005563S5U",
        "url": "https://www.163.com/dy/article/IMQ4VB8005563S5U.html"
    },
    {
        "title": "新建住宅“交房即交证”，临港首个试点项目提前半年交付",
        "docid": "IMTD0VMC05506BEH",
        "url": "https://www.163.com/dy/article/IMTD0VMC05506BEH.html"
    },
    {
        "title": "土地周报 | 成交规模创新高，但热度持续探底 （12.18-12.24）",
        "docid": "IMRDNKNS0535A6CE",
        "url": "https://www.163.com/dy/article/IMRDNKNS0535A6CE.html"
    },
    {
        "title": "邻居：梅西的到来让我的房子涨价了，经常有人坐船来看房子",
        "docid": "IMU07G5V05565ANI",
        "url": "https://www.163.com/dy/article/IMU07G5V05565ANI.html"
    },
    {
        "title": "税局明确了！2024年起，企业和个人出租房屋，要交这些税！",
        "docid": "IMTTOQA80545PEDS",
        "url": "https://www.163.com/dy/article/IMTTOQA80545PEDS.html"
    },
    {
        "title": "就业稳住了，南京、杭州等二线城市房价才能稳住",
        "docid": "IMGEQACB0535JMSP",
        "url": "https://www.163.com/dy/article/IMGEQACB0535JMSP.html"
    },
    {
        "title": "互联网巨头混战房地产:阿里资产反攻线下开店,快手直播卖房,谁的模式更胜一筹?",
        "docid": "IMTIUUGQ0535L78U",
        "url": "https://www.163.com/dy/article/IMTIUUGQ0535L78U.html"
    },
    {
        "title": "黄埔新盘靠名校牌“大杀四方”，周边二手要“偷塔”了",
        "docid": "IMTD6FUS0556123R",
        "url": "https://www.163.com/dy/article/IMTD6FUS0556123R.html"
    },
    {
        "title": "年度重磅土拍！35宗地吸金309亿，中海、保利复出！",
        "docid": "IMTP2TB10553TB9L",
        "url": "https://www.163.com/dy/article/IMTP2TB10553TB9L.html"
    },
    {
        "title": "郭极中：房屋前有大树对住宅有什么影响吗？",
        "docid": "IMEB6EL0055629IE",
        "url": "https://www.163.com/dy/article/IMEB6EL0055629IE.html"
    },
    {
        "title": "提前553天交房！2万人抢的红盘，要卖6万/㎡？",
        "docid": "IMTOI5090553TEV3",
        "url": "https://www.163.com/dy/article/IMTOI5090553TEV3.html"
    },
    {
        "title": "不等着房子变“白菜价”适合的房子才最好",
        "docid": "IMRAKMP105565ANM",
        "url": "https://www.163.com/dy/article/IMRAKMP105565ANM.html"
    },
    {
        "title": "办理房产委托公证-公证百科",
        "docid": "IMU2RGS705565DER",
        "url": "https://www.163.com/dy/article/IMU2RGS705565DER.html"
    },
    {
        "title": "事关你我，明年1月1日起这些新规正式施行→",
        "docid": "IMTPBPP80553TF8P",
        "url": "https://www.163.com/dy/article/IMTPBPP80553TF8P.html"
    },
    {
        "title": "加拿大华人女房东回国！300万房产被倒卖两次！打官司没把房追回",
        "docid": "IMGDFU9I0552QDEA",
        "url": "https://www.163.com/dy/article/IMGDFU9I0552QDEA.html"
    },
    {
        "title": "别墅地下室留的大坑，不是用来排污的！",
        "docid": "IMU5OR8B0535KYBM",
        "url": "https://www.163.com/dy/article/IMU5OR8B0535KYBM.html"
    },
    {
        "title": "城市的污染嘈杂扰人心烦，乡下的别墅舒适自在，这就是养老的典范",
        "docid": "IMTKPN080552RM6T",
        "url": "https://www.163.com/dy/article/IMTKPN080552RM6T.html"
    },
    {
        "title": "房价下跌的消息越来越少，房价止跌了吗？",
        "docid": "IMGGFAIE0535JMSP",
        "url": "https://www.163.com/dy/article/IMGGFAIE0535JMSP.html"
    },
    {
        "title": "房企高管“换阵潮”蔓延，今年已有25家CEO换新",
        "docid": "IMRBISGF05566CMA",
        "url": "https://www.163.com/dy/article/IMRBISGF05566CMA.html"
    },
    {
        "title": "楼层越高，房子就越好？买高层有这些注意事项要牢记",
        "docid": "IMGAC6TG0530OLSK",
        "url": "https://www.163.com/dy/article/IMGAC6TG0530OLSK.html"
    },
    {
        "title": "地方财政的紧张程度，可能远超你的想象，我们是真没钱了",
        "docid": "IMU1I22K05563TCH",
        "url": "https://www.163.com/dy/article/IMU1I22K05563TCH.html"
    },
    {
        "title": "开发商为卖房有多不择手段？网友分享我看呆，都是真实发生的吗？",
        "docid": "IMTQ01V20549RI77",
        "url": "https://www.163.com/dy/article/IMTQ01V20549RI77.html"
    },
    {
        "title": "异地办理房屋过户委托公证",
        "docid": "IMH6HP82055644JE",
        "url": "https://www.163.com/dy/article/IMH6HP82055644JE.html"
    },
    {
        "title": "什么是“违章建筑”？为购买违章建筑而签的房屋买卖合同有效吗?",
        "docid": "VJLS9SH7C",
        "url": "https://www.163.com/dy/article/VJLS9SH7C.html"
    },
    {
        "title": "为什么房价下跌了，最倒霉的是没有房的人呢？",
        "docid": "VCLHM4FP7",
        "url": "https://www.163.com/dy/article/VCLHM4FP7.html"
    },
    {
        "title": "女儿6年前给父亲买的别墅，父亲不想要了，年纪大了出国投奔女儿",
        "docid": "VWM04LQVL",
        "url": "https://www.163.com/dy/article/VWM04LQVL.html"
    },
    {
        "title": "70城房价出炉：69城二手房价环比下跌，你的城市房价是涨还是跌?",
        "docid": "VHLVMA59C",
        "url": "https://www.163.com/dy/article/VHLVMA59C.html"
    },
    {
        "title": "假如你不吃不喝，多久可以买一套房？看一下世界各地的情况",
        "docid": "VMLFI1KI2",
        "url": "https://www.163.com/dy/article/VMLFI1KI2.html"
    },
    {
        "title": "10年以后这三种小区将会被淘汰",
        "docid": "VFLIHOV18",
        "url": "https://www.163.com/dy/article/VFLIHOV18.html"
    },
    {
        "title": "美国房贷利率巅峰之际，重要房价指数创年内最大涨幅",
        "docid": "IMU7PCHF05198NMR",
        "url": "https://www.163.com/dy/article/IMU7PCHF05198NMR.html"
    },
    {
        "title": "夫妻一方全权委托买房公证",
        "docid": "IMH6KAI7055644JO",
        "url": "https://www.163.com/dy/article/IMH6KAI7055644JO.html"
    },
    {
        "title": "存量房贷即将降息，涉及全部房贷类型，首套房和二套房均能下调",
        "docid": "IMSLRL8N0553XH85",
        "url": "https://www.163.com/dy/article/IMSLRL8N0553XH85.html"
    },
    {
        "title": "4楼、10楼、14楼、18楼不能买？错！真正不能买这4个楼层",
        "docid": "VMLSSGRRH",
        "url": "https://www.163.com/dy/article/VMLSSGRRH.html"
    },
    {
        "title": "换5次房终于明白，这“3个楼层”越住越舒服，真正的“黄金楼层”",
        "docid": "VGLV3ODJI",
        "url": "https://www.163.com/dy/article/VGLV3ODJI.html"
    },
    {
        "title": "选错楼层，天天被压迫！高层小区2-16层，每层150度范围视野分析",
        "docid": "VBLGK2092",
        "url": "https://www.163.com/dy/article/VBLGK2092.html"
    },
    {
        "title": "有房贷的朋友可以退税了，最高能退24万，赶紧看看你家能退多少吧",
        "docid": "VLLTK5REC",
        "url": "https://www.163.com/dy/article/VLLTK5REC.html"
    },
    {
        "title": "后悔卖房子了，明年或迎来报复性大涨！",
        "docid": "VCLVD1CLO",
        "url": "https://www.163.com/dy/article/VCLVD1CLO.html"
    },
    {
        "title": "璟山和煦，京西性价比之王非它莫属。",
        "docid": "VGLTFMQG9",
        "url": "https://www.163.com/dy/article/VGLTFMQG9.html"
    },
    {
        "title": "这个圣诞节过得“不平静”！一个重要指标正在快速上升",
        "docid": "IMUE4VJV05199N88",
        "url": "https://www.163.com/dy/article/IMUE4VJV05199N88.html"
    },
    {
        "title": "蛇口2013年花园小区！7××买三房",
        "docid": "IMUHA92I0553TDVP",
        "url": "https://www.163.com/dy/article/IMUHA92I0553TDVP.html"
    },
    {
        "title": "连廊户型，水管防冻没绝招！从根本上解决问题，以后买房别瞎选",
        "docid": "VBLTDPIC7",
        "url": "https://www.163.com/dy/article/VBLTDPIC7.html"
    },
    {
        "title": "国家光伏用地政策一览（2021-2023年）",
        "docid": "VXLT47B2L",
        "url": "https://www.163.com/dy/article/VXLT47B2L.html"
    },
    {
        "title": "佛山刀哥：月工资不够买一平方的，建设你不要在佛山买房！你够吗",
        "docid": "VGLUMI6RP",
        "url": "https://www.163.com/dy/article/VGLUMI6RP.html"
    },
    {
        "title": "房地产会硬着陆吗？专家：进一步大幅下行很难出现，国家不允许",
        "docid": "VWLVDL4VH",
        "url": "https://www.163.com/dy/article/VWLVDL4VH.html"
    },
    {
        "title": "明星刘涛在深圳的豪宅，地理位置十分优越，不得不佩服她的眼光",
        "docid": "VGLIUKV9F",
        "url": "https://www.163.com/dy/article/VGLIUKV9F.html"
    },
    {
        "title": "挺适合养老的小区，外地朋友都可以考虑一下",
        "docid": "VCLJ1TL8O",
        "url": "https://www.163.com/dy/article/VCLJ1TL8O.html"
    },
    {
        "title": "买二手房房东不迁户口怎么办",
        "docid": "VGLIBNIKQ",
        "url": "https://www.163.com/dy/article/VGLIBNIKQ.html"
    },
    {
        "title": "从湾区创投高地到首都金融总部，新大正如何擦亮金融商写服务的“金钥匙”？",
        "docid": "IMU24LD6053469M5",
        "url": "https://www.163.com/dy/article/IMU24LD6053469M5.html"
    },
    {
        "title": "房价的涨跌只是一个结果，而不是原因。",
        "docid": "IME561UM0553GD76",
        "url": "https://www.163.com/dy/article/IME561UM0553GD76.html"
    },
    {
        "title": "国内让人最想“逃离”3座城市, 人均工资4千左右, 房价却一两万起",
        "docid": "IMHGLA3G0552ZL95",
        "url": "https://www.163.com/dy/article/IMHGLA3G0552ZL95.html"
    },
    {
        "title": "这5个楼层的房子真是“人见人嫌弃”，连一楼与顶楼都比它们好！",
        "docid": "IMD5SLJI0553SQD3",
        "url": "https://www.163.com/dy/article/IMD5SLJI0553SQD3.html"
    },
    {
        "title": "评估太少，老百姓找机构自己评估，有用吗！！",
        "docid": "IMR4R3LR0532Q69P",
        "url": "https://www.163.com/dy/article/IMR4R3LR0532Q69P.html"
    },
    {
        "title": "房地产的决战之年是2024年",
        "docid": "VGM0JKOMH",
        "url": "https://www.163.com/dy/article/VGM0JKOMH.html"
    },
    {
        "title": "2024年，中国房价会迎来转折点吗？",
        "docid": "VOLT8SV6A",
        "url": "https://www.163.com/dy/article/VOLT8SV6A.html"
    },
    {
        "title": "5年后有房与没有房的区别",
        "docid": "VWLSG1ASK",
        "url": "https://www.163.com/dy/article/VWLSG1ASK.html"
    },
    {
        "title": "顶层的房子到底能不能买？",
        "docid": "VFLVC269T",
        "url": "https://www.163.com/dy/article/VFLVC269T.html"
    },
    {
        "title": "美国房价一路狂奔 10月同比上涨4.8% 为年内最大涨幅",
        "docid": "IMUO141J05198UNI",
        "url": "https://www.163.com/dy/article/IMUO141J05198UNI.html"
    },
    {
        "title": "财联社12月26日电，美国10月FHFA房价指数环比增长0.3%，预期0.50%，前值0.60%。",
        "docid": "IMTR8E0505198CJN",
        "url": "https://www.163.com/dy/article/IMTR8E0505198CJN.html"
    },
    {
        "title": "900万卖掉深圳房子，回武汉600万买了套别墅，如今肠子都悔青了",
        "docid": "VGLIJJ98F",
        "url": "https://www.163.com/dy/article/VGLIJJ98F.html"
    },
    {
        "title": "以下这十类房子中介都不愿意卖",
        "docid": "VFLVC27VB",
        "url": "https://www.163.com/dy/article/VFLVC27VB.html"
    },
    {
        "title": "关于拼夕夕与楼市那些东西",
        "docid": "VALHOVOF4",
        "url": "https://www.163.com/dy/article/VALHOVOF4.html"
    },
    {
        "title": "这样的庄园别墅普通百姓工资还不够支付空调电费物业费",
        "docid": "VBLJO813D",
        "url": "https://www.163.com/dy/article/VBLJO813D.html"
    },
    {
        "title": "同样是房贷提前还，选对方法居然能省几十万！",
        "docid": "VCLISEQNK",
        "url": "https://www.163.com/dy/article/VCLISEQNK.html"
    },
    {
        "title": "农村一户人建别墅，亲戚好友过来一看，都说不能住",
        "docid": "VBM0S13K5",
        "url": "https://www.163.com/dy/article/VBM0S13K5.html"
    },
    {
        "title": "命中注定有此一劫，实拍高层回迁楼的现状，首批贫民窟原形毕露",
        "docid": "VZLHI30V0",
        "url": "https://www.163.com/dy/article/VZLHI30V0.html"
    },
    {
        "title": "恒大建房套路，都是跟我们农民学的，只是，有一点儿，他们却不学",
        "docid": "IMUJFIE60535L5VU",
        "url": "https://www.163.com/dy/article/IMUJFIE60535L5VU.html"
    },
    {
        "title": "武汉城建·天汇龙城 | 共同缔造“450万方一生之城”",
        "docid": "IMUQG8MT05159A0N",
        "url": "https://www.163.com/dy/article/IMUQG8MT05159A0N.html"
    },
    {
        "title": "现在的房产中介太恶心了",
        "docid": "IMECDFJL05562BBD",
        "url": "https://www.163.com/dy/article/IMECDFJL05562BBD.html"
    },
    {
        "title": "多地优化楼市政策 一线城市成交企稳",
        "docid": "IMUPF3PL05198CJN",
        "url": "https://www.163.com/dy/article/IMUPF3PL05198CJN.html"
    },
    {
        "title": "配套重要还是房子重要？",
        "docid": "IMT7V2I5055299MU",
        "url": "https://www.163.com/dy/article/IMT7V2I5055299MU.html"
    },
    {
        "title": "演员葛优北京的豪宅，看看里面别墅什么样？",
        "docid": "VBM0PO6QN",
        "url": "https://www.163.com/dy/article/VBM0PO6QN.html"
    },
    {
        "title": "英雄山路政协宿舍一梯一户厅级大平层带电梯这户型太棒了",
        "docid": "VPLK16EEG",
        "url": "https://www.163.com/dy/article/VPLK16EEG.html"
    },
    {
        "title": "260万装修出来清幽小院，红砖青瓦联排别墅，实木阁楼最有亮点",
        "docid": "VBLVV726A",
        "url": "https://www.163.com/dy/article/VBLVV726A.html"
    },
    {
        "title": "东北房东太聪明了，租房子一定要注意",
        "docid": "VSLVC8SBA",
        "url": "https://www.163.com/dy/article/VSLVC8SBA.html"
    },
    {
        "title": "买的新房今天入住，结果发现对面邻居这样，这是什么意思",
        "docid": "VWLHTRPUK",
        "url": "https://www.163.com/dy/article/VWLHTRPUK.html"
    },
    {
        "title": "北欧简约风 层高4m阳光足 银泰花园别墅211平边套",
        "docid": "VELT48KEA",
        "url": "https://www.163.com/dy/article/VELT48KEA.html"
    },
    {
        "title": "前碧桂园执行董事吴建斌：预售是非常好的政策，没有预售房地产不可能有今天的状态",
        "docid": "VALVHIEIV",
        "url": "https://www.163.com/dy/article/VALVHIEIV.html"
    },
    {
        "title": "申请按揭房产贷款前，还需要清理网贷吗？",
        "docid": "VUL6C2HMH",
        "url": "https://www.163.com/dy/article/VUL6C2HMH.html"
    },
    {
        "title": "因为小区太好，业主价格就是扛着，等有缘人",
        "docid": "VULSFC148",
        "url": "https://www.163.com/dy/article/VULSFC148.html"
    },
    {
        "title": "业主不愿出钱装电梯，装好后却想用，其他业主不干，法院也不赞成",
        "docid": "VRLVFIL12",
        "url": "https://www.163.com/dy/article/VRLVFIL12.html"
    },
    {
        "title": "大姐冲着花园买了套地面一楼的房子，如今后悔不已",
        "docid": "VZM0RTR98",
        "url": "https://www.163.com/dy/article/VZM0RTR98.html"
    },
    {
        "title": "这才是“名列前茅”好户型，给99分都不过分！拿出更好户型算您牛",
        "docid": "VBLIVBISC",
        "url": "https://www.163.com/dy/article/VBLIVBISC.html"
    },
    {
        "title": "降价降的有点太恐怖了，三居室只要 全款 50 万",
        "docid": "VGLVOH3EE",
        "url": "https://www.163.com/dy/article/VGLVOH3EE.html"
    },
    {
        "title": "中建壹品取武汉东湖高新P[2023]107号优质地块总资额近13亿元",
        "docid": "IMV3EHIF0553TDVP",
        "url": "https://www.163.com/dy/article/IMV3EHIF0553TDVP.html"
    },
    {
        "title": "踏空过房价的公务员，从没想过自己有一天会失业",
        "docid": "IMV3BJUQ0541HPA7",
        "url": "https://www.163.com/dy/article/IMV3BJUQ0541HPA7.html"
    },
    {
        "title": "豫龙镇2023年的政绩",
        "docid": "IMH3CU1E0514G0HS",
        "url": "https://www.163.com/dy/article/IMH3CU1E0514G0HS.html"
    },
    {
        "title": "2024年，房地产走向基本定了",
        "docid": "IMUSUPTR05158B67",
        "url": "https://www.163.com/dy/article/IMUSUPTR05158B67.html"
    },
    {
        "title": "美国房价连涨九月创历史新高 20城同比涨4.8%",
        "docid": "IMUTFA0Q0519D45U",
        "url": "https://www.163.com/dy/article/IMUTFA0Q0519D45U.html"
    },
    {
        "title": "我耗尽2代人财产在南宁买了楼中楼，孙子出生后，我却被赶了出来",
        "docid": "IMTANTFE0553TDXU",
        "url": "https://www.163.com/dy/article/IMTANTFE0553TDXU.html"
    },
    {
        "title": "这样的房子住着才舒服，上下两层共300平，给多少钱都不换",
        "docid": "VRLK150Q8",
        "url": "https://www.163.com/dy/article/VRLK150Q8.html"
    },
    {
        "title": "明年房价涨不涨，猪肉和黄金说了算",
        "docid": "VKM024N51",
        "url": "https://www.163.com/dy/article/VKM024N51.html"
    },
    {
        "title": "物业费就是黑社会的保护费",
        "docid": "VBLND4TGQ",
        "url": "https://www.163.com/dy/article/VBLND4TGQ.html"
    },
    {
        "title": "商品房买卖合同被解除后，可以请求解除银行贷款合同吗？",
        "docid": "IMSRH4GT055653V7",
        "url": "https://www.163.com/dy/article/IMSRH4GT055653V7.html"
    },
    {
        "title": "来，聊一聊2023年的楼市和感悟",
        "docid": "IMVBT8NN0515UN97",
        "url": "https://www.163.com/dy/article/IMVBT8NN0515UN97.html"
    },
    {
        "title": "金基地产：高薪挖来的经理人走了",
        "docid": "IMUU090L05566IIT",
        "url": "https://www.163.com/dy/article/IMUU090L05566IIT.html"
    },
    {
        "title": "好多城中村的房子越来难租出去，靠房租吃饭的我们日子不好过了",
        "docid": "IMV01SEB0552F71X",
        "url": "https://www.163.com/dy/article/IMV01SEB0552F71X.html"
    },
    {
        "title": "杀猪盘无处不在？闲鱼出租自己的房子居然引来杀猪盘",
        "docid": "IMUJIG5G0552QWCE",
        "url": "https://www.163.com/dy/article/IMUJIG5G0552QWCE.html"
    },
    {
        "title": "比房产税还狠？最高20%，多个城市已试点，两类人要彻底睡不着了",
        "docid": "IMV6GNF1055640VF",
        "url": "https://www.163.com/dy/article/IMV6GNF1055640VF.html"
    },
    {
        "title": "行走于斑斓的红尘，有一抹淡香可以慰我清心，金地环湾城",
        "docid": "IMV5CF3C055667YX",
        "url": "https://www.163.com/dy/article/IMV5CF3C055667YX.html"
    },
    {
        "title": "越南买了套房，掉在深坑里了！",
        "docid": "IMVBM9G705565R9C",
        "url": "https://www.163.com/dy/article/IMVBM9G705565R9C.html"
    },
    {
        "title": "有一种痛苦叫作选了“边户”，卖不出去也不想住！感觉被割了韭菜",
        "docid": "IMSPT8FA055657DZ",
        "url": "https://www.163.com/dy/article/IMSPT8FA055657DZ.html"
    },
    {
        "title": "陕建股份(600248.SH)：已就购买东顺·六合居·金水湾办公楼房产事宜签署《商品房买卖合同》并完成网签备案",
        "docid": "IMVDB1DS0553RRD3",
        "url": "https://www.163.com/dy/article/IMVDB1DS0553RRD3.html"
    },
    {
        "title": "3万卖掉老宅，20年后拆迁获赔1135万 大爷：房子还我 免你10年房租",
        "docid": "IMVC88TV0553TB8M",
        "url": "https://www.163.com/dy/article/IMVC88TV0553TB8M.html"
    },
    {
        "title": "金碧物业将馨雅物业全股转让予金碧投资 实现全资控股",
        "docid": "IMV14H3U0519D45U",
        "url": "https://www.163.com/dy/article/IMV14H3U0519D45U.html"
    },
    {
        "title": "房产行业如何通过短视频实现营销获客",
        "docid": "IMV89BBD05566EAI",
        "url": "https://www.163.com/dy/article/IMV89BBD05566EAI.html"
    },
    {
        "title": "连廊之殇！多地连廊生起了炭火，得知原因让买房人的心凉了一大截",
        "docid": "IMVCR6O00553TB9L",
        "url": "https://www.163.com/dy/article/IMVCR6O00553TB9L.html"
    },
    {
        "title": "租赁住房Pre-REITs 阶段的4项关键准备| 投资视野",
        "docid": "IMV8T7RE05530RXA",
        "url": "https://www.163.com/dy/article/IMV8T7RE05530RXA.html"
    },
    {
        "title": "光明可售人才房没几个项目了，919户抢92套人才房，请珍惜！",
        "docid": "IMVES8AA0553TEV3",
        "url": "https://www.163.com/dy/article/IMVES8AA0553TEV3.html"
    },
    {
        "title": "物业客服和管家应知应会（收藏版）",
        "docid": "IMV1CHAT0535R28F",
        "url": "https://www.163.com/dy/article/IMV1CHAT0535R28F.html"
    },
    {
        "title": "先立后破，房地产发展新模式如何构建？",
        "docid": "IMNU2P8V0534M7IC",
        "url": "https://www.163.com/dy/article/IMNU2P8V0534M7IC.html"
    },
    {
        "title": "看2024⑤｜刘元春：房地产会逐步趋稳，市场出清会加速进行",
        "docid": "IMV6NQL3055284JB",
        "url": "https://www.163.com/dy/article/IMV6NQL3055284JB.html"
    },
    {
        "title": "太疯狂了，不要急着卖房，房源供不应求，房价连续上涨9个月！",
        "docid": "IMVEFC6305562DLL",
        "url": "https://www.163.com/dy/article/IMVEFC6305562DLL.html"
    },
    {
        "title": "“京津冀+晋蒙”不动产登记可“跨省通办”",
        "docid": "IMVK9FQM0534JESX",
        "url": "https://www.163.com/dy/article/IMVK9FQM0534JESX.html"
    },
    {
        "title": "连婚前房产都被攻击？侯友宜妻发声：将改为社会住宅或青年房舍",
        "docid": "IMVKVNP7055080L4",
        "url": "https://www.163.com/dy/article/IMVKVNP7055080L4.html"
    },
    {
        "title": "买卖违法建筑虽然会导致房屋无法过户，但不影响买卖合同的效力",
        "docid": "IMVBT8RE05561281",
        "url": "https://www.163.com/dy/article/IMVBT8RE05561281.html"
    },
    {
        "title": "物业公司客服中心工作手册完整版",
        "docid": "IMV1L2LQ0552QWCS",
        "url": "https://www.163.com/dy/article/IMV1L2LQ0552QWCS.html"
    },
    {
        "title": "一个人运气好不好？与住的房子有着密不可分的关系，有道理吗？",
        "docid": "IMI5GE000534LB3A",
        "url": "https://www.163.com/dy/article/IMI5GE000534LB3A.html"
    },
    {
        "title": "演绎以人为本的美好生活范本 谱写社区里的幸福光阴故事",
        "docid": "IMV75O9S0552QWCE",
        "url": "https://www.163.com/dy/article/IMV75O9S0552QWCE.html"
    },
    {
        "title": "行业三问，大佬眼中的代建还有机会吗？| 房企代建新探索系列访谈",
        "docid": "IMUQFUUI05159A0N",
        "url": "https://www.163.com/dy/article/IMUQFUUI05159A0N.html"
    },
    {
        "title": "相当不错的两款160多平户型，哪个更好呢?",
        "docid": "IMVLGH930552QWCE",
        "url": "https://www.163.com/dy/article/IMVLGH930552QWCE.html"
    },
    {
        "title": "房地产市场陷于“买不起，卖不出”的死局曹德旺提出合情合理意见",
        "docid": "IMIO5NTI0540A6F8",
        "url": "https://www.163.com/dy/article/IMIO5NTI0540A6F8.html"
    },
    {
        "title": "中国的房子，还能买吗？[付费直播通知]",
        "docid": "IMURV90Q055614NP",
        "url": "https://www.163.com/dy/article/IMURV90Q055614NP.html"
    },
    {
        "title": "即日起这五个省市的“不动产”都可在北京办理！",
        "docid": "IMVE3T6E0514R9KQ",
        "url": "https://www.163.com/dy/article/IMVE3T6E0514R9KQ.html"
    },
    {
        "title": "看2024丨途家民宿刘杨：用科技创新帮助用户挑选匹配房子",
        "docid": "IMVIQ0BT055284JB",
        "url": "https://www.163.com/dy/article/IMVIQ0BT055284JB.html"
    },
    {
        "title": "花旗降内地房股盈测及目标价 偏好资产负债表温和扩张房企",
        "docid": "IMVLI51K0519D45U",
        "url": "https://www.163.com/dy/article/IMVLI51K0519D45U.html"
    },
    {
        "title": "地产销冠，比董宇辉更难管",
        "docid": "IMUSTUOC05158B67",
        "url": "https://www.163.com/dy/article/IMUSTUOC05158B67.html"
    },
    {
        "title": "被市场抛弃的六类买房人，看看你会是哪一种？",
        "docid": "IMI90JO30535FFBB",
        "url": "https://www.163.com/dy/article/IMI90JO30535FFBB.html"
    },
    {
        "title": "严禁低价卖房！为了阻止房价跳水，三四线城市已经开始出手了",
        "docid": "IMVJ4BSU0549RI77",
        "url": "https://www.163.com/dy/article/IMVJ4BSU0549RI77.html"
    },
    {
        "title": "”您买房，我月供“，街头这句广告用语，我看后不禁莞尔",
        "docid": "IMU5Q49E0525P02M",
        "url": "https://www.163.com/dy/article/IMU5Q49E0525P02M.html"
    },
    {
        "title": "2023年房地产“变中有稳”：央、国企进击夯实中坚力量，行业洗牌持续｜2023中国经济年报",
        "docid": "IMVKMPRU0512D03F",
        "url": "https://www.163.com/dy/article/IMVKMPRU0512D03F.html"
    },
    {
        "title": "买过别墅的业主，都进来说说，什么原因让你不敢再碰别墅了？",
        "docid": "IM8295300535WDMF",
        "url": "https://www.163.com/dy/article/IM8295300535WDMF.html"
    },
    {
        "title": "21个超大特大城市启动城中村改造，都是哪些城市？会催热楼市吗？",
        "docid": "IMVAGHIT055657DX",
        "url": "https://www.163.com/dy/article/IMVAGHIT055657DX.html"
    },
    {
        "title": "未来三年，富人不爱买房了",
        "docid": "IMV937EP055618EN",
        "url": "https://www.163.com/dy/article/IMV937EP055618EN.html"
    },
    {
        "title": "武汉12月26日公示5个预售证，1盘上涨9436元/平",
        "docid": "IMVLB2R20553TDTY",
        "url": "https://www.163.com/dy/article/IMVLB2R20553TDTY.html"
    },
    {
        "title": "买房人的福利来了，省外人购房，景区门票可减免优惠，买房注意了",
        "docid": "IMTLMVRP05566C1Z",
        "url": "https://www.163.com/dy/article/IMTLMVRP05566C1Z.html"
    },
    {
        "title": "地产下行，光谷这个地块逆势成交的玄机是什么",
        "docid": "IMVJCJ2U0556123R",
        "url": "https://www.163.com/dy/article/IMVJCJ2U0556123R.html"
    },
    {
        "title": "再降！下周起部分存量房贷利率可下调10个基点",
        "docid": "IMV6NPH8055284JB",
        "url": "https://www.163.com/dy/article/IMV6NPH8055284JB.html"
    },
    {
        "title": "原来141平米的洋房户型可以如此雅致！",
        "docid": "IMVNHF3O0552QWCS",
        "url": "https://www.163.com/dy/article/IMVNHF3O0552QWCS.html"
    },
    {
        "title": "（新华视点·年终报道之三）2023楼市看点：构建发展新模式 定义居住新理念",
        "docid": "IMVLHTG805346RC6",
        "url": "https://www.163.com/dy/article/IMVLHTG805346RC6.html"
    },
    {
        "title": "对话“亿万豪宅被拍卖”当事人王国安：韩后掉队荒废5年，不下牌桌就还有机会",
        "docid": "IMVQC033051492T3",
        "url": "https://www.163.com/dy/article/IMVQC033051492T3.html"
    },
    {
        "title": "美联：今年香港租金走势与楼价背驰 料明年租金升10% 继续“跑赢”楼价",
        "docid": "IMVNU3IO05198UNI",
        "url": "https://www.163.com/dy/article/IMVNU3IO05198UNI.html"
    },
    {
        "title": "人口流动数据来了，红利逐渐消失，没有接盘侠了，不要再买房了！",
        "docid": "IMVFC43U05562DLL",
        "url": "https://www.163.com/dy/article/IMVFC43U05562DLL.html"
    },
    {
        "title": "华发琴澳湾一号售楼处(官方网站)楼盘详情-价格-户型-售楼处电话",
        "docid": "IMVPJ5RN055636TK",
        "url": "https://www.163.com/dy/article/IMVPJ5RN055636TK.html"
    },
    {
        "title": "141平米的优雅户型有什么亮点呢?",
        "docid": "IMILIDG90552QWCE",
        "url": "https://www.163.com/dy/article/IMILIDG90552QWCE.html"
    },
    {
        "title": "普通人为什么在楼市里面挣钱那么难？北京、上海房价到底了吗？",
        "docid": "IMGG1HGK0535JMSP",
        "url": "https://www.163.com/dy/article/IMGG1HGK0535JMSP.html"
    },
    {
        "title": "年度盘点 | 2023年楼市十大关键词",
        "docid": "IMUQG8IT05159A0N",
        "url": "https://www.163.com/dy/article/IMUQG8IT05159A0N.html"
    },
    {
        "title": "全美房价指数10月又涨了!降息临近 压力将缓解?惠誉：明年继续涨",
        "docid": "IMVT8E030519X0MH",
        "url": "https://www.163.com/dy/article/IMVT8E030519X0MH.html"
    },
    {
        "title": "三年前开盘“日光”，交付却两次延期！融创徐汇滨江壹号经历一波三折终交房",
        "docid": "IMVSOJA80512B07B",
        "url": "https://www.163.com/dy/article/IMVSOJA80512B07B.html"
    },
    {
        "title": "现在卖房就是挥泪大甩卖，要不然房价会越来越低！",
        "docid": "IMVF7L7R0553TDTY",
        "url": "https://www.163.com/dy/article/IMVF7L7R0553TDTY.html"
    },
    {
        "title": "国贸地产再获两项品牌大奖！",
        "docid": "IMVRI9DM0553TEQM",
        "url": "https://www.163.com/dy/article/IMVRI9DM0553TEQM.html"
    },
    {
        "title": "侨银股份 ：中标约8877万元容桂街道物业城市管理一体化项目",
        "docid": "IMVT1P590539AP40",
        "url": "https://www.163.com/dy/article/IMVT1P590539AP40.html"
    },
    {
        "title": "中原陈永杰：若调控放松香港楼价上半年或涨5%",
        "docid": "IMVMOP6J0519D45U",
        "url": "https://www.163.com/dy/article/IMVMOP6J0519D45U.html"
    },
    {
        "title": "买了房子之后，我晚上辗转反侧，难以入眠，特别后悔",
        "docid": "IMVF37Q005562BBD",
        "url": "https://www.163.com/dy/article/IMVF37Q005562BBD.html"
    },
    {
        "title": "29日4宗地出让 总价约56.267亿元",
        "docid": "IMVTBD5F0550AAMM",
        "url": "https://www.163.com/dy/article/IMVTBD5F0550AAMM.html"
    },
    {
        "title": "来看看全球房价最高的20座城市！",
        "docid": "IMVSJKAK0553CGT6",
        "url": "https://www.163.com/dy/article/IMVSJKAK0553CGT6.html"
    },
    {
        "title": "5年后，“电梯房”和“步梯房”谁更值钱？新规下，答案一目了然",
        "docid": "IMVL64Q6055658CH",
        "url": "https://www.163.com/dy/article/IMVL64Q6055658CH.html"
    },
    {
        "title": "降低首付，首付比例却变高了？",
        "docid": "IMV9LI6005565B5C",
        "url": "https://www.163.com/dy/article/IMV9LI6005565B5C.html"
    },
    {
        "title": "物业行业的病根——甲方缺失",
        "docid": "IMV9Q1S80535R288",
        "url": "https://www.163.com/dy/article/IMV9Q1S80535R288.html"
    },
    {
        "title": "多空生死战六十一回合——黄金阶梯式缓慢上行。",
        "docid": "IMVDAAD90553TB8M",
        "url": "https://www.163.com/dy/article/IMVDAAD90553TB8M.html"
    },
    {
        "title": "首置即改善！总价400万元起的“满装”新盘",
        "docid": "IMTDG7LM05158B15",
        "url": "https://www.163.com/dy/article/IMTDG7LM05158B15.html"
    },
    {
        "title": "关于公摊面积的4件事，很多购房者都不知道，了解得越清楚越好！",
        "docid": "IMVT6H0K054057BR",
        "url": "https://www.163.com/dy/article/IMVT6H0K054057BR.html"
    },
    {
        "title": "新政后|京沪两地市场回暖 “翘尾行情”可期",
        "docid": "IMVTBDIG0530OLSK",
        "url": "https://www.163.com/dy/article/IMVTBDIG0530OLSK.html"
    },
    {
        "title": "办公项目建设继续推进 企业出售办公资产动作增加",
        "docid": "IMVVNSTM0519D45U",
        "url": "https://www.163.com/dy/article/IMVVNSTM0519D45U.html"
    },
    {
        "title": "地震引发房屋倒塌，贷款如何处理？",
        "docid": "IMH0IKMH05562O3H",
        "url": "https://www.163.com/dy/article/IMH0IKMH05562O3H.html"
    },
    {
        "title": "怨声满道！首投族对房价、物价、薪资不满源于绿营，青年放弃投票",
        "docid": "IMVSD0SJ05563VBL",
        "url": "https://www.163.com/dy/article/IMVSD0SJ05563VBL.html"
    },
    {
        "title": "239套！九江这里分房啦！",
        "docid": "IMVRA2R50514AQCL",
        "url": "https://www.163.com/dy/article/IMVRA2R50514AQCL.html"
    },
    {
        "title": "如何对待物业服务中用户的“责骂”？",
        "docid": "IMTG0D2G0535R288",
        "url": "https://www.163.com/dy/article/IMTG0D2G0535R288.html"
    },
    {
        "title": "海成云悦 | 爆款红盘，4#收官小高压轴上新！",
        "docid": "IMVT0PQB05562JD7",
        "url": "https://www.163.com/dy/article/IMVT0PQB05562JD7.html"
    },
    {
        "title": "2024年房价增长将放慢，但这些城区房价将快速上涨？澳洲买房，地段太重要了！",
        "docid": "IMUE549305199N88",
        "url": "https://www.163.com/dy/article/IMUE549305199N88.html"
    },
    {
        "title": "美国10月份房价再次环比上涨 住房贷款利率接近8%",
        "docid": "IMTUB44J0519D45U",
        "url": "https://www.163.com/dy/article/IMTUB44J0519D45U.html"
    },
    {
        "title": "万达对赌协议危机化解，实际上是另一种法律与商业安排",
        "docid": "IMV6ACUJ0552BK9U",
        "url": "https://www.163.com/dy/article/IMV6ACUJ0552BK9U.html"
    },
    {
        "title": "土地承包延期到2057年，新增或死亡人口的土地怎么分配？",
        "docid": "IN02KFBQ0530ICNH",
        "url": "https://www.163.com/dy/article/IN02KFBQ0530ICNH.html"
    },
    {
        "title": "暖冬计划，让服务持续+温",
        "docid": "IMVANAC00535R281",
        "url": "https://www.163.com/dy/article/IMVANAC00535R281.html"
    }
]