[
    {
        "title": "绿园保利熙悦 价格出来啦 约5723元/㎡",
        "docid": "IK1A0B2G0545PEDS",
        "url": "https://www.163.com/dy/article/IK1A0B2G0545PEDS.html"
    },
    {
        "title": "房贷利率5.28%降至4.2%，每月还的本金却变多了，这是怎么回事？",
        "docid": "IFLVNQ6C055628R6",
        "url": "https://www.163.com/dy/article/IFLVNQ6C055628R6.html"
    },
    {
        "title": "武汉新城红莲湖6宗住宅地块被拿下！",
        "docid": "IK1AKD490534SV3Y",
        "url": "https://www.163.com/dy/article/IK1AKD490534SV3Y.html"
    },
    {
        "title": "没想到楼市真的要凉了，房价恐怕还得跌！没买房的，能攥紧荷包吗",
        "docid": "IJ4EJMD505563OYC",
        "url": "https://www.163.com/dy/article/IJ4EJMD505563OYC.html"
    },
    {
        "title": "现在“卖房”和“买房”的人, 5年后谁会后悔! 3个现象给出答案",
        "docid": "IIAR8C7R055322E3",
        "url": "https://www.163.com/dy/article/IIAR8C7R055322E3.html"
    },
    {
        "title": "买西边户的都是“傻子”吗？同一栋楼，西户卖光了，东户无人问津",
        "docid": "IJ75OMPL0532D0CK",
        "url": "https://www.163.com/dy/article/IJ75OMPL0532D0CK.html"
    },
    {
        "title": "监管部门拟定房企白名单 明确要求“三个不低于”",
        "docid": "IK19O8C005199DKK",
        "url": "https://www.163.com/dy/article/IK19O8C005199DKK.html"
    },
    {
        "title": "当代年轻人，被房子压垮了",
        "docid": "VCJ2MV2NJ",
        "url": "https://www.163.com/dy/article/VCJ2MV2NJ.html"
    },
    {
        "title": "华曙高科：目前在现有厂房之外租赁其他场地以满足生产需求",
        "docid": "VDJ3A15G5",
        "url": "https://www.163.com/dy/article/VDJ3A15G5.html"
    },
    {
        "title": "政府叫你买房的时候该买房？房地产3个事实永远改变了，3类人能买",
        "docid": "IJJCDBB70531L1NE",
        "url": "https://www.163.com/dy/article/IJJCDBB70531L1NE.html"
    },
    {
        "title": "土地周报 | 供应持续放量，市场热度低位运行（11.13-11.19）",
        "docid": "IK1ALLCE0535A6CE",
        "url": "https://www.163.com/dy/article/IK1ALLCE0535A6CE.html"
    },
    {
        "title": "新课来了！任泽平：房地产大趋势",
        "docid": "IK1C5P9L0519NINF",
        "url": "https://www.163.com/dy/article/IK1C5P9L0519NINF.html"
    },
    {
        "title": "8套颜值高还实用的农村别墅，2023年超火户型，每一套都精美实用",
        "docid": "IK18JP0F0535LAX2",
        "url": "https://www.163.com/dy/article/IK18JP0F0535LAX2.html"
    },
    {
        "title": "11月30日起，新加坡满55岁公积金会员，每日线上提款顶限2000新币！",
        "docid": "IK1BVP4S0514CL19",
        "url": "https://www.163.com/dy/article/IK1BVP4S0514CL19.html"
    },
    {
        "title": "赶紧买房，万事达和运通获批进入我国市场，重大利好呀",
        "docid": "VWJ3GPTQV",
        "url": "https://www.163.com/dy/article/VWJ3GPTQV.html"
    },
    {
        "title": "洋房为什么3楼4楼最便宜？2个原因",
        "docid": "VDJ357MU0",
        "url": "https://www.163.com/dy/article/VDJ357MU0.html"
    },
    {
        "title": "10年后，这4类小区或将沦为“穷人区”？懂行的人已在悄悄脱手",
        "docid": "VFINUBEAN",
        "url": "https://www.163.com/dy/article/VFINUBEAN.html"
    },
    {
        "title": "320万买的房子跌到160万，我断供了！一家人走上了不归路！",
        "docid": "VMJ2QL3JL",
        "url": "https://www.163.com/dy/article/VMJ2QL3JL.html"
    },
    {
        "title": "买房的时候，不管一幢楼有多高，首选这4个“黄金楼层”！",
        "docid": "IJKAGJDE054057BR",
        "url": "https://www.163.com/dy/article/IJKAGJDE054057BR.html"
    },
    {
        "title": "曼哈顿商圈银基C5 户型建面约48㎡",
        "docid": "IK1DLUM5055616ZT",
        "url": "https://www.163.com/dy/article/IK1DLUM5055616ZT.html"
    },
    {
        "title": "看见未来 | 观点与赵水林对话：万民商业寻找“烟火气”",
        "docid": "IK1DL4JD0519D45U",
        "url": "https://www.163.com/dy/article/IK1DL4JD0519D45U.html"
    },
    {
        "title": "房价跌的最惨的城市竟然跌了75%",
        "docid": "VPJ2G9ENJ",
        "url": "https://www.163.com/dy/article/VPJ2G9ENJ.html"
    },
    {
        "title": "房龄到期了，该怎么办？",
        "docid": "VFJ2P5HFU",
        "url": "https://www.163.com/dy/article/VFJ2P5HFU.html"
    },
    {
        "title": "李稻葵发表惊人言论：谈保障房制度",
        "docid": "VGJ368RSA",
        "url": "https://www.163.com/dy/article/VGJ368RSA.html"
    },
    {
        "title": "证监会积极应对上市房企集中退市问题，化解大型房企债务违约风险",
        "docid": "VFJ3EQISE",
        "url": "https://www.163.com/dy/article/VFJ3EQISE.html"
    },
    {
        "title": "探秘两层拆迁房房间内发现大量衣物和高跟鞋，看看还找到了什么？",
        "docid": "VGIKQJCRI",
        "url": "https://www.163.com/dy/article/VGIKQJCRI.html"
    },
    {
        "title": "疑似缅北四大家族，明学昌别墅被炸毁了，现场视频遭到曝光",
        "docid": "VPILAL0UN",
        "url": "https://www.163.com/dy/article/VPILAL0UN.html"
    },
    {
        "title": "二手房陷阱27：房价下跌，买方解除房屋买卖合同，赔偿差价损失",
        "docid": "IK1AD9MM0553TDVP",
        "url": "https://www.163.com/dy/article/IK1AD9MM0553TDVP.html"
    },
    {
        "title": "高房价是我国内循环经济的一大障碍吗？房地产有您不知道的地方",
        "docid": "IK1AO1SQ0553TDXU",
        "url": "https://www.163.com/dy/article/IK1AO1SQ0553TDXU.html"
    },
    {
        "title": "2024年开始，房地产即将迎来大变天",
        "docid": "IK1CDS6U0553TEV3",
        "url": "https://www.163.com/dy/article/IK1CDS6U0553TEV3.html"
    },
    {
        "title": "从万人摇号，到跌穿开盘价！又一个楼市神话，正在褪去光环…",
        "docid": "IK1CL7UT0553TDVP",
        "url": "https://www.163.com/dy/article/IK1CL7UT0553TDVP.html"
    },
    {
        "title": "统一大市场是小城市房价的救星，为什么工资总是跑不赢房价？",
        "docid": "IJJPPC3K0535JMSP",
        "url": "https://www.163.com/dy/article/IJJPPC3K0535JMSP.html"
    },
    {
        "title": "2023年11月21日房产早8点速评",
        "docid": "IK1C0V9P0512B07B",
        "url": "https://www.163.com/dy/article/IK1C0V9P0512B07B.html"
    },
    {
        "title": "一线大明星巩俐在深圳的豪宅，地理位置十分优越，依山傍海！",
        "docid": "VGJ30MSQ8",
        "url": "https://www.163.com/dy/article/VGJ30MSQ8.html"
    },
    {
        "title": "政策一直出，但是就是没有用",
        "docid": "VPJ2G9IHU",
        "url": "https://www.163.com/dy/article/VPJ2G9IHU.html"
    },
    {
        "title": "两次撕毁中国高铁订单！违约金十亿只赔800万！如今却烂尾求帮助！",
        "docid": "VWJ1RO9FH",
        "url": "https://www.163.com/dy/article/VWJ1RO9FH.html"
    },
    {
        "title": "搬进高层后的压抑感，让我后悔了！",
        "docid": "IK1GLQ3C0532D0CK",
        "url": "https://www.163.com/dy/article/IK1GLQ3C0532D0CK.html"
    },
    {
        "title": "你买房时不知道该选哪个小区？看看这个小区的地下车库，就懂了",
        "docid": "IJKI25AO05561J3R",
        "url": "https://www.163.com/dy/article/IJKI25AO05561J3R.html"
    },
    {
        "title": "当年疯抢的“神盘”现状曝光！",
        "docid": "IJV93DVM0549RI77",
        "url": "https://www.163.com/dy/article/IJV93DVM0549RI77.html"
    },
    {
        "title": "房地产开发板块拉升，电子城、三湘印象涨停，金融机构座谈会传递重要信号",
        "docid": "IJVSG19C0519DDQ2",
        "url": "https://www.163.com/dy/article/IJVSG19C0519DDQ2.html"
    },
    {
        "title": "12*11.3 和21*16.5农村二层别墅设计图",
        "docid": "IK0H6ABM0552QWCL",
        "url": "https://www.163.com/dy/article/IK0H6ABM0552QWCL.html"
    },
    {
        "title": "房产中介说漏嘴，这“5个楼层”都是“穷人层”，买了就等于吃亏",
        "docid": "IIKMTMD905529KBU",
        "url": "https://www.163.com/dy/article/IIKMTMD905529KBU.html"
    },
    {
        "title": "11月LPR报价出炉：1年期和5年期利率均维持不变",
        "docid": "IJVP7B2K0539AP40",
        "url": "https://www.163.com/dy/article/IJVP7B2K0539AP40.html"
    },
    {
        "title": "武汉购房必备：商转公政策详解及实战案例分享！",
        "docid": "IJR330EU05565ISN",
        "url": "https://www.163.com/dy/article/IJR330EU05565ISN.html"
    },
    {
        "title": "森大厦在东京都港区推进的再开发项目“麻布台HILLS”亮相",
        "docid": "IK0G78PR055616ZT",
        "url": "https://www.163.com/dy/article/IK0G78PR055616ZT.html"
    },
    {
        "title": "居家办公大潮凶猛！安永或放弃入驻二十年的伦敦总部",
        "docid": "IK1I66TA05198NMR",
        "url": "https://www.163.com/dy/article/IK1I66TA05198NMR.html"
    },
    {
        "title": "10年后，房价问题可能已经解决，但楼市或会迎来3个“新难题”",
        "docid": "IJKBIELA05529KBU",
        "url": "https://www.163.com/dy/article/IJKBIELA05529KBU.html"
    },
    {
        "title": "炒房客，正在排队暴雷！",
        "docid": "IK1BCEO505563TCH",
        "url": "https://www.163.com/dy/article/IK1BCEO505563TCH.html"
    },
    {
        "title": "分享|改造后的60平的二手房",
        "docid": "IK1I25370553TDVP",
        "url": "https://www.163.com/dy/article/IK1I25370553TDVP.html"
    },
    {
        "title": "“三支箭”持续发力，专家表示限购松绑等优化方案也需“跟上”",
        "docid": "IK1IEFA10539AP40",
        "url": "https://www.163.com/dy/article/IK1IEFA10539AP40.html"
    },
    {
        "title": "同一户型，为啥聪明人选西户",
        "docid": "VFIJ97NHC",
        "url": "https://www.163.com/dy/article/VFIJ97NHC.html"
    },
    {
        "title": "小区最好的位置，被哪位“鸿运当头”者买了？能买到真是三生有幸",
        "docid": "VBIJVM9VN",
        "url": "https://www.163.com/dy/article/VBIJVM9VN.html"
    },
    {
        "title": "现在卖房，就相当于高位套现",
        "docid": "VGILBCUO0",
        "url": "https://www.163.com/dy/article/VGILBCUO0.html"
    },
    {
        "title": "想去孩子所在的城市买房养老，房产写孩子名好？还是写自己名好？",
        "docid": "VRJ3MU6MA",
        "url": "https://www.163.com/dy/article/VRJ3MU6MA.html"
    },
    {
        "title": "居民深受国家政策关怀，步梯房加装电梯引来小区目光",
        "docid": "IJKI0N9705561J3R",
        "url": "https://www.163.com/dy/article/IJKI0N9705561J3R.html"
    },
    {
        "title": "【奥弗庄园】上海站隆重开盘！伯克利总监从伦敦亲临现场，报名从速！",
        "docid": "IK1KE3RK0514A8K4",
        "url": "https://www.163.com/dy/article/IK1KE3RK0514A8K4.html"
    },
    {
        "title": "为啥说“再穷不买一楼，再傻不买顶楼呢”？",
        "docid": "IK1FQUSS0532D0CK",
        "url": "https://www.163.com/dy/article/IK1FQUSS0532D0CK.html"
    },
    {
        "title": "央行等三部门支持新进展，房地产再迎利好消息，大动作预期增强",
        "docid": "IJQRJAUB05158I5P",
        "url": "https://www.163.com/dy/article/IJQRJAUB05158I5P.html"
    },
    {
        "title": "房子够住30亿人，2024年后“涨”还是“跌”？马光远2句话说透了",
        "docid": "IK1CDVNJ0519GBC0",
        "url": "https://www.163.com/dy/article/IK1CDVNJ0519GBC0.html"
    },
    {
        "title": "山中小镇，人口流失，片地楼房没人住，最低950一平，却无人问津",
        "docid": "VVILI0LUR",
        "url": "https://www.163.com/dy/article/VVILI0LUR.html"
    },
    {
        "title": "全小区最差的位置，被哪位“大冤种”入坑了？鸡立鹤群噪音还特大",
        "docid": "VBIMF86EJ",
        "url": "https://www.163.com/dy/article/VBIMF86EJ.html"
    },
    {
        "title": "新房10年未住竟成杂物间，门锁被撬女子报警，物业回应",
        "docid": "VCJ2CG28H",
        "url": "https://www.163.com/dy/article/VCJ2CG28H.html"
    },
    {
        "title": "有房产证房子也不是你的",
        "docid": "VZIIO0CTO",
        "url": "https://www.163.com/dy/article/VZIIO0CTO.html"
    },
    {
        "title": "当年疯抢的“神盘”现状曝光！",
        "docid": "IJV93DVM0549RI77",
        "url": "https://www.163.com/dy/article/IJV93DVM0549RI77.html"
    },
    {
        "title": "武昌首义学院地块这里新增住宅用地！",
        "docid": "IJTSONKR0534SV3Y",
        "url": "https://www.163.com/dy/article/IJTSONKR0534SV3Y.html"
    },
    {
        "title": "武汉学区房还能不能买，武汉有没有可能出房地产税？",
        "docid": "IJJRDKI40535JMSP",
        "url": "https://www.163.com/dy/article/IJJRDKI40535JMSP.html"
    },
    {
        "title": "武汉购房必备：商转公政策详解及实战案例分享！",
        "docid": "IJR330EU05565ISN",
        "url": "https://www.163.com/dy/article/IJR330EU05565ISN.html"
    },
    {
        "title": "不同楼房的黄金楼层！",
        "docid": "IGOPR0DR0553CGHB",
        "url": "https://www.163.com/dy/article/IGOPR0DR0553CGHB.html"
    },
    {
        "title": "土地拍卖重回“价高者得”背后：不是解决财政问题，是要恢复资产流动性",
        "docid": "IJVR632P05352LE9",
        "url": "https://www.163.com/dy/article/IJVR632P05352LE9.html"
    },
    {
        "title": "武汉买房：买房前要知道，首要选择买房方向！",
        "docid": "IK0IL0M205560R20",
        "url": "https://www.163.com/dy/article/IK0IL0M205560R20.html"
    },
    {
        "title": "武汉买房，千万不要为了买而买！",
        "docid": "IJMH9FQ805522OZU",
        "url": "https://www.163.com/dy/article/IJMH9FQ805522OZU.html"
    },
    {
        "title": "“百万级流量”达人在线Battle，这场直播赛轰动了武汉地产圈！",
        "docid": "IJVT2VLF0550GSZT",
        "url": "https://www.163.com/dy/article/IJVT2VLF0550GSZT.html"
    },
    {
        "title": "悉尼的未来楼市希望在东南？墨尔本楼市被高估和低估的地区居然在这里！",
        "docid": "IK1N8RRD05199N88",
        "url": "https://www.163.com/dy/article/IK1N8RRD05199N88.html"
    },
    {
        "title": "如何简单的预测这座城市房价涨跌",
        "docid": "IJJS23990535JMSP",
        "url": "https://www.163.com/dy/article/IJJS23990535JMSP.html"
    },
    {
        "title": "邻居换进户门，没想到，还被逼着要“被动消费”一次了！",
        "docid": "IJKHT4SL05561J3R",
        "url": "https://www.163.com/dy/article/IJKHT4SL05561J3R.html"
    },
    {
        "title": "大水不会有，惊喜不会有，普通人该怎么样利用这段时间来提高自己",
        "docid": "IJJQ9FO60535JMSP",
        "url": "https://www.163.com/dy/article/IJJQ9FO60535JMSP.html"
    },
    {
        "title": "为什么大热狮山，都在看这个项目",
        "docid": "IJJPJ6BP05523LQD",
        "url": "https://www.163.com/dy/article/IJJPJ6BP05523LQD.html"
    },
    {
        "title": "房产证上少两字，别想轻松卖出去，出让和划拨有区别，交易前一定要核实清楚",
        "docid": "VGIMTHCPK",
        "url": "https://www.163.com/dy/article/VGIMTHCPK.html"
    },
    {
        "title": "老房子怎么判断要不要卖",
        "docid": "VKIIMU6J7",
        "url": "https://www.163.com/dy/article/VKIIMU6J7.html"
    },
    {
        "title": "有了房产证房子也不一定是你的",
        "docid": "VGILDPJRG",
        "url": "https://www.163.com/dy/article/VGILDPJRG.html"
    },
    {
        "title": "老婆，你说城中村的房子到底能不能买啊？",
        "docid": "VAI49B11I",
        "url": "https://www.163.com/dy/article/VAI49B11I.html"
    },
    {
        "title": "当年疯抢的“神盘”现状曝光！",
        "docid": "IJV93DVM0549RI77",
        "url": "https://www.163.com/dy/article/IJV93DVM0549RI77.html"
    },
    {
        "title": "武昌首义学院地块这里新增住宅用地！",
        "docid": "IJTSONKR0534SV3Y",
        "url": "https://www.163.com/dy/article/IJTSONKR0534SV3Y.html"
    },
    {
        "title": "武汉学区房还能不能买，武汉有没有可能出房地产税？",
        "docid": "IJJRDKI40535JMSP",
        "url": "https://www.163.com/dy/article/IJJRDKI40535JMSP.html"
    },
    {
        "title": "武汉购房必备：商转公政策详解及实战案例分享！",
        "docid": "IJR330EU05565ISN",
        "url": "https://www.163.com/dy/article/IJR330EU05565ISN.html"
    },
    {
        "title": "武汉买房：买房前要知道，首要选择买房方向！",
        "docid": "IK0IL0M205560R20",
        "url": "https://www.163.com/dy/article/IK0IL0M205560R20.html"
    },
    {
        "title": "武汉买房，千万不要为了买而买！",
        "docid": "IJMH9FQ805522OZU",
        "url": "https://www.163.com/dy/article/IJMH9FQ805522OZU.html"
    },
    {
        "title": "“百万级流量”达人在线Battle，这场直播赛轰动了武汉地产圈！",
        "docid": "IJVT2VLF0550GSZT",
        "url": "https://www.163.com/dy/article/IJVT2VLF0550GSZT.html"
    },
    {
        "title": "网友倾诉：我在武汉买错一套房、生活陷入困境！",
        "docid": "IJT2L0TI0553TEQM",
        "url": "https://www.163.com/dy/article/IJT2L0TI0553TEQM.html"
    },
    {
        "title": "五年以后，现价150万的房子值多少钱？内行人给出答案",
        "docid": "IGHRHEIP0552NSSC",
        "url": "https://www.163.com/dy/article/IGHRHEIP0552NSSC.html"
    },
    {
        "title": "当年疯抢的“神盘”现状曝光！",
        "docid": "IJV93DVM0549RI77",
        "url": "https://www.163.com/dy/article/IJV93DVM0549RI77.html"
    },
    {
        "title": "武昌首义学院地块这里新增住宅用地！",
        "docid": "IJTSONKR0534SV3Y",
        "url": "https://www.163.com/dy/article/IJTSONKR0534SV3Y.html"
    },
    {
        "title": "武汉购房必备：商转公政策详解及实战案例分享！",
        "docid": "IJR330EU05565ISN",
        "url": "https://www.163.com/dy/article/IJR330EU05565ISN.html"
    },
    {
        "title": "武汉买房：买房前要知道，首要选择买房方向！",
        "docid": "IK0IL0M205560R20",
        "url": "https://www.163.com/dy/article/IK0IL0M205560R20.html"
    },
    {
        "title": "武汉买房，千万不要为了买而买！",
        "docid": "IJMH9FQ805522OZU",
        "url": "https://www.163.com/dy/article/IJMH9FQ805522OZU.html"
    },
    {
        "title": "“百万级流量”达人在线Battle，这场直播赛轰动了武汉地产圈！",
        "docid": "IJVT2VLF0550GSZT",
        "url": "https://www.163.com/dy/article/IJVT2VLF0550GSZT.html"
    },
    {
        "title": "网友倾诉：我在武汉买错一套房、生活陷入困境！",
        "docid": "IJT2L0TI0553TEQM",
        "url": "https://www.163.com/dy/article/IJT2L0TI0553TEQM.html"
    },
    {
        "title": "我国最适合居住的城市排名出炉了",
        "docid": "IH6NIMP805562IAR",
        "url": "https://www.163.com/dy/article/IH6NIMP805562IAR.html"
    },
    {
        "title": "武汉楼市：这些垃圾资产正在要你的命",
        "docid": "IJTUHHCV05560R20",
        "url": "https://www.163.com/dy/article/IJTUHHCV05560R20.html"
    },
    {
        "title": "当年疯抢的“神盘”现状曝光！",
        "docid": "IJV93DVM0549RI77",
        "url": "https://www.163.com/dy/article/IJV93DVM0549RI77.html"
    },
    {
        "title": "武昌首义学院地块这里新增住宅用地！",
        "docid": "IJTSONKR0534SV3Y",
        "url": "https://www.163.com/dy/article/IJTSONKR0534SV3Y.html"
    },
    {
        "title": "武汉学区房还能不能买，武汉有没有可能出房地产税？",
        "docid": "IJJRDKI40535JMSP",
        "url": "https://www.163.com/dy/article/IJJRDKI40535JMSP.html"
    },
    {
        "title": "武汉购房必备：商转公政策详解及实战案例分享！",
        "docid": "IJR330EU05565ISN",
        "url": "https://www.163.com/dy/article/IJR330EU05565ISN.html"
    },
    {
        "title": "武汉买房，千万不要为了买而买！",
        "docid": "IJMH9FQ805522OZU",
        "url": "https://www.163.com/dy/article/IJMH9FQ805522OZU.html"
    },
    {
        "title": "“百万级流量”达人在线Battle，这场直播赛轰动了武汉地产圈！",
        "docid": "IJVT2VLF0550GSZT",
        "url": "https://www.163.com/dy/article/IJVT2VLF0550GSZT.html"
    },
    {
        "title": "网友倾诉：我在武汉买错一套房、生活陷入困境！",
        "docid": "IJT2L0TI0553TEQM",
        "url": "https://www.163.com/dy/article/IJT2L0TI0553TEQM.html"
    },
    {
        "title": "武汉楼市：这些垃圾资产正在要你的命",
        "docid": "IJTUHHCV05560R20",
        "url": "https://www.163.com/dy/article/IJTUHHCV05560R20.html"
    },
    {
        "title": "2023年宅基地将迎来3大变化，农民朋友要了解！",
        "docid": "IJ4H52QU0553V37F",
        "url": "https://www.163.com/dy/article/IJ4H52QU0553V37F.html"
    },
    {
        "title": "237平米经典的五室大平层",
        "docid": "IJIHHPDS0552CPHG",
        "url": "https://www.163.com/dy/article/IJIHHPDS0552CPHG.html"
    },
    {
        "title": "大家都被骗了恒大根本没有欠2.5万亿？",
        "docid": "VGJ45GUT4",
        "url": "https://www.163.com/dy/article/VGJ45GUT4.html"
    },
    {
        "title": "某地住建局和房管局家属楼烂尾，真是不知道说啥了",
        "docid": "VDJ43VCL3",
        "url": "https://www.163.com/dy/article/VDJ43VCL3.html"
    },
    {
        "title": "串串房就是白血病套餐房，买房租房一定要避开，住半年直接要你命",
        "docid": "VCITQ13TF",
        "url": "https://www.163.com/dy/article/VCITQ13TF.html"
    },
    {
        "title": "500万预算买华南的别墅，还是钻石湾的大平层？",
        "docid": "VGIJJFTG1",
        "url": "https://www.163.com/dy/article/VGIJJFTG1.html"
    },
    {
        "title": "买房子千万不要买这几个楼层",
        "docid": "VFJ2OSC1B",
        "url": "https://www.163.com/dy/article/VFJ2OSC1B.html"
    },
    {
        "title": "今年不买房5年后还能买得起吗？",
        "docid": "VQILE47VL",
        "url": "https://www.163.com/dy/article/VQILE47VL.html"
    },
    {
        "title": "今年把房贷提前还清了，以为可以轻松了，没想到苦日子才刚刚开始",
        "docid": "VGILPS5NM",
        "url": "https://www.163.com/dy/article/VGILPS5NM.html"
    },
    {
        "title": "购房需求现在还有没有？",
        "docid": "VGILDPG7M",
        "url": "https://www.163.com/dy/article/VGILDPG7M.html"
    },
    {
        "title": "当年疯抢的“神盘”现状曝光！",
        "docid": "IJV93DVM0549RI77",
        "url": "https://www.163.com/dy/article/IJV93DVM0549RI77.html"
    },
    {
        "title": "武昌首义学院地块这里新增住宅用地！",
        "docid": "IJTSONKR0534SV3Y",
        "url": "https://www.163.com/dy/article/IJTSONKR0534SV3Y.html"
    },
    {
        "title": "武汉学区房还能不能买，武汉有没有可能出房地产税？",
        "docid": "IJJRDKI40535JMSP",
        "url": "https://www.163.com/dy/article/IJJRDKI40535JMSP.html"
    },
    {
        "title": "武汉购房必备：商转公政策详解及实战案例分享！",
        "docid": "IJR330EU05565ISN",
        "url": "https://www.163.com/dy/article/IJR330EU05565ISN.html"
    },
    {
        "title": "武汉买房：买房前要知道，首要选择买房方向！",
        "docid": "IK0IL0M205560R20",
        "url": "https://www.163.com/dy/article/IK0IL0M205560R20.html"
    },
    {
        "title": "武汉买房，千万不要为了买而买！",
        "docid": "IJMH9FQ805522OZU",
        "url": "https://www.163.com/dy/article/IJMH9FQ805522OZU.html"
    },
    {
        "title": "“百万级流量”达人在线Battle，这场直播赛轰动了武汉地产圈！",
        "docid": "IJVT2VLF0550GSZT",
        "url": "https://www.163.com/dy/article/IJVT2VLF0550GSZT.html"
    },
    {
        "title": "武汉楼市：这些垃圾资产正在要你的命",
        "docid": "IJTUHHCV05560R20",
        "url": "https://www.163.com/dy/article/IJTUHHCV05560R20.html"
    },
    {
        "title": "美联：SSD禁售期减至2年 明年注册宗数有望自低位回升",
        "docid": "IK0638880519D45U",
        "url": "https://www.163.com/dy/article/IK0638880519D45U.html"
    },
    {
        "title": "武昌首义学院地块这里新增住宅用地！",
        "docid": "IJTSONKR0534SV3Y",
        "url": "https://www.163.com/dy/article/IJTSONKR0534SV3Y.html"
    },
    {
        "title": "武汉学区房还能不能买，武汉有没有可能出房地产税？",
        "docid": "IJJRDKI40535JMSP",
        "url": "https://www.163.com/dy/article/IJJRDKI40535JMSP.html"
    },
    {
        "title": "武汉买房：买房前要知道，首要选择买房方向！",
        "docid": "IK0IL0M205560R20",
        "url": "https://www.163.com/dy/article/IK0IL0M205560R20.html"
    },
    {
        "title": "武汉买房，千万不要为了买而买！",
        "docid": "IJMH9FQ805522OZU",
        "url": "https://www.163.com/dy/article/IJMH9FQ805522OZU.html"
    },
    {
        "title": "“百万级流量”达人在线Battle，这场直播赛轰动了武汉地产圈！",
        "docid": "IJVT2VLF0550GSZT",
        "url": "https://www.163.com/dy/article/IJVT2VLF0550GSZT.html"
    },
    {
        "title": "网友倾诉：我在武汉买错一套房、生活陷入困境！",
        "docid": "IJT2L0TI0553TEQM",
        "url": "https://www.163.com/dy/article/IJT2L0TI0553TEQM.html"
    },
    {
        "title": "武汉楼市：这些垃圾资产正在要你的命",
        "docid": "IJTUHHCV05560R20",
        "url": "https://www.163.com/dy/article/IJTUHHCV05560R20.html"
    },
    {
        "title": "2023年10月份70个大中城市商品住宅销售价格变动情况",
        "docid": "IK0EKICK0553TEQM",
        "url": "https://www.163.com/dy/article/IK0EKICK0553TEQM.html"
    },
    {
        "title": "楼市会复苏，买房逻辑却大不一样了",
        "docid": "IJMHGD770552ZA2G",
        "url": "https://www.163.com/dy/article/IJMHGD770552ZA2G.html"
    },
    {
        "title": "亚洲“最大”的住宅小区，里面住着50万人，高楼密集程度堪比香港",
        "docid": "IK1SV8GS0535KYBT",
        "url": "https://www.163.com/dy/article/IK1SV8GS0535KYBT.html"
    },
    {
        "title": "1,000万、500万、300万、20万选哪里的房子！",
        "docid": "IK24C7560553CGU5",
        "url": "https://www.163.com/dy/article/IK24C7560553CGU5.html"
    },
    {
        "title": "旧楼加装电梯 楼上装电梯楼下意见大 老百姓关心的话题",
        "docid": "VPJ4B3N32",
        "url": "https://www.163.com/dy/article/VPJ4B3N32.html"
    },
    {
        "title": "为什么买房时，不选路口的房子",
        "docid": "VFIJ97PVB",
        "url": "https://www.163.com/dy/article/VFIJ97PVB.html"
    },
    {
        "title": "不算账还好，一算账吓一跳",
        "docid": "VQIJ2R0KM",
        "url": "https://www.163.com/dy/article/VQIJ2R0KM.html"
    },
    {
        "title": "你的楼层是几层？你会在乎谐音层吗，认可上面说的吗？",
        "docid": "VZIMTIANP",
        "url": "https://www.163.com/dy/article/VZIMTIANP.html"
    },
    {
        "title": "房产证加上孩子的名字有啥好处",
        "docid": "VZILDAGU9",
        "url": "https://www.163.com/dy/article/VZILDAGU9.html"
    },
    {
        "title": "房子断供法拍不足还贷，为什么银行不承担",
        "docid": "VPILL5BVU",
        "url": "https://www.163.com/dy/article/VPILL5BVU.html"
    },
    {
        "title": "2000万软妹币，在大阪市中心拥有一栋楼，直接实现财富自由",
        "docid": "VDIN6PI7Q",
        "url": "https://www.163.com/dy/article/VDIN6PI7Q.html"
    },
    {
        "title": "18城120-144平面积段成交占比提升；华润苏州推出润系三子 | 10月住宅产品月报",
        "docid": "IK23VBTE05159A0N",
        "url": "https://www.163.com/dy/article/IK23VBTE05159A0N.html"
    },
    {
        "title": "货币贬值下，买房成“赢家”？错了，拥有这类东西才“值钱”",
        "docid": "IK1UVGRR0535MP84",
        "url": "https://www.163.com/dy/article/IK1UVGRR0535MP84.html"
    },
    {
        "title": "近20年房贷利率“奇观”",
        "docid": "IK1VJTPL0552CPHG",
        "url": "https://www.163.com/dy/article/IK1VJTPL0552CPHG.html"
    },
    {
        "title": "当年疯抢的“神盘”现状曝光！",
        "docid": "IJV93DVM0549RI77",
        "url": "https://www.163.com/dy/article/IJV93DVM0549RI77.html"
    },
    {
        "title": "武昌首义学院地块这里新增住宅用地！",
        "docid": "IJTSONKR0534SV3Y",
        "url": "https://www.163.com/dy/article/IJTSONKR0534SV3Y.html"
    },
    {
        "title": "武汉学区房还能不能买，武汉有没有可能出房地产税？",
        "docid": "IJJRDKI40535JMSP",
        "url": "https://www.163.com/dy/article/IJJRDKI40535JMSP.html"
    },
    {
        "title": "武汉购房必备：商转公政策详解及实战案例分享！",
        "docid": "IJR330EU05565ISN",
        "url": "https://www.163.com/dy/article/IJR330EU05565ISN.html"
    },
    {
        "title": "武汉买房：买房前要知道，首要选择买房方向！",
        "docid": "IK0IL0M205560R20",
        "url": "https://www.163.com/dy/article/IK0IL0M205560R20.html"
    },
    {
        "title": "“百万级流量”达人在线Battle，这场直播赛轰动了武汉地产圈！",
        "docid": "IJVT2VLF0550GSZT",
        "url": "https://www.163.com/dy/article/IJVT2VLF0550GSZT.html"
    },
    {
        "title": "朋友真实燕郊买房断供经历，让他撑不住的不是首付，而是30年还款",
        "docid": "IK1V0BAV0535KYBT",
        "url": "https://www.163.com/dy/article/IK1V0BAV0535KYBT.html"
    },
    {
        "title": "假设来一场猛烈的50年限售政策真的会拯救楼市和经济吗？",
        "docid": "IK1VUESM0552CPHG",
        "url": "https://www.163.com/dy/article/IK1VUESM0552CPHG.html"
    },
    {
        "title": "沉重的房租是门面转让的根本原因吗",
        "docid": "IJSP8HKO0535MP84",
        "url": "https://www.163.com/dy/article/IJSP8HKO0535MP84.html"
    },
    {
        "title": "我们小区从1.2w现在变成1w了，可三千多户，几乎都是6k上车的",
        "docid": "IK205AGN0535KYBT",
        "url": "https://www.163.com/dy/article/IK205AGN0535KYBT.html"
    },
    {
        "title": "256平米的迷人大平层，转角阳台长近19m",
        "docid": "IK204B4N0535L5VU",
        "url": "https://www.163.com/dy/article/IK204B4N0535L5VU.html"
    },
    {
        "title": "外地刚需购房者：回武汉买房太难了！！！",
        "docid": "IJL300M90535KYBT",
        "url": "https://www.163.com/dy/article/IJL300M90535KYBT.html"
    },
    {
        "title": "澳门第3季完成缴纳印花税程序的楼宇单位及停车位买卖共1030个 总值50.9亿澳门元",
        "docid": "IK286E8G05198UNI",
        "url": "https://www.163.com/dy/article/IK286E8G05198UNI.html"
    },
    {
        "title": "西北方入户门，户型结构方正，有哪些需要调整？",
        "docid": "VSINQ885K",
        "url": "https://www.163.com/dy/article/VSINQ885K.html"
    },
    {
        "title": "全国十几亿套房子，有没有可能全部卖掉",
        "docid": "VCILBGH8V",
        "url": "https://www.163.com/dy/article/VCILBGH8V.html"
    },
    {
        "title": "全国十九个城市群，哪些城市群房价比较有潜力",
        "docid": "IJJQDGJD0535JMSP",
        "url": "https://www.163.com/dy/article/IJJQDGJD0535JMSP.html"
    },
    {
        "title": "143平米优雅户型，体现了极致的动静分离",
        "docid": "IJL1DJE30535KYBT",
        "url": "https://www.163.com/dy/article/IJL1DJE30535KYBT.html"
    },
    {
        "title": "若房价死扛不降，会出现什么后果？造成的极端现象远比你想的严重",
        "docid": "IJL2B65B0535MP84",
        "url": "https://www.163.com/dy/article/IJL2B65B0535MP84.html"
    },
    {
        "title": "238平方米五房两厅的大宅户型，厨房位置改一下就完美了",
        "docid": "IJL2G6D90535KYBM",
        "url": "https://www.163.com/dy/article/IJL2G6D90535KYBM.html"
    },
    {
        "title": "城市高层住宅结局很悲惨",
        "docid": "VZJ4EP63L",
        "url": "https://www.163.com/dy/article/VZJ4EP63L.html"
    },
    {
        "title": "为什么这种户型，非常不利于男人呢！ ",
        "docid": "VCILCGU0D",
        "url": "https://www.163.com/dy/article/VCILCGU0D.html"
    },
    {
        "title": "胡论10：全国乡村土地完成国有化后，与城市企业的国有化进。",
        "docid": "VZIJ0U1RN",
        "url": "https://www.163.com/dy/article/VZIJ0U1RN.html"
    },
    {
        "title": "住了五年的高层终于卖了",
        "docid": "VCIROAQPV",
        "url": "https://www.163.com/dy/article/VCIROAQPV.html"
    },
    {
        "title": "什么时候买房，是最合适的时机？",
        "docid": "VTIIMHHLL",
        "url": "https://www.163.com/dy/article/VTIIMHHLL.html"
    },
    {
        "title": "让年轻人看到希望，能留在一线城市安居乐业，方直珑樾山",
        "docid": "IK0PQ0U6055667YX",
        "url": "https://www.163.com/dy/article/IK0PQ0U6055667YX.html"
    },
    {
        "title": "给中天集团罗玉平的建议",
        "docid": "IK2B7RAO0552QWCS",
        "url": "https://www.163.com/dy/article/IK2B7RAO0552QWCS.html"
    },
    {
        "title": "完美到极致的680平米的大平层，你被震惊到了么？",
        "docid": "IJL2GDUC0535MP84",
        "url": "https://www.163.com/dy/article/IJL2GDUC0535MP84.html"
    },
    {
        "title": "未来5年，房子与存款哪个更值钱？内行一句说透，庆幸选对",
        "docid": "IK1VB0RB0535MP84",
        "url": "https://www.163.com/dy/article/IK1VB0RB0535MP84.html"
    },
    {
        "title": "专题 | 重点城市一二手成交总规模分化特征、内因与前景探析",
        "docid": "IK2BTQ650535A6CE",
        "url": "https://www.163.com/dy/article/IK2BTQ650535A6CE.html"
    },
    {
        "title": "当前房地产市场正处于调整期",
        "docid": "IK29RAJT05562PIU",
        "url": "https://www.163.com/dy/article/IK29RAJT05562PIU.html"
    },
    {
        "title": "王健林要哭了，500亿打造的武汉楚河汉街，还能坚持多久",
        "docid": "VCJ4A9G56",
        "url": "https://www.163.com/dy/article/VCJ4A9G56.html"
    },
    {
        "title": "谁说有房就不能盼着房价下行了，不用卖房就改善不更好？",
        "docid": "VQJ4H9IRH",
        "url": "https://www.163.com/dy/article/VQJ4H9IRH.html"
    },
    {
        "title": "负债潮来袭，家庭收入被压缩，有房和没房谁能活下去？",
        "docid": "VPJ4GUUST",
        "url": "https://www.163.com/dy/article/VPJ4GUUST.html"
    },
    {
        "title": "买电梯房最忌选这3层，为啥？资深房产经理这样总结",
        "docid": "IJKKLDFQ05560M22",
        "url": "https://www.163.com/dy/article/IJKKLDFQ05560M22.html"
    },
    {
        "title": "市场看着表面很平静，内里小作文满天飞，方直珑樾山",
        "docid": "IK0N30HA055667YX",
        "url": "https://www.163.com/dy/article/IK0N30HA055667YX.html"
    },
    {
        "title": "明明“认房不认贷”是利好，为什么似乎没啥作用？",
        "docid": "IJKDBBGM055669SQ",
        "url": "https://www.163.com/dy/article/IJKDBBGM055669SQ.html"
    },
    {
        "title": "只需8个步骤，迅速提升物业服务品质",
        "docid": "IK2DG4D50535R288",
        "url": "https://www.163.com/dy/article/IK2DG4D50535R288.html"
    },
    {
        "title": "这算不算农村自建房的天花板？难得一见的豪宅今天算是开眼了",
        "docid": "VGIND2IPR",
        "url": "https://www.163.com/dy/article/VGIND2IPR.html"
    },
    {
        "title": "十分钟到地铁口的书包房来咯，16年的房子，确定不来看看吗",
        "docid": "VOJ4J6N7U",
        "url": "https://www.163.com/dy/article/VOJ4J6N7U.html"
    },
    {
        "title": "对不起，我真的太爱我家这个客厅了！",
        "docid": "VCJ4AE9OQ",
        "url": "https://www.163.com/dy/article/VCJ4AE9OQ.html"
    },
    {
        "title": "农村实用两开间别墅，占地80平，有想要图纸的吗",
        "docid": "VZILBULA1",
        "url": "https://www.163.com/dy/article/VZILBULA1.html"
    },
    {
        "title": "金色维也纳独栋五年出一套",
        "docid": "VZJ356BUC",
        "url": "https://www.163.com/dy/article/VZJ356BUC.html"
    },
    {
        "title": "五年后，步梯房或将成为市场新宠？",
        "docid": "IK2DNPAT0553RRD3",
        "url": "https://www.163.com/dy/article/IK2DNPAT0553RRD3.html"
    },
    {
        "title": "迪拜、阿布扎比海外房产投资成热潮，背后有哪些原因",
        "docid": "IK2EHNMB05158AVI",
        "url": "https://www.163.com/dy/article/IK2EHNMB05158AVI.html"
    },
    {
        "title": "粤港澳大湾区物业创新发展高峰论坛，报名通道正式开启！",
        "docid": "IK2FDP7B0535R288",
        "url": "https://www.163.com/dy/article/IK2FDP7B0535R288.html"
    },
    {
        "title": "监管机构拟扩围房企白名单！地产开盘狂飙，龙头房企大涨，地产ETF(159707)涨超3%！",
        "docid": "IK2F07GQ051987V2",
        "url": "https://www.163.com/dy/article/IK2F07GQ051987V2.html"
    },
    {
        "title": "央行降准，释放万亿货币，你手中的钱在快速贬值，你准备买房吗？",
        "docid": "IJL2VIFJ0552CPHG",
        "url": "https://www.163.com/dy/article/IJL2VIFJ0552CPHG.html"
    },
    {
        "title": "融创归来，又拿了个“第一”",
        "docid": "IK2DSFJ905391O4W",
        "url": "https://www.163.com/dy/article/IK2DSFJ905391O4W.html"
    },
    {
        "title": "综投集团所属兴丰公司 党建引领践初心，国企担当解民忧",
        "docid": "IK2FBKVB0553TDXU",
        "url": "https://www.163.com/dy/article/IK2FBKVB0553TDXU.html"
    },
    {
        "title": "11月百城首二套平均房贷利率续降 首套降至3.87%",
        "docid": "IK2DFUMO0209992S",
        "url": "https://www.163.com/dy/article/IK2DFUMO0209992S.html"
    },
    {
        "title": "这样一个项目，不应该被误读",
        "docid": "IK2EU2180515I4G5",
        "url": "https://www.163.com/dy/article/IK2EU2180515I4G5.html"
    },
    {
        "title": "最新|2023年“城市更新”项目名单",
        "docid": "IK2EVB190552R0Y2",
        "url": "https://www.163.com/dy/article/IK2EVB190552R0Y2.html"
    },
    {
        "title": "中国房价再过5~10年，可能又是一波令人难忘的行情，你信吗？",
        "docid": "IJL13M650535KYBT",
        "url": "https://www.163.com/dy/article/IJL13M650535KYBT.html"
    },
    {
        "title": "买卖二手房：当炒房客开始出货，脏套路就层出不穷",
        "docid": "IK27CQO30552F71X",
        "url": "https://www.163.com/dy/article/IK27CQO30552F71X.html"
    },
    {
        "title": "江西14×12米二层别墅，外观大气，布局合理实用，农村建主体34万",
        "docid": "IK2EKOHP0535LAX2",
        "url": "https://www.163.com/dy/article/IK2EKOHP0535LAX2.html"
    },
    {
        "title": "房价下跌已经写在了天道里面",
        "docid": "IJL1EBVQ0535MP84",
        "url": "https://www.163.com/dy/article/IJL1EBVQ0535MP84.html"
    },
    {
        "title": "5年期LPR继续“按兵不动”，年底房贷利率还会下降吗？",
        "docid": "IK2E1J7K0209992S",
        "url": "https://www.163.com/dy/article/IK2E1J7K0209992S.html"
    },
    {
        "title": "年轻的你在年前给自己一个交代！ 万家灯火终有一盏灯属于我们",
        "docid": "VQJ4JV1EI",
        "url": "https://www.163.com/dy/article/VQJ4JV1EI.html"
    },
    {
        "title": "内容启发搜索这个视频破次元省城的房子终于买下来了",
        "docid": "VWILV60SA",
        "url": "https://www.163.com/dy/article/VWILV60SA.html"
    },
    {
        "title": "孟晓苏：不建议低收入家庭买商品房 否则是自讨苦吃",
        "docid": "VZIMND3MQ",
        "url": "https://www.163.com/dy/article/VZIMND3MQ.html"
    },
    {
        "title": "一号线小龙湾地铁口 新出独门独户正规单室 民用水电 电梯高层",
        "docid": "VZJ3SQV7E",
        "url": "https://www.163.com/dy/article/VZJ3SQV7E.html"
    },
    {
        "title": "旅居云南，已到达西双版纳，谈谈租房子的感受",
        "docid": "VGJ4I156T",
        "url": "https://www.163.com/dy/article/VGJ4I156T.html"
    },
    {
        "title": "老旧小区改造市级财政补助资金1000万元开始下达……",
        "docid": "IK2FTJSA0534EOPO",
        "url": "https://www.163.com/dy/article/IK2FTJSA0534EOPO.html"
    },
    {
        "title": "雅居乐集团旗下的雅生活发展迅速，助力集团快速发展！",
        "docid": "IK2FUVIR0553T12O",
        "url": "https://www.163.com/dy/article/IK2FUVIR0553T12O.html"
    },
    {
        "title": "2024年或将出现的变化：现金、房子都会贬值，而有4样能升值",
        "docid": "IK2GHDM80553TEV3",
        "url": "https://www.163.com/dy/article/IK2GHDM80553TEV3.html"
    },
    {
        "title": "新数据显示，澳洲80%以上地区房价正在持续上涨中！",
        "docid": "IK2H7I940545PEDS",
        "url": "https://www.163.com/dy/article/IK2H7I940545PEDS.html"
    },
    {
        "title": "解读：新任物业总经理该怎么开局？",
        "docid": "IK2G287E0535R28F",
        "url": "https://www.163.com/dy/article/IK2G287E0535R28F.html"
    },
    {
        "title": "听我一句劝，如有20万买房还是买车？良心建议",
        "docid": "IK2GM8P10556123R",
        "url": "https://www.163.com/dy/article/IK2GM8P10556123R.html"
    },
    {
        "title": "四合院不同屋子住什么人原来大有讲究！",
        "docid": "IK2I4E3L0514D6R0",
        "url": "https://www.163.com/dy/article/IK2I4E3L0514D6R0.html"
    },
    {
        "title": "许家印、李嘉诚之后，地产大佬频繁甩卖香港写字楼",
        "docid": "IK2IOJ4F05198TO4",
        "url": "https://www.163.com/dy/article/IK2IOJ4F05198TO4.html"
    },
    {
        "title": "百万父母的真实独白：家庭最大悲剧，在于儿女拼命想挤入一线城市",
        "docid": "IK2HDO270542M5JD",
        "url": "https://www.163.com/dy/article/IK2HDO270542M5JD.html"
    },
    {
        "title": "美国、英国人也争相希腊？希腊永居值得拥有！",
        "docid": "IK2FUPVU0552RBV8",
        "url": "https://www.163.com/dy/article/IK2FUPVU0552RBV8.html"
    },
    {
        "title": "楼市“露出本色”，开发商已经意识到了，买房人还蒙在鼓里？",
        "docid": "IJL188IB0535KYBT",
        "url": "https://www.163.com/dy/article/IJL188IB0535KYBT.html"
    },
    {
        "title": "左带小偏房的二层欧式小别墅，主体仅25个，预算少的快来看看别错过",
        "docid": "IK2GH5KV0535KYBM",
        "url": "https://www.163.com/dy/article/IK2GH5KV0535KYBM.html"
    },
    {
        "title": "236平米大平层户型竟然还有藏宝室，专为金字塔尖人士量身定制",
        "docid": "IJL2D3DA0535MP84",
        "url": "https://www.163.com/dy/article/IJL2D3DA0535MP84.html"
    },
    {
        "title": "懂行的人从不买“高层房”？若不是内行人提醒，差点又被忽悠！",
        "docid": "IJJGDACL0540KLAM",
        "url": "https://www.163.com/dy/article/IJJGDACL0540KLAM.html"
    },
    {
        "title": "现在买房很难挣到钱，原因是购房者加杠杆的意愿不强了",
        "docid": "IK2J3GTC0535JMSP",
        "url": "https://www.163.com/dy/article/IK2J3GTC0535JMSP.html"
    },
    {
        "title": "刚刚！央行发布最新利率，年底前西安房贷利率有望下调？",
        "docid": "IK2FTKPN055634QT",
        "url": "https://www.163.com/dy/article/IK2FTKPN055634QT.html"
    },
    {
        "title": "说心里话，武汉这些200米高的商品房，倒贴钱我都不住",
        "docid": "IJL46SV30535MP84",
        "url": "https://www.163.com/dy/article/IJL46SV30535MP84.html"
    },
    {
        "title": "考物业证书费用多少？难度如何？",
        "docid": "IJJ5AG23055668IQ",
        "url": "https://www.163.com/dy/article/IJJ5AG23055668IQ.html"
    },
    {
        "title": "又有大项目？汉南一块229亩土地被这家公司以底价拍得",
        "docid": "IK2I6M4S0552TI8F",
        "url": "https://www.163.com/dy/article/IK2I6M4S0552TI8F.html"
    },
    {
        "title": "恒大地产共计存在540条被执行人信息，总金额超560亿元！",
        "docid": "IK2HC5O90515CCBS",
        "url": "https://www.163.com/dy/article/IK2HC5O90515CCBS.html"
    },
    {
        "title": "融创获救，释放4大重要房地产信号，国家拟扩围房企白名单",
        "docid": "IK2JHK3E05158I5P",
        "url": "https://www.163.com/dy/article/IK2JHK3E05158I5P.html"
    },
    {
        "title": "落户大放松！北方第三城，抢人了！",
        "docid": "IK2KPSVL0519ICVN",
        "url": "https://www.163.com/dy/article/IK2KPSVL0519ICVN.html"
    },
    {
        "title": "高层住宅越来越不想吃香了，过来人提示：“3大缺点”太明显",
        "docid": "IK2JMDMO0549RI77",
        "url": "https://www.163.com/dy/article/IK2JMDMO0549RI77.html"
    },
    {
        "title": "春节前会有很多小区房东降价卖房子",
        "docid": "IK2JSU490535JMSP",
        "url": "https://www.163.com/dy/article/IK2JSU490535JMSP.html"
    },
    {
        "title": "懋源璟玺顶配湖境墅王压轴亮相-懋源璟玺建面350-470㎡实景联排",
        "docid": "IK2J10D005565ECD",
        "url": "https://www.163.com/dy/article/IK2J10D005565ECD.html"
    },
    {
        "title": "上海、深圳等城市房价下跌以后，买房之前一定要想好为什么买房",
        "docid": "IK2J9N3P0535JMSP",
        "url": "https://www.163.com/dy/article/IK2J9N3P0535JMSP.html"
    },
    {
        "title": "军队经济适用房产权目前能办的四项业务及相关思考",
        "docid": "IK2HSUU80553TEQM",
        "url": "https://www.163.com/dy/article/IK2HSUU80553TEQM.html"
    },
    {
        "title": "21城发布涉宅用地公告 17城恢复“价高者得”",
        "docid": "IK2IJFHA0539AP40",
        "url": "https://www.163.com/dy/article/IK2IJFHA0539AP40.html"
    },
    {
        "title": "想要买到能上涨的房子，还是要能抓住楼市风口",
        "docid": "IK2J726D0535JMSP",
        "url": "https://www.163.com/dy/article/IK2J726D0535JMSP.html"
    },
    {
        "title": "北京、上海等城市房价一跌，房产中介对房东的态度就冷了",
        "docid": "IK2IN5BC0535JMSP",
        "url": "https://www.163.com/dy/article/IK2IN5BC0535JMSP.html"
    },
    {
        "title": "悲剧！恒大竟然欠供应商1万多亿元，破产供应商无奈道出这5大真相",
        "docid": "IK2L0DJO0515DKDK",
        "url": "https://www.163.com/dy/article/IK2L0DJO0515DKDK.html"
    },
    {
        "title": "前任房主把噪音房卖给了我，楼上噪音让我不敢回家！",
        "docid": "IK2M0KU30553BGXV",
        "url": "https://www.163.com/dy/article/IK2M0KU30553BGXV.html"
    },
    {
        "title": "现在在大城市买房，现金流是最重要的",
        "docid": "IK2JJNHO0535JMSP",
        "url": "https://www.163.com/dy/article/IK2JJNHO0535JMSP.html"
    },
    {
        "title": "11月21日武汉房价播报：2号线旁，备案均价约21556元/平！",
        "docid": "IK2N30480553TDVP",
        "url": "https://www.163.com/dy/article/IK2N30480553TDVP.html"
    },
    {
        "title": "100万的房贷，还30年，公积金贷和商贷的差别有多大？",
        "docid": "IJLJD5CR0553YHXE",
        "url": "https://www.163.com/dy/article/IJLJD5CR0553YHXE.html"
    },
    {
        "title": "看了阿里朋友的公积金账户，62万公积金余额，每月缴存9288……",
        "docid": "IK2N1BST0556607X",
        "url": "https://www.163.com/dy/article/IK2N1BST0556607X.html"
    },
    {
        "title": "任泽平：房地产不能大降价，更不能崩，否则受伤的一定是老百姓！",
        "docid": "IK2N00NJ0553TB8M",
        "url": "https://www.163.com/dy/article/IK2N00NJ0553TB8M.html"
    },
    {
        "title": "历史上两次救世都成功了，现在到了第三次了还能成功吗？",
        "docid": "IK2EA1KF055619CE",
        "url": "https://www.163.com/dy/article/IK2EA1KF055619CE.html"
    },
    {
        "title": "万万没想到，有好多家庭揭不开锅了，有的连3千块钱都拿不出来",
        "docid": "VOJ4N0BQN",
        "url": "https://www.163.com/dy/article/VOJ4N0BQN.html"
    },
    {
        "title": "从烂尾楼律师被打，看购房者的无奈，法律的悲哀，正义的缺失",
        "docid": "VXJ4MNF5U",
        "url": "https://www.163.com/dy/article/VXJ4MNF5U.html"
    },
    {
        "title": "武汉武昌武汉长江中心 户型面积203~281㎡",
        "docid": "IK2OUTLO0552F71X",
        "url": "https://www.163.com/dy/article/IK2OUTLO0552F71X.html"
    },
    {
        "title": "武汉江夏武汉恒大科技旅游城 户型建面约52~259㎡",
        "docid": "IK2P7DK00553TDVP",
        "url": "https://www.163.com/dy/article/IK2P7DK00553TDVP.html"
    },
    {
        "title": "领展：现在没有出售内地物业的计划",
        "docid": "IK2OCUJR0514R9P4",
        "url": "https://www.163.com/dy/article/IK2OCUJR0514R9P4.html"
    },
    {
        "title": "全国70城新房价下跌城市达56个，你会买房吗？",
        "docid": "IK2B39JF0545MN00",
        "url": "https://www.163.com/dy/article/IK2B39JF0545MN00.html"
    },
    {
        "title": "武汉江岸江上雲境 报价公布 约17500元/㎡",
        "docid": "IK2OOJLO0553TDXU",
        "url": "https://www.163.com/dy/article/IK2OOJLO0553TDXU.html"
    },
    {
        "title": "分享 80个常见设备设施隐患清单",
        "docid": "IK2O8B5C0552QWCL",
        "url": "https://www.163.com/dy/article/IK2O8B5C0552QWCL.html"
    },
    {
        "title": "硚口武汉城建万科万维天地 户型面积117~143㎡",
        "docid": "IK2P4G4T0553TEQM",
        "url": "https://www.163.com/dy/article/IK2P4G4T0553TEQM.html"
    },
    {
        "title": "房地产涨超3%，发生了什么？可以抄底吗？",
        "docid": "IK029VAN0552194E",
        "url": "https://www.163.com/dy/article/IK029VAN0552194E.html"
    },
    {
        "title": "刘胜军｜“以人民为中心”的新加坡房地产，很神奇又很简单",
        "docid": "IK2PSFFM0552JJOF",
        "url": "https://www.163.com/dy/article/IK2PSFFM0552JJOF.html"
    },
    {
        "title": "省委书记不打招呼暗访烂尾楼问题",
        "docid": "VSINPKOAM",
        "url": "https://www.163.com/dy/article/VSINPKOAM.html"
    },
    {
        "title": "东西湖保利明玥晨光 户型建面约75~105㎡",
        "docid": "IK2QVFPE0553RRD3",
        "url": "https://www.163.com/dy/article/IK2QVFPE0553RRD3.html"
    },
    {
        "title": "【小编“孔两剧”】“商业地产的跑马圈地时代”结束了吗？",
        "docid": "IJLJQR940534EOPO",
        "url": "https://www.163.com/dy/article/IJLJQR940534EOPO.html"
    },
    {
        "title": "武汉江岸保利云璟 价格出来啦 约18800元/㎡",
        "docid": "IK2QM85C0553TB9L",
        "url": "https://www.163.com/dy/article/IK2QM85C0553TB9L.html"
    },
    {
        "title": "与城市共生，合生缦品牌价值方程解码",
        "docid": "IJLPHB5A0514R9NP",
        "url": "https://www.163.com/dy/article/IJLPHB5A0514R9NP.html"
    },
    {
        "title": "未来房产政策会往哪个方向走？",
        "docid": "VHJ4OCOQD",
        "url": "https://www.163.com/dy/article/VHJ4OCOQD.html"
    },
    {
        "title": "几百亿身价的大老板，现在也不好过……",
        "docid": "VDJ4K9GA7",
        "url": "https://www.163.com/dy/article/VDJ4K9GA7.html"
    },
    {
        "title": "李亚鹏投资的丽江雪山小镇并没有烂尾，卖得还挺好，别墅只剩三套",
        "docid": "VWIND1VA0",
        "url": "https://www.163.com/dy/article/VWIND1VA0.html"
    },
    {
        "title": "老房子加装电梯后，高楼层住户肠子悔青，说花钱又受罪",
        "docid": "VMILQITQ0",
        "url": "https://www.163.com/dy/article/VMILQITQ0.html"
    },
    {
        "title": "央行铁了心要力挺房地产",
        "docid": "VWJ4MTU62",
        "url": "https://www.163.com/dy/article/VWJ4MTU62.html"
    },
    {
        "title": "刚结婚就要买新房加名字？",
        "docid": "VWJ4MTD4A",
        "url": "https://www.163.com/dy/article/VWJ4MTD4A.html"
    },
    {
        "title": "武汉头条汉南什么时候才会有大型商业？",
        "docid": "IK2TFIR40553RRD3",
        "url": "https://www.163.com/dy/article/IK2TFIR40553RRD3.html"
    },
    {
        "title": "武汉蔡甸中建锦绣双城 价格来袭 约9000元/㎡",
        "docid": "IK2TGQTJ0549RI77",
        "url": "https://www.163.com/dy/article/IK2TGQTJ0549RI77.html"
    },
    {
        "title": "基金经理带崩房价？仁恒河滨城单价破10W！",
        "docid": "IK2Q75LK05562FR7",
        "url": "https://www.163.com/dy/article/IK2Q75LK05562FR7.html"
    },
    {
        "title": "铺先生：店铺选址需要进行什么评估？这些条件值得评估",
        "docid": "IK2NS9V50552QWCL",
        "url": "https://www.163.com/dy/article/IK2NS9V50552QWCL.html"
    },
    {
        "title": "武汉硚口万科公园大道 户型面积92~133㎡",
        "docid": "IK2T0EFM0553TDTY",
        "url": "https://www.163.com/dy/article/IK2T0EFM0553TDTY.html"
    },
    {
        "title": "史诗级利好！终于不用买房，不要冲进楼市当韭菜，房价可能下跌！",
        "docid": "IK2PSTKM05562DLL",
        "url": "https://www.163.com/dy/article/IK2PSTKM05562DLL.html"
    },
    {
        "title": "安置补偿协议的这些陷阱，你知道吗？",
        "docid": "IJLGBJCS0535W7UR",
        "url": "https://www.163.com/dy/article/IJLGBJCS0535W7UR.html"
    },
    {
        "title": "中北路商圈武汉沙湖中心 户型面积140~275㎡",
        "docid": "IK2STKMJ0549RI77",
        "url": "https://www.163.com/dy/article/IK2STKMJ0549RI77.html"
    },
    {
        "title": "建筑常识：为什么房间宽度多为3.3米、3.6米、3.9米这样的尺寸？",
        "docid": "VGIO0UVJ6",
        "url": "https://www.163.com/dy/article/VGIO0UVJ6.html"
    },
    {
        "title": "买房不会选楼层的可以看看，一次性告诉你",
        "docid": "VZIRKB76I",
        "url": "https://www.163.com/dy/article/VZIRKB76I.html"
    },
    {
        "title": "武汉武昌公园观邸 户型面积112~143㎡",
        "docid": "IK2TKS1K0553TEQM",
        "url": "https://www.163.com/dy/article/IK2TKS1K0553TEQM.html"
    },
    {
        "title": "文冲东“换帅”，黑马央企闯入？",
        "docid": "IK2UEO8N055631K5",
        "url": "https://www.163.com/dy/article/IK2UEO8N055631K5.html"
    },
    {
        "title": "楼市重启！房产中介市场重塑时",
        "docid": "IK2TKT8H051498EH",
        "url": "https://www.163.com/dy/article/IK2TKT8H051498EH.html"
    },
    {
        "title": "中国内地房价前15名城市，形成6个档次！",
        "docid": "IJLQNC710546MZPC",
        "url": "https://www.163.com/dy/article/IJLQNC710546MZPC.html"
    },
    {
        "title": "为了孩子教育，为了一个学区房，多少家庭为孩子拼尽全力！！！",
        "docid": "IK2QVFEI0552CQHT",
        "url": "https://www.163.com/dy/article/IK2QVFEI0552CQHT.html"
    },
    {
        "title": "为什么我说房价下跌还没开始？",
        "docid": "IK2SEITF0516ARPR",
        "url": "https://www.163.com/dy/article/IK2SEITF0516ARPR.html"
    },
    {
        "title": "央行行长定性恒大问题，再为房地产发声，紧迫性背后透露3大信号",
        "docid": "IK2T5C320556123R",
        "url": "https://www.163.com/dy/article/IK2T5C320556123R.html"
    },
    {
        "title": "药店如何将房租成本降下来？",
        "docid": "IK2PRUN20552QWCS",
        "url": "https://www.163.com/dy/article/IK2PRUN20552QWCS.html"
    },
    {
        "title": "“消失”的3号楼2403室",
        "docid": "IK2TVO2E05346982",
        "url": "https://www.163.com/dy/article/IK2TVO2E05346982.html"
    },
    {
        "title": "坪山深铁G13305-0046",
        "docid": "IK2SRFRI0553TEV3",
        "url": "https://www.163.com/dy/article/IK2SRFRI0553TEV3.html"
    },
    {
        "title": "2023年第47周重点15城新房成交量环比上升13.93%，上海、东莞环比涨幅靠前",
        "docid": "IK2V88T4051590L9",
        "url": "https://www.163.com/dy/article/IK2V88T4051590L9.html"
    },
    {
        "title": "新洲常阳东骏城 报价公布 约8800元/㎡",
        "docid": "IK2VD5R20556123R",
        "url": "https://www.163.com/dy/article/IK2VD5R20556123R.html"
    },
    {
        "title": "买房出租和定期存款哪个合适?",
        "docid": "IK2SUIAE0535LAX2",
        "url": "https://www.163.com/dy/article/IK2SUIAE0535LAX2.html"
    },
    {
        "title": "提前45天交付，高远森霖城实力演绎“教科书级”兑现力",
        "docid": "IK2VPIC00553TDVP",
        "url": "https://www.163.com/dy/article/IK2VPIC00553TDVP.html"
    },
    {
        "title": "武汉洪山光谷创新天地 户型建面约140~240㎡",
        "docid": "IK30AUUI0553TB9L",
        "url": "https://www.163.com/dy/article/IK30AUUI0553TB9L.html"
    },
    {
        "title": "城事晚高峰：电梯已“超龄”，“换梯”何其难！",
        "docid": "VQJ4TDTCD",
        "url": "https://www.163.com/dy/article/VQJ4TDTCD.html"
    },
    {
        "title": "贷款30年去城里买房，结果一次没住过几十万白白打水漂了，啥原因",
        "docid": "VPJ4R251N",
        "url": "https://www.163.com/dy/article/VPJ4R251N.html"
    },
    {
        "title": "房产知识 资产配置 带你去看房 好房推荐 今日优质房源",
        "docid": "VCJ528LC9",
        "url": "https://www.163.com/dy/article/VCJ528LC9.html"
    },
    {
        "title": "30年后，高层建筑小区会成为“贫民窟”吗？",
        "docid": "VDJ54MOTD",
        "url": "https://www.163.com/dy/article/VDJ54MOTD.html"
    },
    {
        "title": "是什么原因让现在的年轻人不愿意买房了？",
        "docid": "VGJ35NC0I",
        "url": "https://www.163.com/dy/article/VGJ35NC0I.html"
    },
    {
        "title": "监管层正起草50家房企融资白名单？ 部分头部房企表示：还未接到通知",
        "docid": "IK30RQOO0552F71X",
        "url": "https://www.163.com/dy/article/IK30RQOO0552F71X.html"
    },
    {
        "title": "热点丨“三支箭”加力改善房企融资环境",
        "docid": "IK2V7ED70512D71I",
        "url": "https://www.163.com/dy/article/IK2V7ED70512D71I.html"
    },
    {
        "title": "2023年第47周重点10城二手住宅成交环比下降1.81%，成交量仍高于去年同期",
        "docid": "IK2V89B3051590L9",
        "url": "https://www.163.com/dy/article/IK2V89B3051590L9.html"
    },
    {
        "title": "光明华润润晖府 价格曝光 约51611元/㎡",
        "docid": "IK2VEPPO0553TB8M",
        "url": "https://www.163.com/dy/article/IK2VEPPO0553TB8M.html"
    },
    {
        "title": "72平只要18W（京商商贸城公寓工抵房）",
        "docid": "IK2VPI6K0552QWCE",
        "url": "https://www.163.com/dy/article/IK2VPI6K0552QWCE.html"
    },
    {
        "title": "豪宅周报 ∣ 它在穿越周期",
        "docid": "IK30S0KS0530OLSK",
        "url": "https://www.163.com/dy/article/IK30S0KS0530OLSK.html"
    },
    {
        "title": "澳洲买房必看：澳洲房产费用和税收清单详解",
        "docid": "IK30ME8C0514DPPR",
        "url": "https://www.163.com/dy/article/IK30ME8C0514DPPR.html"
    },
    {
        "title": "这是个例吗？不是，是常态 ",
        "docid": "VCINJ3N54",
        "url": "https://www.163.com/dy/article/VCINJ3N54.html"
    },
    {
        "title": "回老家建房就建这种二层时尚别墅，美观又实用",
        "docid": "VBJ56PDHU",
        "url": "https://www.163.com/dy/article/VBJ56PDHU.html"
    },
    {
        "title": "12月起，国家传来2大好消息，和每个人都有关！",
        "docid": "VZJ4RIPSN",
        "url": "https://www.163.com/dy/article/VZJ4RIPSN.html"
    },
    {
        "title": "房价再便宜，也别买带这种阳台的户型，入住才知有多坑！",
        "docid": "IJM3EGNV0540KLAM",
        "url": "https://www.163.com/dy/article/IJM3EGNV0540KLAM.html"
    },
    {
        "title": "武汉黄陂万可后海 报价公布 约8500元/㎡",
        "docid": "IK344L1U0553RRD3",
        "url": "https://www.163.com/dy/article/IK344L1U0553RRD3.html"
    },
    {
        "title": "经济学家黄齐帆：可对放弃国籍但拥有大量房产的人征收房产税",
        "docid": "IK321G390534PAAE",
        "url": "https://www.163.com/dy/article/IK321G390534PAAE.html"
    },
    {
        "title": "买电梯房，这4个楼层尽量避开！入住才知受罪，过来人的忠告",
        "docid": "IK32RC2A0540KLAM",
        "url": "https://www.163.com/dy/article/IK32RC2A0540KLAM.html"
    },
    {
        "title": "为什么楼房里这3层一定不能买？开发商不愿透露的潜规则……",
        "docid": "IK3362A50540KLAM",
        "url": "https://www.163.com/dy/article/IK3362A50540KLAM.html"
    },
    {
        "title": "中信泰富“杀回”房地产，近3年拿地总额超200亿元丨公司",
        "docid": "IK30VSTL0534M7IC",
        "url": "https://www.163.com/dy/article/IK30VSTL0534M7IC.html"
    },
    {
        "title": "小高层与高层有何不同？购房者一定要知道！",
        "docid": "IK3300R60540KLAM",
        "url": "https://www.163.com/dy/article/IK3300R60540KLAM.html"
    },
    {
        "title": "明春不急打工先盖房？农村“建房潮”来了，政策放开农民市民均可",
        "docid": "IK2QM4TP0530ICNH",
        "url": "https://www.163.com/dy/article/IK2QM4TP0530ICNH.html"
    },
    {
        "title": "谢娜和张杰不愿买房子住，而是租一月32万的房子，十年高达4000万",
        "docid": "IK31T8SL0535LAX2",
        "url": "https://www.163.com/dy/article/IK31T8SL0535LAX2.html"
    },
    {
        "title": "国内最贵的豪宅，一平方就五十万左右，多少人梦想的房子，看到这么高的入住率，你会舍得买一套嘛！",
        "docid": "VCJ56G1JC",
        "url": "https://www.163.com/dy/article/VCJ56G1JC.html"
    },
    {
        "title": "武汉蔡甸北辰·经开优+ 报价公布 约7800元/㎡",
        "docid": "IK350QQC0552F71X",
        "url": "https://www.163.com/dy/article/IK350QQC0552F71X.html"
    },
    {
        "title": "从蹭饭申请看：财商普惠的崛起与新商业机遇（一）千顺·万顺",
        "docid": "IK33TDPP05562OOO",
        "url": "https://www.163.com/dy/article/IK33TDPP05562OOO.html"
    },
    {
        "title": "还没买房的人“胜利”了？“新产权”出现，已买房的有点可惜",
        "docid": "IJM331V10540KLAM",
        "url": "https://www.163.com/dy/article/IJM331V10540KLAM.html"
    },
    {
        "title": "新洲阳逻万达广场·御江 价格曝光 约6300元/㎡",
        "docid": "IK35E3A9055616ZT",
        "url": "https://www.163.com/dy/article/IK35E3A9055616ZT.html"
    },
    {
        "title": "欧洲最具投资潜力城市西班牙马德里的高端花园公寓：人文桥3期",
        "docid": "IJM0SSN705537S6M",
        "url": "https://www.163.com/dy/article/IJM0SSN705537S6M.html"
    },
    {
        "title": "武昌万达御湖汉印 户型面积227~304㎡",
        "docid": "IK34SPFT0553RRD3",
        "url": "https://www.163.com/dy/article/IK34SPFT0553RRD3.html"
    },
    {
        "title": "（外代二线）“麻布台之丘”即将开业",
        "docid": "IK3418J80553RRD3",
        "url": "https://www.163.com/dy/article/IK3418J80553RRD3.html"
    },
    {
        "title": "这一地，公积金贷款政策“收紧”！什么原因？",
        "docid": "IK314GIS053469RG",
        "url": "https://www.163.com/dy/article/IK314GIS053469RG.html"
    },
    {
        "title": "爸妈被忽悠去海南买下296平一线海景房，住进去发现带3个看海阳台，好惊喜",
        "docid": "VZJ584CCE",
        "url": "https://www.163.com/dy/article/VZJ584CCE.html"
    },
    {
        "title": "不要乱买房子了，成都的买房逻辑完全变了！",
        "docid": "VCJ57JDQH",
        "url": "https://www.163.com/dy/article/VCJ57JDQH.html"
    },
    {
        "title": "武汉汉南联投国际城 报价公布 约5500元/㎡",
        "docid": "IK36QUBJ0553TDTY",
        "url": "https://www.163.com/dy/article/IK36QUBJ0553TDTY.html"
    },
    {
        "title": "现在网友们说出了当下普通人们的处境",
        "docid": "IK333G2R0553CRBD",
        "url": "https://www.163.com/dy/article/IK333G2R0553CRBD.html"
    },
    {
        "title": "从“宠儿”到“弃子”，房企频繁脱手商业资产套现",
        "docid": "IK35NFG20519DDQ2",
        "url": "https://www.163.com/dy/article/IK35NFG20519DDQ2.html"
    },
    {
        "title": "二七商圈武汉城建·电建|滨江云城 价格曝光 约21000元/㎡",
        "docid": "IK35MEHC0553RRD3",
        "url": "https://www.163.com/dy/article/IK35MEHC0553RRD3.html"
    },
    {
        "title": "快手：理想家业务三季度累计房产交易额超140亿元",
        "docid": "IK3513830534A4SC",
        "url": "https://www.163.com/dy/article/IK3513830534A4SC.html"
    },
    {
        "title": "买房“买东不买西”，可为啥大家去买“西户”？这5个原因很现实",
        "docid": "IK34NNAV0540B07R",
        "url": "https://www.163.com/dy/article/IK34NNAV0540B07R.html"
    },
    {
        "title": "“两梯四户”的楼，选边户还是中间户？我家选错了，入住才知糟心",
        "docid": "IK32O0U00540KLAM",
        "url": "https://www.163.com/dy/article/IK32O0U00540KLAM.html"
    },
    {
        "title": "武汉新洲华发未来城 户型面积87~106㎡",
        "docid": "IK376PUG0552F71X",
        "url": "https://www.163.com/dy/article/IK376PUG0552F71X.html"
    },
    {
        "title": "地价暴涨高达＄4000每平！柬埔寨金边又一重要经济圈火了！",
        "docid": "IK31VILB0534H0ZS",
        "url": "https://www.163.com/dy/article/IK31VILB0534H0ZS.html"
    },
    {
        "title": "做好“大势已去”的准备？住建部定调，明年起，楼市走势基本清晰",
        "docid": "IK34V3FM0552ZPBR",
        "url": "https://www.163.com/dy/article/IK34V3FM0552ZPBR.html"
    },
    {
        "title": "武汉黄陂明想青年汇 报价公布 约8998元/㎡起",
        "docid": "IK38B5P70553TB8M",
        "url": "https://www.163.com/dy/article/IK38B5P70553TB8M.html"
    },
    {
        "title": "阿德莱德房价领跑澳大利亚，全国房价指数即将创历史新高",
        "docid": "IK371NGM0514DPPR",
        "url": "https://www.163.com/dy/article/IK371NGM0514DPPR.html"
    },
    {
        "title": "武汉汉南武汉蓝光雍锦天府 价格来袭 约8200元/㎡",
        "docid": "IK37R45R0534M7IC",
        "url": "https://www.163.com/dy/article/IK37R45R0534M7IC.html"
    },
    {
        "title": "首创证券：地产销售热度回落，到位资金承压",
        "docid": "IK363B1D0553YQBK",
        "url": "https://www.163.com/dy/article/IK363B1D0553YQBK.html"
    },
    {
        "title": "武汉江岸武汉星河湾 价格来袭 约39000元/㎡",
        "docid": "IK36ABBG0553TB9L",
        "url": "https://www.163.com/dy/article/IK36ABBG0553TB9L.html"
    },
    {
        "title": "买房的时候有没有必要买&quot;停车位&quot;？售楼人员：给你最诚恳的建议",
        "docid": "IK3391H40540KLAM",
        "url": "https://www.163.com/dy/article/IK3391H40540KLAM.html"
    },
    {
        "title": "普通人只能看着钱缩水吗？",
        "docid": "IJM1BC4V0516ARPR",
        "url": "https://www.163.com/dy/article/IJM1BC4V0516ARPR.html"
    },
    {
        "title": "武汉黄陂联发云璟 户型面积94~122㎡",
        "docid": "IK384L6N0553TDTY",
        "url": "https://www.163.com/dy/article/IK384L6N0553TDTY.html"
    },
    {
        "title": "德邦证券：城中村改造蓄势而发 万亿规模助力地产链深蹲起跳",
        "docid": "IK35HIU205198UNI",
        "url": "https://www.163.com/dy/article/IK35HIU205198UNI.html"
    },
    {
        "title": "为什么买房买单不买双？买房子选楼层时，这三点我们不得不考虑！",
        "docid": "IK32TSAM0540KLAM",
        "url": "https://www.163.com/dy/article/IK32TSAM0540KLAM.html"
    },
    {
        "title": "严跃进：房企“白名单”或扩围，哪类房企可能纳入？",
        "docid": "IK35QOL40519C6T9",
        "url": "https://www.163.com/dy/article/IK35QOL40519C6T9.html"
    },
    {
        "title": "1500万人民币，在加拿大过着何种水平的养老生活？",
        "docid": "IK390AMU0545PEDS",
        "url": "https://www.163.com/dy/article/IK390AMU0545PEDS.html"
    },
    {
        "title": "物企好伙伴｜专鑫控股韩英龙：智能充换电柜助物业开展增值服务",
        "docid": "IK34K6F30519ARIK",
        "url": "https://www.163.com/dy/article/IK34K6F30519ARIK.html"
    },
    {
        "title": "武汉洪山万科保利理想城市 户型建面约90~126㎡",
        "docid": "IK3AC2310545PEDS",
        "url": "https://www.163.com/dy/article/IK3AC2310545PEDS.html"
    },
    {
        "title": "今年买房的人聪明还是卖房的人聪明",
        "docid": "IK39RNFA0556123R",
        "url": "https://www.163.com/dy/article/IK39RNFA0556123R.html"
    },
    {
        "title": "武汉青山御江壹品青山樽 户型建面约105.92~140.71㎡",
        "docid": "IK39NQQR0553TEQM",
        "url": "https://www.163.com/dy/article/IK39NQQR0553TEQM.html"
    },
    {
        "title": "武汉汉南华宇东原金科·渝樾大观 价格曝光 约5500元/㎡起",
        "docid": "IK3B9TC60542M5JD",
        "url": "https://www.163.com/dy/article/IK3B9TC60542M5JD.html"
    },
    {
        "title": "对话洪灏:房地产复苏非朝夕之功;搞活房地产,搞活的是地方财政和存量居民财富",
        "docid": "IK3959JJ0535L78U",
        "url": "https://www.163.com/dy/article/IK3959JJ0535L78U.html"
    },
    {
        "title": "黄陂坤合云海城 户型面积97~127㎡",
        "docid": "IK383LK10545PEDS",
        "url": "https://www.163.com/dy/article/IK383LK10545PEDS.html"
    },
    {
        "title": "明年楼市能否抬头？关键看这次“三个不低于”能否落地",
        "docid": "IK330C490535FFBW",
        "url": "https://www.163.com/dy/article/IK330C490535FFBW.html"
    },
    {
        "title": "起猛了，四渡赤水，飞夺泸定桥，这家房企居然自比红军",
        "docid": "IK39KCH705159JCF",
        "url": "https://www.163.com/dy/article/IK39KCH705159JCF.html"
    },
    {
        "title": "澳洲硅谷Macquarie Park！悉尼的新贵区域!",
        "docid": "IJM5VHCD053661TJ",
        "url": "https://www.163.com/dy/article/IJM5VHCD053661TJ.html"
    },
    {
        "title": "正荣集团25周年司庆推出“家庭节”、“社区暖心季”等系列活动",
        "docid": "IK392VFQ0553YQBK",
        "url": "https://www.163.com/dy/article/IK392VFQ0553YQBK.html"
    },
    {
        "title": "还不起房贷的，都是大厂人",
        "docid": "IK379C4P0542M5JD",
        "url": "https://www.163.com/dy/article/IK379C4P0542M5JD.html"
    },
    {
        "title": "外拓火热｜2023年11月物业服务发展报告",
        "docid": "IK3B30M00519QIKK",
        "url": "https://www.163.com/dy/article/IK3B30M00519QIKK.html"
    },
    {
        "title": "不出意外的话，12月份开始，这四样东西会大降价！",
        "docid": "IK38E8K90553TDTR",
        "url": "https://www.163.com/dy/article/IK38E8K90553TDTR.html"
    },
    {
        "title": "万科房地产保卫战：华尔街空头对抗国内地产巨头",
        "docid": "IK3A9V80055639UA",
        "url": "https://www.163.com/dy/article/IK3A9V80055639UA.html"
    },
    {
        "title": "武汉楼市：原来买房投资如此专业，这些知识99%的人不知道",
        "docid": "IK31TLBH05560R20",
        "url": "https://www.163.com/dy/article/IK31TLBH05560R20.html"
    },
    {
        "title": "不限购！首付约40万起买525亩超级大盘！容积率低至1.5！",
        "docid": "IK38KR2A0530OLSK",
        "url": "https://www.163.com/dy/article/IK38KR2A0530OLSK.html"
    },
    {
        "title": "这个楼盘开盘请来6位代言人，我请的 ｜ 瞰盘",
        "docid": "IK36KHI90553TEV3",
        "url": "https://www.163.com/dy/article/IK36KHI90553TEV3.html"
    },
    {
        "title": "天健集团 ：子公司签订南山曙光片区T505-0066宗地搬迁补偿协议",
        "docid": "IK3CMCV00539AP40",
        "url": "https://www.163.com/dy/article/IK3CMCV00539AP40.html"
    },
    {
        "title": "汉南碧桂园经开城 户型建面约95~105㎡",
        "docid": "IK3DSLEP055616ZT",
        "url": "https://www.163.com/dy/article/IK3DSLEP055616ZT.html"
    },
    {
        "title": "新规来了！老房子加装电梯，“一票否决权”或将成为历史",
        "docid": "IK3DMOL20535PKJN",
        "url": "https://www.163.com/dy/article/IK3DMOL20535PKJN.html"
    },
    {
        "title": "重磅利好加持，2024年房地产将重新“起飞”？内行：买房时机已到",
        "docid": "IK3AP4NO0553RRD3",
        "url": "https://www.163.com/dy/article/IK3AP4NO0553RRD3.html"
    },
    {
        "title": "消费持续低迷，专家建议取消存款利息，网友：房贷利息才应该取消",
        "docid": "IK3AA2IR055633JF",
        "url": "https://www.163.com/dy/article/IK3AA2IR055633JF.html"
    },
    {
        "title": "欧洲央行：商业地产遭受打击或加剧银行损失压力",
        "docid": "IK3C9FN905198UNI",
        "url": "https://www.163.com/dy/article/IK3C9FN905198UNI.html"
    },
    {
        "title": "新时代的房地产大幕正在缓缓拉开",
        "docid": "IK3EIJ4S0556589C",
        "url": "https://www.163.com/dy/article/IK3EIJ4S0556589C.html"
    },
    {
        "title": "年薪百万，名校海归，给顶尖富豪当管家",
        "docid": "IK3CL8QK0556607X",
        "url": "https://www.163.com/dy/article/IK3CL8QK0556607X.html"
    },
    {
        "title": "为什么接下来你要买改善房？",
        "docid": "VMJ5D094B",
        "url": "https://www.163.com/dy/article/VMJ5D094B.html"
    },
    {
        "title": "【视频】大伟：别的不重要 万科不能倒",
        "docid": "VTJ5EFNJ7",
        "url": "https://www.163.com/dy/article/VTJ5EFNJ7.html"
    },
    {
        "title": "现在入手还是继续等待，2023年上海买房应该这样买！",
        "docid": "IK0TRCGS0552Q20Z",
        "url": "https://www.163.com/dy/article/IK0TRCGS0552Q20Z.html"
    },
    {
        "title": "武昌龙湖清能天奕公馆 报价公布 约37315元/㎡",
        "docid": "IK3FGTFU0542M5JD",
        "url": "https://www.163.com/dy/article/IK3FGTFU0542M5JD.html"
    },
    {
        "title": "RET睿意德 x 鑫耀光环live，打造漕河泾“超级城市综合体”",
        "docid": "IK3CPG1O05159OI2",
        "url": "https://www.163.com/dy/article/IK3CPG1O05159OI2.html"
    },
    {
        "title": "复星旅文继续向复星国际提供服务 今年已产生费用7764万元",
        "docid": "IK3C9E4G0519D45U",
        "url": "https://www.163.com/dy/article/IK3C9E4G0519D45U.html"
    },
    {
        "title": "看完文章，在南部购房马上省15万，这羊毛确定不来薅一把？",
        "docid": "IK3FDF7F05454EEY",
        "url": "https://www.163.com/dy/article/IK3FDF7F05454EEY.html"
    },
    {
        "title": "广州先于北上深取消土拍限价，取消前越秀刚夺核心地块新“地王”",
        "docid": "IK3DUUMS0531SC48",
        "url": "https://www.163.com/dy/article/IK3DUUMS0531SC48.html"
    },
    {
        "title": "武汉东西湖舵落口广场商铺",
        "docid": "IK3FL8HS0545PEDS",
        "url": "https://www.163.com/dy/article/IK3FL8HS0545PEDS.html"
    },
    {
        "title": "“价高者得” 约20城住宅用地出让不再限地价",
        "docid": "IK3C0JS005198CJN",
        "url": "https://www.163.com/dy/article/IK3C0JS005198CJN.html"
    },
    {
        "title": "社会百态：房地产的真相，让人破防",
        "docid": "IK3F7OBP0553TDVP",
        "url": "https://www.163.com/dy/article/IK3F7OBP0553TDVP.html"
    },
    {
        "title": "市面上的3种房子，缺点很明显，看上了最好也别买，会后悔",
        "docid": "IK3BN9HA0532D0CK",
        "url": "https://www.163.com/dy/article/IK3BN9HA0532D0CK.html"
    },
    {
        "title": "这4类房子“公摊面积”大，要睁大眼睛看清楚，别被售房小姐忽悠",
        "docid": "IJM37P2V0540KLAM",
        "url": "https://www.163.com/dy/article/IJM37P2V0540KLAM.html"
    },
    {
        "title": "寸土寸金！ 首尔明洞商圈租金高居全球第九",
        "docid": "IK3GL1KS05377PO6",
        "url": "https://www.163.com/dy/article/IK3GL1KS05377PO6.html"
    },
    {
        "title": "非刚需不要买房，不要轻易上杠杆。",
        "docid": "IK3GF6B50553K5ZV",
        "url": "https://www.163.com/dy/article/IK3GF6B50553K5ZV.html"
    },
    {
        "title": "继恒大之后呢？碧桂园又怎么了？",
        "docid": "IK3GG1250553K5ZV",
        "url": "https://www.163.com/dy/article/IK3GG1250553K5ZV.html"
    },
    {
        "title": "强二线城市楼市呈“翻红”迹象，房企备战年底销售冲刺",
        "docid": "IK3BI1QB05199FB7",
        "url": "https://www.163.com/dy/article/IK3BI1QB05199FB7.html"
    },
    {
        "title": "高新GX-20-5-05地块实施详规及GX3-17-38宗地划拨用地规划意见",
        "docid": "IK3B9JIU0545PEDS",
        "url": "https://www.163.com/dy/article/IK3B9JIU0545PEDS.html"
    },
    {
        "title": "买房，选“1期”还是“2期”？幸亏开发商朋友指点，庆幸没犯傻",
        "docid": "IJM3BDS60540KLAM",
        "url": "https://www.163.com/dy/article/IJM3BDS60540KLAM.html"
    },
    {
        "title": "2024年买房做对这10点，你就是人生赢家！",
        "docid": "VWJ5I22A8",
        "url": "https://www.163.com/dy/article/VWJ5I22A8.html"
    },
    {
        "title": "买房买高点，生活会发生什么变化",
        "docid": "VFJ2ORLDI",
        "url": "https://www.163.com/dy/article/VFJ2ORLDI.html"
    },
    {
        "title": "天呐，今天才知道房贷的真相！",
        "docid": "VWINBOCVH",
        "url": "https://www.163.com/dy/article/VWINBOCVH.html"
    },
    {
        "title": "地产政策走向了另一个极端",
        "docid": "IK3H0NEG05562JCU",
        "url": "https://www.163.com/dy/article/IK3H0NEG05562JCU.html"
    },
    {
        "title": "房价跌到几千一平，大家都能买得起了。",
        "docid": "IK3GK9KK0553K5ZV",
        "url": "https://www.163.com/dy/article/IK3GK9KK0553K5ZV.html"
    },
    {
        "title": "房企战略同质化，金茂府3.0以产品力突围",
        "docid": "IK3HIMVH0553YQBK",
        "url": "https://www.163.com/dy/article/IK3HIMVH0553YQBK.html"
    },
    {
        "title": "拆迁来了！征收公告到底写什么才是合法的？",
        "docid": "IJLG7PKJ0535W7UR",
        "url": "https://www.163.com/dy/article/IJLG7PKJ0535W7UR.html"
    },
    {
        "title": "房子不好卖了，中介就开始收割卖房人了",
        "docid": "IK3IT4DJ0553TB9L",
        "url": "https://www.163.com/dy/article/IK3IT4DJ0553TB9L.html"
    },
    {
        "title": "减轻购房负担，多地实施房贷“商转公”",
        "docid": "IK3BDLM70530RTB0",
        "url": "https://www.163.com/dy/article/IK3BDLM70530RTB0.html"
    },
    {
        "title": "首创证券：拿地集中度提升，中海单月拿地金额近400亿",
        "docid": "IK2TFH930553YQBK",
        "url": "https://www.163.com/dy/article/IK2TFH930553YQBK.html"
    },
    {
        "title": "重磅利好：强制银行向房企提供贷款！开发商有救了！",
        "docid": "VOJ4O6K3G",
        "url": "https://www.163.com/dy/article/VOJ4O6K3G.html"
    },
    {
        "title": "骗局来了，这种房子最坑人！",
        "docid": "VZJ5N93UJ",
        "url": "https://www.163.com/dy/article/VZJ5N93UJ.html"
    },
    {
        "title": "极具园林风的世外桃源般洛杉矶sierra alta路1240号别墅",
        "docid": "VWINR7GJM",
        "url": "https://www.163.com/dy/article/VWINR7GJM.html"
    },
    {
        "title": "武汉黄陂武汉甘露山文创城 价格曝光 约8200元/㎡",
        "docid": "IK3L115F0553RRD3",
        "url": "https://www.163.com/dy/article/IK3L115F0553RRD3.html"
    },
    {
        "title": "某龙头民企高管确认50家房企白名单正在拟定中：“人行在评估”",
        "docid": "IK3JCHT50531SC48",
        "url": "https://www.163.com/dy/article/IK3JCHT50531SC48.html"
    },
    {
        "title": "2023年武汉楼市：第一套房买错，就会步步错！",
        "docid": "IK3229E105560R20",
        "url": "https://www.163.com/dy/article/IK3229E105560R20.html"
    },
    {
        "title": "梁子湖联投梧桐郡悦园 价格来袭 约6500元/㎡",
        "docid": "IK3KVJOF0549RI77",
        "url": "https://www.163.com/dy/article/IK3KVJOF0549RI77.html"
    },
    {
        "title": "成都龙泉驿华添龙泉驿26亩",
        "docid": "IK34GDCS0534M7IC",
        "url": "https://www.163.com/dy/article/IK34GDCS0534M7IC.html"
    },
    {
        "title": "购买期房一般怎样付款？",
        "docid": "VDJ5G7VDA",
        "url": "https://www.163.com/dy/article/VDJ5G7VDA.html"
    },
    {
        "title": "91审计帮：超市不好干了，永辉超市也被强制执行1007万元，为房屋租赁合同纠纷",
        "docid": "VHJ5CQ4JI",
        "url": "https://www.163.com/dy/article/VHJ5CQ4JI.html"
    },
    {
        "title": "多地推进保交楼，释放什么信号？",
        "docid": "VZJ56BSEN",
        "url": "https://www.163.com/dy/article/VZJ56BSEN.html"
    },
    {
        "title": "小白买房避坑指南：选房三要素，一个都不能忽略！否则就容易入坑",
        "docid": "VBJ5K8G0R",
        "url": "https://www.163.com/dy/article/VBJ5K8G0R.html"
    },
    {
        "title": "房子如果不住人，后果不堪设想",
        "docid": "VCJ5PJINE",
        "url": "https://www.163.com/dy/article/VCJ5PJINE.html"
    },
    {
        "title": "【维•关注】奥地利为无家可归者找到房子",
        "docid": "IK3LTRT60514BTOD",
        "url": "https://www.163.com/dy/article/IK3LTRT60514BTOD.html"
    },
    {
        "title": "北上广深的房价，正在吊打纽伦巴",
        "docid": "IK3LN17S0519CK3E",
        "url": "https://www.163.com/dy/article/IK3LN17S0519CK3E.html"
    },
    {
        "title": "武汉东西湖新城桃李郡 价格来袭 约10500元/㎡",
        "docid": "IK3MFU100553TB9L",
        "url": "https://www.163.com/dy/article/IK3MFU100553TB9L.html"
    },
    {
        "title": "出乎意料？刺激买房无效后，央媒竟然又提出一个新方案",
        "docid": "IK3CN7R00535MR82",
        "url": "https://www.163.com/dy/article/IK3CN7R00535MR82.html"
    },
    {
        "title": "四川8.4×13米三层别墅，经典耐看外观，布局实用，农村建主体36万",
        "docid": "IK31MUOM0552QWCE",
        "url": "https://www.163.com/dy/article/IK31MUOM0552QWCE.html"
    },
    {
        "title": "2023年11月20日贷款市场报价利率（LPR）",
        "docid": "IK2BP9MQ0553TAZH",
        "url": "https://www.163.com/dy/article/IK2BP9MQ0553TAZH.html"
    },
    {
        "title": "当年疯抢的“神盘”现状曝光！",
        "docid": "IJV93DVM0549RI77",
        "url": "https://www.163.com/dy/article/IJV93DVM0549RI77.html"
    },
    {
        "title": "武汉头条汉南什么时候才会有大型商业？",
        "docid": "IK2TFIR40553RRD3",
        "url": "https://www.163.com/dy/article/IK2TFIR40553RRD3.html"
    },
    {
        "title": "房地产行业大事件汇总(2023.1121)：监管拟50家房企白名单",
        "docid": "IK2F6RJ80515APM9",
        "url": "https://www.163.com/dy/article/IK2F6RJ80515APM9.html"
    },
    {
        "title": "11月21日武汉房价播报：2号线旁，备案均价约21556元/平！",
        "docid": "IK2N30480553TDVP",
        "url": "https://www.163.com/dy/article/IK2N30480553TDVP.html"
    },
    {
        "title": "武汉蔡甸朗诗·森蓝 价格曝光 约11500元/㎡",
        "docid": "IK3O8EUT0553RRD3",
        "url": "https://www.163.com/dy/article/IK3O8EUT0553RRD3.html"
    },
    {
        "title": "武汉蔡甸鑫聚温莎半岛 价格来袭 约975万元/套起",
        "docid": "IK3NCVM20553TEQM",
        "url": "https://www.163.com/dy/article/IK3NCVM20553TEQM.html"
    },
    {
        "title": "武汉洪山华润·联投半岛九里 户型面积95~170㎡",
        "docid": "IK3OC7NL0553TB8M",
        "url": "https://www.163.com/dy/article/IK3OC7NL0553TB8M.html"
    },
    {
        "title": "武汉汉阳武汉城建·明镜台 报价公布 约38694元/㎡",
        "docid": "IK3ODP680553RRD3",
        "url": "https://www.163.com/dy/article/IK3ODP680553RRD3.html"
    },
    {
        "title": "武汉蔡甸龙湖·楚世家·景粼天序",
        "docid": "IK3NBE2E0553TDTY",
        "url": "https://www.163.com/dy/article/IK3NBE2E0553TDTY.html"
    },
    {
        "title": "2.5W降到2W，天量库存来袭的五四北，二手怎么看？",
        "docid": "IK3IBU1S0535LVTK",
        "url": "https://www.163.com/dy/article/IK3IBU1S0535LVTK.html"
    },
    {
        "title": "武汉黄陂绿地天河国际会展城 户型面积90~115㎡",
        "docid": "IK3OTPOQ0553TDVP",
        "url": "https://www.163.com/dy/article/IK3OTPOQ0553TDVP.html"
    },
    {
        "title": "终于来了，这次真的站稳了！",
        "docid": "IK3OHC3G0515DBP5",
        "url": "https://www.163.com/dy/article/IK3OHC3G0515DBP5.html"
    },
    {
        "title": "难开工！光谷重磅商业体最新回应！",
        "docid": "IK3OMDJT0553RRD3",
        "url": "https://www.163.com/dy/article/IK3OMDJT0553RRD3.html"
    },
    {
        "title": "等待戈多，政策就是那个戈多",
        "docid": "IK3NCPDO05158VA4",
        "url": "https://www.163.com/dy/article/IK3NCPDO05158VA4.html"
    },
    {
        "title": "武汉江岸绿城武汉黄浦湾 户型建面约126~219㎡",
        "docid": "IK3NG9ID055616ZT",
        "url": "https://www.163.com/dy/article/IK3NG9ID055616ZT.html"
    },
    {
        "title": "“买房”和“不买房”有何区别？内行人：10年后，生活就会不一样",
        "docid": "IJMPIK7N05566699",
        "url": "https://www.163.com/dy/article/IJMPIK7N05566699.html"
    },
    {
        "title": "单价冲15万+？琶洲南140㎡小户型，终于来了！",
        "docid": "IK3MQTFF0553TDXU",
        "url": "https://www.163.com/dy/article/IK3MQTFF0553TDXU.html"
    },
    {
        "title": "专家：今年房价将持续在低位徘徊",
        "docid": "IK3LP62F0535S0BR",
        "url": "https://www.163.com/dy/article/IK3LP62F0535S0BR.html"
    },
    {
        "title": "武汉硚口华发都荟天地 报价公布 约19000元/㎡",
        "docid": "IK3NOVR6055616ZT",
        "url": "https://www.163.com/dy/article/IK3NOVR6055616ZT.html"
    },
    {
        "title": "武汉洪山万科东湖堤白 价格来袭 约22000元/㎡",
        "docid": "IK3LJTAS0542M5JD",
        "url": "https://www.163.com/dy/article/IK3LJTAS0542M5JD.html"
    },
    {
        "title": "东西湖碧桂园海昌克拉公馆 户型面积50~100㎡",
        "docid": "IK3NQNET0553TEV3",
        "url": "https://www.163.com/dy/article/IK3NQNET0553TEV3.html"
    },
    {
        "title": "汉阳武汉方岛金茂智慧科学城 户型建面约108.35~181㎡",
        "docid": "IK3O47TN0545PEDS",
        "url": "https://www.163.com/dy/article/IK3O47TN0545PEDS.html"
    },
    {
        "title": "永芳路、永佳路、草市路、南市路开始征收！",
        "docid": "IK3NI69805524ETU",
        "url": "https://www.163.com/dy/article/IK3NI69805524ETU.html"
    },
    {
        "title": "千万豪宅竟是豆腐渣工程？业主看房直接傻眼 房屋漏水墙皮开裂",
        "docid": "VTJ5G1U7O",
        "url": "https://www.163.com/dy/article/VTJ5G1U7O.html"
    },
    {
        "title": "光谷集中挂牌3宗工业用地！",
        "docid": "IK3RAQPU0534SV3Y",
        "url": "https://www.163.com/dy/article/IK3RAQPU0534SV3Y.html"
    },
    {
        "title": "97.6亿，武汉挂牌5宗经营性用地！",
        "docid": "IK3RAMGS0534SV3Y",
        "url": "https://www.163.com/dy/article/IK3RAMGS0534SV3Y.html"
    },
    {
        "title": "美元强势逼近：中国450万亿楼市面临巨大考验",
        "docid": "IK3PM37705563TCH",
        "url": "https://www.163.com/dy/article/IK3PM37705563TCH.html"
    },
    {
        "title": "信息时代的很多事儿，都坏在坏逼中介身上",
        "docid": "IK3PM5TI055368QG",
        "url": "https://www.163.com/dy/article/IK3PM5TI055368QG.html"
    },
    {
        "title": "让老旧小区收获“稳稳的幸福”",
        "docid": "IJMN2DMI0550OOTO",
        "url": "https://www.163.com/dy/article/IJMN2DMI0550OOTO.html"
    },
    {
        "title": "贝壳找房记：被误导的买家，多花钱的卖家?",
        "docid": "IK3MJLAI0519BOCB",
        "url": "https://www.163.com/dy/article/IK3MJLAI0519BOCB.html"
    },
    {
        "title": "购物中心地下停车场越来越“聪明”了！",
        "docid": "IK3QDBPK05158BF0",
        "url": "https://www.163.com/dy/article/IK3QDBPK05158BF0.html"
    },
    {
        "title": "财联社11月21日电，美国10月成屋销售总数年化为379万户，预期390万户，前值396万户。",
        "docid": "IK3QP4LS05198CJN",
        "url": "https://www.163.com/dy/article/IK3QP4LS05198CJN.html"
    },
    {
        "title": "美国成屋销售总数降至逾13年来低位",
        "docid": "IK3RB4VS0539AP40",
        "url": "https://www.163.com/dy/article/IK3RB4VS0539AP40.html"
    },
    {
        "title": "打一辈子螺丝也买不起的豪宅",
        "docid": "VUJ5T1JDK",
        "url": "https://www.163.com/dy/article/VUJ5T1JDK.html"
    }
]