[
    {
        "title": "事关新房房价！东莞楼市出台新政",
        "docid": "IJHK1AH005129QAF",
        "url": "https://www.163.com/dy/article/IJHK1AH005129QAF.html"
    },
    {
        "title": "中建玖玥府79平户型：给小三房打了个样儿",
        "docid": "IJHOFTPR055381XS",
        "url": "https://www.163.com/dy/article/IJHOFTPR055381XS.html"
    },
    {
        "title": "我再也不贷款买房了！19年在重庆首付35万贷款70万，每月还款7千",
        "docid": "IJFF4EIB05561MSN",
        "url": "https://www.163.com/dy/article/IJFF4EIB05561MSN.html"
    },
    {
        "title": "“崩盘”：当7万单价能买到内环次新房.....",
        "docid": "IJHP7SBS05565B5C",
        "url": "https://www.163.com/dy/article/IJHP7SBS05565B5C.html"
    },
    {
        "title": "拆迁补偿标准比周边房价低该怎么办？",
        "docid": "IJHMDTQ90532Q69P",
        "url": "https://www.163.com/dy/article/IJHMDTQ90532Q69P.html"
    },
    {
        "title": "战争中，房子被炸毁了，房贷还要还吗？结果让很多人很意外！",
        "docid": "IIURBLDG05565VKU",
        "url": "https://www.163.com/dy/article/IIURBLDG05565VKU.html"
    },
    {
        "title": "广州买房逻辑变了",
        "docid": "IJH6GMQ9055299MU",
        "url": "https://www.163.com/dy/article/IJH6GMQ9055299MU.html"
    },
    {
        "title": "华懋指香港楼市今年充满挑战",
        "docid": "IJE5QS9A0519D45U",
        "url": "https://www.163.com/dy/article/IJE5QS9A0519D45U.html"
    },
    {
        "title": "商品房质量问题索赔，这5步必不可少",
        "docid": "VDI9EF3PP",
        "url": "https://www.163.com/dy/article/VDI9EF3PP.html"
    },
    {
        "title": "这是盛泉虎山养老公寓基础区的两室一厅房东说便宜往外租",
        "docid": "VSI5VL5M5",
        "url": "https://www.163.com/dy/article/VSI5VL5M5.html"
    },
    {
        "title": "万达违约警报解除，王健林表示：万达不是恒大",
        "docid": "IJHKMHN805563TCH",
        "url": "https://www.163.com/dy/article/IJHKMHN805563TCH.html"
    },
    {
        "title": "某地产人被裁员后轻生！",
        "docid": "IJHL16CS0552CAGB",
        "url": "https://www.163.com/dy/article/IJHL16CS0552CAGB.html"
    },
    {
        "title": "如果把纽约中央公园的「顶豪」搬来成都",
        "docid": "IJHOK6UN0553TEQM",
        "url": "https://www.163.com/dy/article/IJHOK6UN0553TEQM.html"
    },
    {
        "title": "多地陆续取消土地地价上限，专家：热点城市核心地块热度或升温",
        "docid": "IJH8P0140514R9NP",
        "url": "https://www.163.com/dy/article/IJH8P0140514R9NP.html"
    },
    {
        "title": "新房改的落地时间，有可能比房地产税还要晚一些",
        "docid": "IJ6NDRS00535JMSP",
        "url": "https://www.163.com/dy/article/IJ6NDRS00535JMSP.html"
    },
    {
        "title": "这哪是自建房啊，这是我的梦想",
        "docid": "VCIIU7V7R",
        "url": "https://www.163.com/dy/article/VCIIU7V7R.html"
    },
    {
        "title": "苏州“毒地”环评结果出入巨大，引发社会深入思考",
        "docid": "VCIHH7C82",
        "url": "https://www.163.com/dy/article/VCIHH7C82.html"
    },
    {
        "title": "农村别墅设计：中式四合院别墅，能在老家建一栋就好了！",
        "docid": "VBI71G4TG",
        "url": "https://www.163.com/dy/article/VBI71G4TG.html"
    },
    {
        "title": "能这样建房的人，可想而知这人素质教育很高",
        "docid": "VCIA07A4M",
        "url": "https://www.163.com/dy/article/VCIA07A4M.html"
    },
    {
        "title": "烂尾楼之都开始抓人了！",
        "docid": "VZID8RPC5",
        "url": "https://www.163.com/dy/article/VZID8RPC5.html"
    },
    {
        "title": "楼市“3高”显现，房价下跌空间还有多大？金融专家“透了底”",
        "docid": "IJHLCNP50542M5JD",
        "url": "https://www.163.com/dy/article/IJHLCNP50542M5JD.html"
    },
    {
        "title": "楼市走到现在，结果已摆明了，建议普通人尽早做两个决定",
        "docid": "IJHP2G9A0535BC2F",
        "url": "https://www.163.com/dy/article/IJHP2G9A0535BC2F.html"
    },
    {
        "title": "边际改善信号出现 一系列房地产举措正发挥积极效用",
        "docid": "IJHS2G350553TDTY",
        "url": "https://www.163.com/dy/article/IJHS2G350553TDTY.html"
    },
    {
        "title": "16城土拍回归“价高者得”，新地王诞生但楼市仍低迷",
        "docid": "IJHD66MO0519DDQ2",
        "url": "https://www.163.com/dy/article/IJHD66MO0519DDQ2.html"
    },
    {
        "title": "农村实用二层别墅，面宽13米，进深12米，外观大气，布局实用，有想看图纸的吗",
        "docid": "VRIGORSO6",
        "url": "https://www.163.com/dy/article/VRIGORSO6.html"
    },
    {
        "title": "这里是广东首富花了200多亿建的豪宅，这里的瓷砖都是一百多年前从西班牙意大利海运回来，在里面走的每一",
        "docid": "VBIF40C9P",
        "url": "https://www.163.com/dy/article/VBIF40C9P.html"
    },
    {
        "title": "武汉版九龙城寨一层住35户！楼房密密麻麻像蜂巢，住着不压抑嘛",
        "docid": "VMIIUVCCO",
        "url": "https://www.163.com/dy/article/VMIIUVCCO.html"
    },
    {
        "title": "房地产真正的天敌来了！一位35岁的农村老光棍说出了真相",
        "docid": "VRIHEANKI",
        "url": "https://www.163.com/dy/article/VRIHEANKI.html"
    },
    {
        "title": "800万卖掉上海房子，花600万回武汉买了套别墅，如今却烦恼不断",
        "docid": "VWIABBQ9C",
        "url": "https://www.163.com/dy/article/VWIABBQ9C.html"
    },
    {
        "title": "买新房千万不能乱问，一定要这样问，就算售楼处销冠都忽悠不了你",
        "docid": "VZI8QJ13T",
        "url": "https://www.163.com/dy/article/VZI8QJ13T.html"
    },
    {
        "title": "楼市彻底明牌！房价下跌只是开始，更可怕的还在后面！",
        "docid": "IJHT1T6A0553TDVP",
        "url": "https://www.163.com/dy/article/IJHT1T6A0553TDVP.html"
    },
    {
        "title": "40年前后物价对比，你还知道有哪些？评论区留言",
        "docid": "IJHOMVMS0556128G",
        "url": "https://www.163.com/dy/article/IJHOMVMS0556128G.html"
    },
    {
        "title": "居民楼改造，1楼2楼不肯出钱，6楼直接隔空装电梯",
        "docid": "VSI2JUKQG",
        "url": "https://www.163.com/dy/article/VSI2JUKQG.html"
    },
    {
        "title": "越来越多人买带落地窗的房子，我家也跟风，入住2年苦不堪言",
        "docid": "VCII4VDV4",
        "url": "https://www.163.com/dy/article/VCII4VDV4.html"
    },
    {
        "title": "航拍全国最贵的鬼城，贵安总部经济别墅，几千万起的别墅空无一人",
        "docid": "VDIHOU4VA",
        "url": "https://www.163.com/dy/article/VDIHOU4VA.html"
    },
    {
        "title": "4楼、10楼、14楼、18楼不能买？错！真正不能买的是这4个楼层",
        "docid": "VGI5OQ7PR",
        "url": "https://www.163.com/dy/article/VGI5OQ7PR.html"
    },
    {
        "title": "现在丈母娘的要求都变低了，这个小区月供抵租金",
        "docid": "VUIJ9JOGN",
        "url": "https://www.163.com/dy/article/VUIJ9JOGN.html"
    },
    {
        "title": "小白买房要当心，3个选房“暗坑”等你跳！这几个选房技巧要记牢",
        "docid": "VBI9LPOPE",
        "url": "https://www.163.com/dy/article/VBI9LPOPE.html"
    },
    {
        "title": "这位姐姐说为何宁愿买老房子也别买新房？",
        "docid": "VWIE19HPE",
        "url": "https://www.163.com/dy/article/VWIE19HPE.html"
    },
    {
        "title": "有房子的赶紧卖掉，不然就来不及了",
        "docid": "VFI8V5G24",
        "url": "https://www.163.com/dy/article/VFI8V5G24.html"
    },
    {
        "title": "林俊杰的元宇宙房产市值暴跌？数字化的资产，到底能不能信？丨数字素养",
        "docid": "IJHO6OBG0553TB8M",
        "url": "https://www.163.com/dy/article/IJHO6OBG0553TB8M.html"
    },
    {
        "title": "家庭住房变身资产，房地产市场为何陷入困境？",
        "docid": "IJ6BK3FL05524QHN",
        "url": "https://www.163.com/dy/article/IJ6BK3FL05524QHN.html"
    },
    {
        "title": "房产中介如何拿澳洲PR？专科学历1年经验可申！",
        "docid": "VFI65SKEE",
        "url": "https://www.163.com/dy/article/VFI65SKEE.html"
    },
    {
        "title": "这哪里是自建房啊，这是我的梦想啊！",
        "docid": "VCI5NDTT0",
        "url": "https://www.163.com/dy/article/VCI5NDTT0.html"
    },
    {
        "title": "国家“动真格”了？若不出意外，这次楼市 大破局或开启了",
        "docid": "VOIILMHB8",
        "url": "https://www.163.com/dy/article/VOIILMHB8.html"
    },
    {
        "title": "高层住宅最大的敌人是谁？",
        "docid": "VJIEMPR5P",
        "url": "https://www.163.com/dy/article/VJIEMPR5P.html"
    },
    {
        "title": "买房一定不要买大面积的",
        "docid": "VGIFVBBVT",
        "url": "https://www.163.com/dy/article/VGIFVBBVT.html"
    },
    {
        "title": "看房两个月，最终全款拿下这套3个露台3个阳台的老破大",
        "docid": "VCIHNHUNR",
        "url": "https://www.163.com/dy/article/VCIHNHUNR.html"
    },
    {
        "title": "胡润研究院：中国亿元净资产的“超高净值家庭”达13.8万户",
        "docid": "VKIIF1DC6",
        "url": "https://www.163.com/dy/article/VKIIF1DC6.html"
    },
    {
        "title": "不管租房还是买房这种房子千万不要碰，不然后悔都来不及！",
        "docid": "VJIGPTCRR",
        "url": "https://www.163.com/dy/article/VJIGPTCRR.html"
    },
    {
        "title": "要做好大势已去的准备了业内人表示：明年起，房价或出乎预料",
        "docid": "IJI4CKAD0549RI77",
        "url": "https://www.163.com/dy/article/IJI4CKAD0549RI77.html"
    },
    {
        "title": "今天算一算在老家盖这栋别墅要花多少钱，大家看看值不值",
        "docid": "VRIC93OON",
        "url": "https://www.163.com/dy/article/VRIC93OON.html"
    },
    {
        "title": "你认为房子是给老百姓建的？大错特错，真相颠覆你的认知！",
        "docid": "VZI5A1U3R",
        "url": "https://www.163.com/dy/article/VZI5A1U3R.html"
    },
    {
        "title": "90后买的豪宅长什么样？光是装修费就高达137万……",
        "docid": "VWIAQP1D1",
        "url": "https://www.163.com/dy/article/VWIAQP1D1.html"
    },
    {
        "title": "时隔三年强势归来，强二线即将卷土重来，房东们要赢了！",
        "docid": "VEIJTFIH4",
        "url": "https://www.163.com/dy/article/VEIJTFIH4.html"
    },
    {
        "title": "集团181人贷出2600多万，没房子也能贷出“装修款”？",
        "docid": "VYIH9UR25",
        "url": "https://www.163.com/dy/article/VYIH9UR25.html"
    },
    {
        "title": "许家印出事后明星豪宅集体出售！",
        "docid": "VVIDA6HS2",
        "url": "https://www.163.com/dy/article/VVIDA6HS2.html"
    },
    {
        "title": "有100万到底要不要买房",
        "docid": "VQI3K5NTK",
        "url": "https://www.163.com/dy/article/VQI3K5NTK.html"
    },
    {
        "title": "皮带哥终于开始立功了，希望尽快解决好烂尾楼才是真正的当务之急",
        "docid": "VEIGF84JL",
        "url": "https://www.163.com/dy/article/VEIGF84JL.html"
    },
    {
        "title": "拆迁全面停止？2024年起，20年以上的老房子又将成为“抢手货”",
        "docid": "VWIJ7I9TO",
        "url": "https://www.163.com/dy/article/VWIJ7I9TO.html"
    },
    {
        "title": "好消息！恒大的“烂摊子”，终于有人收拾了",
        "docid": "IJHR5OHB0553RRD3",
        "url": "https://www.163.com/dy/article/IJHR5OHB0553RRD3.html"
    },
    {
        "title": "单平基｜居住权与抵押权的并存及优先位序",
        "docid": "IJHNFK2C0553TB8M",
        "url": "https://www.163.com/dy/article/IJHNFK2C0553TB8M.html"
    },
    {
        "title": "适合大部分宅基地的三层别墅设计，140平，造型新中式，漂亮大气",
        "docid": "VDIELB9C3",
        "url": "https://www.163.com/dy/article/VDIELB9C3.html"
    },
    {
        "title": "一位买了18套房子的大哥，哭着说了3句话，值得我们深思！",
        "docid": "VBIFB3TIL",
        "url": "https://www.163.com/dy/article/VBIFB3TIL.html"
    },
    {
        "title": "100家银行证实花呗上征信不影响房贷 一小伙因担心用花呗影响买房，电话咨询100家银行客服，得到“只",
        "docid": "VPIJG6G44",
        "url": "https://www.163.com/dy/article/VPIJG6G44.html"
    },
    {
        "title": "武汉发觉大片临湖烂尾楼，业主不知所踪，旷废多年草长比人高",
        "docid": "VNI2LVD2N",
        "url": "https://www.163.com/dy/article/VNI2LVD2N.html"
    },
    {
        "title": "哥斯达黎加海景豪宅，尊贵在无言的享乐之中",
        "docid": "VSIIEA2II",
        "url": "https://www.163.com/dy/article/VSIIEA2II.html"
    },
    {
        "title": "现在到底该不该买房？今天绞尽脑汁，把我多年的经验分享给你",
        "docid": "VZI3REPI2",
        "url": "https://www.163.com/dy/article/VZI3REPI2.html"
    },
    {
        "title": "中国物价最高的20大城市，以你现在的收入多久可以买房？",
        "docid": "VGIJQ2EFP",
        "url": "https://www.163.com/dy/article/VGIJQ2EFP.html"
    },
    {
        "title": "愚园邨，刚空，房东吹牛两小时肯定有人要，你说到底行不行？",
        "docid": "VSI4ITHLI",
        "url": "https://www.163.com/dy/article/VSI4ITHLI.html"
    },
    {
        "title": "农村自建房好消息来了，一进二改三不拆。",
        "docid": "VNIJN0JRG",
        "url": "https://www.163.com/dy/article/VNIJN0JRG.html"
    },
    {
        "title": "数据揭示真相：到底有多少家庭房贷断供？",
        "docid": "VGIG4SGKL",
        "url": "https://www.163.com/dy/article/VGIG4SGKL.html"
    },
    {
        "title": "业主离婚了，全新末入住，首付5000月供2000，三房二厅二卫即买即入住",
        "docid": "VZIJMSKGF",
        "url": "https://www.163.com/dy/article/VZIJMSKGF.html"
    },
    {
        "title": "这种房子最坑人打死也别买",
        "docid": "VQI8H552I",
        "url": "https://www.163.com/dy/article/VQI8H552I.html"
    },
    {
        "title": "后悔买了13层房子，再给一次机会一定买25层房子，只有住过才懂呀",
        "docid": "VGIBQ88L1",
        "url": "https://www.163.com/dy/article/VGIBQ88L1.html"
    },
    {
        "title": "号称安徽第一鬼城，近百栋别墅无人居住，原因究竟如何？",
        "docid": "VWIFP9FVV",
        "url": "https://www.163.com/dy/article/VWIFP9FVV.html"
    },
    {
        "title": "探秘：万科被谁做空？标杆房企身陷行业漩涡",
        "docid": "VCIIU8BOR",
        "url": "https://www.163.com/dy/article/VCIIU8BOR.html"
    },
    {
        "title": "五年后有房与没有房的区别",
        "docid": "VFI8V5HNK",
        "url": "https://www.163.com/dy/article/VFI8V5HNK.html"
    },
    {
        "title": "恒大烂尾楼，购房人应该怎么办？",
        "docid": "VGIHM34VD",
        "url": "https://www.163.com/dy/article/VGIHM34VD.html"
    },
    {
        "title": "中国最牛的房子，中式四合院，国人理想住宅",
        "docid": "VPIK1FLPM",
        "url": "https://www.163.com/dy/article/VPIK1FLPM.html"
    },
    {
        "title": "墨尔本CBD 10公里以内租金飙涨，在澳洲买房已成富人专利，堪培拉房价趋于稳定！",
        "docid": "IJIAI4A305199N88",
        "url": "https://www.163.com/dy/article/IJIAI4A305199N88.html"
    },
    {
        "title": "打破惯性思维！人生第一套房，可以是投资房吗？",
        "docid": "IJIAHM5O05199N88",
        "url": "https://www.163.com/dy/article/IJIAHM5O05199N88.html"
    },
    {
        "title": "秦皇岛西部又一条主干道开工建设。这部分居民出行更方便了",
        "docid": "VWIIVMLOM",
        "url": "https://www.163.com/dy/article/VWIIVMLOM.html"
    },
    {
        "title": "保障性租赁房越来越多，房东也不好当了",
        "docid": "VXIIPOMCN",
        "url": "https://www.163.com/dy/article/VXIIPOMCN.html"
    },
    {
        "title": "打工租了8年的房子，被扣过押金，被房东临时赶，深夜找房子搬家",
        "docid": "VWIGUGBEC",
        "url": "https://www.163.com/dy/article/VWIGUGBEC.html"
    },
    {
        "title": "住4000平的别墅什么体验 http://t.cn/A6WjL4OU ​",
        "docid": "VGI9L4HQL",
        "url": "https://www.163.com/dy/article/VGI9L4HQL.html"
    },
    {
        "title": "谁说面积小就不能建好房，来看看这款小面宽别墅",
        "docid": "VBI77EFIE",
        "url": "https://www.163.com/dy/article/VBI77EFIE.html"
    },
    {
        "title": "有钱不买房可以吗？未来五年，你的钱可能会这样赔光",
        "docid": "VDID2FBR9",
        "url": "https://www.163.com/dy/article/VDID2FBR9.html"
    },
    {
        "title": "开发商5折卖房背后的套路，你肯定想象不到",
        "docid": "VWIF3HAVJ",
        "url": "https://www.163.com/dy/article/VWIF3HAVJ.html"
    },
    {
        "title": "一栋楼当中最难卖的楼层，聪明人都会避开",
        "docid": "VFI8V5IJ5",
        "url": "https://www.163.com/dy/article/VFI8V5IJ5.html"
    },
    {
        "title": "新一轮通胀来袭？普通人要提前做准备，手握这4样东西心不慌",
        "docid": "IJHLC4HH0556123R",
        "url": "https://www.163.com/dy/article/IJHLC4HH0556123R.html"
    },
    {
        "title": "千亿富豪只有一套房，曹德旺：老房子全送人了！论曹德旺有多大方",
        "docid": "VTI7ATDOR",
        "url": "https://www.163.com/dy/article/VTI7ATDOR.html"
    },
    {
        "title": "看布局，“上上等”的好户型，但再看空间设计，这就是垃圾户型",
        "docid": "VBIC48B1L",
        "url": "https://www.163.com/dy/article/VBIC48B1L.html"
    },
    {
        "title": "南充高坪区江东中路上的五千平五层楼，可以拿来做搞什么好呢？",
        "docid": "VWIEEUTB0",
        "url": "https://www.163.com/dy/article/VWIEEUTB0.html"
    },
    {
        "title": "弟弟把房子建好了，想把路修直，姐姐却极力反对，这是为什么呢？",
        "docid": "VSI4IKMJL",
        "url": "https://www.163.com/dy/article/VSI4IKMJL.html"
    },
    {
        "title": "比房地产爆雷更可怕，涉及千家万户，人们浑然不知",
        "docid": "VRI5H5N8J",
        "url": "https://www.163.com/dy/article/VRI5H5N8J.html"
    },
    {
        "title": "房子盖好了，到了验收环节告诉你有毒，怎么办？",
        "docid": "VVIFV4CN7",
        "url": "https://www.163.com/dy/article/VVIFV4CN7.html"
    },
    {
        "title": "恒大集团最新赔偿方案来了？",
        "docid": "VBIDNTNIB",
        "url": "https://www.163.com/dy/article/VBIDNTNIB.html"
    },
    {
        "title": "信不信五年后，这款别墅会成为农村建房的首选风格",
        "docid": "VDI71PAQA",
        "url": "https://www.163.com/dy/article/VDI71PAQA.html"
    },
    {
        "title": "著名女歌手，王菲在北京的豪宅，阳台上还有佛像，看看有多气派",
        "docid": "VDIHK0IC3",
        "url": "https://www.163.com/dy/article/VDIHK0IC3.html"
    },
    {
        "title": "20亿！华发大手笔全资收购86万㎡大体量项目 巩固珠海市场龙头地位",
        "docid": "IJI8QN4E0545PEDS",
        "url": "https://www.163.com/dy/article/IJI8QN4E0545PEDS.html"
    },
    {
        "title": "宅基地最高可申请800平？2023年农村宅基地标准",
        "docid": "IFIU71E8055658LF",
        "url": "https://www.163.com/dy/article/IFIU71E8055658LF.html"
    },
    {
        "title": "4楼、13楼、14楼、18楼不能入手？错了！其实不建议入手以下这3层",
        "docid": "II74BK020553SQD3",
        "url": "https://www.163.com/dy/article/II74BK020553SQD3.html"
    },
    {
        "title": "事实证明，安装电梯最初的几天可能会带来新鲜感，但随后就会后悔",
        "docid": "IH9SJN8H0532D0CK",
        "url": "https://www.163.com/dy/article/IH9SJN8H0532D0CK.html"
    },
    {
        "title": "不想一辈子打工，手里只有几万块钱，在小区周边做这5个生意，需求大来钱快",
        "docid": "IJHBA0FF05199AOH",
        "url": "https://www.163.com/dy/article/IJHBA0FF05199AOH.html"
    },
    {
        "title": "30多个城市重启房贷“商转公”，带来了什么？",
        "docid": "IJI9C5L80550TYQ0",
        "url": "https://www.163.com/dy/article/IJI9C5L80550TYQ0.html"
    },
    {
        "title": "房地产终于定调了！",
        "docid": "IJHQ3TAK0515DBP5",
        "url": "https://www.163.com/dy/article/IJHQ3TAK0515DBP5.html"
    },
    {
        "title": "消息称禹洲集团叫价5亿港元出售香港中环物业 其前10月销售额同比下滑47.6%",
        "docid": "IJH8CUKQ05562SCF",
        "url": "https://www.163.com/dy/article/IJH8CUKQ05562SCF.html"
    },
    {
        "title": "哪哪都在降，青岛的开发商双十一杀疯了",
        "docid": "IJFDRCRT0553RRD3",
        "url": "https://www.163.com/dy/article/IJFDRCRT0553RRD3.html"
    },
    {
        "title": "这才是农村的别墅，中式合院，高端大气，有全套施工图纸，可看平面图",
        "docid": "VDIJSOEJI",
        "url": "https://www.163.com/dy/article/VDIJSOEJI.html"
    },
    {
        "title": "2024拆迁地段揭秘！你家是否在拆迁名单之上？",
        "docid": "IJI8SSEN0553TB8M",
        "url": "https://www.163.com/dy/article/IJI8SSEN0553TB8M.html"
    },
    {
        "title": "利益平衡问题浮出水面，谁将是老旧小区加装电梯的受益者？",
        "docid": "IH3URPT905561XOW",
        "url": "https://www.163.com/dy/article/IH3URPT905561XOW.html"
    },
    {
        "title": "真是“穷疯了”？这四样东西也开始收费了，想都想不到",
        "docid": "VAIG5UEQT",
        "url": "https://www.163.com/dy/article/VAIG5UEQT.html"
    },
    {
        "title": "为什么不要买小区最前排？",
        "docid": "VCI4B9KEB",
        "url": "https://www.163.com/dy/article/VCI4B9KEB.html"
    },
    {
        "title": "华南地区最大的别墅群，100多栋大别墅，全部完工，无人居住，投资几十个亿，太浪费了，你敢住嘛！",
        "docid": "VGIF5VHRA",
        "url": "https://www.163.com/dy/article/VGIF5VHRA.html"
    },
    {
        "title": "“4大麻烦”席卷各地！国内4亿家庭已严重受影响？百姓早做准备",
        "docid": "VVIJLM67C",
        "url": "https://www.163.com/dy/article/VVIJLM67C.html"
    },
    {
        "title": "农村生活越来越好，住房与就业更灵活，城市方差逐步拉近当中",
        "docid": "VUIB8Q9G7",
        "url": "https://www.163.com/dy/article/VUIB8Q9G7.html"
    },
    {
        "title": "贪心房主要50万一年租金，租客承担不起不租了，空置了七年了可惜",
        "docid": "VDI5DN32A",
        "url": "https://www.163.com/dy/article/VDI5DN32A.html"
    },
    {
        "title": "不要再问现在买房合不合适了，看完以后你豁然开朗，别信什么专家",
        "docid": "VWI57KDJR",
        "url": "https://www.163.com/dy/article/VWI57KDJR.html"
    },
    {
        "title": "最高院：关于烂尾楼的裁判规则 公平公正正义之声",
        "docid": "VVIH6PIDI",
        "url": "https://www.163.com/dy/article/VVIH6PIDI.html"
    },
    {
        "title": "湖滨区：黄北六街坊旧城区改造扎实推进",
        "docid": "IJHS53N70542M5JD",
        "url": "https://www.163.com/dy/article/IJHS53N70542M5JD.html"
    },
    {
        "title": "闽系开发商风云录之《正荣集团》和《融信集团》",
        "docid": "IJI7UMGP0553TDXU",
        "url": "https://www.163.com/dy/article/IJI7UMGP0553TDXU.html"
    },
    {
        "title": "说真心话：今明两年，你买到的房子可能是史上最差的",
        "docid": "VZI2NT4UD",
        "url": "https://www.163.com/dy/article/VZI2NT4UD.html"
    },
    {
        "title": "新一轮房改来袭！普通人应该如何应对？",
        "docid": "VCIH3IU5F",
        "url": "https://www.163.com/dy/article/VCIH3IU5F.html"
    },
    {
        "title": "一小伙电话100家银行咨询用花呗是否影响自己申请房贷，银行答复：只要不逾期，就不影响。100家银行证",
        "docid": "VDIJG6TOB",
        "url": "https://www.163.com/dy/article/VDIJG6TOB.html"
    },
    {
        "title": "实拍小沈阳豪宅，名副其实的北京富人区，漂了之后再也没有了辉煌",
        "docid": "VWIAH57NB",
        "url": "https://www.163.com/dy/article/VWIAH57NB.html"
    },
    {
        "title": "老家的宅基地能不能直接卖掉",
        "docid": "VGIB3HB1V",
        "url": "https://www.163.com/dy/article/VGIB3HB1V.html"
    },
    {
        "title": "专家：强烈建议取消，农村拥有五保户资格，理由尽然有3个！",
        "docid": "VMIELIVTO",
        "url": "https://www.163.com/dy/article/VMIELIVTO.html"
    },
    {
        "title": "这种房子最坑人，打死都不要买",
        "docid": "VPIJ2CRDF",
        "url": "https://www.163.com/dy/article/VPIJ2CRDF.html"
    },
    {
        "title": "最近超火的骨灰房你会买吗？",
        "docid": "VZIIEU7P5",
        "url": "https://www.163.com/dy/article/VZIIEU7P5.html"
    },
    {
        "title": "从卖方市场转向买方市场，中国楼市将迎来历史性巨变？",
        "docid": "IJI8931O055616ZT",
        "url": "https://www.163.com/dy/article/IJI8931O055616ZT.html"
    },
    {
        "title": "租房和买房哪个更划算，你怎么看？",
        "docid": "VZIJPR6JT",
        "url": "https://www.163.com/dy/article/VZIJPR6JT.html"
    },
    {
        "title": "生活的仪式感，源自一座舒适的房子",
        "docid": "VRIE4SBO8",
        "url": "https://www.163.com/dy/article/VRIE4SBO8.html"
    },
    {
        "title": "买复式公寓房的好处就是上下两层，25平米等于50平米",
        "docid": "VGICBHCDM",
        "url": "https://www.163.com/dy/article/VGICBHCDM.html"
    },
    {
        "title": "谁说的中国人的一生必须住一套中式别墅，难道不能住两套嘛",
        "docid": "VWIGPPE8C",
        "url": "https://www.163.com/dy/article/VWIGPPE8C.html"
    },
    {
        "title": "有钱人为什么有多套新房，还要住老旧小区的房子呢",
        "docid": "VPI66AMA7",
        "url": "https://www.163.com/dy/article/VPI66AMA7.html"
    },
    {
        "title": "今年5条房产新规，不看会损失百万",
        "docid": "VFIGNVTQ1",
        "url": "https://www.163.com/dy/article/VFIGNVTQ1.html"
    },
    {
        "title": "房子够住了吗？央行回答了3个百姓关注的房地产问题",
        "docid": "VAI40JMJM",
        "url": "https://www.163.com/dy/article/VAI40JMJM.html"
    },
    {
        "title": "任泽平建议用专项基金收购烂尾楼 用来做租赁房 盘活企业资产",
        "docid": "VAIJ2GUAE",
        "url": "https://www.163.com/dy/article/VAIJ2GUAE.html"
    },
    {
        "title": "因楼上声音大了扰民，楼下与其沟通无果后！知情人：用震楼器遭怒",
        "docid": "VOIGEND5B",
        "url": "https://www.163.com/dy/article/VOIGEND5B.html"
    },
    {
        "title": "官渡区这宗土地将无偿收回！",
        "docid": "IJGLM55G0550069O",
        "url": "https://www.163.com/dy/article/IJGLM55G0550069O.html"
    },
    {
        "title": "加大保障房供给意义重大",
        "docid": "IJIIQJM60519AKBM",
        "url": "https://www.163.com/dy/article/IJIIQJM60519AKBM.html"
    },
    {
        "title": "农村旧屋为什么不可随意翻建",
        "docid": "VRIENHKMF",
        "url": "https://www.163.com/dy/article/VRIENHKMF.html"
    },
    {
        "title": "难以置信！“国家队”才是炒房主力？房地产“大庄家”开始砸盘！",
        "docid": "VZIG8D0ND",
        "url": "https://www.163.com/dy/article/VZIG8D0ND.html"
    },
    {
        "title": "上万人离去，剩下大量楼房没人住，最低5万一套，依然无人问津！",
        "docid": "VGI5CBKKO",
        "url": "https://www.163.com/dy/article/VGI5CBKKO.html"
    },
    {
        "title": "老妈从国外回来，非要把房子拆了重建，建成现在这样，大家觉得好看吗？",
        "docid": "VSI4GCL9J",
        "url": "https://www.163.com/dy/article/VSI4GCL9J.html"
    },
    {
        "title": "今天卖了一套房，我却高兴不起来",
        "docid": "VZIHHN06G",
        "url": "https://www.163.com/dy/article/VZIHHN06G.html"
    },
    {
        "title": "桂姐看老太太亲自对102房款有安排，对302房充满期待",
        "docid": "VGIH6O1PI",
        "url": "https://www.163.com/dy/article/VGIH6O1PI.html"
    },
    {
        "title": "卫星时刻在监测。你说房顶晒粮，加盖顶棚，房屋翻建要拆除违法",
        "docid": "VCI86QRCJ",
        "url": "https://www.163.com/dy/article/VCI86QRCJ.html"
    },
    {
        "title": "为什么要研究卖房？广州买房 避坑指南 卖房",
        "docid": "VGIBK33L2",
        "url": "https://www.163.com/dy/article/VGIBK33L2.html"
    },
    {
        "title": "目前房地产市场正在经历一轮反向操作！",
        "docid": "IJIMQEC50553TEQM",
        "url": "https://www.163.com/dy/article/IJIMQEC50553TEQM.html"
    },
    {
        "title": "我要离开了、离开这套住了8年的别墅内心十万个不舍、也不舍得离开我爱了8年的他，但我还是坚持把我和孩子",
        "docid": "VYIFT1HCJ",
        "url": "https://www.163.com/dy/article/VYIFT1HCJ.html"
    },
    {
        "title": "2023年合村并镇1㎡农房换1㎡楼房",
        "docid": "VSIFEBHO9",
        "url": "https://www.163.com/dy/article/VSIFEBHO9.html"
    },
    {
        "title": "蜂鸟家园暴跌300万海淀顶级学区信仰为何破灭？",
        "docid": "VPIEC9L9B",
        "url": "https://www.163.com/dy/article/VPIEC9L9B.html"
    },
    {
        "title": "农村自建一层小院，踏实稳重接地气，想看图纸吗？",
        "docid": "VBIJS83C6",
        "url": "https://www.163.com/dy/article/VBIJS83C6.html"
    },
    {
        "title": "都说那个时候房价低，但普通老百姓要买房仍然是困难的",
        "docid": "VSICAVSJI",
        "url": "https://www.163.com/dy/article/VSICAVSJI.html"
    },
    {
        "title": "媳妇着急买学区房了，带着全部积蓄想直接订房，看这套房子多少钱",
        "docid": "VGIK35JTE",
        "url": "https://www.163.com/dy/article/VGIK35JTE.html"
    },
    {
        "title": "这四种房子一定不要买！",
        "docid": "VGI3DDJK5",
        "url": "https://www.163.com/dy/article/VGI3DDJK5.html"
    },
    {
        "title": "命中注定有此一劫，实拍高层回迁楼的现状，首批贫民窟原形毕露",
        "docid": "VCI5DCSL9",
        "url": "https://www.163.com/dy/article/VCI5DCSL9.html"
    },
    {
        "title": "家里准备建房了，我应该选哪款呢？",
        "docid": "VSIA0AEBC",
        "url": "https://www.163.com/dy/article/VSIA0AEBC.html"
    },
    {
        "title": "甲有5套房，不上班，收房租；乙有1套房，上班赚工资；丙无房，租房子…",
        "docid": "IJIG6MG00552QWCS",
        "url": "https://www.163.com/dy/article/IJIG6MG00552QWCS.html"
    },
    {
        "title": "万达被强制执行1.6亿，这是要步恒大后尘？王健林：万达不是恒大",
        "docid": "IJIN7UCL0534M7IC",
        "url": "https://www.163.com/dy/article/IJIN7UCL0534M7IC.html"
    },
    {
        "title": "网红小哥住迷你公寓，租金高达上万！华人留学生却表示：太让人羡慕了！",
        "docid": "IJIM2O760553TEQM",
        "url": "https://www.163.com/dy/article/IJIM2O760553TEQM.html"
    },
    {
        "title": "牛刀的预言和现在的楼市",
        "docid": "IJIEVA8D0535KYBT",
        "url": "https://www.163.com/dy/article/IJIEVA8D0535KYBT.html"
    },
    {
        "title": "那个倾家荡产开民宿的姑娘，付不起房租又回来了……",
        "docid": "IJIG6ERA0535LAX2",
        "url": "https://www.163.com/dy/article/IJIG6ERA0535LAX2.html"
    },
    {
        "title": "Q3大宗交易市场成交规模大幅提升，上海大宗交易额持续领跑全国 | 睿和研究",
        "docid": "IJINC4C505158K7T",
        "url": "https://www.163.com/dy/article/IJINC4C505158K7T.html"
    },
    {
        "title": "买个车位停电瓶车，保安让停在指定位置，我说车位我买了凭啥不能停",
        "docid": "IJIEM6AV0535L5VU",
        "url": "https://www.163.com/dy/article/IJIEM6AV0535L5VU.html"
    },
    {
        "title": "快撤牌, 今年千万别把房子卖了! 闺蜜, 房价就要涨了, 别做错选择",
        "docid": "IJHQODKG05534GYN",
        "url": "https://www.163.com/dy/article/IJHQODKG05534GYN.html"
    },
    {
        "title": "连我也被小坑了一把，二次掏钱办理房产证，房子不烂尾谢天谢地吧",
        "docid": "VGIEF12HS",
        "url": "https://www.163.com/dy/article/VGIEF12HS.html"
    },
    {
        "title": "年轻人永远不会被高房价毁掉，被高房价毁掉的只能是社会本身",
        "docid": "VDIKN6ALM",
        "url": "https://www.163.com/dy/article/VDIKN6ALM.html"
    },
    {
        "title": "李嘉诚一语道破：现在不买房，5年后房子“金价”还是“葱价”",
        "docid": "IJIES56G0535KYBT",
        "url": "https://www.163.com/dy/article/IJIES56G0535KYBT.html"
    },
    {
        "title": "项目介绍|2号线,7号线周边坤合云海城约9700元/㎡",
        "docid": "IJIQDV9T0553TEQM",
        "url": "https://www.163.com/dy/article/IJIQDV9T0553TEQM.html"
    },
    {
        "title": "深度：从上海房价困境看万科的绝境",
        "docid": "IJIOORQ50556123R",
        "url": "https://www.163.com/dy/article/IJIOORQ50556123R.html"
    },
    {
        "title": "房产早8点速评 | 央行金融稳定局：从供需两端综合施策，维护房地产市场平稳运行；广州住房公积金实行“认房不认贷”；险资频繁减持房地产股，不做股东当“房东”",
        "docid": "IJIP5NCA0512B07B",
        "url": "https://www.163.com/dy/article/IJIP5NCA0512B07B.html"
    },
    {
        "title": "200万买的房子，租金仅1900！一个房东真实的购房心酸历程！",
        "docid": "VFIJFDFT1",
        "url": "https://www.163.com/dy/article/VFIJFDFT1.html"
    },
    {
        "title": "国内最最奇葩的小区，也不知道设计师到底是咋想的，这样的房子你敢住吗，这也太吓人了吧",
        "docid": "VZI6TROB8",
        "url": "https://www.163.com/dy/article/VZI6TROB8.html"
    },
    {
        "title": "这是中国县城房子的最终归宿！你还敢买吗？",
        "docid": "VWIKOBAVA",
        "url": "https://www.163.com/dy/article/VWIKOBAVA.html"
    },
    {
        "title": "买房不想被挡光，办法只有一个！建筑设计师专业分析，一招就搞定",
        "docid": "VBIJUH4HS",
        "url": "https://www.163.com/dy/article/VBIJUH4HS.html"
    },
    {
        "title": "演员张国立，在北京的顶级别墅区，1000平价值1.5亿，太气派了",
        "docid": "VSI58LE10",
        "url": "https://www.163.com/dy/article/VSI58LE10.html"
    },
    {
        "title": "再穷不买一楼，再傻不买顶楼！",
        "docid": "VDI8341LS",
        "url": "https://www.163.com/dy/article/VDI8341LS.html"
    },
    {
        "title": "现在聪明人，已开始“骗”银行钱了？",
        "docid": "IJIG7VKP0552CPHG",
        "url": "https://www.163.com/dy/article/IJIG7VKP0552CPHG.html"
    },
    {
        "title": "有房产就有安全感？银行行长透露：苦日子到来，手持它才最踏实！",
        "docid": "IJIHH8QE0535MP84",
        "url": "https://www.163.com/dy/article/IJIHH8QE0535MP84.html"
    },
    {
        "title": "两套顶楼的140平方米洋房打通组成的大平层，一层独享静谧生活",
        "docid": "IJIGI7FC0535KYBT",
        "url": "https://www.163.com/dy/article/IJIGI7FC0535KYBT.html"
    },
    {
        "title": "看门大爷一语道破楼市实情，内行人直言：很多购房者都没他看得透",
        "docid": "IJIGIVAD0535MP84",
        "url": "https://www.163.com/dy/article/IJIGIVAD0535MP84.html"
    },
    {
        "title": "手持300万，在沪杭买不到一套好房",
        "docid": "IJIP911D0552HI5G",
        "url": "https://www.163.com/dy/article/IJIP911D0552HI5G.html"
    },
    {
        "title": "怎么提前还房贷 能让你多省几十万？这里面有很多你不知道的技巧",
        "docid": "IIKU5DFA0552628X",
        "url": "https://www.163.com/dy/article/IIKU5DFA0552628X.html"
    },
    {
        "title": "副局长强占800平米屋顶花园十年？回应称房子是儿子的不知情",
        "docid": "VLIDD0K1J",
        "url": "https://www.163.com/dy/article/VLIDD0K1J.html"
    },
    {
        "title": "恒大的负债问题越来越清晰，到底是保交楼还是保银行",
        "docid": "VBIJJOC3D",
        "url": "https://www.163.com/dy/article/VBIJJOC3D.html"
    },
    {
        "title": "中央对烂尾楼的处置方法是这样的！",
        "docid": "VWIAO757R",
        "url": "https://www.163.com/dy/article/VWIAO757R.html"
    },
    {
        "title": "一个敢说真话的房产人 干货分享 老百姓关心的话题",
        "docid": "VGIHGNMLG",
        "url": "https://www.163.com/dy/article/VGIHGNMLG.html"
    },
    {
        "title": "这款239平米的户型，大多数人都会心动的",
        "docid": "IJIGHHD90535L5VU",
        "url": "https://www.163.com/dy/article/IJIGHHD90535L5VU.html"
    },
    {
        "title": "每月1600交了9年房租，没想到房东竟是自己独生女儿，我心寒透顶",
        "docid": "IJIQGFKM0534KXMJ",
        "url": "https://www.163.com/dy/article/IJIQGFKM0534KXMJ.html"
    },
    {
        "title": "中国学新加坡模式，是否可行",
        "docid": "IJINLQC505158B67",
        "url": "https://www.163.com/dy/article/IJINLQC505158B67.html"
    },
    {
        "title": "新形势下在化解房地产风险 和稳定市场上有所作为",
        "docid": "IJILRJ8B0512D71I",
        "url": "https://www.163.com/dy/article/IJILRJ8B0512D71I.html"
    },
    {
        "title": "演员刘若英北京的四合院，价值过亿看看什么样？邻居也都是有钱人",
        "docid": "VWIF4JVOQ",
        "url": "https://www.163.com/dy/article/VWIF4JVOQ.html"
    },
    {
        "title": "一堆房子抢一个买房人的时代来了",
        "docid": "VCI42AI5I",
        "url": "https://www.163.com/dy/article/VCI42AI5I.html"
    },
    {
        "title": "卖了套420万的房  中间费用2.1万   无论是交易还是过程，还很简单",
        "docid": "VWI9D9P09",
        "url": "https://www.163.com/dy/article/VWI9D9P09.html"
    },
    {
        "title": "“末日小区“？没有树木，没有河流。沙漠里的这个小区好似末日之",
        "docid": "VPIFMRESV",
        "url": "https://www.163.com/dy/article/VPIFMRESV.html"
    },
    {
        "title": "三层大楼四周都被挖空，入户无路可走，地基开裂摇摇欲坠，这里到底发生了什么？",
        "docid": "VSI4I2DLN",
        "url": "https://www.163.com/dy/article/VSI4I2DLN.html"
    },
    {
        "title": "住建部谈房地产调控效果，透露3大信号",
        "docid": "VAIHAOPSE",
        "url": "https://www.163.com/dy/article/VAIHAOPSE.html"
    },
    {
        "title": "为什么有钱人宁愿住高层也不买别墅？四个理由，让人信服",
        "docid": "IJIGSLCF0535MP84",
        "url": "https://www.163.com/dy/article/IJIGSLCF0535MP84.html"
    },
    {
        "title": "那年上海打工，和48岁大姐合租，每晚折腾我，最后逃离",
        "docid": "IJIOHKG705560O35",
        "url": "https://www.163.com/dy/article/IJIOHKG705560O35.html"
    },
    {
        "title": "贷款买房后你是不是都变了一个人了？网友：早知道租一辈子房",
        "docid": "IGJ9SM340535KYBT",
        "url": "https://www.163.com/dy/article/IGJ9SM340535KYBT.html"
    },
    {
        "title": "20年后，中国高楼会不会沦为贫民窟？其实欧美国家早已经有例子",
        "docid": "IFJI3VQL055658OK",
        "url": "https://www.163.com/dy/article/IFJI3VQL055658OK.html"
    },
    {
        "title": "同事彻底崩溃了！同事的房子买的恒大的，首付了有70万左右！",
        "docid": "IG9FRKAU05563VMS",
        "url": "https://www.163.com/dy/article/IG9FRKAU05563VMS.html"
    },
    {
        "title": "年轻人终有一天你会明白，贷款买房是你一生中最愚蠢的选择",
        "docid": "IJIUOL640553TDTY",
        "url": "https://www.163.com/dy/article/IJIUOL640553TDTY.html"
    },
    {
        "title": "以前干地产VS现在干地产，心态崩了",
        "docid": "IH30FRTM05158B67",
        "url": "https://www.163.com/dy/article/IH30FRTM05158B67.html"
    },
    {
        "title": "再过几年，多大的面积的房子更受欢迎，原因说起来也很现实",
        "docid": "IHN7NISG0535MP84",
        "url": "https://www.163.com/dy/article/IHN7NISG0535MP84.html"
    },
    {
        "title": "你可能要再次见证历史！",
        "docid": "IF2FFNC40552E4AS",
        "url": "https://www.163.com/dy/article/IF2FFNC40552E4AS.html"
    },
    {
        "title": "买了一套位于1楼的房子，但是入住一年后，真的后悔得肠子都青了",
        "docid": "II13ARFN05561J3R",
        "url": "https://www.163.com/dy/article/II13ARFN05561J3R.html"
    },
    {
        "title": "房子全面停建会有三个无法承受的后果？专家错了",
        "docid": "IGOUAUFT05538DP3",
        "url": "https://www.163.com/dy/article/IGOUAUFT05538DP3.html"
    },
    {
        "title": "您家房子如果具备以下4个特征，恭喜您，您买到“黄金户型”了！",
        "docid": "IHFGUQTJ0535MP84",
        "url": "https://www.163.com/dy/article/IHFGUQTJ0535MP84.html"
    },
    {
        "title": "不管一栋楼有多少层，这三层永远都是黄金楼层，懂行的争相购买！",
        "docid": "IGJ9TC420535KYBT",
        "url": "https://www.163.com/dy/article/IGJ9TC420535KYBT.html"
    },
    {
        "title": "觉醒时代，未来三年将会出现的6种社会现象！",
        "docid": "IHFHN8N505565T37",
        "url": "https://www.163.com/dy/article/IHFHN8N505565T37.html"
    },
    {
        "title": "多数人的房子不会涨的，你放心",
        "docid": "IJII7R1H0535MP84",
        "url": "https://www.163.com/dy/article/IJII7R1H0535MP84.html"
    },
    {
        "title": "炒房人绝望了！房价明明还在涨，为啥二手房卖不掉？看完涨知识！",
        "docid": "IG6CGM330535KYBT",
        "url": "https://www.163.com/dy/article/IG6CGM330535KYBT.html"
    },
    {
        "title": "别说外地人来上海想要扎根很难，现在就连一些上海人都站不稳了",
        "docid": "IJ8QRRDF0549RI77",
        "url": "https://www.163.com/dy/article/IJ8QRRDF0549RI77.html"
    },
    {
        "title": "有房子的要“偷着乐”了！释放两大信号，或许公摊面积即将取消",
        "docid": "IHUVRUQU0535LAX2",
        "url": "https://www.163.com/dy/article/IHUVRUQU0535LAX2.html"
    },
    {
        "title": "好户型的房子具备的7原则，让涉世未深的你，买前多读读少踩坑",
        "docid": "IH6GLE5R0540FQWZ",
        "url": "https://www.163.com/dy/article/IH6GLE5R0540FQWZ.html"
    },
    {
        "title": "你知道吗？购买二手房时，满5年和满2年的房子区别非常大！",
        "docid": "IF0SRG220540H6M7",
        "url": "https://www.163.com/dy/article/IF0SRG220540H6M7.html"
    },
    {
        "title": "耐心等待到跌透后再买！",
        "docid": "IG4L874L05562Z6I",
        "url": "https://www.163.com/dy/article/IG4L874L05562Z6I.html"
    },
    {
        "title": "90后夫妻一家三口住在车库，看到他们的生活模式，网友不淡定了",
        "docid": "II9O8MHS055657E3",
        "url": "https://www.163.com/dy/article/II9O8MHS055657E3.html"
    },
    {
        "title": "你家的房子是什么级别的？",
        "docid": "IG6VLEPL0553CGHB",
        "url": "https://www.163.com/dy/article/IG6VLEPL0553CGHB.html"
    },
    {
        "title": "苏钢100亿毒地事件，广钢新城无辜躺枪，别慌不关土地污染的事！",
        "docid": "IJJ20S7C05562H28",
        "url": "https://www.163.com/dy/article/IJJ20S7C05562H28.html"
    },
    {
        "title": "“鬼城”再添一座？房价从2万跌到4000,为啥现在依然无人问津？",
        "docid": "IFMFFHUH0544A1CY",
        "url": "https://www.163.com/dy/article/IFMFFHUH0544A1CY.html"
    },
    {
        "title": "一套价值100万的房子，成本究竟要多少钱？说出来你可能都不信",
        "docid": "IHOJPFQ50552ZPFN",
        "url": "https://www.163.com/dy/article/IHOJPFQ50552ZPFN.html"
    },
    {
        "title": "中国拟提供至少1万亿人民币低成本资金 支持“三大工程”以稳房市",
        "docid": "IJISR484055632BB",
        "url": "https://www.163.com/dy/article/IJISR484055632BB.html"
    },
    {
        "title": "中国的90后、00后立功了：击垮房价，让人口回归自然！",
        "docid": "IHQDV2U8055657EO",
        "url": "https://www.163.com/dy/article/IHQDV2U8055657EO.html"
    },
    {
        "title": "震惊！市中心老破小的房价都开始撑不住了？",
        "docid": "IHU0K9TU055622A5",
        "url": "https://www.163.com/dy/article/IHU0K9TU055622A5.html"
    },
    {
        "title": "只要夫妻俩一起上班，月薪工资超过1万，三年内就可以买上房",
        "docid": "II0RJBC005561BS0",
        "url": "https://www.163.com/dy/article/II0RJBC005561BS0.html"
    },
    {
        "title": "武汉各区常住人口、房价均价一览！",
        "docid": "IJJ3G0CI0546MZXW",
        "url": "https://www.163.com/dy/article/IJJ3G0CI0546MZXW.html"
    },
    {
        "title": "中国户籍人口最多最少的50个县！",
        "docid": "IJJ3ELGB0546MZXW",
        "url": "https://www.163.com/dy/article/IJJ3ELGB0546MZXW.html"
    },
    {
        "title": "世茂服务深耕美好武汉 5大“引擎”激活高质量发展服务动能",
        "docid": "IJJ2RDUJ0519QIKK",
        "url": "https://www.163.com/dy/article/IJJ2RDUJ0519QIKK.html"
    },
    {
        "title": "从“徐英洞”到《狂飙》，随房价波动的人情和人心",
        "docid": "IJJ361EV0534A4SC",
        "url": "https://www.163.com/dy/article/IJJ361EV0534A4SC.html"
    },
    {
        "title": "“退房潮”下，购房者绝不能忽视这5件事情，否则还是不要退了！",
        "docid": "IJJ36TFA0515DKDK",
        "url": "https://www.163.com/dy/article/IJJ36TFA0515DKDK.html"
    },
    {
        "title": "杨氏父女开始卖飞机还债了！同样巨额负债，他跟许家印有何不同？",
        "docid": "IH742870055640NQ",
        "url": "https://www.163.com/dy/article/IH742870055640NQ.html"
    },
    {
        "title": "焦急抛售的房东们，正在猛砸二手房市场！",
        "docid": "IJIUG0U405158VDP",
        "url": "https://www.163.com/dy/article/IJIUG0U405158VDP.html"
    },
    {
        "title": "一栋楼中“难卖”的四个楼层，买房的要多留意，住过的都深有体会",
        "docid": "IFLVVNBG0552ZPBR",
        "url": "https://www.163.com/dy/article/IFLVVNBG0552ZPBR.html"
    },
    {
        "title": "统计局：目前房地产市场仍然处于转型期的调整中",
        "docid": "IJJ4EI4N0519D45U",
        "url": "https://www.163.com/dy/article/IJJ4EI4N0519D45U.html"
    },
    {
        "title": "2017年, 花135万买了一套房子, 如今一家人只能住烂尾楼",
        "docid": "IHDIJ7DT0553I70V",
        "url": "https://www.163.com/dy/article/IHDIJ7DT0553I70V.html"
    },
    {
        "title": "谁才是房子的继承人第一继承顺序：你知道吗？",
        "docid": "IJJ0Q41K0552F71X",
        "url": "https://www.163.com/dy/article/IJJ0Q41K0552F71X.html"
    },
    {
        "title": "物业服务月报怎样做？值得学习借鉴。",
        "docid": "IJIVDCF70535R288",
        "url": "https://www.163.com/dy/article/IJIVDCF70535R288.html"
    },
    {
        "title": "2024年起，房子或将超出人们想象？懂行人建议：手握3样东西不慌",
        "docid": "IJH0RLOO0552C8M0",
        "url": "https://www.163.com/dy/article/IJH0RLOO0552C8M0.html"
    },
    {
        "title": "国家统计局：1-10月全国房地产开发投资95922亿元 同比下降9.3%",
        "docid": "IJIVSN0L05198CJN",
        "url": "https://www.163.com/dy/article/IJIVSN0L05198CJN.html"
    },
    {
        "title": "年内25家上市公司披露买房信息",
        "docid": "IJIT8MTA0512B07B",
        "url": "https://www.163.com/dy/article/IJIT8MTA0512B07B.html"
    },
    {
        "title": "物业工程部门全类管理手册（设备管理+消防管理+节能降耗）",
        "docid": "IJJ27K080535R288",
        "url": "https://www.163.com/dy/article/IJJ27K080535R288.html"
    },
    {
        "title": "华人开发商爆雷，新西兰大型项目限期出售，价值千万",
        "docid": "IJISJBQ305560ZCW",
        "url": "https://www.163.com/dy/article/IJISJBQ305560ZCW.html"
    },
    {
        "title": "3个月没看房的人，我是怎么卖出自己的房子的？",
        "docid": "IJFHP389055616YW",
        "url": "https://www.163.com/dy/article/IJFHP389055616YW.html"
    },
    {
        "title": "想在农村老家买一套房，看了一家，标价65w，建筑面积目测150平",
        "docid": "IG8150TQ05561BF2",
        "url": "https://www.163.com/dy/article/IG8150TQ05561BF2.html"
    },
    {
        "title": "我国土地征收中，耕地、荒地和林地补偿区别是什么？标准是什么？",
        "docid": "IJ6IUG7I0514D8GG",
        "url": "https://www.163.com/dy/article/IJ6IUG7I0514D8GG.html"
    },
    {
        "title": "买一楼的房子真的就不好吗？售楼经理解答：有钱人都爱买一楼！",
        "docid": "IJEI3J7B0540FQWZ",
        "url": "https://www.163.com/dy/article/IJEI3J7B0540FQWZ.html"
    },
    {
        "title": "2023年武汉保障房申请条件指南",
        "docid": "IJJ81PEU0552QWCS",
        "url": "https://www.163.com/dy/article/IJJ81PEU0552QWCS.html"
    },
    {
        "title": "不装了，摊牌了，新的楼市转机来了！",
        "docid": "IJJ73RA50515UN97",
        "url": "https://www.163.com/dy/article/IJJ73RA50515UN97.html"
    },
    {
        "title": "富力地产再被强制执行12.5亿元 累计被执行超104亿",
        "docid": "IJJ5120C0519D45U",
        "url": "https://www.163.com/dy/article/IJJ5120C0519D45U.html"
    },
    {
        "title": "统计局：前10月商品房销售额同比降4.9% 10月末商品房待售面积增18.1%",
        "docid": "IJJ20BB70519D45U",
        "url": "https://www.163.com/dy/article/IJJ20BB70519D45U.html"
    },
    {
        "title": "五年以后，这三类房子或将变成黄金屋，聪明人早就知道这几种了",
        "docid": "VZIKRT8AG",
        "url": "https://www.163.com/dy/article/VZIKRT8AG.html"
    },
    {
        "title": "地产商又想打预售资金的主意了",
        "docid": "VDIJMJG1Q",
        "url": "https://www.163.com/dy/article/VDIJMJG1Q.html"
    },
    {
        "title": "有房产证房子也不是你的",
        "docid": "VZIIO0CTO",
        "url": "https://www.163.com/dy/article/VZIIO0CTO.html"
    },
    {
        "title": "恭喜自己终于有家了，奔4的年纪盖了这栋房",
        "docid": "VSIBREHSV",
        "url": "https://www.163.com/dy/article/VSIBREHSV.html"
    },
    {
        "title": "尾见的多，房子有毒你见过吗？#财经 #陆家嘴起诉苏钢集团",
        "docid": "VRI6L1K02",
        "url": "https://www.163.com/dy/article/VRI6L1K02.html"
    },
    {
        "title": "2024年房地产能稳住吗？马光远一句话点透，很真实！",
        "docid": "IJJ6N0VG0553TDXU",
        "url": "https://www.163.com/dy/article/IJJ6N0VG0553TDXU.html"
    },
    {
        "title": "10月经济持续恢复，楼市继续滑落，房地产成为经济最后一块短板？",
        "docid": "IJJ5KEHM05565OJR",
        "url": "https://www.163.com/dy/article/IJJ5KEHM05565OJR.html"
    },
    {
        "title": "大湾区早报｜澳门特区行政长官贺一诚发表2024年财政年度施政报告；广州住房公积金实行认房不认贷，首套房最低首付比例20%",
        "docid": "IJJ3Q9DA05199NPP",
        "url": "https://www.163.com/dy/article/IJJ3Q9DA05199NPP.html"
    },
    {
        "title": "现在都还没通地铁的城市，为什么不建议买房了？",
        "docid": "IJ13MHHI0535WDMF",
        "url": "https://www.163.com/dy/article/IJ13MHHI0535WDMF.html"
    },
    {
        "title": "南光置业以数字赋能促高质量发展",
        "docid": "IJJ8DSG405159A0N",
        "url": "https://www.163.com/dy/article/IJJ8DSG405159A0N.html"
    },
    {
        "title": "大行评级｜大摩：潜在新措施可能更有效促进内地大城市房屋销售和稳定楼价",
        "docid": "IJJ25GNJ05198ETO",
        "url": "https://www.163.com/dy/article/IJJ25GNJ05198ETO.html"
    },
    {
        "title": "从拿地到交付：地产开发全流程拆解",
        "docid": "IJIP2TCR0539RYJ0",
        "url": "https://www.163.com/dy/article/IJIP2TCR0539RYJ0.html"
    },
    {
        "title": "国家统计局：房地产开发投资、商品房销售额指标出现边际改善迹象",
        "docid": "IJJ43IJP0514CQIE",
        "url": "https://www.163.com/dy/article/IJJ43IJP0514CQIE.html"
    },
    {
        "title": "物业公司员工奖惩管理规定",
        "docid": "IJJ6TTSQ0535R28F",
        "url": "https://www.163.com/dy/article/IJJ6TTSQ0535R28F.html"
    },
    {
        "title": "楼市的终极解决方案：一场龟兔赛跑的持久战",
        "docid": "IJIUIRD705538DP3",
        "url": "https://www.163.com/dy/article/IJIUIRD705538DP3.html"
    },
    {
        "title": "我，21年贷款117万买房，月供7200，如今扛不住了，后悔啊",
        "docid": "IJJ95OGE0553TDXU",
        "url": "https://www.163.com/dy/article/IJJ95OGE0553TDXU.html"
    },
    {
        "title": "为什么说碧桂园会比恒大死得还惨？",
        "docid": "IJJ42DT2055667OY",
        "url": "https://www.163.com/dy/article/IJJ42DT2055667OY.html"
    },
    {
        "title": "点评那些奇葩大平层户型结构",
        "docid": "IJIL4KQR0552QWCS",
        "url": "https://www.163.com/dy/article/IJIL4KQR0552QWCS.html"
    },
    {
        "title": "公益讲堂 | “让阳光照耀中国式美好社区”论坛系列主题演讲",
        "docid": "IJJ8F3VD0535R281",
        "url": "https://www.163.com/dy/article/IJJ8F3VD0535R281.html"
    },
    {
        "title": "市场周报|2023年第45周——重点城市商品住宅市场成交持续回落",
        "docid": "IJJAMK660515AN84",
        "url": "https://www.163.com/dy/article/IJJAMK660515AN84.html"
    },
    {
        "title": "瑞银：传闻中新的支持楼市措施是解决当前内房困境积极举措",
        "docid": "IJJ8NLAU0519D45U",
        "url": "https://www.163.com/dy/article/IJJ8NLAU0519D45U.html"
    },
    {
        "title": "疑似缅北四大家族，明学昌别墅被炸毁了，现场视频遭到曝光",
        "docid": "VPILAL0UN",
        "url": "https://www.163.com/dy/article/VPILAL0UN.html"
    },
    {
        "title": "陆家嘴最新回应85亿买“毒地”将全力通过司法途径，还原事实真相",
        "docid": "VKIFSLEAV",
        "url": "https://www.163.com/dy/article/VKIFSLEAV.html"
    },
    {
        "title": "探秘两层拆迁房房间内发现大量衣物和高跟鞋，看看还找到了什么？",
        "docid": "VGIKQJCRI",
        "url": "https://www.163.com/dy/article/VGIKQJCRI.html"
    },
    {
        "title": "农田宅基地都不是自己的，自家树木不能砍，还有什么属于农民？",
        "docid": "VEIL42GT2",
        "url": "https://www.163.com/dy/article/VEIL42GT2.html"
    },
    {
        "title": "越来越多有钱人，逃离“大平层”？老业主吐槽：3个缺点难以忍受",
        "docid": "IH6G9K2A0552O6SX",
        "url": "https://www.163.com/dy/article/IH6G9K2A0552O6SX.html"
    },
    {
        "title": "这就是一线城市和二线城市的差别！",
        "docid": "II47LO7U0535KYBT",
        "url": "https://www.163.com/dy/article/II47LO7U0535KYBT.html"
    },
    {
        "title": "房产税没来，“它”却来啦，中国亿万房东要哭了！",
        "docid": "IH01TL7O0552CPHG",
        "url": "https://www.163.com/dy/article/IH01TL7O0552CPHG.html"
    },
    {
        "title": "关于买房：别买“道边居”、远离“握手楼”、不碰“13楼”",
        "docid": "IG8USLD90535MP84",
        "url": "https://www.163.com/dy/article/IG8USLD90535MP84.html"
    },
    {
        "title": "很多房企组建了一个新部门",
        "docid": "IF2HVD1J05158B67",
        "url": "https://www.163.com/dy/article/IF2HVD1J05158B67.html"
    },
    {
        "title": "近一个月，为何京沪楼市的砸盘现象会逐步失控",
        "docid": "IJJ6HNQ10553TEQM",
        "url": "https://www.163.com/dy/article/IJJ6HNQ10553TEQM.html"
    },
    {
        "title": "银行为什么要全面停止房贷，难道房价要下跌了？别怪没提醒你",
        "docid": "IIOP0DOJ0535KYBT",
        "url": "https://www.163.com/dy/article/IIOP0DOJ0535KYBT.html"
    },
    {
        "title": "“电梯房”的这4个楼层，一定不要买！来自一个金牌销售的忠言",
        "docid": "IGE163VJ0535MP84",
        "url": "https://www.163.com/dy/article/IGE163VJ0535MP84.html"
    },
    {
        "title": "莫言：不管再有钱，房子再大，乔迁新居也要注意这7点。",
        "docid": "IJ6GK8TA05563UTP",
        "url": "https://www.163.com/dy/article/IJ6GK8TA05563UTP.html"
    },
    {
        "title": "劝告房奴们, 提前还房贷是防止家庭破产的唯一途径",
        "docid": "IF7I1DSB05534809",
        "url": "https://www.163.com/dy/article/IF7I1DSB05534809.html"
    },
    {
        "title": "20平的出租房摇身一变成为温馨小屋，房东看了都怀疑自己进错了！",
        "docid": "IJH4BEIN0540H6M7",
        "url": "https://www.163.com/dy/article/IJH4BEIN0540H6M7.html"
    },
    {
        "title": "救楼市尺度上升到政治局层面？预示着今明两年楼市将发生一场巨变",
        "docid": "IJJC3V710556123R",
        "url": "https://www.163.com/dy/article/IJJC3V710556123R.html"
    },
    {
        "title": "终于明白，为什么有越来越多的地产人要转行了",
        "docid": "IF9BENIC0552I6MA",
        "url": "https://www.163.com/dy/article/IF9BENIC0552I6MA.html"
    },
    {
        "title": "你发现没？为什么越来越多的人，悄悄卖掉顶层房子，换到了一楼？",
        "docid": "IGVDJPNP0525PAFL",
        "url": "https://www.163.com/dy/article/IGVDJPNP0525PAFL.html"
    },
    {
        "title": "为什么房地产对中国经济如此重要？",
        "docid": "IJJ3O2LB0553TDTY",
        "url": "https://www.163.com/dy/article/IJJ3O2LB0553TDTY.html"
    },
    {
        "title": "为什么说“穷不买2楼，富不买18楼”，内行人：这些原因太真实了",
        "docid": "IISGEVTI054057BR",
        "url": "https://www.163.com/dy/article/IISGEVTI054057BR.html"
    },
    {
        "title": "索赔100亿！这个问题地产人必须重视了",
        "docid": "IJINJSLK05158B67",
        "url": "https://www.163.com/dy/article/IJINJSLK05158B67.html"
    },
    {
        "title": "绕过中介与房东签约，能逃掉中介费吗？",
        "docid": "IJ43M2OC0514A1ND",
        "url": "https://www.163.com/dy/article/IJ43M2OC0514A1ND.html"
    },
    {
        "title": "房子要是有这些特征，就是“黄金户型”了，你家占了几条？",
        "docid": "II473SCK0535MP84",
        "url": "https://www.163.com/dy/article/II473SCK0535MP84.html"
    },
    {
        "title": "太扎心，别再等房价暴跌，第4次买房机会出现，没买房将欲哭无泪",
        "docid": "IEU068RR05562DLL",
        "url": "https://www.163.com/dy/article/IEU068RR05562DLL.html"
    },
    {
        "title": "买房时，尽量别说“这句话”，可能会暴露自己是“购房小白”！",
        "docid": "IJJG08L90540KLAM",
        "url": "https://www.163.com/dy/article/IJJG08L90540KLAM.html"
    },
    {
        "title": "开发商也是没什么底线了，这种外墙都没整好的楼也交楼了吗？",
        "docid": "IGF28NE80517T9SE",
        "url": "https://www.163.com/dy/article/IGF28NE80517T9SE.html"
    },
    {
        "title": "为什么有钱人宁可选择高档小区或大平层，也不要别墅？原因有3个",
        "docid": "IGBGC02D0535KYBT",
        "url": "https://www.163.com/dy/article/IGBGC02D0535KYBT.html"
    },
    {
        "title": "下一个垄断行业！民营房地产企业最终会剩几家？一家不剩",
        "docid": "IHC1OB6U05563RZ5",
        "url": "https://www.163.com/dy/article/IHC1OB6U05563RZ5.html"
    },
    {
        "title": "一栋楼不管多少层，未来10年，这几个楼层都很容易转手",
        "docid": "IF8IK7F805529KBU",
        "url": "https://www.163.com/dy/article/IF8IK7F805529KBU.html"
    },
    {
        "title": "为啥穷人喜欢买新房，富人专挑二手房买呢？房产中介说出“内幕”",
        "docid": "IES5UGJF05529KBU",
        "url": "https://www.163.com/dy/article/IES5UGJF05529KBU.html"
    },
    {
        "title": "谁敢说城市的房子卖不掉？降价20%试试，马上被人买走",
        "docid": "IH89FUL005560P0J",
        "url": "https://www.163.com/dy/article/IH89FUL005560P0J.html"
    },
    {
        "title": "为啥很多人的房子都「宁空不租」! 房东说出了大实话, 太难了",
        "docid": "IH7LLQ3105534CVN",
        "url": "https://www.163.com/dy/article/IH7LLQ3105534CVN.html"
    },
    {
        "title": "终于买了小套学区房，却遇到一个问题，这个柱子能不能砸了？",
        "docid": "II13UJKS0532D0CK",
        "url": "https://www.163.com/dy/article/II13UJKS0532D0CK.html"
    },
    {
        "title": "告诉大家一个不好的消息：越来越多人卖掉房子回农村！咋回事？",
        "docid": "IFLJ6LTU0543L6WL",
        "url": "https://www.163.com/dy/article/IFLJ6LTU0543L6WL.html"
    },
    {
        "title": "房子产权70年到期后要怎么办？不动产登记中心人员：只有2个选择",
        "docid": "IJJG6BI20540KLAM",
        "url": "https://www.163.com/dy/article/IJJG6BI20540KLAM.html"
    },
    {
        "title": "傻子才买一楼？我想告诉你未来有一半城市一楼最贵！",
        "docid": "IJJG2GGU0540KLAM",
        "url": "https://www.163.com/dy/article/IJJG2GGU0540KLAM.html"
    },
    {
        "title": "揭秘全国烂尾面积最多的5大城市，希望没有你所在的城市！",
        "docid": "IGET4UA80515DKDK",
        "url": "https://www.163.com/dy/article/IGET4UA80515DKDK.html"
    },
    {
        "title": "北上广不再是年轻人香饽饽？未来10年最受宠城市，你家乡上榜了吗",
        "docid": "II20LVI3055657DY",
        "url": "https://www.163.com/dy/article/II20LVI3055657DY.html"
    },
    {
        "title": "千万元净资产家庭只有211万户引争议, 北上广深一套房就破千万!",
        "docid": "IJJEE3EE0553T3D4",
        "url": "https://www.163.com/dy/article/IJJEE3EE0553T3D4.html"
    },
    {
        "title": "好好的房子，你为啥要安两根管子啊，这还有买一送一吗？",
        "docid": "II12A52T0532D0CK",
        "url": "https://www.163.com/dy/article/II12A52T0532D0CK.html"
    },
    {
        "title": "不管多有钱，买房一定避开这5个楼层， 不是迷信，而是过来人经验",
        "docid": "IIB0L0Q3054057BR",
        "url": "https://www.163.com/dy/article/IIB0L0Q3054057BR.html"
    },
    {
        "title": "朗诗旗下朗诗家与ZKEA智家签署合作协议 聚焦绿色健康人居赛道",
        "docid": "IJJGIQ080545PEDS",
        "url": "https://www.163.com/dy/article/IJJGIQ080545PEDS.html"
    },
    {
        "title": "房价“死胡同”效应越发明显！不敢跌，跌了不敢卖，涨了又卖不动",
        "docid": "II2NGHGS05529KBU",
        "url": "https://www.163.com/dy/article/II2NGHGS05529KBU.html"
    },
    {
        "title": "人生建议，买房千万别买太靠学校附近！网友踩坑经历点醒上万读者",
        "docid": "IIFLCP5E05564MZX",
        "url": "https://www.163.com/dy/article/IIFLCP5E05564MZX.html"
    },
    {
        "title": "20城土地出让恢复“价高者得” 土拍热度升温？  ",
        "docid": "IJJ0OEM20209992S",
        "url": "https://www.163.com/dy/article/IJJ0OEM20209992S.html"
    },
    {
        "title": "拒绝“边角料”！原来七十多平的小户型也可以玩出这么多花样",
        "docid": "IJJICTAP05524IE6",
        "url": "https://www.163.com/dy/article/IJJICTAP05524IE6.html"
    },
    {
        "title": "香山樾与印香山精装材质全曝光（附表）",
        "docid": "IJJECOFG055381XS",
        "url": "https://www.163.com/dy/article/IJJECOFG055381XS.html"
    },
    {
        "title": "农村集体土地征收，6步流程，不懂的看这一篇就行了！",
        "docid": "IJJGD9PM0532AYDR",
        "url": "https://www.163.com/dy/article/IJJGD9PM0532AYDR.html"
    },
    {
        "title": "买不起房的你，2024年，你会错过这两大机会吗？",
        "docid": "IJJBKT060553RRD3",
        "url": "https://www.163.com/dy/article/IJJBKT060553RRD3.html"
    },
    {
        "title": "经济学家任泽平：建议国家以合理价格，收购开发商卖不掉的房子",
        "docid": "IJJGUSCL05158I5P",
        "url": "https://www.163.com/dy/article/IJJGUSCL05158I5P.html"
    },
    {
        "title": "【城市研究】武汉市白沙洲两宗地撤牌：没有对比，就没有伤害",
        "docid": "IJJJKA8O0553TB9L",
        "url": "https://www.163.com/dy/article/IJJJKA8O0553TB9L.html"
    },
    {
        "title": "信置St. George&apos;s Mansions累售40伙 套现45亿港元",
        "docid": "IJJIJH8G0552QWCE",
        "url": "https://www.163.com/dy/article/IJJIJH8G0552QWCE.html"
    },
    {
        "title": "中产就不要来香港了，没啥意思",
        "docid": "IJJ05KL80552Q0MM",
        "url": "https://www.163.com/dy/article/IJJ05KL80552Q0MM.html"
    },
    {
        "title": "跨业态运营，头部房企都在搞大会员体系",
        "docid": "IJJITPS60515AKPO",
        "url": "https://www.163.com/dy/article/IJJITPS60515AKPO.html"
    },
    {
        "title": "积极配置写字楼等实体项目资产，从增量市场转向存量市场",
        "docid": "IJJ0LIMU0209992S",
        "url": "https://www.163.com/dy/article/IJJ0LIMU0209992S.html"
    },
    {
        "title": "武汉买房：需关注城市不可复制的资源！",
        "docid": "IJJLTPH905560R20",
        "url": "https://www.163.com/dy/article/IJJLTPH905560R20.html"
    },
    {
        "title": "2023年1~10月销量最好的地产排名出炉！",
        "docid": "IJJJP3QO0553CGI3",
        "url": "https://www.163.com/dy/article/IJJJP3QO0553CGI3.html"
    },
    {
        "title": "武汉楼市：买房有价值往主城方向走！",
        "docid": "IJJLT3LD05560R20",
        "url": "https://www.163.com/dy/article/IJJLT3LD05560R20.html"
    },
    {
        "title": "各地公积金迎来大调整，就算不买房对你也是非常有用的！",
        "docid": "IJEI93ES05561BO9",
        "url": "https://www.163.com/dy/article/IJEI93ES05561BO9.html"
    },
    {
        "title": "从买房到买箱子，集装箱成为下一代经济适用房？",
        "docid": "IJJLO1A70545PEDS",
        "url": "https://www.163.com/dy/article/IJJLO1A70545PEDS.html"
    },
    {
        "title": "重磅！广州公积金贷款新政：认房不认贷",
        "docid": "IJJLHQGH0534FOQ8",
        "url": "https://www.163.com/dy/article/IJJLHQGH0534FOQ8.html"
    },
    {
        "title": "楼市仍处于转型调整期 前10月商品房销售规模继续下探",
        "docid": "IJJKMDOM0519QIKK",
        "url": "https://www.163.com/dy/article/IJJKMDOM0519QIKK.html"
    },
    {
        "title": "下次买房，再也不选“二手房”了，入住一年半，肠子都“悔青”了",
        "docid": "IJJ9GMS40553TFBT",
        "url": "https://www.163.com/dy/article/IJJ9GMS40553TFBT.html"
    },
    {
        "title": "冯仑：用创新解决行业暴雷与人居环境改善问题",
        "docid": "IJJCGBBU05352LE9",
        "url": "https://www.163.com/dy/article/IJJCGBBU05352LE9.html"
    },
    {
        "title": "日本签证成功案例分享",
        "docid": "IJFEFNAP0536OG3N",
        "url": "https://www.163.com/dy/article/IJFEFNAP0536OG3N.html"
    },
    {
        "title": "澳大利亚各地房租飙升，哪些地区的租金最高？",
        "docid": "IJJHQEM805560ZCW",
        "url": "https://www.163.com/dy/article/IJJHQEM805560ZCW.html"
    },
    {
        "title": "英国计划使用养老金基金来建廉租房，缓解住房短缺",
        "docid": "IJJG53MG05560ZCW",
        "url": "https://www.163.com/dy/article/IJJG53MG05560ZCW.html"
    },
    {
        "title": "开发商老板承认了，这“3种房”都是“穷人房”，他们也急着脱手",
        "docid": "IJJJ1T650552F71X",
        "url": "https://www.163.com/dy/article/IJJJ1T650552F71X.html"
    },
    {
        "title": "刚刚楼市的“金九银十”数据曝光…",
        "docid": "IJJH2A7L0553TEQM",
        "url": "https://www.163.com/dy/article/IJJH2A7L0553TEQM.html"
    },
    {
        "title": "网传自如全线大比例裁员：下半年裁了两波，产研比例高达50%？",
        "docid": "IJCLESLC05560US1",
        "url": "https://www.163.com/dy/article/IJCLESLC05560US1.html"
    },
    {
        "title": "杀疯了！华润拿下高新三中学区宅地！江铃、轨道交通底价拿地！",
        "docid": "IJJ4T9J1055616YW",
        "url": "https://www.163.com/dy/article/IJJ4T9J1055616YW.html"
    },
    {
        "title": "消息称世茂集团主席许荣茂减价求售香港中环写字楼两楼层 最新叫价共逾14亿港元",
        "docid": "IJIT24IR0519D45U",
        "url": "https://www.163.com/dy/article/IJIT24IR0519D45U.html"
    },
    {
        "title": "20800元/㎡华润胜出！回归竞地价时代17家房企理性角逐蔡桥",
        "docid": "IJJ4FGTP051591G6",
        "url": "https://www.163.com/dy/article/IJJ4FGTP051591G6.html"
    },
    {
        "title": "前10月房地产开发投资仍处低位 行业发展新模式有待构建",
        "docid": "IJJA9E280512D3VJ",
        "url": "https://www.163.com/dy/article/IJJA9E280512D3VJ.html"
    },
    {
        "title": "房贷的利息是怎么计算的",
        "docid": "VZI8FS8OA",
        "url": "https://www.163.com/dy/article/VZI8FS8OA.html"
    },
    {
        "title": "武汉城建拿下左岭1宗住宅项目，楼面价2136.5元/平",
        "docid": "IJJNQDEI0534SV3Y",
        "url": "https://www.163.com/dy/article/IJJNQDEI0534SV3Y.html"
    },
    {
        "title": "宁可住高层，也要“搬离别墅”，为什么？懂行人：5大硬伤太难了",
        "docid": "IJJNVMKG0553TB8M",
        "url": "https://www.163.com/dy/article/IJJNVMKG0553TB8M.html"
    },
    {
        "title": "刚刚，主城核心地段，推出2大共有产权房！",
        "docid": "IJJNN6LA05522QVI",
        "url": "https://www.163.com/dy/article/IJJNN6LA05522QVI.html"
    },
    {
        "title": "武汉楼市的危机，回不去的房价，人口暴增的武汉，房价还会涨吗？",
        "docid": "IJ5IQVOT0535KYBT",
        "url": "https://www.163.com/dy/article/IJ5IQVOT0535KYBT.html"
    },
    {
        "title": "4楼、8楼、18楼不能买？其实真正不能买是这4个楼层，不是迷信！",
        "docid": "IFRBKG9Q0525PAFL",
        "url": "https://www.163.com/dy/article/IFRBKG9Q0525PAFL.html"
    },
    {
        "title": "武汉楼市：稀缺决定价值！",
        "docid": "IJF7KUC705560R20",
        "url": "https://www.163.com/dy/article/IJF7KUC705560R20.html"
    },
    {
        "title": "新书出品！物业人必备系列丛书上新！",
        "docid": "IJJP4MP40535R281",
        "url": "https://www.163.com/dy/article/IJJP4MP40535R281.html"
    },
    {
        "title": "武汉买房，这样更能买到好资产！",
        "docid": "IJEFE11O05560R20",
        "url": "https://www.163.com/dy/article/IJEFE11O05560R20.html"
    },
    {
        "title": "幸福里有抖音“特权”？代理商们可能被忽悠了",
        "docid": "IJJOIDBI0515AL0V",
        "url": "https://www.163.com/dy/article/IJJOIDBI0515AL0V.html"
    },
    {
        "title": "一套好屋之「万科东庐」，时隔四年半万科在北京终于拿地了",
        "docid": "IJJHVH2A05565ECD",
        "url": "https://www.163.com/dy/article/IJJHVH2A05565ECD.html"
    },
    {
        "title": "看到这个户型，我才相信了奢华的含义",
        "docid": "IJ30KE130535KYBM",
        "url": "https://www.163.com/dy/article/IJ30KE130535KYBM.html"
    },
    {
        "title": "3种房子已被“新政锁定”，将成“黄金屋”，懂行人正在暗暗下手",
        "docid": "IIH288H60552CPHG",
        "url": "https://www.163.com/dy/article/IIH288H60552CPHG.html"
    },
    {
        "title": "一套140平房子和两套70平房子，谁更划算？内行人分析完不纠结！",
        "docid": "IJJFTMSA0540KLAM",
        "url": "https://www.163.com/dy/article/IJJFTMSA0540KLAM.html"
    },
    {
        "title": "唱衰房地产的人，赶快醒醒，房地产不会暴跌，房地产更没有泡沫！",
        "docid": "IJCR01IJ0534M7IC",
        "url": "https://www.163.com/dy/article/IJCR01IJ0534M7IC.html"
    },
    {
        "title": "未来五年，这十个城市房价有可能翻倍，快看看，有你所在的城市吗",
        "docid": "IJJCN1U30553TFBT",
        "url": "https://www.163.com/dy/article/IJJCN1U30553TFBT.html"
    },
    {
        "title": "房地产尴尬了！真是怕什么来什么！努力赚钱才是自己的财神！",
        "docid": "IJJKCDPK0553TDXU",
        "url": "https://www.163.com/dy/article/IJJKCDPK0553TDXU.html"
    },
    {
        "title": "地产业再爆大雷，多家国企被牵连卷入，情况有点乱",
        "docid": "IJ2H09ES05563TCH",
        "url": "https://www.163.com/dy/article/IJ2H09ES05563TCH.html"
    },
    {
        "title": "别墅终于转手出去了，价格比最高峰时便宜了一半，心简直在滴血",
        "docid": "II2DC85905562BBD",
        "url": "https://www.163.com/dy/article/II2DC85905562BBD.html"
    },
    {
        "title": "买房，公摊面积不止宰你1刀，其实是4刀！！！",
        "docid": "IJ2F7AI40532D0CK",
        "url": "https://www.163.com/dy/article/IJ2F7AI40532D0CK.html"
    },
    {
        "title": "你以为我在如今这个房市行情下买房，是赌的以后房子增值吗？错啦",
        "docid": "IGFQ16VA0523TE06",
        "url": "https://www.163.com/dy/article/IGFQ16VA0523TE06.html"
    },
    {
        "title": "武汉楼市：房子要选优质，买房应该这样买！",
        "docid": "IJJLV2VT05560R20",
        "url": "https://www.163.com/dy/article/IJJLV2VT05560R20.html"
    },
    {
        "title": "武汉学区房还能不能买，武汉有没有可能出房地产税？",
        "docid": "IJJRDKI40535JMSP",
        "url": "https://www.163.com/dy/article/IJJRDKI40535JMSP.html"
    },
    {
        "title": "中国最抢手的楼层，不是三四楼，是多数人都想不到的这一楼",
        "docid": "IJ3VTRLK0540KLAM",
        "url": "https://www.163.com/dy/article/IJ3VTRLK0540KLAM.html"
    },
    {
        "title": "只要你能做到这三点，武汉、成都、西安等二线城市，随便买套房",
        "docid": "IJJQ2LLL0535JMSP",
        "url": "https://www.163.com/dy/article/IJJQ2LLL0535JMSP.html"
    },
    {
        "title": "买房万万不要买这一层，不是封建迷信，有一定科学根据的！",
        "docid": "IJ30GCAH0535MP84",
        "url": "https://www.163.com/dy/article/IJ30GCAH0535MP84.html"
    },
    {
        "title": "未来什么会取代房地产成为下一个风口呢？",
        "docid": "IJ2ECK3O0556623Y",
        "url": "https://www.163.com/dy/article/IJ2ECK3O0556623Y.html"
    },
    {
        "title": "万达地产集团新增被执行人信息，执行标的4000万元",
        "docid": "IJJ2TU0V0534A4SC",
        "url": "https://www.163.com/dy/article/IJJ2TU0V0534A4SC.html"
    },
    {
        "title": "房地产开始了“耍流氓”的新套路，新套路层出不穷，购房者谨慎！",
        "docid": "IIUIOSV905372IV2",
        "url": "https://www.163.com/dy/article/IIUIOSV905372IV2.html"
    },
    {
        "title": "珍惜武汉楼市当下的窗口期！",
        "docid": "IJEFCEMP05560R20",
        "url": "https://www.163.com/dy/article/IJEFCEMP05560R20.html"
    },
    {
        "title": "保租房REITs 分析 | 上交所首场集体业绩说明会透露了哪些信息？",
        "docid": "IJJLGIL705530RXA",
        "url": "https://www.163.com/dy/article/IJJLGIL705530RXA.html"
    },
    {
        "title": "如果要加梯，其实只要同意底楼的三大条件即可",
        "docid": "IJ2GTR1H05561J3R",
        "url": "https://www.163.com/dy/article/IJ2GTR1H05561J3R.html"
    },
    {
        "title": "“退房令”正式下发，央行做出“决定”，大致路线已经明确了",
        "docid": "IJJD7HLO0556124M",
        "url": "https://www.163.com/dy/article/IJJD7HLO0556124M.html"
    },
    {
        "title": "经济怪象：房价高了, 商铺“倒了”，满大街最多却是这两个行业？",
        "docid": "IIM6KEDH0535KYBT",
        "url": "https://www.163.com/dy/article/IIM6KEDH0535KYBT.html"
    },
    {
        "title": "太可怕！楼市迎来重要转机，供需失衡开始了，不要急着贱卖房子！",
        "docid": "IJJF031M05562DLL",
        "url": "https://www.163.com/dy/article/IJJF031M05562DLL.html"
    },
    {
        "title": "中国未来20年，这3类房子将成为“稀有”，内行人已在下手",
        "docid": "IIOMNPIO0535KYBT",
        "url": "https://www.163.com/dy/article/IIOMNPIO0535KYBT.html"
    },
    {
        "title": "日本用30年时间的经验告诉我们：房价暴跌，没有赢家，只有输家",
        "docid": "IIVSV7I705563TCH",
        "url": "https://www.163.com/dy/article/IIVSV7I705563TCH.html"
    },
    {
        "title": "郁亮再预测中国未来几年房地产走向，若无意外，或大概率又是对的",
        "docid": "IJIKIL180545PEDS",
        "url": "https://www.163.com/dy/article/IJIKIL180545PEDS.html"
    },
    {
        "title": "你要买房，四、八、十四、十八层不要买？错，这五层楼才有问题！",
        "docid": "IJ4BDQCK05565QPS",
        "url": "https://www.163.com/dy/article/IJ4BDQCK05565QPS.html"
    },
    {
        "title": "买双卫生间的房子好吗？入住之后才知道，原来是这么一回事！",
        "docid": "IJ6M49C20540KLAM",
        "url": "https://www.163.com/dy/article/IJ6M49C20540KLAM.html"
    },
    {
        "title": "温州宁波苏州南通，何以无锡房价波澜不惊？拆迁政策全国绝无仅有",
        "docid": "IJ30OVEF0552CPHG",
        "url": "https://www.163.com/dy/article/IJ30OVEF0552CPHG.html"
    },
    {
        "title": "危机爆发！中国买家大撤离！半个国家破产，现在后悔也来不及了！",
        "docid": "IJJL6DNO0553TEQM",
        "url": "https://www.163.com/dy/article/IJJL6DNO0553TEQM.html"
    },
    {
        "title": "别墅的4大天坑是什么？明眼人宁可把钱放烂，都不碰这4类！",
        "docid": "IIRPM1JK0535WDMF",
        "url": "https://www.163.com/dy/article/IIRPM1JK0535WDMF.html"
    },
    {
        "title": "4楼、8楼、18楼的房子不能买？错了！其实这4个楼层才要谨慎购买",
        "docid": "IJJTVCMR0553TDXU",
        "url": "https://www.163.com/dy/article/IJJTVCMR0553TDXU.html"
    },
    {
        "title": "现在200万的房产，五年后大概值多少钱？马光远讲清楚了，很真实",
        "docid": "IJJPJE6N0546CEAU",
        "url": "https://www.163.com/dy/article/IJJPJE6N0546CEAU.html"
    },
    {
        "title": "身上有房贷的人这五件事不能碰，小心房子都不是自己的！",
        "docid": "IJ6LTCDA0540KLAM",
        "url": "https://www.163.com/dy/article/IJ6LTCDA0540KLAM.html"
    },
    {
        "title": "租房过一辈子，可以吗？不买房，你敢吗？",
        "docid": "IJJRAD6E05562UNB",
        "url": "https://www.163.com/dy/article/IJJRAD6E05562UNB.html"
    },
    {
        "title": "千万不要轻易卖掉主城区老破小房子，这是一条非常重要的规则",
        "docid": "IIL09JM20553TEV3",
        "url": "https://www.163.com/dy/article/IIL09JM20553TEV3.html"
    },
    {
        "title": "手里有多套房，现在卖掉是“愚蠢”还是“机智”，内行人说出实情",
        "docid": "IINVRR49054057BR",
        "url": "https://www.163.com/dy/article/IINVRR49054057BR.html"
    },
    {
        "title": "为什么房价一跌刚需就消失了。",
        "docid": "IIRJM1SJ051181GK",
        "url": "https://www.163.com/dy/article/IIRJM1SJ051181GK.html"
    },
    {
        "title": "一旦房价下跌，最惨的不是有钱人，也不是开发商，而是这类人",
        "docid": "IJ30FOJK0535MP84",
        "url": "https://www.163.com/dy/article/IJ30FOJK0535MP84.html"
    },
    {
        "title": "未来房子不是最值钱的，留房不如留这4样“东西”，早知道早准备",
        "docid": "IJ3087C70535KYBT",
        "url": "https://www.163.com/dy/article/IJ3087C70535KYBT.html"
    },
    {
        "title": "原来143平米的房子也可以如此豪华！",
        "docid": "IJ8PKHJM0553TEV3",
        "url": "https://www.163.com/dy/article/IJ8PKHJM0553TEV3.html"
    },
    {
        "title": "恒大烂尾楼该如何收场？许家印父子被抓，妻子出逃海外吐出500亿",
        "docid": "IJJ97SOU0552R2BU",
        "url": "https://www.163.com/dy/article/IJJ97SOU0552R2BU.html"
    },
    {
        "title": "我卖掉了顶层的房子，换到了二楼，发现两者区别太大了",
        "docid": "IGIGRS860536UOB3",
        "url": "https://www.163.com/dy/article/IGIGRS860536UOB3.html"
    },
    {
        "title": "孙宏斌说得很明白：未来低层洋房和高层住宅哪个升值空间更大？",
        "docid": "IJ3GLLQ40553SQD3",
        "url": "https://www.163.com/dy/article/IJ3GLLQ40553SQD3.html"
    },
    {
        "title": "10年后，这4类小区或将沦为“穷人区”？懂行人已在悄悄“脱手”",
        "docid": "IIV5HEIA05561BO9",
        "url": "https://www.163.com/dy/article/IIV5HEIA05561BO9.html"
    },
    {
        "title": "碧桂园基本凉了，连续两个月销售额60亿，但利息支出却高达90亿",
        "docid": "IJGSCOQR0552BSXJ",
        "url": "https://www.163.com/dy/article/IJGSCOQR0552BSXJ.html"
    },
    {
        "title": "10月通缩仍持续，中产消费降级显著，持房贷者压力增大",
        "docid": "IJJM1P0P05561J7W",
        "url": "https://www.163.com/dy/article/IJJM1P0P05561J7W.html"
    },
    {
        "title": "00后的贫富差距，将会是史无前例的，楼市也会因他们而改变",
        "docid": "IJJQ6CRM0535JMSP",
        "url": "https://www.163.com/dy/article/IJJQ6CRM0535JMSP.html"
    },
    {
        "title": "提醒，为什么越来越多人，看涨房价了",
        "docid": "IJJPV2ID0535JMSP",
        "url": "https://www.163.com/dy/article/IJJPV2ID0535JMSP.html"
    },
    {
        "title": "买房是人生中的大事，但是你知道吗？有一种户型再便宜也不能买！",
        "docid": "IJ46N6960540H6M7",
        "url": "https://www.163.com/dy/article/IJ46N6960540H6M7.html"
    },
    {
        "title": "2.5W降到2W，天量库存来袭的五四北，二手怎么看？",
        "docid": "IJK2F6OM0549RI77",
        "url": "https://www.163.com/dy/article/IJK2F6OM0549RI77.html"
    },
    {
        "title": "为什么在日本富人住公寓，穷人住独栋？原因让中国家庭陷入深思！",
        "docid": "IJ5KKG5S0535KYBT",
        "url": "https://www.163.com/dy/article/IJ5KKG5S0535KYBT.html"
    },
    {
        "title": "租客说今年钱不好赚，问我能不能降点租金，我拒绝了。",
        "docid": "IJK0PMBR0552QWCS",
        "url": "https://www.163.com/dy/article/IJK0PMBR0552QWCS.html"
    },
    {
        "title": "公摊面积要“取消”：那么已经买过房的人，会有补偿？答案来了",
        "docid": "IJDOPAF20553SQD3",
        "url": "https://www.163.com/dy/article/IJDOPAF20553SQD3.html"
    },
    {
        "title": "武汉楼市：近期是个不错的窗口！",
        "docid": "IJJM03Q705560R20",
        "url": "https://www.163.com/dy/article/IJJM03Q705560R20.html"
    },
    {
        "title": "解码高质量生活的DNA秘密，大华·紫樾府宽境院墅炙热上市！",
        "docid": "IJJTT6JO0553TDXU",
        "url": "https://www.163.com/dy/article/IJJTT6JO0553TDXU.html"
    },
    {
        "title": "218平米的优雅大平层户型，堪称一绝！",
        "docid": "IJ8QMJDU0552QWCS",
        "url": "https://www.163.com/dy/article/IJ8QMJDU0552QWCS.html"
    },
    {
        "title": "一楼带院子的房子怎么样，能买吗，看看内行人怎么说？",
        "docid": "IJ25U62S05529KBU",
        "url": "https://www.163.com/dy/article/IJ25U62S05529KBU.html"
    },
    {
        "title": "超20城实行公积金“认房不用认贷”政策，楼市复苏进程加快",
        "docid": "IJK00H7R05562VGD",
        "url": "https://www.163.com/dy/article/IJK00H7R05562VGD.html"
    },
    {
        "title": "买房别选凸阳台，地产商恨不得白送，入住才知是大坑",
        "docid": "IJ5L5GI30535KYBT",
        "url": "https://www.163.com/dy/article/IJ5L5GI30535KYBT.html"
    },
    {
        "title": "延期方案被拒 万达商管生死一线",
        "docid": "IJJQJJGD055650O5",
        "url": "https://www.163.com/dy/article/IJJQJJGD055650O5.html"
    },
    {
        "title": "白纸玩成“印钞机”，许家印被捕之后，恒大又一套路被挖出",
        "docid": "IJK2E3KE05359IL8",
        "url": "https://www.163.com/dy/article/IJK2E3KE05359IL8.html"
    },
    {
        "title": "2024年房价会跌吗？金融人士预测：明年房价出乎意料",
        "docid": "IJK3R8780535PKJN",
        "url": "https://www.163.com/dy/article/IJK3R8780535PKJN.html"
    },
    {
        "title": "好消息！这些历史遗留问题产权项目可以办理不动产权证书了！",
        "docid": "IJJSAA3S0534M7IC",
        "url": "https://www.163.com/dy/article/IJJSAA3S0534M7IC.html"
    },
    {
        "title": "武汉买房：楼市下半场进入分化时代！",
        "docid": "IJFGOSNQ0542M5JD",
        "url": "https://www.163.com/dy/article/IJFGOSNQ0542M5JD.html"
    },
    {
        "title": "房地产市场变了，整体下滑，没抢救过来，能忍住没买房的都是高人",
        "docid": "IISRDQLD0552NSPT",
        "url": "https://www.163.com/dy/article/IISRDQLD0552NSPT.html"
    },
    {
        "title": "22载始终如一！守护“安家”梦想！",
        "docid": "IJK07J9O0515WLA7",
        "url": "https://www.163.com/dy/article/IJK07J9O0515WLA7.html"
    },
    {
        "title": "警惕！继恒大碧桂园之后，最容易爆雷的5类房企，购房者慎买！",
        "docid": "IISGTO480515DKDK",
        "url": "https://www.163.com/dy/article/IISGTO480515DKDK.html"
    },
    {
        "title": "我筹备了90万，准备买套房子。我找了卖房的老同学，她让我不要买",
        "docid": "IIM780MB0535KYBT",
        "url": "https://www.163.com/dy/article/IIM780MB0535KYBT.html"
    },
    {
        "title": "大家做好准备：不出意外，再过2个月，楼市或将出现3大转变！",
        "docid": "IJK5O6SP0553TEV3",
        "url": "https://www.163.com/dy/article/IJK5O6SP0553TEV3.html"
    },
    {
        "title": "两年跌去近300万，中介称“价格跌回2017年”，上海顶流学区房溢价正在消失…",
        "docid": "IJJTKA730512B07B",
        "url": "https://www.163.com/dy/article/IJJTKA730512B07B.html"
    },
    {
        "title": "澳洲知名华人区房产, 要低价出售! 房主竟就是毒蘑菇案凶手",
        "docid": "IJJOUO8J0553TB8M",
        "url": "https://www.163.com/dy/article/IJJOUO8J0553TB8M.html"
    },
    {
        "title": "内卷的风还是吹到了中央别墅区",
        "docid": "IJK1RHBT0515B4LR",
        "url": "https://www.163.com/dy/article/IJK1RHBT0515B4LR.html"
    },
    {
        "title": "我妈妈购买的顶楼房露台有多香？！",
        "docid": "IJ5402K005561J3R",
        "url": "https://www.163.com/dy/article/IJ5402K005561J3R.html"
    },
    {
        "title": "买了&quot;一梯两户&quot;的房子，入住1个月就想搬家，4大缺点受不了",
        "docid": "IJ31RSLV0535MP84",
        "url": "https://www.163.com/dy/article/IJ31RSLV0535MP84.html"
    },
    {
        "title": "曼谷旧房改造，脱胎换骨成时尚精致大别墅",
        "docid": "IJJUQCIU0544LVR1",
        "url": "https://www.163.com/dy/article/IJJUQCIU0544LVR1.html"
    },
    {
        "title": "新希望五新，承压几何？",
        "docid": "IJJO019605391O4W",
        "url": "https://www.163.com/dy/article/IJJO019605391O4W.html"
    },
    {
        "title": "为什么说：跃层户型是“要了面子，丢了里子”？",
        "docid": "IIFER5210535WDMF",
        "url": "https://www.163.com/dy/article/IIFER5210535WDMF.html"
    },
    {
        "title": "为何精明人买房从不选“靠边”户型？真相太不可思议！",
        "docid": "IIM6H1H00535MP84",
        "url": "https://www.163.com/dy/article/IIM6H1H00535MP84.html"
    },
    {
        "title": "5年后，“电梯房”和“步梯房”谁更值钱？新规下，答案已显现",
        "docid": "IJK0HGEF0519GBC0",
        "url": "https://www.163.com/dy/article/IJK0HGEF0519GBC0.html"
    },
    {
        "title": "楼市，这两天信息量有点大！懂行人预测：明年或将超出很多人想象",
        "docid": "IJK4LS9L05359WBS",
        "url": "https://www.163.com/dy/article/IJK4LS9L05359WBS.html"
    },
    {
        "title": "买房时，这3种“户型”要避开！过来人的血泪史，入住才知坑",
        "docid": "IJ4831MR0540B07R",
        "url": "https://www.163.com/dy/article/IJ4831MR0540B07R.html"
    },
    {
        "title": "注意了？新一轮房改已经来了，影响很大",
        "docid": "IJK6TH820535MR82",
        "url": "https://www.163.com/dy/article/IJK6TH820535MR82.html"
    },
    {
        "title": "老房加装电梯后，高层住户后悔了，有人坦言：花钱带来3个新麻烦",
        "docid": "IJJQC7SI0553U79H",
        "url": "https://www.163.com/dy/article/IJJQC7SI0553U79H.html"
    },
    {
        "title": "房价的极限是多少？国内还有哪24个城市房价会在将来上涨？",
        "docid": "IJJQ4MGF0535JMSP",
        "url": "https://www.163.com/dy/article/IJJQ4MGF0535JMSP.html"
    },
    {
        "title": "住房公积金、公租房、工程建设……川渝两地，有这些便利→",
        "docid": "IJK4TU7J0542M5JD",
        "url": "https://www.163.com/dy/article/IJK4TU7J0542M5JD.html"
    },
    {
        "title": "兰州这个烂尾楼盘复活在望！1.4281亿拍卖被人接盘",
        "docid": "IJJIDT0005564G35",
        "url": "https://www.163.com/dy/article/IJJIDT0005564G35.html"
    },
    {
        "title": "2023年房价和汇率的关系，以及2023年房价最多能上涨多少？",
        "docid": "IJJQ0I3H0535JMSP",
        "url": "https://www.163.com/dy/article/IJJQ0I3H0535JMSP.html"
    },
    {
        "title": "办公租赁市场深陷“降租潮”",
        "docid": "IJJIU7BK0515AKPO",
        "url": "https://www.163.com/dy/article/IJJIU7BK0515AKPO.html"
    },
    {
        "title": "传中国将用一万亿刺激房地产市场，最快本月推出具体计划",
        "docid": "IJK5PGSE05418T7D",
        "url": "https://www.163.com/dy/article/IJK5PGSE05418T7D.html"
    },
    {
        "title": "刚刚住建部发声, 房地产新模式定了! “3大工程”开始建设",
        "docid": "IJK0P4HO0553259J",
        "url": "https://www.163.com/dy/article/IJK0P4HO0553259J.html"
    },
    {
        "title": "11月MLF利率不变，LPR大概率“按兵不动”，房贷利率还会降吗？",
        "docid": "IJK1RMB50535HK01",
        "url": "https://www.163.com/dy/article/IJK1RMB50535HK01.html"
    },
    {
        "title": "如果你有两套房，你会住一套出租一套吗？网友：傻子才会这么做！",
        "docid": "IJ6LPIEC0540KLAM",
        "url": "https://www.163.com/dy/article/IJ6LPIEC0540KLAM.html"
    },
    {
        "title": "楼市“拐点”要来了？这一次，我们恐怕又要失望了",
        "docid": "IJJS1FVC0535MR82",
        "url": "https://www.163.com/dy/article/IJJS1FVC0535MR82.html"
    },
    {
        "title": "最新消息！园区神盘颐和源璟即将交付，外立面曝光",
        "docid": "IJJPJ6C305523LQD",
        "url": "https://www.163.com/dy/article/IJJPJ6C305523LQD.html"
    },
    {
        "title": "大基金收购库存楼盘？拍脑袋建言",
        "docid": "IJJT4NPC05159JCF",
        "url": "https://www.163.com/dy/article/IJJT4NPC05159JCF.html"
    },
    {
        "title": "售楼部的“样板房”能买吗？这个问题让很多人感到困惑！",
        "docid": "IJ42JD9S0540H6M7",
        "url": "https://www.163.com/dy/article/IJ42JD9S0540H6M7.html"
    },
    {
        "title": "马鞍岛万科湾中原墅售楼处电话_万科湾中原墅24小时服务热线",
        "docid": "IJJU3CTI0556446B",
        "url": "https://www.163.com/dy/article/IJJU3CTI0556446B.html"
    },
    {
        "title": "“金九银十”成色不足 房地产市场仍在转型期调整中",
        "docid": "IJJNTHUM05199NPP",
        "url": "https://www.163.com/dy/article/IJJNTHUM05199NPP.html"
    },
    {
        "title": "2023年武汉楼市：越到关键时刻，买房越要理性！",
        "docid": "IJJM19DS05560R20",
        "url": "https://www.163.com/dy/article/IJJM19DS05560R20.html"
    },
    {
        "title": "房价下跌是错觉，千万不要被表象迷惑了。最近各大城市二手房挂",
        "docid": "IJKA997T05563TCH",
        "url": "https://www.163.com/dy/article/IJKA997T05563TCH.html"
    },
    {
        "title": "加拿大多伦多的房子卖不动了？！房产中介：卖家心态需要转变",
        "docid": "IJK5LBBK0552QDEA",
        "url": "https://www.163.com/dy/article/IJK5LBBK0552QDEA.html"
    },
    {
        "title": "这种形势下，一定要注重风险！",
        "docid": "IJKBOCG10553TEQM",
        "url": "https://www.163.com/dy/article/IJKBOCG10553TEQM.html"
    },
    {
        "title": "外围传来大瓜",
        "docid": "IJK2MBV00548O9HG",
        "url": "https://www.163.com/dy/article/IJK2MBV00548O9HG.html"
    },
    {
        "title": "房价这么高，当下买新房或者买二手房要注意些什么？",
        "docid": "IJJQBT2R0535JMSP",
        "url": "https://www.163.com/dy/article/IJJQBT2R0535JMSP.html"
    },
    {
        "title": "房贷利率5.28%降至4.2%，每月还的本金却变多了，这是怎么回事？",
        "docid": "IFLVNQ6C055628R6",
        "url": "https://www.163.com/dy/article/IFLVNQ6C055628R6.html"
    },
    {
        "title": "买西边户的都是“傻子”吗？同一栋楼，西户卖光了，东户无人问津",
        "docid": "IJ75OMPL0532D0CK",
        "url": "https://www.163.com/dy/article/IJ75OMPL0532D0CK.html"
    },
    {
        "title": "政府叫你买房的时候该买房？房地产3个事实永远改变了，3类人能买",
        "docid": "IJJCDBB70531L1NE",
        "url": "https://www.163.com/dy/article/IJJCDBB70531L1NE.html"
    },
    {
        "title": "标普料香港楼价明年将下跌5%至10%",
        "docid": "IJJIVQ960519D45U",
        "url": "https://www.163.com/dy/article/IJJIVQ960519D45U.html"
    },
    {
        "title": "237平米经典的五室大平层",
        "docid": "IJIHHPDS0552CPHG",
        "url": "https://www.163.com/dy/article/IJIHHPDS0552CPHG.html"
    },
    {
        "title": "懂行的人从不买“高层房”？若不是内行人提醒，差点又被忽悠！",
        "docid": "IJJGDACL0540KLAM",
        "url": "https://www.163.com/dy/article/IJJGDACL0540KLAM.html"
    },
    {
        "title": "东方雨虹45.7万元转让所拍土地95%股权，仅占拿地价0.04%",
        "docid": "IJK9H8K6055381XS",
        "url": "https://www.163.com/dy/article/IJK9H8K6055381XS.html"
    },
    {
        "title": "关于实行不动产登记费“零收费”的公告",
        "docid": "IJKBTJRJ0553RRD3",
        "url": "https://www.163.com/dy/article/IJKBTJRJ0553RRD3.html"
    },
    {
        "title": "100万转给中介，准备买房却联系不上了，男子急了：眼泪直接下来",
        "docid": "IJJAV61D0556124M",
        "url": "https://www.163.com/dy/article/IJJAV61D0556124M.html"
    },
    {
        "title": "房地产业当下的困局怎么破？",
        "docid": "IJK0JS4L051597TT",
        "url": "https://www.163.com/dy/article/IJK0JS4L051597TT.html"
    },
    {
        "title": "因高利率对市场活动施压 英国房价十多年来首次下跌",
        "docid": "IJK7MF7F05198UNI",
        "url": "https://www.163.com/dy/article/IJK7MF7F05198UNI.html"
    },
    {
        "title": "财政部：1-10月国有土地使用权出让收入34992亿元 同比下降20.5%",
        "docid": "IJJKNB4K05198CJN",
        "url": "https://www.163.com/dy/article/IJJKNB4K05198CJN.html"
    },
    {
        "title": "地产烂尾，就是违约，为啥购房的还要继续履行合同？",
        "docid": "IJ25QBCB05529KBU",
        "url": "https://www.163.com/dy/article/IJ25QBCB05529KBU.html"
    },
    {
        "title": "盘点近两年房地产税相关重要消息，万事俱备，只等一声令下",
        "docid": "IJJPT1TA0535JMSP",
        "url": "https://www.163.com/dy/article/IJJPT1TA0535JMSP.html"
    }
]