[
    {
        "title": "建议大家买房不要买这种带横厅的，南北不通透，都是经验教训",
        "docid": "IJC2MF040534M7IC",
        "url": "https://www.163.com/dy/article/IJC2MF040534M7IC.html"
    },
    {
        "title": "澳洲租赁市场危机：墨尔本出租房锐减，专家担忧租赁灾难",
        "docid": "IJ76UPI705560ZCW",
        "url": "https://www.163.com/dy/article/IJ76UPI705560ZCW.html"
    },
    {
        "title": "房子也能“共享”了！6座城市实行“共享住房”，将终结房奴时代",
        "docid": "IJ0V3F6H055657E4",
        "url": "https://www.163.com/dy/article/IJ0V3F6H055657E4.html"
    },
    {
        "title": "房地产评估：房地产清算价格评估方法的运用",
        "docid": "IIV8O15N0552G8XY",
        "url": "https://www.163.com/dy/article/IIV8O15N0552G8XY.html"
    },
    {
        "title": "旧小区坚持加装了“电梯”，为什么现在后悔了？这4个原因太现实",
        "docid": "IISHA14I054057BR",
        "url": "https://www.163.com/dy/article/IISHA14I054057BR.html"
    },
    {
        "title": "杨国强父女的碧桂园问题更严重？许家印是他们的前车之鉴",
        "docid": "IHNKS1SD0553CARZ",
        "url": "https://www.163.com/dy/article/IHNKS1SD0553CARZ.html"
    },
    {
        "title": "当你意识到房价跌的时候，房子已经卖不出去了",
        "docid": "IEJ7PN1J05563TCH",
        "url": "https://www.163.com/dy/article/IEJ7PN1J05563TCH.html"
    },
    {
        "title": "再过10年，现在200万房子还能值多少？王健林、孙宏斌观点一致！",
        "docid": "IFGD3I5N05565CB9",
        "url": "https://www.163.com/dy/article/IFGD3I5N05565CB9.html"
    },
    {
        "title": "惊呆！安省开发商竟送金条吸引买家！买房就送！价值4.5万加币",
        "docid": "IJ91TG3K0545W66O",
        "url": "https://www.163.com/dy/article/IJ91TG3K0545W66O.html"
    },
    {
        "title": "大佬发声！不惜一切代价对抗境外资本！",
        "docid": "IJ9GFD2J0524K8JC",
        "url": "https://www.163.com/dy/article/IJ9GFD2J0524K8JC.html"
    },
    {
        "title": "买房付首付，“多交点”和“少交点”区别大吗？还好我没弄错！",
        "docid": "IJ1P2Q610540KLAM",
        "url": "https://www.163.com/dy/article/IJ1P2Q610540KLAM.html"
    },
    {
        "title": "楼市“警报”拉响，三大征兆下，房价“何去何从”？无房人有福了",
        "docid": "IJ30U7980535KYBT",
        "url": "https://www.163.com/dy/article/IJ30U7980535KYBT.html"
    },
    {
        "title": "那些贪小便宜以经营贷提前还房贷的人不淡定了，三种情况结局一样",
        "docid": "IJDNSES2053907LI",
        "url": "https://www.163.com/dy/article/IJDNSES2053907LI.html"
    },
    {
        "title": "知名房企卖楼抵债！今年已有多套被拍卖",
        "docid": "IJDPOKG00535A6CE",
        "url": "https://www.163.com/dy/article/IJDPOKG00535A6CE.html"
    },
    {
        "title": "铺先生：转店中有什么坑要知道的？这三个要注意了",
        "docid": "IJ8NBHK30552QWCS",
        "url": "https://www.163.com/dy/article/IJ8NBHK30552QWCS.html"
    },
    {
        "title": "建业欠薪严重！公司提出工资抵房，引发巨大争议！",
        "docid": "IJ95KDHA0535KAWB",
        "url": "https://www.163.com/dy/article/IJ95KDHA0535KAWB.html"
    },
    {
        "title": "总价35万起，离地铁400米，曼谷高逼格现房公寓NUE Z-Square",
        "docid": "IJCO801T0544LVR1",
        "url": "https://www.163.com/dy/article/IJCO801T0544LVR1.html"
    },
    {
        "title": "一年内日元贬值30%，房价上涨40%，日本人还存得住钱吗？",
        "docid": "IJ93QP6905359JWY",
        "url": "https://www.163.com/dy/article/IJ93QP6905359JWY.html"
    },
    {
        "title": "你绝对想不到！今年双11商家口袋被房贷掏空，打折只是幌子！",
        "docid": "IJ975DSM05561ZSQ",
        "url": "https://www.163.com/dy/article/IJ975DSM05561ZSQ.html"
    },
    {
        "title": "马云预言成真？未来10年内，有钱的话，该买房还是该存银行？",
        "docid": "IIRR4OI3053312Y9",
        "url": "https://www.163.com/dy/article/IIRR4OI3053312Y9.html"
    },
    {
        "title": "不顾反对，坚持买了带院的一楼，住了快9年鸟语花香为伴，很舒适",
        "docid": "IJ0GCFMA0535KYBT",
        "url": "https://www.163.com/dy/article/IJ0GCFMA0535KYBT.html"
    },
    {
        "title": "20年房龄及以上的住宅，一律按照这样处理！提前了解心里不慌！",
        "docid": "IIVARNMG05561H12",
        "url": "https://www.163.com/dy/article/IIVARNMG05561H12.html"
    },
    {
        "title": "“新一轮”房改来了？2024年起，中央部门定调，有3类人群或受益",
        "docid": "IJ8NERPO0530ICNH",
        "url": "https://www.163.com/dy/article/IJ8NERPO0530ICNH.html"
    },
    {
        "title": "面宽14m，进深14米，三层农村自建房别墅推荐",
        "docid": "IJ76SVIA0535LAX2",
        "url": "https://www.163.com/dy/article/IJ76SVIA0535LAX2.html"
    },
    {
        "title": "拆迁中地方法规不可越过的“国家红线”！",
        "docid": "IJCCUEB60532Q69P",
        "url": "https://www.163.com/dy/article/IJCCUEB60532Q69P.html"
    },
    {
        "title": "等额本金还款方式和等额本息还款方式的区别是什么",
        "docid": "IJAFAOQF0553BGA5",
        "url": "https://www.163.com/dy/article/IJAFAOQF0553BGA5.html"
    },
    {
        "title": "快醒醒吧，不要胡乱买房，房价暴富梦破灭，还没买房的人注意了！",
        "docid": "IJ941CCN05562DLL",
        "url": "https://www.163.com/dy/article/IJ941CCN05562DLL.html"
    },
    {
        "title": "澳大利亚房地产市场的奇特现象：房价上涨却不受利率上涨的影响",
        "docid": "IJ6SLMN0053661TJ",
        "url": "https://www.163.com/dy/article/IJ6SLMN0053661TJ.html"
    },
    {
        "title": "房价大跌，已经从9000降到了5000，有人建议我断供，可行吗？",
        "docid": "IH7PRLA60535KYBT",
        "url": "https://www.163.com/dy/article/IH7PRLA60535KYBT.html"
    },
    {
        "title": "如果你手里有这几类房子，强烈建议你尽快出手",
        "docid": "IJDPKPTK0545PEDS",
        "url": "https://www.163.com/dy/article/IJDPKPTK0545PEDS.html"
    },
    {
        "title": "房产证上不要再傻傻的写夫妻两人的名字, 快来看看，不要再不懂了",
        "docid": "IJ30G6940535KYBT",
        "url": "https://www.163.com/dy/article/IJ30G6940535KYBT.html"
    },
    {
        "title": "买房人，开始考虑租房了",
        "docid": "IJDNNTG705565B5C",
        "url": "https://www.163.com/dy/article/IJDNNTG705565B5C.html"
    },
    {
        "title": "75岁奶奶攒多年退休金全款买下一套公寓，老年人住房难题值得重视",
        "docid": "IJ8ND39O0553TB8M",
        "url": "https://www.163.com/dy/article/IJ8ND39O0553TB8M.html"
    },
    {
        "title": "炒房大佬浮出水面，地方国企竟成&quot;主角&quot;？地产市场愈加魔幻",
        "docid": "IJ7EJRLF0552F71X",
        "url": "https://www.163.com/dy/article/IJ7EJRLF0552F71X.html"
    },
    {
        "title": "央行：将适时调整优化房地产政策！碧桂园流动性持续紧张！",
        "docid": "IJ6A1OJG05398MH9",
        "url": "https://www.163.com/dy/article/IJ6A1OJG05398MH9.html"
    },
    {
        "title": "8500的洋房，四开间朝南；9200的高层，每个房间都能看湖",
        "docid": "IJ5DB9610553TDVP",
        "url": "https://www.163.com/dy/article/IJ5DB9610553TDVP.html"
    },
    {
        "title": "30套农村建别墅，开间只有9米？这套乡村别墅可满足你的团圆梦想",
        "docid": "IIPO8O200520BKDJ",
        "url": "https://www.163.com/dy/article/IIPO8O200520BKDJ.html"
    },
    {
        "title": "现在的二手房砍价有多离谱你们知道吗？",
        "docid": "IHEFMK490553GD76",
        "url": "https://www.163.com/dy/article/IHEFMK490553GD76.html"
    },
    {
        "title": "香港大部分土地空置，全民挤在6.9%空间里，难怪房价这么高",
        "docid": "IFVJIMTV05529KBU",
        "url": "https://www.163.com/dy/article/IFVJIMTV05529KBU.html"
    },
    {
        "title": "为什么老旧小区的顶楼突然“火”了？内行人：其中有很大的商机！",
        "docid": "IJ6NU68P054057BR",
        "url": "https://www.163.com/dy/article/IJ6NU68P054057BR.html"
    },
    {
        "title": "15款带阁楼一层半农村自建房别墅  全家老少都喜欢建在农村超划算",
        "docid": "IJ1MVVE20520BKDJ",
        "url": "https://www.163.com/dy/article/IJ1MVVE20520BKDJ.html"
    },
    {
        "title": "从澳大利亚的住房统计数据，看澳洲人的住房习惯",
        "docid": "IISJ16UK053661TJ",
        "url": "https://www.163.com/dy/article/IISJ16UK053661TJ.html"
    },
    {
        "title": "房产证不管写谁的名字, 已经不重要了! 以下四条“规定”你要知道",
        "docid": "IIVD7QEG0552Z8RE",
        "url": "https://www.163.com/dy/article/IIVD7QEG0552Z8RE.html"
    },
    {
        "title": "90年代花900万买的四合院，现在值多少钱？",
        "docid": "IJ3V16RH05561JGS",
        "url": "https://www.163.com/dy/article/IJ3V16RH05561JGS.html"
    },
    {
        "title": "我跟父母借钱买房，看到母亲转账备注里的“借款”，我伤心地哭了",
        "docid": "IJ96K7QD0534KXMC",
        "url": "https://www.163.com/dy/article/IJ96K7QD0534KXMC.html"
    },
    {
        "title": "为什么那么多人相信房价会下跌，会崩盘呢？",
        "docid": "IF1BLHTK0553GD76",
        "url": "https://www.163.com/dy/article/IF1BLHTK0553GD76.html"
    },
    {
        "title": "为什么开发商没钱了可以烂尾，老百姓拿不到房却不能断供？",
        "docid": "IISNNTU40552C8M0",
        "url": "https://www.163.com/dy/article/IISNNTU40552C8M0.html"
    },
    {
        "title": "征迁加速！仑苍镇桥南片区进入房屋腾空阶段",
        "docid": "IJA11C430534VSAK",
        "url": "https://www.163.com/dy/article/IJA11C430534VSAK.html"
    },
    {
        "title": "买房还送露台？老公买下二手房，花20天做大改造！原房主：卖亏了",
        "docid": "IJ45U5470520W6PK",
        "url": "https://www.163.com/dy/article/IJ45U5470520W6PK.html"
    },
    {
        "title": "住房公积金：企业缴纳1250，自我缴纳1250，在国内是啥水平？",
        "docid": "IJ92EEKD0545PEDS",
        "url": "https://www.163.com/dy/article/IJ92EEKD0545PEDS.html"
    },
    {
        "title": "提前做好准备：比起“房价下跌”更忧心的事出现了，你发现了吗？",
        "docid": "IJBGS2DO05529KBU",
        "url": "https://www.163.com/dy/article/IJBGS2DO05529KBU.html"
    },
    {
        "title": "一家人住在一楼痛苦万分，无奈之下搬去顶楼，生活却因此得到改善",
        "docid": "IJAQB8PA0535KYBT",
        "url": "https://www.163.com/dy/article/IJAQB8PA0535KYBT.html"
    },
    {
        "title": "抄底抄的掉进了茅坑里！",
        "docid": "IJ9EO92405561A6X",
        "url": "https://www.163.com/dy/article/IJ9EO92405561A6X.html"
    },
    {
        "title": "膨胀的债务与贬值的资产，从万科看房地产的未来。",
        "docid": "IJ8QAQ420553TEQM",
        "url": "https://www.163.com/dy/article/IJ8QAQ420553TEQM.html"
    },
    {
        "title": "老破小二手房值得买吗？",
        "docid": "IJ8QLJC80553RRD3",
        "url": "https://www.163.com/dy/article/IJ8QLJC80553RRD3.html"
    },
    {
        "title": "楼市关键时刻！抓住改善型住房机会，解读未来趋势",
        "docid": "IJ9HK52F055639UA",
        "url": "https://www.163.com/dy/article/IJ9HK52F055639UA.html"
    },
    {
        "title": "现在楼市的风向彻底变了，如今卖房的房主，真是太闹心了",
        "docid": "IFQN6QI705562BBD",
        "url": "https://www.163.com/dy/article/IFQN6QI705562BBD.html"
    },
    {
        "title": "全面救市已开启，房价会和2015年一样暴涨吗？答案也许出乎意料",
        "docid": "IG59IU3505565IF8",
        "url": "https://www.163.com/dy/article/IG59IU3505565IF8.html"
    },
    {
        "title": "比起房子“卖不掉”，更难受的三件事，正在中国各个城市逐步上演",
        "docid": "IEHB890J0543L6WL",
        "url": "https://www.163.com/dy/article/IEHB890J0543L6WL.html"
    },
    {
        "title": "楼市凉了，最急的是谁？网友：最急的是编制内人员！你想不到吧！",
        "docid": "II9NC7P50552NSKR",
        "url": "https://www.163.com/dy/article/II9NC7P50552NSKR.html"
    },
    {
        "title": "房价下跌，有利于大部分人群？还别不信，这3类人不希望房价下跌",
        "docid": "IJBGKE9E05529KBU",
        "url": "https://www.163.com/dy/article/IJBGKE9E05529KBU.html"
    },
    {
        "title": "韭菜割不动了，开始拔韭菜根了！银行和开发商“吃相”实在太难看",
        "docid": "IJ1L5VOE0552C8M0",
        "url": "https://www.163.com/dy/article/IJ1L5VOE0552C8M0.html"
    },
    {
        "title": "发现一个怪象，房价下跌，大家为什么反而不买房了？",
        "docid": "IIKBA8ND05562BBD",
        "url": "https://www.163.com/dy/article/IIKBA8ND05562BBD.html"
    },
    {
        "title": "韭菜割不动了，开始宰羊吃肉了，房地产的新套路！人人需警惕",
        "docid": "IHQQS8UN0540A6F8",
        "url": "https://www.163.com/dy/article/IHQQS8UN0540A6F8.html"
    },
    {
        "title": "中国的房子，恐怕再也不会跌了！住建部长曾经喊话，楼市原形毕露",
        "docid": "II2MNG5P0540A6F8",
        "url": "https://www.163.com/dy/article/II2MNG5P0540A6F8.html"
    },
    {
        "title": "天斩煞，万箭穿心，房子才买了，身边亲朋好友都这么说，不吉利",
        "docid": "IGMQVUNA0533RAUD",
        "url": "https://www.163.com/dy/article/IGMQVUNA0533RAUD.html"
    },
    {
        "title": "房子靠近这3个地方最好不要买，自住不舒适，未来转手也很难",
        "docid": "IJDCFFF50535KYBT",
        "url": "https://www.163.com/dy/article/IJDCFFF50535KYBT.html"
    },
    {
        "title": "奇货可居的越秀，万科瑧系产品满足老城改善多面需求",
        "docid": "IJ6LMHP90535UEYP",
        "url": "https://www.163.com/dy/article/IJ6LMHP90535UEYP.html"
    },
    {
        "title": "突然间，觉得这别墅也不是很香了！都不想继续建了！",
        "docid": "II13ELGC05561J3R",
        "url": "https://www.163.com/dy/article/II13ELGC05561J3R.html"
    },
    {
        "title": "日本房价“崩盘”回忆：当年不急于买房的人，后来过得如何？",
        "docid": "IHPSTVE80552CPHG",
        "url": "https://www.163.com/dy/article/IHPSTVE80552CPHG.html"
    },
    {
        "title": "有一个关于发财很灵的玄学。",
        "docid": "IHDICO9U055616ZA",
        "url": "https://www.163.com/dy/article/IHDICO9U055616ZA.html"
    },
    {
        "title": "现在贱卖房子的人, 究竟是明智还是愚蠢行为! 内行人给出建议!",
        "docid": "IHRGE6VL0553FR7E",
        "url": "https://www.163.com/dy/article/IHRGE6VL0553FR7E.html"
    },
    {
        "title": "买了六次房子，我才明白，中间户比边户好，都是经验教训",
        "docid": "II7JN0C005565SYY",
        "url": "https://www.163.com/dy/article/II7JN0C005565SYY.html"
    },
    {
        "title": "租房15年，房租36万多，准备回老家了！能带走的也就五六个行李箱",
        "docid": "IJCR3QN40532D0CK",
        "url": "https://www.163.com/dy/article/IJCR3QN40532D0CK.html"
    },
    {
        "title": "房企和购房平台”双11“促销依然卖力，但优惠力度明显小了",
        "docid": "IJDQNESP0209992S",
        "url": "https://www.163.com/dy/article/IJDQNESP0209992S.html"
    },
    {
        "title": "买电梯房，记得避开这4楼，内行人：有不少缺点，不要吃亏了",
        "docid": "IJ6MHGEO0540KLAM",
        "url": "https://www.163.com/dy/article/IJ6MHGEO0540KLAM.html"
    },
    {
        "title": "攒了50万元，今明两年应该买房还是存钱？",
        "docid": "IJ3L76CD0553U0MP",
        "url": "https://www.163.com/dy/article/IJ3L76CD0553U0MP.html"
    },
    {
        "title": "中央拟定：2023年宅基地“3不批、4禁止、2不得”，农民要了解！",
        "docid": "IJ1UUV530552NSSC",
        "url": "https://www.163.com/dy/article/IJ1UUV530552NSSC.html"
    },
    {
        "title": "关注老年人需求，武汉征求适老住房建设意见",
        "docid": "IJDTLP53053469LG",
        "url": "https://www.163.com/dy/article/IJDTLP53053469LG.html"
    },
    {
        "title": "苏州“毒地块”持续发酵，小区居民称120万买的房现在85万没人要",
        "docid": "IJCMAUTG0552O6T4",
        "url": "https://www.163.com/dy/article/IJCMAUTG0552O6T4.html"
    },
    {
        "title": "大幅降价是不可能的，房价是楼市最后的体面！",
        "docid": "IJ4IR0DB05529KBU",
        "url": "https://www.163.com/dy/article/IJ4IR0DB05529KBU.html"
    },
    {
        "title": "深度揭秘：房地产中介的“吃人”套路，你被“吃”了吗？",
        "docid": "IJ0U2RR505565ZBT",
        "url": "https://www.163.com/dy/article/IJ0U2RR505565ZBT.html"
    },
    {
        "title": "买房建议：记住“买小、买多、不买低”，跟内行准没错",
        "docid": "IHE0M0EP0540A6F8",
        "url": "https://www.163.com/dy/article/IHE0M0EP0540A6F8.html"
    },
    {
        "title": "湖南：实施购房补贴和契税补贴，鼓励开展商品房现售试点",
        "docid": "IJDR6UUH0209992S",
        "url": "https://www.163.com/dy/article/IJDR6UUH0209992S.html"
    },
    {
        "title": "信达地产：公司对明年房地产市场保持谨慎的乐观",
        "docid": "IJ6QE44J0519D45U",
        "url": "https://www.163.com/dy/article/IJ6QE44J0519D45U.html"
    },
    {
        "title": "明年的房价将迎来翻天覆地的变化！三大现实原因揭秘！",
        "docid": "IJ8UUQ0T0545PEDS",
        "url": "https://www.163.com/dy/article/IJ8UUQ0T0545PEDS.html"
    },
    {
        "title": "从我家租客的身上看，底层要想翻身有多难",
        "docid": "IHNOTEIM0535FFBB",
        "url": "https://www.163.com/dy/article/IHNOTEIM0535FFBB.html"
    },
    {
        "title": "李嘉诚预言说中了！我国手握“两套房”的家庭，或将注定3个结果",
        "docid": "IH1TALMB0552NSON",
        "url": "https://www.163.com/dy/article/IH1TALMB0552NSON.html"
    },
    {
        "title": "【官方网站】郑州华发风景湾-售楼处电话-华发风景湾欢迎您/房价",
        "docid": "IJDRADRT0556672B",
        "url": "https://www.163.com/dy/article/IJDRADRT0556672B.html"
    },
    {
        "title": "坚持不买房的真的都是聪明人，智商情商都非常高，而且还善良",
        "docid": "IJDK7SI30535FFBB",
        "url": "https://www.163.com/dy/article/IJDK7SI30535FFBB.html"
    },
    {
        "title": "更加难熬，高人预测明年十大社会现象！速看做准备",
        "docid": "IJDVV2D60553RRFF",
        "url": "https://www.163.com/dy/article/IJDVV2D60553RRFF.html"
    },
    {
        "title": "这种房子，完全没有流通性",
        "docid": "IJ7FJ05305525O8Q",
        "url": "https://www.163.com/dy/article/IJ7FJ05305525O8Q.html"
    },
    {
        "title": "如果你准备买房，一定要先看看，最好弄明白了，有益无害",
        "docid": "IITEBHIQ05561J3R",
        "url": "https://www.163.com/dy/article/IITEBHIQ05561J3R.html"
    },
    {
        "title": "央行行长谈恒大，以恒大为代表的企业风险显性化并向行业扩散",
        "docid": "IJCQNC1J0553TEV3",
        "url": "https://www.163.com/dy/article/IJCQNC1J0553TEV3.html"
    },
    {
        "title": "别争了！老小区加装电梯，一律按“新规”处置，法院不支持反对者",
        "docid": "IJE0BA290552NSKR",
        "url": "https://www.163.com/dy/article/IJE0BA290552NSKR.html"
    },
    {
        "title": "五年后，中国的房子可能变成这样，难以置信！",
        "docid": "IJAQG0EJ0535KYBT",
        "url": "https://www.163.com/dy/article/IJAQG0EJ0535KYBT.html"
    },
    {
        "title": "杨惠妍出席！碧桂园又有大消息，最新销售数据也来了！",
        "docid": "IJ7CF9E90519D3V1",
        "url": "https://www.163.com/dy/article/IJ7CF9E90519D3V1.html"
    },
    {
        "title": "小区绿化需适量，不需跟公园一样！",
        "docid": "IIVSTI4Q0532D0CK",
        "url": "https://www.163.com/dy/article/IIVSTI4Q0532D0CK.html"
    },
    {
        "title": "我国的房价不会暴跌，这几点很重要！",
        "docid": "IIV52LAU05561BO9",
        "url": "https://www.163.com/dy/article/IIV52LAU05561BO9.html"
    },
    {
        "title": "以后地产很难暴雷了，因为都是国企在玩，左口袋和右口袋的事情",
        "docid": "IGKMO7IF0552ZPC5",
        "url": "https://www.163.com/dy/article/IGKMO7IF0552ZPC5.html"
    },
    {
        "title": "未来5年，这个楼层或成为“黄金楼层”？内行人：住的越久越抢手",
        "docid": "IJCH174T0534M7IC",
        "url": "https://www.163.com/dy/article/IJCH174T0534M7IC.html"
    },
    {
        "title": "深圳、上海多城现新盘“0认筹”，远郊楼盘低价优势几近失效，专家称市场已见底亟待政策刺激",
        "docid": "IJ9G24790531SC48",
        "url": "https://www.163.com/dy/article/IJ9G24790531SC48.html"
    },
    {
        "title": "房价高不可怕，怕的是穷人，用银行的钱，买了别人炒高的房子",
        "docid": "IJ25S6ST05529KBU",
        "url": "https://www.163.com/dy/article/IJ25S6ST05529KBU.html"
    },
    {
        "title": "澳大利亚住房问题加重！单间供应严重不足，租房需求激增",
        "docid": "IJCJJDUS05560ZCW",
        "url": "https://www.163.com/dy/article/IJCJJDUS05560ZCW.html"
    },
    {
        "title": "农村宅基地怎样转让才合法？买私人宅基地能过户吗？",
        "docid": "IHGD93JQ0530ICNH",
        "url": "https://www.163.com/dy/article/IHGD93JQ0530ICNH.html"
    },
    {
        "title": "3女7男蜗居20平米出租屋，睡觉不分你我，房东:他们直播没啥钱",
        "docid": "IID1QSN305560WYI",
        "url": "https://www.163.com/dy/article/IID1QSN305560WYI.html"
    },
    {
        "title": "人住几楼运气更旺？真不是迷信，难怪有钱人都争着买这几层！",
        "docid": "IHPR7MRE0535KYBT",
        "url": "https://www.163.com/dy/article/IHPR7MRE0535KYBT.html"
    },
    {
        "title": "没等来房价的下降，却等来了12%的房产税，和3%的中介费？",
        "docid": "IF07HT0A05563OYC",
        "url": "https://www.163.com/dy/article/IF07HT0A05563OYC.html"
    },
    {
        "title": "这应该是2023年佛山我最期待的项目了",
        "docid": "IJ0VTI5K053571DT",
        "url": "https://www.163.com/dy/article/IJ0VTI5K053571DT.html"
    },
    {
        "title": "房产达人揭示：今年和明年均不可采用现金置业，原因令人心痛！",
        "docid": "IJCJU31N0556601E",
        "url": "https://www.163.com/dy/article/IJCJU31N0556601E.html"
    },
    {
        "title": "城封了，工作停了，收入停了，房贷车贷网贷等却不停，这可咋办？",
        "docid": "IGTIJHRF0552CPHG",
        "url": "https://www.163.com/dy/article/IGTIJHRF0552CPHG.html"
    },
    {
        "title": "买房时，这5个楼层才是真正的“黄金楼层”，住着舒服还升值！",
        "docid": "IHGN2M9N054057BR",
        "url": "https://www.163.com/dy/article/IHGN2M9N054057BR.html"
    },
    {
        "title": "租下别人不住的农民房，花2年时间，改造成别墅花园，太漂亮",
        "docid": "IEURAAB805258H6P",
        "url": "https://www.163.com/dy/article/IEURAAB805258H6P.html"
    },
    {
        "title": "买二手房，为何不能踢开中介和业主交易？原来水太深了",
        "docid": "IGKB7GRQ0540H6M7",
        "url": "https://www.163.com/dy/article/IGKB7GRQ0540H6M7.html"
    },
    {
        "title": "买房为什么不买4、7、14、17楼层？内行：不是迷信，有科学依据",
        "docid": "IGHPR9NH0539IN0B",
        "url": "https://www.163.com/dy/article/IGHPR9NH0539IN0B.html"
    },
    {
        "title": "房改改革：老破小以旧换新，国企接盘，开启新时代",
        "docid": "IJ9NN70405529KBU",
        "url": "https://www.163.com/dy/article/IJ9NN70405529KBU.html"
    },
    {
        "title": "郁亮哪来的信心满满？开发商的逻辑：平均数误区",
        "docid": "IJDO960E05538DP3",
        "url": "https://www.163.com/dy/article/IJDO960E05538DP3.html"
    },
    {
        "title": "房价如果跌回2000元/平方米，买套房子只需要二三十万元，会怎样",
        "docid": "IH1OVR0S05529KBU",
        "url": "https://www.163.com/dy/article/IH1OVR0S05529KBU.html"
    },
    {
        "title": "乡里有房才叫家，城里有房不是家。能修就修能盖就盖不能卖！",
        "docid": "IJ8S34BO0553TEV3",
        "url": "https://www.163.com/dy/article/IJ8S34BO0553TEV3.html"
    },
    {
        "title": "恒大，碧桂园，万科，为啥受伤都是房地产",
        "docid": "IJ9LJGHL0556123R",
        "url": "https://www.163.com/dy/article/IJ9LJGHL0556123R.html"
    },
    {
        "title": "“上复式”和“下复式”真的好吗？很多人都不懂，入住之后才后悔",
        "docid": "IGE1ER4C0535MP84",
        "url": "https://www.163.com/dy/article/IGE1ER4C0535MP84.html"
    },
    {
        "title": "老板：“年轻人不再以劳动为荣”房价决定一切还有必要努力吗？",
        "docid": "IITS1HCT0535MP84",
        "url": "https://www.163.com/dy/article/IITS1HCT0535MP84.html"
    },
    {
        "title": "坏消息！如果买了2000年以前的房子，将不得不面临这5大风险",
        "docid": "IGSN0FRP0520E3F7",
        "url": "https://www.163.com/dy/article/IGSN0FRP0520E3F7.html"
    },
    {
        "title": "王韶：影响房地产市场供求关系发生重大变化的几个因素",
        "docid": "IJCM02970553TEV3",
        "url": "https://www.163.com/dy/article/IJCM02970553TEV3.html"
    },
    {
        "title": "楼市“遮羞布”被揭开，国家连发两道“铁令”，购房者“胜利了”？",
        "docid": "IJ30FC9G0552CPHG",
        "url": "https://www.163.com/dy/article/IJ30FC9G0552CPHG.html"
    },
    {
        "title": "房地产这个趋势，不可能逆转了",
        "docid": "IJB3GG3205158B67",
        "url": "https://www.163.com/dy/article/IJB3GG3205158B67.html"
    },
    {
        "title": "现在的武汉开发商，都是一个套路",
        "docid": "IJE9HG0B0553TEQM",
        "url": "https://www.163.com/dy/article/IJE9HG0B0553TEQM.html"
    },
    {
        "title": "买不买房：一场理智与情感的较量",
        "docid": "IJBDRPL2055668MM",
        "url": "https://www.163.com/dy/article/IJBDRPL2055668MM.html"
    },
    {
        "title": "银行害群众？烂尾楼问题置身事外，购房者自身承担损失。",
        "docid": "IJ0R82DK05562T63",
        "url": "https://www.163.com/dy/article/IJ0R82DK05562T63.html"
    },
    {
        "title": "25万亿公积金，20万亿闲置？！",
        "docid": "IJ7F0A7H0552GHFT",
        "url": "https://www.163.com/dy/article/IJ7F0A7H0552GHFT.html"
    },
    {
        "title": "2023年，社会出现四大怪象，老百姓深受其害！",
        "docid": "IJE58S6N05532FXR",
        "url": "https://www.163.com/dy/article/IJE58S6N05532FXR.html"
    },
    {
        "title": "想买美国中位价住房，你需要年入六位数",
        "docid": "IJAM1M5K0552JRS3",
        "url": "https://www.163.com/dy/article/IJAM1M5K0552JRS3.html"
    },
    {
        "title": "拆迁会重启吗？未来有四类老房子，可能会面临拆迁",
        "docid": "IIT0VF87055654DO",
        "url": "https://www.163.com/dy/article/IIT0VF87055654DO.html"
    },
    {
        "title": "住建部：认房不认贷，降低首付比例和利率等政策实施起到积极效果",
        "docid": "IJBKEFMF05562DLL",
        "url": "https://www.163.com/dy/article/IJBKEFMF05562DLL.html"
    },
    {
        "title": "为何我国不敢降房价？真实原因有4个，听完恍然大悟",
        "docid": "IJ1R1H6S0552C8M0",
        "url": "https://www.163.com/dy/article/IJ1R1H6S0552C8M0.html"
    },
    {
        "title": "买房如何选？内行人说这10点能占4点以上，房子就值得入手！",
        "docid": "IIUSMN5D0520W6PK",
        "url": "https://www.163.com/dy/article/IIUSMN5D0520W6PK.html"
    },
    {
        "title": "自作自受，坑害买房人！陆家嘴大反转",
        "docid": "IJCO6URA05561UAV",
        "url": "https://www.163.com/dy/article/IJCO6URA05561UAV.html"
    },
    {
        "title": "供需变化新形势，居住服务进入“精耕细作”时代",
        "docid": "IJE8EEDK0515B4LR",
        "url": "https://www.163.com/dy/article/IJE8EEDK0515B4LR.html"
    },
    {
        "title": "陆家嘴85亿买毒地被坑?索赔100亿背后,真正受害者恐怕还没有出现",
        "docid": "IJ9KAKLJ055649GX",
        "url": "https://www.163.com/dy/article/IJ9KAKLJ055649GX.html"
    },
    {
        "title": "2023年11月第2周租房价格监测：主要大城市价格平稳",
        "docid": "IJCA7MJ40553CCQD",
        "url": "https://www.163.com/dy/article/IJCA7MJ40553CCQD.html"
    },
    {
        "title": "100亿“毒地案”，谁是凶手？",
        "docid": "IJCCMIUB05158BBS",
        "url": "https://www.163.com/dy/article/IJCCMIUB05158BBS.html"
    },
    {
        "title": "万万没想到，加装电梯成闹剧，我住4楼不想装，一下子捅了马蜂窝",
        "docid": "II9Q4AHB055657EG",
        "url": "https://www.163.com/dy/article/II9Q4AHB055657EG.html"
    },
    {
        "title": "宁可买4楼和14楼，也不要买“3个楼层”，都是过来人的经验，要听",
        "docid": "IJ75K44L0532D0CK",
        "url": "https://www.163.com/dy/article/IJ75K44L0532D0CK.html"
    },
    {
        "title": "劝你早点离开某央企地产！",
        "docid": "IJ4ROLJK0552CAGB",
        "url": "https://www.163.com/dy/article/IJ4ROLJK0552CAGB.html"
    },
    {
        "title": "真实残酷的楼市官方信息是怎样一步步显露的？",
        "docid": "IJ8EC5CA0519WQ7F",
        "url": "https://www.163.com/dy/article/IJ8EC5CA0519WQ7F.html"
    },
    {
        "title": "征地补偿的三个要点，让你拿到更多的补偿款",
        "docid": "IIU6VF6J0535W7UR",
        "url": "https://www.163.com/dy/article/IIU6VF6J0535W7UR.html"
    },
    {
        "title": "345平米带花园的大平层，让人一见倾心",
        "docid": "IJAO8LBI0535KYBM",
        "url": "https://www.163.com/dy/article/IJAO8LBI0535KYBM.html"
    },
    {
        "title": "湾中新城·原墅售楼处（马鞍岛别墅）首页网站丨价格_户型图_电话",
        "docid": "IJCJ0JL1055636TK",
        "url": "https://www.163.com/dy/article/IJCJ0JL1055636TK.html"
    },
    {
        "title": "傻傻分不清的“城中村”！是城？还是村？",
        "docid": "IIT162NN0532Q69P",
        "url": "https://www.163.com/dy/article/IIT162NN0532Q69P.html"
    },
    {
        "title": "楼市开始反转，不敢买房了怎么办？",
        "docid": "IJ9HS5RE05564SJ9",
        "url": "https://www.163.com/dy/article/IJ9HS5RE05564SJ9.html"
    },
    {
        "title": "听说我要买房，爸妈让我写他们的名字，我立马想到了一个原因",
        "docid": "IITSUCE30535KYBT",
        "url": "https://www.163.com/dy/article/IITSUCE30535KYBT.html"
    },
    {
        "title": "房价的2024：未来是商品归商品，保障归保障",
        "docid": "IJBD1CMV0553TDVP",
        "url": "https://www.163.com/dy/article/IJBD1CMV0553TDVP.html"
    },
    {
        "title": "老破小高层，未来该怎么办？",
        "docid": "IIU4A6VN05358KE1",
        "url": "https://www.163.com/dy/article/IIU4A6VN05358KE1.html"
    },
    {
        "title": "城市打拼10年，这套公寓房成幸运集聚之地！没想到却被糟蹋了",
        "docid": "IIVUC4ED05561J3R",
        "url": "https://www.163.com/dy/article/IIVUC4ED05561J3R.html"
    },
    {
        "title": "耐普矿机：1530万元竞得上饶地块，用于二期扩建制造项目",
        "docid": "IJ6O0HI30534A4SC",
        "url": "https://www.163.com/dy/article/IJ6O0HI30534A4SC.html"
    },
    {
        "title": "未来五年内，小产权房会被放开吗？不知道的花点时间看看",
        "docid": "IJEDUGFH0540KLAM",
        "url": "https://www.163.com/dy/article/IJEDUGFH0540KLAM.html"
    },
    {
        "title": "不要急着卖房，买房人注意了，央行行长表态：楼市发展潜力十足！",
        "docid": "IJ6T8EFT05562DLL",
        "url": "https://www.163.com/dy/article/IJ6T8EFT05562DLL.html"
    },
    {
        "title": "2023年，武汉购房者买房的核心逻辑！",
        "docid": "IJEF7UDS05560R20",
        "url": "https://www.163.com/dy/article/IJEF7UDS05560R20.html"
    },
    {
        "title": "只有反向置换中产才能够自救",
        "docid": "IJ9QG00D0553K5ZV",
        "url": "https://www.163.com/dy/article/IJ9QG00D0553K5ZV.html"
    },
    {
        "title": "2023年或是1850年以来最暖一年，气候变暖你会来东北买房子么",
        "docid": "IJB50DVV05562GHX",
        "url": "https://www.163.com/dy/article/IJB50DVV05562GHX.html"
    },
    {
        "title": "首都圈二手公寓价格连续40个月上涨，东京23区房价最便宜的区域是……",
        "docid": "IJBF91Q10517BACO",
        "url": "https://www.163.com/dy/article/IJBF91Q10517BACO.html"
    },
    {
        "title": "为什么一般人不建议住别墅呢？",
        "docid": "IJ1R743305564EO5",
        "url": "https://www.163.com/dy/article/IJ1R743305564EO5.html"
    },
    {
        "title": "李嘉诚在香港有多少间烂尾楼？",
        "docid": "IG4HUQVL05560LLG",
        "url": "https://www.163.com/dy/article/IG4HUQVL05560LLG.html"
    },
    {
        "title": "独家！房贷利好！这个一线城市将房贷期限延长至50年！",
        "docid": "IJ1QEQBQ05561BO9",
        "url": "https://www.163.com/dy/article/IJ1QEQBQ05561BO9.html"
    },
    {
        "title": "后天举世瞩目，影响未来十年走向？",
        "docid": "IJE8ITM50553QMR9",
        "url": "https://www.163.com/dy/article/IJE8ITM50553QMR9.html"
    },
    {
        "title": "马云两大预言，未来房价像葱；第二，事关每个人，值得重视！",
        "docid": "IIVI3F3C05563SS0",
        "url": "https://www.163.com/dy/article/IIVI3F3C05563SS0.html"
    },
    {
        "title": "未来十年，房子终将会，价格回归价值，价值回归地段",
        "docid": "IJ78QLDJ05522OZU",
        "url": "https://www.163.com/dy/article/IJ78QLDJ05522OZU.html"
    },
    {
        "title": "开源证券：推动构建房地产发展新模式，期待市场温和修复",
        "docid": "IJE8IQ9D0553YQBK",
        "url": "https://www.163.com/dy/article/IJE8IQ9D0553YQBK.html"
    },
    {
        "title": "新一轮房改有什么影响？看博众投资陈宗宝在大阳智投APP上怎么说",
        "docid": "IJEB3O8I055660FY",
        "url": "https://www.163.com/dy/article/IJEB3O8I055660FY.html"
    },
    {
        "title": "地产人没有成本思维，会很难混！（资料领取）",
        "docid": "IJ38TN4I05158B67",
        "url": "https://www.163.com/dy/article/IJ38TN4I05158B67.html"
    },
    {
        "title": "国外都没有的公摊面积，居然是中国人发明的，真是害人不浅！",
        "docid": "IJ4732660540H6M7",
        "url": "https://www.163.com/dy/article/IJ4732660540H6M7.html"
    },
    {
        "title": "为什么说千万不要买小三房？小三房是什么意思？不了解会吃亏哦",
        "docid": "IHABOBC60535KYBT",
        "url": "https://www.163.com/dy/article/IHABOBC60535KYBT.html"
    },
    {
        "title": "华润有巢REIT：截至6月末累计进驻15个城市 重点布局北上广深",
        "docid": "IJEBQU6E0519D45U",
        "url": "https://www.163.com/dy/article/IJEBQU6E0519D45U.html"
    },
    {
        "title": "许家印的兄弟，学的可能是李泽楷，利用高科技来包装房地产",
        "docid": "IJ9PS7LA0553HQFQ",
        "url": "https://www.163.com/dy/article/IJ9PS7LA0553HQFQ.html"
    },
    {
        "title": "楼市泡沫哪怕再大，也绝对不会用降房价来调控。",
        "docid": "IJ22G59B0553K5ZV",
        "url": "https://www.163.com/dy/article/IJ22G59B0553K5ZV.html"
    },
    {
        "title": "电梯房已成过去式，中国已迎来第四代住房，以后人人都能买得起！",
        "docid": "IJEDHEQL0540KLAM",
        "url": "https://www.163.com/dy/article/IJEDHEQL0540KLAM.html"
    },
    {
        "title": "又一个亚洲国家，楼市崩了？",
        "docid": "IJE0K65E0553YQBK",
        "url": "https://www.163.com/dy/article/IJE0K65E0553YQBK.html"
    },
    {
        "title": "快醒醒，不要等房价暴跌，住房资产占比59.1%，房价下跌你最害怕",
        "docid": "IJEH9UF905562DLL",
        "url": "https://www.163.com/dy/article/IJEH9UF905562DLL.html"
    },
    {
        "title": "上周新住房成交975套 环比降59.21%",
        "docid": "IJEJ5JGN0550AAMM",
        "url": "https://www.163.com/dy/article/IJEJ5JGN0550AAMM.html"
    },
    {
        "title": "为什么有钱人家都买这种户型了？听内行人一说，才知家里买错了",
        "docid": "IJ7IN5CP05258H6P",
        "url": "https://www.163.com/dy/article/IJ7IN5CP05258H6P.html"
    },
    {
        "title": "业主能否查看他人的表决票？",
        "docid": "IJC7DP7Q0552QWCL",
        "url": "https://www.163.com/dy/article/IJC7DP7Q0552QWCL.html"
    },
    {
        "title": "华润置地前10月合同销售额按年增14.1% 超百亿元上海、西安拿地",
        "docid": "IJE5VSUF05562SCF",
        "url": "https://www.163.com/dy/article/IJE5VSUF05562SCF.html"
    },
    {
        "title": "刘銮雄：并未对许家印生气",
        "docid": "IJDR43E805352LE9",
        "url": "https://www.163.com/dy/article/IJDR43E805352LE9.html"
    },
    {
        "title": "高层发声 史无前例",
        "docid": "IJD89JCN0553TDVP",
        "url": "https://www.163.com/dy/article/IJD89JCN0553TDVP.html"
    },
    {
        "title": "为什么都要回农村建别墅？来看看这30款二层自建房别墅就会想建",
        "docid": "IIV1TH3R0520BKDJ",
        "url": "https://www.163.com/dy/article/IIV1TH3R0520BKDJ.html"
    },
    {
        "title": "假如我再买房子, 绝对不会买大面积了",
        "docid": "IFPE5QT805532577",
        "url": "https://www.163.com/dy/article/IFPE5QT805532577.html"
    },
    {
        "title": "花369万买房，竟要交242万的税？这种房少碰！",
        "docid": "IJ1O77SH0540KLAM",
        "url": "https://www.163.com/dy/article/IJ1O77SH0540KLAM.html"
    },
    {
        "title": "吕传来激进提价，招商玺真假热销之谜",
        "docid": "IJED8TCF055381XS",
        "url": "https://www.163.com/dy/article/IJED8TCF055381XS.html"
    },
    {
        "title": "“光棍”人数越来越多？不出10年，这个东西比金钱更有价值！",
        "docid": "IIJI5HV10535MP84",
        "url": "https://www.163.com/dy/article/IIJI5HV10535MP84.html"
    },
    {
        "title": "官宣！大连、南京，取消限购！",
        "docid": "IJE87HCR0553TEQM",
        "url": "https://www.163.com/dy/article/IJE87HCR0553TEQM.html"
    },
    {
        "title": "武汉、成都楼市新政见效，10月新房、二手房成交量均上涨",
        "docid": "IJEKFB0K0534A4SC",
        "url": "https://www.163.com/dy/article/IJEKFB0K0534A4SC.html"
    },
    {
        "title": "地铁房有什么好？为什么那么多人追捧？",
        "docid": "IIKKECB20535WDMF",
        "url": "https://www.163.com/dy/article/IIKKECB20535WDMF.html"
    },
    {
        "title": "“30年的房贷”真的很可怕吗？答案你知道吗？10年后差别就出来了",
        "docid": "II4KQA05055657EP",
        "url": "https://www.163.com/dy/article/II4KQA05055657EP.html"
    },
    {
        "title": "投资女神说：中国牛市来了，而且分为了四大阶段，别急着卖房！",
        "docid": "IJEGNBIK05562DLL",
        "url": "https://www.163.com/dy/article/IJEGNBIK05562DLL.html"
    },
    {
        "title": "购房攻略：到售楼处买房必看，这5个步骤不能错过，否则别买了！",
        "docid": "IIV1SFEV0515DKDK",
        "url": "https://www.163.com/dy/article/IIV1SFEV0515DKDK.html"
    },
    {
        "title": "提前还房贷最佳的方式是什么？",
        "docid": "IJECSEJR055648K4",
        "url": "https://www.163.com/dy/article/IJECSEJR055648K4.html"
    },
    {
        "title": "旧改被棚改取代，这几类人难开心起来，希望你不在其中！",
        "docid": "IJELV8UG055631CC",
        "url": "https://www.163.com/dy/article/IJELV8UG055631CC.html"
    },
    {
        "title": "看完央行的表态，我更坚定了未来楼市走向的两个预判",
        "docid": "IJEDRLL105529KBU",
        "url": "https://www.163.com/dy/article/IJEDRLL105529KBU.html"
    },
    {
        "title": "卖家接受严峻现实 英国11月房屋要价创5年来最大跌幅",
        "docid": "IJE0V36M05198UNI",
        "url": "https://www.163.com/dy/article/IJE0V36M05198UNI.html"
    },
    {
        "title": "再过十年，国内二三十层的高层住宅，将面临3大困境！",
        "docid": "IJ8IMIRO0553TB8M",
        "url": "https://www.163.com/dy/article/IJ8IMIRO0553TB8M.html"
    },
    {
        "title": "累计超560亿恒大地产再被强制执行8.7亿，有540条被执行",
        "docid": "IJA3QF160553TDXU",
        "url": "https://www.163.com/dy/article/IJA3QF160553TDXU.html"
    },
    {
        "title": "万豪自己做业主，这间W就是全新旗舰！",
        "docid": "IJEJ19TV0545PEDS",
        "url": "https://www.163.com/dy/article/IJEJ19TV0545PEDS.html"
    },
    {
        "title": "买房子千万不要买两个特殊楼层，否则住久了你才会发现是个大坑！",
        "docid": "IF0MU47I0540H6M7",
        "url": "https://www.163.com/dy/article/IF0MU47I0540H6M7.html"
    },
    {
        "title": "“双河十园”天然盛景环伺，璞瑅润府迭新都市生活",
        "docid": "IJ0TJR0F0530OLSK",
        "url": "https://www.163.com/dy/article/IJ0TJR0F0530OLSK.html"
    },
    {
        "title": "二十多年了，我家小区迎来了最靓的仔",
        "docid": "IJBM3P4B0552QWCL",
        "url": "https://www.163.com/dy/article/IJBM3P4B0552QWCL.html"
    },
    {
        "title": "武汉楼市：过去一直想买房，但是一次又一次错过！",
        "docid": "IJENVKEC0556123R",
        "url": "https://www.163.com/dy/article/IJENVKEC0556123R.html"
    },
    {
        "title": "宅基地买卖有苗头! 农民市民均受益, “子买父业”或成新趋势",
        "docid": "IJENMH0L0552ZOIS",
        "url": "https://www.163.com/dy/article/IJENMH0L0552ZOIS.html"
    },
    {
        "title": "从3.5万跌到1.9万，却仍不好卖！网友：真庆幸当时没买到！",
        "docid": "IJEDJG4V0540KLAM",
        "url": "https://www.163.com/dy/article/IJEDJG4V0540KLAM.html"
    },
    {
        "title": "即将面临的四大难题，大家了解多少。",
        "docid": "IJEJEQ9T0545PEDS",
        "url": "https://www.163.com/dy/article/IJEJEQ9T0545PEDS.html"
    },
    {
        "title": "恒大许老板的200个女人，被谁盯上了？",
        "docid": "IH35QRAJ05535ZT1",
        "url": "https://www.163.com/dy/article/IH35QRAJ05535ZT1.html"
    },
    {
        "title": "房屋拆迁同片区同项目不同土地性质可以和国有土地房屋一样补偿吗",
        "docid": "IJEJ7L8F0553TDTY",
        "url": "https://www.163.com/dy/article/IJEJ7L8F0553TDTY.html"
    },
    {
        "title": "我敢说：大众对市场最大的误解就是“房子过剩”",
        "docid": "IJAVRAV70553TDTY",
        "url": "https://www.163.com/dy/article/IJAVRAV70553TDTY.html"
    },
    {
        "title": "改善住宅，大平层和跃层，二选一怎么选？",
        "docid": "IIK795O60535WDMF",
        "url": "https://www.163.com/dy/article/IIK795O60535WDMF.html"
    },
    {
        "title": "小杨哥称本周日搬入亿元购新楼，曾称办公地将成合肥新地标",
        "docid": "IJ72P43Q05129QAF",
        "url": "https://www.163.com/dy/article/IJ72P43Q05129QAF.html"
    },
    {
        "title": "A股公司出手！买11套叠拼别墅当员工宿舍",
        "docid": "IJ8UJMMM0519D3V1",
        "url": "https://www.163.com/dy/article/IJ8UJMMM0519D3V1.html"
    },
    {
        "title": "荣耀时刻丨国贸地产斩获“2023 中国房地产企业最佳雇主品牌”等多项殊荣",
        "docid": "IJEMAP5K0549RI77",
        "url": "https://www.163.com/dy/article/IJEMAP5K0549RI77.html"
    },
    {
        "title": "住建部部长回应楼市政策效果，并为房地产定调，传递了3大信号",
        "docid": "IJELD2DT05158I5P",
        "url": "https://www.163.com/dy/article/IJELD2DT05158I5P.html"
    },
    {
        "title": "降价出售？房龄20年以上的老房子，千万别卖！这三类人将受益！",
        "docid": "IJE59QIQ0530ICNH",
        "url": "https://www.163.com/dy/article/IJE59QIQ0530ICNH.html"
    },
    {
        "title": "2022年全国购买力排名！",
        "docid": "IJBDR7AU0546N0CO",
        "url": "https://www.163.com/dy/article/IJBDR7AU0546N0CO.html"
    },
    {
        "title": "你听说过有钱人抢着买一楼的房子吗？有钱人都这么选，聪明！",
        "docid": "IJ40QKQG0540H6M7",
        "url": "https://www.163.com/dy/article/IJ40QKQG0540H6M7.html"
    },
    {
        "title": "许家印留下的“烂尾楼”教训深刻！孙玉良：亡羊补牢，取消预售制",
        "docid": "IG7CS0AL055620P1",
        "url": "https://www.163.com/dy/article/IG7CS0AL055620P1.html"
    },
    {
        "title": "为什么上海卖房套现出国的人，要比北京卖房套现出国的人多？",
        "docid": "IJ429C170535JMSP",
        "url": "https://www.163.com/dy/article/IJ429C170535JMSP.html"
    },
    {
        "title": "世纪前滩天汇疯了？收官之作「世纪前滩天汇」不要积分啦？认购中",
        "docid": "IJC8716Q055643J6",
        "url": "https://www.163.com/dy/article/IJC8716Q055643J6.html"
    },
    {
        "title": "农村四合院：将来会越来越多的原因是什么？",
        "docid": "IHUGLU1T0532D0CK",
        "url": "https://www.163.com/dy/article/IHUGLU1T0532D0CK.html"
    },
    {
        "title": "“共享住房”来啦！没有买房的恭喜了！在这6个城市开始试点",
        "docid": "IJEDSI3U0540KLAM",
        "url": "https://www.163.com/dy/article/IJEDSI3U0540KLAM.html"
    },
    {
        "title": "武汉最大的室内商业综合体，总投资超120亿，被称沉浸式度假乐园",
        "docid": "IJEQFUNB0553RRD3",
        "url": "https://www.163.com/dy/article/IJEQFUNB0553RRD3.html"
    },
    {
        "title": "黄埔雅苑低于指导价148三房",
        "docid": "IJENQIU30549RI77",
        "url": "https://www.163.com/dy/article/IJENQIU30549RI77.html"
    },
    {
        "title": "李亚鹏终于成功！5千万买地现涨到10亿，嚣张放话：我压根不缺钱",
        "docid": "IJEF94KU055619J5",
        "url": "https://www.163.com/dy/article/IJEF94KU055619J5.html"
    },
    {
        "title": "房地产市场会崩盘吗？房价如果回到几百块钱一平，你会买几套呢？",
        "docid": "IJEQFN310552ZPBY",
        "url": "https://www.163.com/dy/article/IJEQFN310552ZPBY.html"
    },
    {
        "title": "网上的臆想都是假的，真实的豪宅业主群是这样的",
        "docid": "IJ31FJRJ0535MP84",
        "url": "https://www.163.com/dy/article/IJ31FJRJ0535MP84.html"
    },
    {
        "title": "东莞今年好多大厂沒什么订单了，小厂倒了好多。",
        "docid": "IJEMHNP90552QWCS",
        "url": "https://www.163.com/dy/article/IJEMHNP90552QWCS.html"
    },
    {
        "title": "要做好“潮水退去”的准备了？内行人：今明两年最好抛掉这些东西",
        "docid": "IJEHV2MP0543LPXM",
        "url": "https://www.163.com/dy/article/IJEHV2MP0543LPXM.html"
    },
    {
        "title": "上海、深圳、北京等地房价下跌，连带着二线城市的房价也给打下来",
        "docid": "IJEISHE90535JMSP",
        "url": "https://www.163.com/dy/article/IJEISHE90535JMSP.html"
    },
    {
        "title": "字节员工，35 岁， 200w 存款，北京乌鲁木齐各一套房，无房贷",
        "docid": "IJE89UGL0553TB9L",
        "url": "https://www.163.com/dy/article/IJE89UGL0553TB9L.html"
    },
    {
        "title": "关于苏钢百亿“毒地”事件 三方最新表态",
        "docid": "IJDR127705352LE9",
        "url": "https://www.163.com/dy/article/IJDR127705352LE9.html"
    },
    {
        "title": "常见的二手房买卖纠纷及应对策略（后附二手房交易流程）",
        "docid": "IJA4JQJL0553TDXU",
        "url": "https://www.163.com/dy/article/IJA4JQJL0553TDXU.html"
    },
    {
        "title": "“美联信心指数”连跌两周 刘嘉辉：原因系部份急于沽货业主减价 减价盘增加",
        "docid": "IJEE9PNE05198UNI",
        "url": "https://www.163.com/dy/article/IJEE9PNE05198UNI.html"
    },
    {
        "title": "金融保卫战：中国房企如何应对外资做空？",
        "docid": "IJ9HJCQQ055639UA",
        "url": "https://www.163.com/dy/article/IJ9HJCQQ055639UA.html"
    },
    {
        "title": "小区加装电梯都可能会面临哪些问题呢？要不要安装？你们怎么说？",
        "docid": "IJDMOPDD055663P3",
        "url": "https://www.163.com/dy/article/IJDMOPDD055663P3.html"
    },
    {
        "title": "没想到楼市真的要凉了，房价恐怕还得跌！没买房的，能攥紧荷包吗",
        "docid": "IJ4EJMD505563OYC",
        "url": "https://www.163.com/dy/article/IJ4EJMD505563OYC.html"
    },
    {
        "title": "武汉楼市：分化加剧，这些区域购买力强！",
        "docid": "IJ93MJMC05560R20",
        "url": "https://www.163.com/dy/article/IJ93MJMC05560R20.html"
    },
    {
        "title": "国资委“撑腰”万科，经济学家马光远：很好的典范",
        "docid": "IJEI4J3I05199FB7",
        "url": "https://www.163.com/dy/article/IJEI4J3I05199FB7.html"
    },
    {
        "title": "现在“卖房”和“买房”的人, 5年后谁会后悔! 3个现象给出答案",
        "docid": "IIAR8C7R055322E3",
        "url": "https://www.163.com/dy/article/IIAR8C7R055322E3.html"
    },
    {
        "title": "如果必须买房，请避开最容易暴雷的5类房企！",
        "docid": "IJ43P7990535KAWB",
        "url": "https://www.163.com/dy/article/IJ43P7990535KAWB.html"
    },
    {
        "title": "买二手房需要注意的几个大坑",
        "docid": "IISUATO00552ZMYZ",
        "url": "https://www.163.com/dy/article/IISUATO00552ZMYZ.html"
    },
    {
        "title": "震惊，四部委开融资会，六家房企会成功上岸吗？别再等房价暴跌！",
        "docid": "IJEC05U505562DLL",
        "url": "https://www.163.com/dy/article/IJEC05U505562DLL.html"
    },
    {
        "title": "这次降价卖房，轮到深圳了！其他城市还会远吗？",
        "docid": "IJESSKKL0535MR82",
        "url": "https://www.163.com/dy/article/IJESSKKL0535MR82.html"
    },
    {
        "title": "央行：提升房贷利率市场化程度，更好支持刚性和改善性住房需求！",
        "docid": "IJ8VT10905562DLL",
        "url": "https://www.163.com/dy/article/IJ8VT10905562DLL.html"
    },
    {
        "title": "11月11日营销中心开放！保利虹桥和颂预计11月下旬取证！",
        "docid": "IJ3FSI1O055643J6",
        "url": "https://www.163.com/dy/article/IJ3FSI1O055643J6.html"
    },
    {
        "title": "未来房产还有投资机会吗？一篇文章告知",
        "docid": "IJ0OF1JD0535PKJN",
        "url": "https://www.163.com/dy/article/IJ0OF1JD0535PKJN.html"
    },
    {
        "title": "住建部长央行行长发声，房地产5年趋势已定，2024年楼市超乎想象",
        "docid": "IJE5ES4A0531L1NE",
        "url": "https://www.163.com/dy/article/IJE5ES4A0531L1NE.html"
    },
    {
        "title": "【楼评】姚员外声音总是那么特别！",
        "docid": "IJCOKH1G0539RYJ0",
        "url": "https://www.163.com/dy/article/IJCOKH1G0539RYJ0.html"
    },
    {
        "title": "热问｜租赁合同解除时，装修物如何处理？",
        "docid": "IJ9ABNVU0512D3VJ",
        "url": "https://www.163.com/dy/article/IJ9ABNVU0512D3VJ.html"
    },
    {
        "title": "10月澳洲租房空置率再创新低，悉尼多地99%贷款买房家庭揭不开锅，昆州受加息打击最大的家庭实惨曝光！",
        "docid": "IJD64U4405199N88",
        "url": "https://www.163.com/dy/article/IJD64U4405199N88.html"
    },
    {
        "title": "未来20年，高层住宅将沦为“贫民窟”？5大缺陷，的确让人难接受",
        "docid": "IJ0SJ22G053312Y9",
        "url": "https://www.163.com/dy/article/IJ0SJ22G053312Y9.html"
    },
    {
        "title": "武汉楼市：2023，主流产品，将会诞生在这些区域！",
        "docid": "IJEF9CKE05560R20",
        "url": "https://www.163.com/dy/article/IJEF9CKE05560R20.html"
    },
    {
        "title": "限墅令取消，重庆假别墅的噩梦要来了！",
        "docid": "IJDVUP7D0535S45F",
        "url": "https://www.163.com/dy/article/IJDVUP7D0535S45F.html"
    },
    {
        "title": "洋房不止诗和远方,更有人居幸福答案",
        "docid": "IJEUAAJ205159QOV",
        "url": "https://www.163.com/dy/article/IJEUAAJ205159QOV.html"
    },
    {
        "title": "如何判断，手上的房子该不该卖 | 房叔问答No.245",
        "docid": "IJET6E6G0553RRD3",
        "url": "https://www.163.com/dy/article/IJET6E6G0553RRD3.html"
    },
    {
        "title": "购房人自述：终于卖掉了，中央公园一环的房子，亏了40多万",
        "docid": "IJEBN3MC05562DLL",
        "url": "https://www.163.com/dy/article/IJEBN3MC05562DLL.html"
    },
    {
        "title": "中信证券 ：我国机构化运营租赁住房程度还不普遍",
        "docid": "IJE9P6L10539AP40",
        "url": "https://www.163.com/dy/article/IJE9P6L10539AP40.html"
    },
    {
        "title": "国金证券：城中村改造是房地产行业明确支撑",
        "docid": "IJEC4F6F0553YQBK",
        "url": "https://www.163.com/dy/article/IJEC4F6F0553YQBK.html"
    },
    {
        "title": "房子千万不要买一套!买房观念误区解读",
        "docid": "IJ5JUNBG0535MP84",
        "url": "https://www.163.com/dy/article/IJ5JUNBG0535MP84.html"
    },
    {
        "title": "表现似乎并不如预期，留给空间会越来越少，方直珑樾山",
        "docid": "IJ96JHB4055667UK",
        "url": "https://www.163.com/dy/article/IJ96JHB4055667UK.html"
    },
    {
        "title": "房产买卖委托公证怎么办理",
        "docid": "IJ4AS8S205565WA8",
        "url": "https://www.163.com/dy/article/IJ4AS8S205565WA8.html"
    },
    {
        "title": "售约225万！东京港区1LDK新装修公寓，山手线田町站720米，近庆应大学，可养宠物！",
        "docid": "IJER8E4605359JWY",
        "url": "https://www.163.com/dy/article/IJER8E4605359JWY.html"
    },
    {
        "title": "谁是最大赢家？预制板楼拆迁搅动人心！",
        "docid": "IJETPTTJ0553TB8M",
        "url": "https://www.163.com/dy/article/IJETPTTJ0553TB8M.html"
    },
    {
        "title": "无需再争了！两部门透露老小区加装电梯“方案”，基本都照顾到了",
        "docid": "IJES8LL705359WBS",
        "url": "https://www.163.com/dy/article/IJES8LL705359WBS.html"
    },
    {
        "title": "选“楼层”时，买单还是买双？还好退休物业提醒，差点就买错",
        "docid": "IJELO1U605258H6P",
        "url": "https://www.163.com/dy/article/IJELO1U605258H6P.html"
    },
    {
        "title": "开始做园林了...恒大想赶在年底先交一栋，能做到吗？",
        "docid": "IJERMKOE0535J1AM",
        "url": "https://www.163.com/dy/article/IJERMKOE0535J1AM.html"
    },
    {
        "title": "比房产证还重要的“4个证件”，丢失后无法补办！还请慎重",
        "docid": "IJ6MGKMO0552C8M0",
        "url": "https://www.163.com/dy/article/IJ6MGKMO0552C8M0.html"
    },
    {
        "title": "现在的房子都是这么卖的，跟诈骗没区别了",
        "docid": "IHPRT86O0535MP84",
        "url": "https://www.163.com/dy/article/IHPRT86O0535MP84.html"
    },
    {
        "title": "注意了，手里有“两套房”的家庭，或将面临3个“怪相”，是啥？",
        "docid": "IGJSO0Q60552LSYM",
        "url": "https://www.163.com/dy/article/IGJSO0Q60552LSYM.html"
    },
    {
        "title": "2023年，产品都卷到天花板了！",
        "docid": "IJ6VAHR805564SJ9",
        "url": "https://www.163.com/dy/article/IJ6VAHR805564SJ9.html"
    },
    {
        "title": "今明两年不买房，5年后是买不起，还是随便挑？现在有了答案",
        "docid": "IGF7MEKH0543L6XD",
        "url": "https://www.163.com/dy/article/IGF7MEKH0543L6XD.html"
    },
    {
        "title": "瀚海周报|豪宅更好卖！别墅成交率、成交折扣均领先住宅和商办！",
        "docid": "IJF1605J0552F71X",
        "url": "https://www.163.com/dy/article/IJF1605J0552F71X.html"
    },
    {
        "title": "专家称：稀缺、不可复制，才是商品房长期看涨的核心",
        "docid": "IJETSGDH0553RRD3",
        "url": "https://www.163.com/dy/article/IJETSGDH0553RRD3.html"
    },
    {
        "title": "听到一些消息，老破小的解决方案出来了，房价要稳了",
        "docid": "IJEIL14U0535JMSP",
        "url": "https://www.163.com/dy/article/IJEIL14U0535JMSP.html"
    },
    {
        "title": "我与万科面试的一点小故事",
        "docid": "IJF2AGA70539KTO0",
        "url": "https://www.163.com/dy/article/IJF2AGA70539KTO0.html"
    },
    {
        "title": "太惊喜！人才吸引力城市100强，重庆掉队，但不要轻易降价卖房！",
        "docid": "IJ8PFHGD05562DLL",
        "url": "https://www.163.com/dy/article/IJ8PFHGD05562DLL.html"
    },
    {
        "title": "中西部新开盘谍报：开盘数量较上月减少，整体去化效果较差",
        "docid": "IJAUE0NH05159A0N",
        "url": "https://www.163.com/dy/article/IJAUE0NH05159A0N.html"
    },
    {
        "title": "房企融资渠道逐渐转向境内 国际评级“无差别下调”影响趋小",
        "docid": "IJEJEPD00550WHYR",
        "url": "https://www.163.com/dy/article/IJEJEPD00550WHYR.html"
    },
    {
        "title": "这个热门板块，又要大杀四方了！——中企云萃森林",
        "docid": "IJF2S0TP055643J6",
        "url": "https://www.163.com/dy/article/IJF2S0TP055643J6.html"
    },
    {
        "title": "买房送金条！加拿大开发商为了卖掉房子真是下血本",
        "docid": "IJEU72IF0552QDEA",
        "url": "https://www.163.com/dy/article/IJEU72IF0552QDEA.html"
    },
    {
        "title": "房子真的很难卖了！",
        "docid": "IG00K5K405563MOV",
        "url": "https://www.163.com/dy/article/IG00K5K405563MOV.html"
    },
    {
        "title": "$500万加币在温哥华算不算富裕？网友议论纷纷！",
        "docid": "IJEV0LEJ0553RRD3",
        "url": "https://www.163.com/dy/article/IJEV0LEJ0553RRD3.html"
    },
    {
        "title": "一二线城市如果出现“新房荒”，新房一房难求，是好事还是坏事？",
        "docid": "IIES5SP60535WDMF",
        "url": "https://www.163.com/dy/article/IIES5SP60535WDMF.html"
    },
    {
        "title": "群租房里面开了一间烧饼铺，让我吃惊的不是他的烧饼，是他的脑洞",
        "docid": "IJ79BEMN0552QWCE",
        "url": "https://www.163.com/dy/article/IJ79BEMN0552QWCE.html"
    },
    {
        "title": "万佳物业任命杨海霞为副总经理、董事会秘书",
        "docid": "IJEMHF9N0553YQBD",
        "url": "https://www.163.com/dy/article/IJEMHF9N0553YQBD.html"
    },
    {
        "title": "8年前从银行辞职的我，靠研究日本房产投资登上《福布斯》",
        "docid": "IJ78UVK305359JWY",
        "url": "https://www.163.com/dy/article/IJ78UVK305359JWY.html"
    },
    {
        "title": "为什么不建议买“靠边”户型？开发商说出实情，恍然大悟",
        "docid": "IJEK7ROJ055662TY",
        "url": "https://www.163.com/dy/article/IJEK7ROJ055662TY.html"
    },
    {
        "title": "买房时要记住七字真言：买中，买边，不买三，很难买到差房子",
        "docid": "IFJIQNAP0539IN0B",
        "url": "https://www.163.com/dy/article/IFJIQNAP0539IN0B.html"
    },
    {
        "title": "房改提议：保障房建设是否能实现共同富裕？",
        "docid": "IJEV9J6E05564SFO",
        "url": "https://www.163.com/dy/article/IJEV9J6E05564SFO.html"
    },
    {
        "title": "日本房产价格不仅取决于眼下的供求关系",
        "docid": "IJAB82KJ0552F71X",
        "url": "https://www.163.com/dy/article/IJAB82KJ0552F71X.html"
    },
    {
        "title": "建业员工自爆：未付工资抵成房子，并且额外优惠3个点，允许更名",
        "docid": "IJCRG8NC0525A5GL",
        "url": "https://www.163.com/dy/article/IJCRG8NC0525A5GL.html"
    },
    {
        "title": "东西湖 | 百花苑一期还建房项目公示",
        "docid": "IJF612OS0534SV3Y",
        "url": "https://www.163.com/dy/article/IJF612OS0534SV3Y.html"
    },
    {
        "title": "福星股份 ：募投项目红桥城K6项目目前已预售86%",
        "docid": "IJF3TVBU0539AP40",
        "url": "https://www.163.com/dy/article/IJF3TVBU0539AP40.html"
    },
    {
        "title": "大动作！千万别降价卖房，鼓励企业团购商品房，解决职工住房问题",
        "docid": "IJBNHING05562DLL",
        "url": "https://www.163.com/dy/article/IJBNHING05562DLL.html"
    },
    {
        "title": "中介快要饿死了，为什么价格下来了反而没人买？",
        "docid": "IF8IC1JN05529KBU",
        "url": "https://www.163.com/dy/article/IF8IC1JN05529KBU.html"
    },
    {
        "title": "住建部部长倪虹：构建房地产发展新模式，推动房地产高质量发展！",
        "docid": "IJBLJL8I05562DLL",
        "url": "https://www.163.com/dy/article/IJBLJL8I05562DLL.html"
    },
    {
        "title": "现在的房地产市场，有的地方有价无市，二手房价格更惨",
        "docid": "IJ8OC1G90514A03Q",
        "url": "https://www.163.com/dy/article/IJ8OC1G90514A03Q.html"
    },
    {
        "title": "曾宇：重视住宅高质量发展，老百姓说好才是真的“好房子”",
        "docid": "IJDR4TSG05352LE9",
        "url": "https://www.163.com/dy/article/IJDR4TSG05352LE9.html"
    },
    {
        "title": "有钱人不会买的10种房子。你细品。",
        "docid": "IHAMJ2U30552TX2K",
        "url": "https://www.163.com/dy/article/IHAMJ2U30552TX2K.html"
    },
    {
        "title": "为什么有人偷偷购老旧小区顶楼？原来背后隐藏着这么多的猫腻！",
        "docid": "IJ91ARKR05565F0H",
        "url": "https://www.163.com/dy/article/IJ91ARKR05565F0H.html"
    },
    {
        "title": "什么户型买到就升值？开发商透露有这8大优势的房子卖得最火爆！",
        "docid": "IIFK8H5T0535AGF9",
        "url": "https://www.163.com/dy/article/IIFK8H5T0535AGF9.html"
    },
    {
        "title": "大量二手房挂牌出售！房价下跌趋势明显......",
        "docid": "IJAO457L0535KYBT",
        "url": "https://www.163.com/dy/article/IJAO457L0535KYBT.html"
    },
    {
        "title": "土地征收的权利主体是谁？你需要知道这些常识",
        "docid": "IJETM53G0532Q69P",
        "url": "https://www.163.com/dy/article/IJETM53G0532Q69P.html"
    },
    {
        "title": "房子太多了，炒房客不疯抢，百城库存达4.91亿㎡，房价还怎么涨？",
        "docid": "IJ5IOHKQ0535MP84",
        "url": "https://www.163.com/dy/article/IJ5IOHKQ0535MP84.html"
    },
    {
        "title": "纯干货！买房小白必看的5点注意事项，不看你会吃大亏！",
        "docid": "IIV454ME0540H6M7",
        "url": "https://www.163.com/dy/article/IIV454ME0540H6M7.html"
    },
    {
        "title": "耗时3年在老家建个房，让我发现，农村的房子真不是有钱就能建的",
        "docid": "IJ6TV1QR0552LOP0",
        "url": "https://www.163.com/dy/article/IJ6TV1QR0552LOP0.html"
    },
    {
        "title": "警惕！潜伏在社交圈的中介们",
        "docid": "IJ0OFTI70552HI5G",
        "url": "https://www.163.com/dy/article/IJ0OFTI70552HI5G.html"
    },
    {
        "title": "2023年1-10月，龙湖经营性收入超224亿元",
        "docid": "IJESCI4M055381XS",
        "url": "https://www.163.com/dy/article/IJESCI4M055381XS.html"
    },
    {
        "title": "新地天水围「YOHO WEST」首批价单料推约280伙",
        "docid": "IJDUKA9U0519D45U",
        "url": "https://www.163.com/dy/article/IJDUKA9U0519D45U.html"
    },
    {
        "title": "专家分析：这类房子适合自住，但投资千万别碰",
        "docid": "IJCGL5A30552Q0TF",
        "url": "https://www.163.com/dy/article/IJCGL5A30552Q0TF.html"
    },
    {
        "title": "抖音卖房，把我卷焦虑了",
        "docid": "IJ5S8PVF05158B67",
        "url": "https://www.163.com/dy/article/IJ5S8PVF05158B67.html"
    }
]