[
    {
        "title": "【维•关注】奥地利租金成本再次大幅上涨",
        "docid": "IMBP7GRS0514BTOD",
        "url": "https://www.163.com/dy/article/IMBP7GRS0514BTOD.html"
    },
    {
        "title": "怪了！普通人坐等房子再降价，内行人称：再降下去，你没买的机会",
        "docid": "ILUCH3R40552F71X",
        "url": "https://www.163.com/dy/article/ILUCH3R40552F71X.html"
    },
    {
        "title": "汉口二七滨江旁！新房单套总价180万起！",
        "docid": "IMB307790553RRD3",
        "url": "https://www.163.com/dy/article/IMB307790553RRD3.html"
    },
    {
        "title": "互联网大厂公积金缴纳比例",
        "docid": "IM8H55R105563SS0",
        "url": "https://www.163.com/dy/article/IM8H55R105563SS0.html"
    },
    {
        "title": "二七滨江奢装准现大平层，礼献千万人物",
        "docid": "IM87MRVD020998HG",
        "url": "https://www.163.com/dy/article/IM87MRVD020998HG.html"
    },
    {
        "title": "武汉经开区纱帽街多个老旧小区改造升级，居民安居更乐居",
        "docid": "IMBDR88D053469LG",
        "url": "https://www.163.com/dy/article/IMBDR88D053469LG.html"
    },
    {
        "title": "21日12宗地挂牌出让 起拍总价超过191亿元",
        "docid": "IMB9ANJ50550AAMM",
        "url": "https://www.163.com/dy/article/IMB9ANJ50550AAMM.html"
    },
    {
        "title": "一线城市调整优化楼市调控政策，已有18个城市取消土地限价",
        "docid": "IM98VUKF0552EBHZ",
        "url": "https://www.163.com/dy/article/IM98VUKF0552EBHZ.html"
    },
    {
        "title": "楼市这步大棋，很多人没看懂？内行：建议普通人要提前做两个准备",
        "docid": "IM9A8HJJ0519GBC0",
        "url": "https://www.163.com/dy/article/IM9A8HJJ0519GBC0.html"
    },
    {
        "title": "不降房价就能激活楼市，办法终于找到了，就两点！",
        "docid": "IMC28SL105563TCH",
        "url": "https://www.163.com/dy/article/IMC28SL105563TCH.html"
    },
    {
        "title": "部队官兵享受住房公积金待遇吗？怎么查询自己的住房公积金余额？",
        "docid": "ILS9KMVQ05413PPF",
        "url": "https://www.163.com/dy/article/ILS9KMVQ05413PPF.html"
    },
    {
        "title": "人民币迎来好消息！家里有房有车的，千万别错过&amp;",
        "docid": "IMBCKGGH0553TB8M",
        "url": "https://www.163.com/dy/article/IMBCKGGH0553TB8M.html"
    },
    {
        "title": "武昌湾这宗地块出让时间再次延期！",
        "docid": "IMC2C80I0534SV3Y",
        "url": "https://www.163.com/dy/article/IMC2C80I0534SV3Y.html"
    },
    {
        "title": "二七滨江奢装准现大平层，礼献千万人物",
        "docid": "IM87MRVD020998HG",
        "url": "https://www.163.com/dy/article/IM87MRVD020998HG.html"
    },
    {
        "title": "农村没房子不能分户吗？申请宅基地需要分户吗？赶快来看看吧！",
        "docid": "IM97VA08055638FO",
        "url": "https://www.163.com/dy/article/IM97VA08055638FO.html"
    },
    {
        "title": "一线城市购房政策研究报告",
        "docid": "IMC0A80U0535A6CE",
        "url": "https://www.163.com/dy/article/IMC0A80U0535A6CE.html"
    },
    {
        "title": "碧桂园服务减值巨震 仍未看到隧道尽头的亮光",
        "docid": "IMC214D00519D45U",
        "url": "https://www.163.com/dy/article/IMC214D00519D45U.html"
    },
    {
        "title": "快看！金融机构打算大力支持“三大工程”",
        "docid": "IMC2NH6D0519JBB6",
        "url": "https://www.163.com/dy/article/IMC2NH6D0519JBB6.html"
    },
    {
        "title": "为买房掏光荷包，澳年轻夫妻沦房奴！每日通勤达3小时肠子都悔青",
        "docid": "IM9D8L8O05565ANO",
        "url": "https://www.163.com/dy/article/IM9D8L8O05565ANO.html"
    },
    {
        "title": "数据历史新低！2023德国房地产市场报告出炉，“短期内情况不会变得更好”",
        "docid": "IMC3UU9I0514BIIR",
        "url": "https://www.163.com/dy/article/IMC3UU9I0514BIIR.html"
    },
    {
        "title": "不可思议! 年初急着降价卖房的人, 如今居然不急了, 甚至想要涨价",
        "docid": "IMC3C7U00552ZCEN",
        "url": "https://www.163.com/dy/article/IMC3C7U00552ZCEN.html"
    },
    {
        "title": "三年疫情过后，美国流浪者数量急增",
        "docid": "IM9D2GIG05565ANI",
        "url": "https://www.163.com/dy/article/IM9D2GIG05565ANI.html"
    },
    {
        "title": "二七滨江奢装准现大平层，礼献千万人物",
        "docid": "IM87MRVD020998HG",
        "url": "https://www.163.com/dy/article/IM87MRVD020998HG.html"
    },
    {
        "title": "在西部看了一年房子.就这个房子没看的.算是一年白看了，这个房子要放在东部.简直就是降维打击！",
        "docid": "VGLE9T02L",
        "url": "https://www.163.com/dy/article/VGLE9T02L.html"
    },
    {
        "title": "现在的情况就是：不买房后悔一时，买了房后悔一世",
        "docid": "VQL19QKL2",
        "url": "https://www.163.com/dy/article/VQL19QKL2.html"
    },
    {
        "title": "买房那些事 一个敢说真话的房产 说真话 房地产 嘉兴房产",
        "docid": "VGL11NE49",
        "url": "https://www.163.com/dy/article/VGL11NE49.html"
    },
    {
        "title": "群力 盛和世纪 洋房楼王.一楼花园带地下.认赔了",
        "docid": "VWLDSE8PL",
        "url": "https://www.163.com/dy/article/VWLDSE8PL.html"
    },
    {
        "title": "买房是买一套140平，还是买两套70平？听过来人说完，不犹豫",
        "docid": "ILSE6HIF05258H6P",
        "url": "https://www.163.com/dy/article/ILSE6HIF05258H6P.html"
    },
    {
        "title": "房地产不兴，百业难兴！",
        "docid": "IMC4EEBF0553TEV3",
        "url": "https://www.163.com/dy/article/IMC4EEBF0553TEV3.html"
    },
    {
        "title": "东京目黑区双面采光公寓，山手线目黑站800米，目黑川赏樱道旁，售约61万！",
        "docid": "ILUMHTA505359JWY",
        "url": "https://www.163.com/dy/article/ILUMHTA505359JWY.html"
    },
    {
        "title": "房子租不出去别着急，不如往民宿的方向试一试",
        "docid": "VRL0UQO62",
        "url": "https://www.163.com/dy/article/VRL0UQO62.html"
    },
    {
        "title": "二七滨江奢装准现大平层，礼献千万人物",
        "docid": "IM87MRVD020998HG",
        "url": "https://www.163.com/dy/article/IM87MRVD020998HG.html"
    },
    {
        "title": "靠印钱稀释债务，最后收割的到底是谁？",
        "docid": "VFL0G3LDG",
        "url": "https://www.163.com/dy/article/VFL0G3LDG.html"
    },
    {
        "title": "史上最牛的大门，见门不见房，就一个大门收割了多少人，业主直呼 我的房呢？",
        "docid": "VRLE0Q3GK",
        "url": "https://www.163.com/dy/article/VRLE0Q3GK.html"
    },
    {
        "title": "秋天妈妈要是回南京，阿福也打算把房子退了， 出发去南京",
        "docid": "VZLECH8A4",
        "url": "https://www.163.com/dy/article/VZLECH8A4.html"
    },
    {
        "title": "为了把800万房产过户给儿子 公公竟娶了儿媳妇？",
        "docid": "VTLB2CNVB",
        "url": "https://www.163.com/dy/article/VTLB2CNVB.html"
    },
    {
        "title": "人民币升值，房地产市场动荡！普通人看准“这一苗头”，好吃利！",
        "docid": "IMC2LS5L055631OT",
        "url": "https://www.163.com/dy/article/IMC2LS5L055631OT.html"
    },
    {
        "title": "高层住宅正在危害我们的健康！您敢相信吗？",
        "docid": "VQLEA0G64",
        "url": "https://www.163.com/dy/article/VQLEA0G64.html"
    },
    {
        "title": "现在比房价暴跌更可怕的事情来了",
        "docid": "VGLEBRBN9",
        "url": "https://www.163.com/dy/article/VGLEBRBN9.html"
    },
    {
        "title": "这样的户型，买时给100分，装修时恨不得给0分！买房真不能无脑冲",
        "docid": "VBKUH14LC",
        "url": "https://www.163.com/dy/article/VBKUH14LC.html"
    },
    {
        "title": "二七滨江奢装准现大平层，礼献千万人物",
        "docid": "IM87MRVD020998HG",
        "url": "https://www.163.com/dy/article/IM87MRVD020998HG.html"
    },
    {
        "title": "北方相邻小区房价互撕95万变40万，房主贪心惹来倾家荡产",
        "docid": "VZLECI885",
        "url": "https://www.163.com/dy/article/VZLECI885.html"
    },
    {
        "title": "揭秘许家印欧洲40亿的豪宅，遍地都是黄金装修，房主下场都不咋好",
        "docid": "VDLCKUO6J",
        "url": "https://www.163.com/dy/article/VDLCKUO6J.html"
    },
    {
        "title": "现在就不要卖房了，好日子快要到了",
        "docid": "VEKTAU56Q",
        "url": "https://www.163.com/dy/article/VEKTAU56Q.html"
    },
    {
        "title": "让房价跌一半的“四把尖刀”",
        "docid": "VGLDCR5U5",
        "url": "https://www.163.com/dy/article/VGLDCR5U5.html"
    },
    {
        "title": "吴晓灵再预测房价下跌原因，或大概率又是对的，2类人要注意了",
        "docid": "IMC464EV0553TEV3",
        "url": "https://www.163.com/dy/article/IMC464EV0553TEV3.html"
    },
    {
        "title": "北京和上海房地产新政出台，京沪楼市有望迎来一波回暖行情",
        "docid": "IMAOGO2305566GWF",
        "url": "https://www.163.com/dy/article/IMAOGO2305566GWF.html"
    },
    {
        "title": "内行人：买高层不如买多层，买高层就是在交智商税!你们认同吗?",
        "docid": "IMC8H4KA0542M5JD",
        "url": "https://www.163.com/dy/article/IMC8H4KA0542M5JD.html"
    },
    {
        "title": "2023年重庆楼市11月环比回落0.2%",
        "docid": "IM9D5L4V0515AP70",
        "url": "https://www.163.com/dy/article/IM9D5L4V0515AP70.html"
    },
    {
        "title": "二七滨江奢装准现大平层，礼献千万人物",
        "docid": "IM87MRVD020998HG",
        "url": "https://www.163.com/dy/article/IM87MRVD020998HG.html"
    },
    {
        "title": "碧桂园地产竣工备案流程梳理",
        "docid": "IMC712OU055616ZT",
        "url": "https://www.163.com/dy/article/IMC712OU055616ZT.html"
    },
    {
        "title": "汉口二七滨江旁！新房单套总价180万起！",
        "docid": "IMB307790553RRD3",
        "url": "https://www.163.com/dy/article/IMB307790553RRD3.html"
    },
    {
        "title": "男子花1300万买学区房，付完定金后得知入学资格已经被用",
        "docid": "IMBSCI6J0553HGMM",
        "url": "https://www.163.com/dy/article/IMBSCI6J0553HGMM.html"
    },
    {
        "title": "开创新模式！武汉长江新区首宗这类土地，成功出让！",
        "docid": "IMBB7QP4055616ZT",
        "url": "https://www.163.com/dy/article/IMBB7QP4055616ZT.html"
    },
    {
        "title": "2024年度日本税制修改大纲出炉，对房地产投资者有何影响?",
        "docid": "IMC1ONHS0517BACO",
        "url": "https://www.163.com/dy/article/IMC1ONHS0517BACO.html"
    },
    {
        "title": "如果发生地震，贷款买的房子倒塌了，欠银行的贷款还要还吗？",
        "docid": "IMBSM37F0553TB9L",
        "url": "https://www.163.com/dy/article/IMBSM37F0553TB9L.html"
    },
    {
        "title": "央行出手！楼市大逆转，或迎普涨时代！",
        "docid": "IM9DPSGM05565ANF",
        "url": "https://www.163.com/dy/article/IM9DPSGM05565ANF.html"
    },
    {
        "title": "汉口二七滨江旁！新房单套总价180万起！",
        "docid": "IMB307790553RRD3",
        "url": "https://www.163.com/dy/article/IMB307790553RRD3.html"
    },
    {
        "title": "二七滨江奢装准现大平层，礼献千万人物",
        "docid": "IM87MRVD020998HG",
        "url": "https://www.163.com/dy/article/IM87MRVD020998HG.html"
    },
    {
        "title": "开创新模式！武汉长江新区首宗这类土地，成功出让！",
        "docid": "IMBB7QP4055616ZT",
        "url": "https://www.163.com/dy/article/IMBB7QP4055616ZT.html"
    },
    {
        "title": "武汉经开区纱帽街多个老旧小区改造升级，居民安居更乐居",
        "docid": "IMBDR88D053469LG",
        "url": "https://www.163.com/dy/article/IMBDR88D053469LG.html"
    },
    {
        "title": "21日12宗地挂牌出让 起拍总价超过191亿元",
        "docid": "IMB9ANJ50550AAMM",
        "url": "https://www.163.com/dy/article/IMB9ANJ50550AAMM.html"
    },
    {
        "title": "经济会议再提扩大内需！房地产不死消费不振？祸国殃民的谬论",
        "docid": "IMBVEOSU05563TCH",
        "url": "https://www.163.com/dy/article/IMBVEOSU05563TCH.html"
    },
    {
        "title": "开创新模式！武汉长江新区首宗这类土地，成功出让！",
        "docid": "IMBB7QP4055616ZT",
        "url": "https://www.163.com/dy/article/IMBB7QP4055616ZT.html"
    },
    {
        "title": "武汉经开区纱帽街多个老旧小区改造升级，居民安居更乐居",
        "docid": "IMBDR88D053469LG",
        "url": "https://www.163.com/dy/article/IMBDR88D053469LG.html"
    },
    {
        "title": "21日12宗地挂牌出让 起拍总价超过191亿元",
        "docid": "IMB9ANJ50550AAMM",
        "url": "https://www.163.com/dy/article/IMB9ANJ50550AAMM.html"
    },
    {
        "title": "房租和房价都在跌，一线城市的房子还有投资价值吗？建议阅读",
        "docid": "IM9E1TRB05565ANQ",
        "url": "https://www.163.com/dy/article/IM9E1TRB05565ANQ.html"
    },
    {
        "title": "二七滨江奢装准现大平层，礼献千万人物",
        "docid": "IM87MRVD020998HG",
        "url": "https://www.163.com/dy/article/IM87MRVD020998HG.html"
    },
    {
        "title": "上新！白沙洲P(2023)129号地块规划",
        "docid": "IMAA757H0552F71X",
        "url": "https://www.163.com/dy/article/IMAA757H0552F71X.html"
    },
    {
        "title": "武汉润府售楼处电话_武汉润府官网_武汉润府24小时电话",
        "docid": "IM8DMF9705566J9K",
        "url": "https://www.163.com/dy/article/IM8DMF9705566J9K.html"
    },
    {
        "title": "底价！“国资”！武汉6宗地成交30亿！",
        "docid": "IM72VGAN0553TDTY",
        "url": "https://www.163.com/dy/article/IM72VGAN0553TDTY.html"
    },
    {
        "title": "刘陈杰：化解房地产风险",
        "docid": "IMC0PBN70519IGF7",
        "url": "https://www.163.com/dy/article/IMC0PBN70519IGF7.html"
    },
    {
        "title": "广州千万豪宅成交升温, 天河不敌海珠, 番禺亮了",
        "docid": "IM99DFAI0553IQTI",
        "url": "https://www.163.com/dy/article/IM99DFAI0553IQTI.html"
    },
    {
        "title": "汉口二七滨江旁！新房单套总价180万起！",
        "docid": "IMB307790553RRD3",
        "url": "https://www.163.com/dy/article/IMB307790553RRD3.html"
    },
    {
        "title": "开创新模式！武汉长江新区首宗这类土地，成功出让！",
        "docid": "IMBB7QP4055616ZT",
        "url": "https://www.163.com/dy/article/IMBB7QP4055616ZT.html"
    },
    {
        "title": "武汉经开区纱帽街多个老旧小区改造升级，居民安居更乐居",
        "docid": "IMBDR88D053469LG",
        "url": "https://www.163.com/dy/article/IMBDR88D053469LG.html"
    },
    {
        "title": "二七滨江奢装准现大平层，礼献千万人物",
        "docid": "IM87MRVD020998HG",
        "url": "https://www.163.com/dy/article/IM87MRVD020998HG.html"
    },
    {
        "title": "21日12宗地挂牌出让 起拍总价超过191亿元",
        "docid": "IMB9ANJ50550AAMM",
        "url": "https://www.163.com/dy/article/IMB9ANJ50550AAMM.html"
    },
    {
        "title": "北京上海楼市松绑新政解读",
        "docid": "IM9DI56305565ANU",
        "url": "https://www.163.com/dy/article/IM9DI56305565ANU.html"
    },
    {
        "title": "上新！白沙洲P(2023)129号地块规划",
        "docid": "IMAA757H0552F71X",
        "url": "https://www.163.com/dy/article/IMAA757H0552F71X.html"
    },
    {
        "title": "武汉润府售楼处电话_武汉润府官网_武汉润府24小时电话",
        "docid": "IM8DMF9705566J9K",
        "url": "https://www.163.com/dy/article/IM8DMF9705566J9K.html"
    },
    {
        "title": "岛内老破学区VS岛外次新学区，谁更坚挺？",
        "docid": "IMCEH0KD0553TB8M",
        "url": "https://www.163.com/dy/article/IMCEH0KD0553TB8M.html"
    },
    {
        "title": "买房时，房产证上加上子女名字，没想到有这3大好处！看看吧",
        "docid": "ILVF214E05525W0J",
        "url": "https://www.163.com/dy/article/ILVF214E05525W0J.html"
    },
    {
        "title": "悉尼墨尔本房源持续增加，房价恐不能再上涨！澳洲贷款买房者后悔了！",
        "docid": "IMCDEGUC05199N88",
        "url": "https://www.163.com/dy/article/IMCDEGUC05199N88.html"
    },
    {
        "title": "有专家建议，允许房价每年上涨8%是合理的，他们的理由是？",
        "docid": "ILTOA7MK05566DUK",
        "url": "https://www.163.com/dy/article/ILTOA7MK05566DUK.html"
    },
    {
        "title": "二七滨江奢装准现大平层，礼献千万人物",
        "docid": "IM87MRVD020998HG",
        "url": "https://www.163.com/dy/article/IM87MRVD020998HG.html"
    },
    {
        "title": "筑术云大数据平台，无人机巡检实拍渭南市人民医院项目进展情况",
        "docid": "VXLEFOCJ7",
        "url": "https://www.163.com/dy/article/VXLEFOCJ7.html"
    },
    {
        "title": "毛利哥作为过来人表示：上海买房别在意是不是新房，就看地段好不好！地段永远排在第一位！",
        "docid": "VGLEKKR1C",
        "url": "https://www.163.com/dy/article/VGLEKKR1C.html"
    },
    {
        "title": "当初不听劝！贷款加利息100多万买房分30年还，现在肠子都悔青了",
        "docid": "VWLEF0HJT",
        "url": "https://www.163.com/dy/article/VWLEF0HJT.html"
    },
    {
        "title": "现在房东真聪明，租房一定要注意这几点",
        "docid": "VRLEIP1OV",
        "url": "https://www.163.com/dy/article/VRLEIP1OV.html"
    },
    {
        "title": "为什么说房价不能跌？ 看了你就知道 ",
        "docid": "VZL1C1C85",
        "url": "https://www.163.com/dy/article/VZL1C1C85.html"
    },
    {
        "title": "120平方地面，可停6台小车，，市区",
        "docid": "VBL1IPU8U",
        "url": "https://www.163.com/dy/article/VBL1IPU8U.html"
    },
    {
        "title": "老百姓买到烂尾楼，寝食难安",
        "docid": "VFL334FMV",
        "url": "https://www.163.com/dy/article/VFL334FMV.html"
    },
    {
        "title": "房子真的会大跌吗？房子真的过剩吗？北京的房子还能不能买呢？",
        "docid": "VGLEL5RM5",
        "url": "https://www.163.com/dy/article/VGLEL5RM5.html"
    },
    {
        "title": "二七滨江奢装准现大平层，礼献千万人物",
        "docid": "IM87MRVD020998HG",
        "url": "https://www.163.com/dy/article/IM87MRVD020998HG.html"
    },
    {
        "title": "污染源边上的房子，不能要！",
        "docid": "VZLEK1TOM",
        "url": "https://www.163.com/dy/article/VZLEK1TOM.html"
    },
    {
        "title": "房价从23000跌到3500，多年积蓄化为乌有，跟风炒房尝到苦果！",
        "docid": "VCLEHEP3I",
        "url": "https://www.163.com/dy/article/VCLEHEP3I.html"
    },
    {
        "title": "炫富的最高境界，5亿以下的房子咱不买",
        "docid": "VNL0HGS5N",
        "url": "https://www.163.com/dy/article/VNL0HGS5N.html"
    },
    {
        "title": "不开玩笑，错过这套房直接拍大腿",
        "docid": "VGL0TTV9P",
        "url": "https://www.163.com/dy/article/VGL0TTV9P.html"
    },
    {
        "title": "房价跌到让中产破产，六口人的钱包全被掏空？",
        "docid": "VGLEAE4JL",
        "url": "https://www.163.com/dy/article/VGLEAE4JL.html"
    },
    {
        "title": "70平却刷了208平的漆？装修面积引质疑 ，公司：按规定计算",
        "docid": "VTL1QBDE2",
        "url": "https://www.163.com/dy/article/VTL1QBDE2.html"
    },
    {
        "title": "只考二百多就上二本的城市只需几万就能买房？这是什么人间惊喜！",
        "docid": "VCL1KLK30",
        "url": "https://www.163.com/dy/article/VCL1KLK30.html"
    },
    {
        "title": "没有房子的你想找个北京上海有房的人，这种想法靠谱吗？",
        "docid": "VZLEN82TL",
        "url": "https://www.163.com/dy/article/VZLEN82TL.html"
    },
    {
        "title": "二七滨江奢装准现大平层，礼献千万人物",
        "docid": "IM87MRVD020998HG",
        "url": "https://www.163.com/dy/article/IM87MRVD020998HG.html"
    },
    {
        "title": "老家宅基地，到底要不要盖房子呢",
        "docid": "VFL334GEJ",
        "url": "https://www.163.com/dy/article/VFL334GEJ.html"
    },
    {
        "title": "150万买的房子，90万没人要？",
        "docid": "VCL14OSVS",
        "url": "https://www.163.com/dy/article/VCL14OSVS.html"
    },
    {
        "title": "厕所在东南角，对角是厨房，房子详细了解？",
        "docid": "VSKUKJRLA",
        "url": "https://www.163.com/dy/article/VSKUKJRLA.html"
    },
    {
        "title": "再过五年，价值两百万的房子还值多少？两个专家看法一致",
        "docid": "VCKVF55G2",
        "url": "https://www.163.com/dy/article/VCKVF55G2.html"
    },
    {
        "title": "开创新模式！武汉长江新区首宗这类土地，成功出让！",
        "docid": "IMBB7QP4055616ZT",
        "url": "https://www.163.com/dy/article/IMBB7QP4055616ZT.html"
    },
    {
        "title": "武汉经开区纱帽街多个老旧小区改造升级，居民安居更乐居",
        "docid": "IMBDR88D053469LG",
        "url": "https://www.163.com/dy/article/IMBDR88D053469LG.html"
    },
    {
        "title": "21日12宗地挂牌出让 起拍总价超过191亿元",
        "docid": "IMB9ANJ50550AAMM",
        "url": "https://www.163.com/dy/article/IMB9ANJ50550AAMM.html"
    },
    {
        "title": "首笔配售型保障房开发贷款投放",
        "docid": "IMCFFLC50530QRMB",
        "url": "https://www.163.com/dy/article/IMCFFLC50530QRMB.html"
    },
    {
        "title": "二七滨江奢装准现大平层，礼献千万人物",
        "docid": "IM87MRVD020998HG",
        "url": "https://www.163.com/dy/article/IM87MRVD020998HG.html"
    },
    {
        "title": "上新！白沙洲P(2023)129号地块规划",
        "docid": "IMAA757H0552F71X",
        "url": "https://www.163.com/dy/article/IMAA757H0552F71X.html"
    },
    {
        "title": "武汉润府售楼处电话_武汉润府官网_武汉润府24小时电话",
        "docid": "IM8DMF9705566J9K",
        "url": "https://www.163.com/dy/article/IM8DMF9705566J9K.html"
    },
    {
        "title": "底价！“国资”！武汉6宗地成交30亿！",
        "docid": "IM72VGAN0553TDTY",
        "url": "https://www.163.com/dy/article/IM72VGAN0553TDTY.html"
    },
    {
        "title": "途家今年新房东数量同比疫情前增逾七成，90后、00后成主力",
        "docid": "IMBKETR8055284JB",
        "url": "https://www.163.com/dy/article/IMBKETR8055284JB.html"
    },
    {
        "title": "交不起房租？央行行长搬去和父母住",
        "docid": "IMCN9QGL05504DOQ",
        "url": "https://www.163.com/dy/article/IMCN9QGL05504DOQ.html"
    },
    {
        "title": "不知道什么原因,这里有这么多烂尾别墅,好可惜啊 ",
        "docid": "VSL0EVV86",
        "url": "https://www.163.com/dy/article/VSL0EVV86.html"
    },
    {
        "title": "市住房公积金管理中心副主任任焕盛介绍：打造高效支付新模式，全国首创“住房公积金支付”体系",
        "docid": "VQLEN4AME",
        "url": "https://www.163.com/dy/article/VQLEN4AME.html"
    },
    {
        "title": "16越南ATM取款免费？中国 #桂林银行  #越南",
        "docid": "VHL1CUMDJ",
        "url": "https://www.163.com/dy/article/VHL1CUMDJ.html"
    },
    {
        "title": "二七滨江奢装准现大平层，礼献千万人物",
        "docid": "IM87MRVD020998HG",
        "url": "https://www.163.com/dy/article/IM87MRVD020998HG.html"
    },
    {
        "title": "有钱人心真大！男子买上海6栋别墅 20年后才想起上门看傻眼了",
        "docid": "VTKU9QC4N",
        "url": "https://www.163.com/dy/article/VTKU9QC4N.html"
    },
    {
        "title": "陈佩斯家底有多厚？直言：我住的二手房但很宽敞，朱时茂：讲究啊",
        "docid": "VWL0VF9H4",
        "url": "https://www.163.com/dy/article/VWL0VF9H4.html"
    },
    {
        "title": "许家印立大功了，碧桂园，融创也坐不住了",
        "docid": "VDLDUU6VK",
        "url": "https://www.163.com/dy/article/VDLDUU6VK.html"
    },
    {
        "title": "当年错过了小芳，现在后悔莫及",
        "docid": "VXKV2LCS4",
        "url": "https://www.163.com/dy/article/VXKV2LCS4.html"
    },
    {
        "title": "武汉经开区纱帽街多个老旧小区改造升级，居民安居更乐居",
        "docid": "IMBDR88D053469LG",
        "url": "https://www.163.com/dy/article/IMBDR88D053469LG.html"
    },
    {
        "title": "21日12宗地挂牌出让 起拍总价超过191亿元",
        "docid": "IMB9ANJ50550AAMM",
        "url": "https://www.163.com/dy/article/IMB9ANJ50550AAMM.html"
    },
    {
        "title": "上新！白沙洲P(2023)129号地块规划",
        "docid": "IMAA757H0552F71X",
        "url": "https://www.163.com/dy/article/IMAA757H0552F71X.html"
    },
    {
        "title": "武汉润府售楼处电话_武汉润府官网_武汉润府24小时电话",
        "docid": "IM8DMF9705566J9K",
        "url": "https://www.163.com/dy/article/IM8DMF9705566J9K.html"
    },
    {
        "title": "二七滨江奢装准现大平层，礼献千万人物",
        "docid": "IM87MRVD020998HG",
        "url": "https://www.163.com/dy/article/IM87MRVD020998HG.html"
    },
    {
        "title": "底价！“国资”！武汉6宗地成交30亿！",
        "docid": "IM72VGAN0553TDTY",
        "url": "https://www.163.com/dy/article/IM72VGAN0553TDTY.html"
    },
    {
        "title": "汉阳 | 武汉新世界汉江·云赫商业项目2024年年中璀璨开街！",
        "docid": "IM6P3TJQ0534SV3Y",
        "url": "https://www.163.com/dy/article/IM6P3TJQ0534SV3Y.html"
    },
    {
        "title": "一场浩大的迁徙 地产人都去哪儿了｜附问卷结果",
        "docid": "IMAV06JE0519CQO3",
        "url": "https://www.163.com/dy/article/IMAV06JE0519CQO3.html"
    },
    {
        "title": "金地商置：与关连交易续签多份协议 如续聘金地集团提供物业开发及技术服务",
        "docid": "IMB0VT9G05562SCF",
        "url": "https://www.163.com/dy/article/IMB0VT9G05562SCF.html"
    },
    {
        "title": "经济日报：共同维护房地产市场平稳健康发展",
        "docid": "IMCNP0EK05198CJN",
        "url": "https://www.163.com/dy/article/IMCNP0EK05198CJN.html"
    },
    {
        "title": "气质不凡的户型，可扩展性比较强",
        "docid": "IMCINT1H0552CPHG",
        "url": "https://www.163.com/dy/article/IMCINT1H0552CPHG.html"
    },
    {
        "title": "做到了住户都会认可拥护的",
        "docid": "IMCP5HMT0552QWCS",
        "url": "https://www.163.com/dy/article/IMCP5HMT0552QWCS.html"
    },
    {
        "title": "进入白名单的开发商，相当于进入了保险箱！",
        "docid": "IMAECNP80535KAWB",
        "url": "https://www.163.com/dy/article/IMAECNP80535KAWB.html"
    },
    {
        "title": "二七滨江奢装准现大平层，礼献千万人物",
        "docid": "IM87MRVD020998HG",
        "url": "https://www.163.com/dy/article/IM87MRVD020998HG.html"
    },
    {
        "title": "这是网友的物业费，我咋感觉一年的物业费像很多人一年的工资呢？",
        "docid": "IMCISIQD0553XEI5",
        "url": "https://www.163.com/dy/article/IMCISIQD0553XEI5.html"
    },
    {
        "title": "为什么年轻人都不愿意买房了？网友：骗我可以，请用高招儿",
        "docid": "IMBUE1A00553RRD3",
        "url": "https://www.163.com/dy/article/IMBUE1A00553RRD3.html"
    },
    {
        "title": "仁恒置地：前11月合约预售金额292.34亿元 同比下降52.8%",
        "docid": "IMAJ759J0519D45U",
        "url": "https://www.163.com/dy/article/IMAJ759J0519D45U.html"
    },
    {
        "title": "房主吐血降价！士嘉堡全新装修独立屋直降$45万！背靠树林和公园",
        "docid": "IMCI2K4R0534M7IC",
        "url": "https://www.163.com/dy/article/IMCI2K4R0534M7IC.html"
    },
    {
        "title": "最难的2023年，终于要过去了",
        "docid": "IMCRBOAA05158B67",
        "url": "https://www.163.com/dy/article/IMCRBOAA05158B67.html"
    },
    {
        "title": "地产高管的薪酬现状，令人唏嘘",
        "docid": "IMCRP89B0549RI77",
        "url": "https://www.163.com/dy/article/IMCRP89B0549RI77.html"
    },
    {
        "title": "演员王宝强在北京的豪宅，一套6000万，看看有多气派",
        "docid": "VCLF1J1D2",
        "url": "https://www.163.com/dy/article/VCLF1J1D2.html"
    },
    {
        "title": "为什么房子卖不动了？因为老百姓已经进入了四不时代",
        "docid": "VZLEOSEU2",
        "url": "https://www.163.com/dy/article/VZLEOSEU2.html"
    },
    {
        "title": "二七滨江奢装准现大平层，礼献千万人物",
        "docid": "IM87MRVD020998HG",
        "url": "https://www.163.com/dy/article/IM87MRVD020998HG.html"
    },
    {
        "title": "房价今后是涨还是跌，是保房价还是保人口是一个严俊问题",
        "docid": "VZLEP5QLG",
        "url": "https://www.163.com/dy/article/VZLEP5QLG.html"
    },
    {
        "title": "公积金有什么用？咱们来详细聊聊公积金",
        "docid": "VGLE9IVIC",
        "url": "https://www.163.com/dy/article/VGLE9IVIC.html"
    },
    {
        "title": "3套房子都没赚钱，赔得最多得那套反而觉得最值得",
        "docid": "VIKV1LEUH",
        "url": "https://www.163.com/dy/article/VIKV1LEUH.html"
    },
    {
        "title": "1w多一晚的独栋大别野说住就住，还有专人带我骑马上山顶看风景！",
        "docid": "VCL0P9K3V",
        "url": "https://www.163.com/dy/article/VCL0P9K3V.html"
    },
    {
        "title": "什刹海 后海附近全新精装四合院 配三个车 位 你会喜欢吗？",
        "docid": "IMCIC7AB0535KYBM",
        "url": "https://www.163.com/dy/article/IMCIC7AB0535KYBM.html"
    },
    {
        "title": "“先立后破”意味着什么？专家解读房地产市场关键词",
        "docid": "IMCPJBQ70519A8ON",
        "url": "https://www.163.com/dy/article/IMCPJBQ70519A8ON.html"
    },
    {
        "title": "不要错误估计2023年的房地产市场！",
        "docid": "IMCKDSEO0535KYBT",
        "url": "https://www.163.com/dy/article/IMCKDSEO0535KYBT.html"
    },
    {
        "title": "交易量占比达37.1%, 创历史新高, 楼市新时代到来! 住建部发声",
        "docid": "IM9ONTUT0552ZNKY",
        "url": "https://www.163.com/dy/article/IM9ONTUT0552ZNKY.html"
    },
    {
        "title": "二七滨江奢装准现大平层，礼献千万人物",
        "docid": "IM87MRVD020998HG",
        "url": "https://www.163.com/dy/article/IM87MRVD020998HG.html"
    },
    {
        "title": "卖了自己89平米的房子，再在同一个小区买89平米的房子房主傻了？",
        "docid": "VGLEOR13S",
        "url": "https://www.163.com/dy/article/VGLEOR13S.html"
    },
    {
        "title": "周海媚在北京的别墅，从此没有了主人",
        "docid": "VDLF144DM",
        "url": "https://www.163.com/dy/article/VDLF144DM.html"
    },
    {
        "title": "房子每平回到2000，会发生什么",
        "docid": "VHLD3EH73",
        "url": "https://www.163.com/dy/article/VHLD3EH73.html"
    },
    {
        "title": "复盘1214楼市新政 高层意志很明确",
        "docid": "VKL8M4PCG",
        "url": "https://www.163.com/dy/article/VKL8M4PCG.html"
    },
    {
        "title": "炒房人绝望了！房价明明还在涨，但二手房却卖不掉，为什么？",
        "docid": "ILVNPHIC0535KYBT",
        "url": "https://www.163.com/dy/article/ILVNPHIC0535KYBT.html"
    },
    {
        "title": "恒大重组；碧桂园高管降薪，表示砸锅卖铁支持碧桂园；万达股权变更！",
        "docid": "IMCPEC4A0525A5GL",
        "url": "https://www.163.com/dy/article/IMCPEC4A0525A5GL.html"
    },
    {
        "title": "美国房子便宜得离谱，为啥美国人不抢着买？原因太不可思议！",
        "docid": "ILVMGNGL0552CPHG",
        "url": "https://www.163.com/dy/article/ILVMGNGL0552CPHG.html"
    },
    {
        "title": "三四线出现恐慌性抛盘，无房贷家庭也在卖楼，进城农民出现回乡潮",
        "docid": "IMCJS0LS0535MP84",
        "url": "https://www.163.com/dy/article/IMCJS0LS0535MP84.html"
    },
    {
        "title": "二七滨江奢装准现大平层，礼献千万人物",
        "docid": "IM87MRVD020998HG",
        "url": "https://www.163.com/dy/article/IM87MRVD020998HG.html"
    },
    {
        "title": "小伙终于答应带媳妇买房子，燕子心情立马大变，大家来帮忙参考下",
        "docid": "VWLEINF01",
        "url": "https://www.163.com/dy/article/VWLEINF01.html"
    },
    {
        "title": "20年后，楼市的问题可能就不再是房价，而是另外三个“难题”",
        "docid": "VRL20CECM",
        "url": "https://www.163.com/dy/article/VRL20CECM.html"
    },
    {
        "title": "这个户型太美了，新中式客餐厅漂亮极了，全屋的柜子既好看又实用",
        "docid": "VCL20B7JU",
        "url": "https://www.163.com/dy/article/VCL20B7JU.html"
    },
    {
        "title": "创业新市民可以申住这种房",
        "docid": "VRLED1LMM",
        "url": "https://www.163.com/dy/article/VRLED1LMM.html"
    },
    {
        "title": "房价为什么在两年内下跌的那么快？",
        "docid": "VWL247JC0",
        "url": "https://www.163.com/dy/article/VWL247JC0.html"
    },
    {
        "title": "爷爷家盖了一栋带院子的五层别墅，闲余时间种菜养花，这是不是你向往的？",
        "docid": "VSL1U60E1",
        "url": "https://www.163.com/dy/article/VSL1U60E1.html"
    },
    {
        "title": "为啥以后高层不会有人住了，日本的经验值得借鉴吗？",
        "docid": "VBLE7KMB0",
        "url": "https://www.163.com/dy/article/VBLE7KMB0.html"
    },
    {
        "title": "房价下跌的五大城市，你的家乡上榜了吗？",
        "docid": "VDL1QPLCI",
        "url": "https://www.163.com/dy/article/VDL1QPLCI.html"
    },
    {
        "title": "二七滨江奢装准现大平层，礼献千万人物",
        "docid": "IM87MRVD020998HG",
        "url": "https://www.163.com/dy/article/IM87MRVD020998HG.html"
    },
    {
        "title": "不买的永远觉得贵，是不是这样 ",
        "docid": "VWLETTTKS",
        "url": "https://www.163.com/dy/article/VWLETTTKS.html"
    },
    {
        "title": "东北这天真是干巴巴的冷啊！",
        "docid": "VCLESFCJ1",
        "url": "https://www.163.com/dy/article/VCLESFCJ1.html"
    },
    {
        "title": "信不信5年后，这款别墅会成为农村建房首选风格，通透敞亮，造型简约，造价实惠，图纸齐全，建房可参考？",
        "docid": "VSLF5VEAH",
        "url": "https://www.163.com/dy/article/VSLF5VEAH.html"
    },
    {
        "title": "有网友算了一笔账，300万全款买房子租出去",
        "docid": "VWKTHASBI",
        "url": "https://www.163.com/dy/article/VWKTHASBI.html"
    },
    {
        "title": "2010跟2020各城市二手房均价对比！",
        "docid": "IMD18DAM0553CGHB",
        "url": "https://www.163.com/dy/article/IMD18DAM0553CGHB.html"
    },
    {
        "title": "太真实！一家人带着未过门的儿媳妇去买房子，最后到手的单子飞了",
        "docid": "ILVOB29N0535MP84",
        "url": "https://www.163.com/dy/article/ILVOB29N0535MP84.html"
    },
    {
        "title": "楼市2023：当宏大叙事消失之后！",
        "docid": "IMD221EH0552HI5G",
        "url": "https://www.163.com/dy/article/IMD221EH0552HI5G.html"
    },
    {
        "title": "立竿见影，周末京沪新房网签环增均超120%，房地产ETF华夏(515060)平开",
        "docid": "IMD25M4Q0534A4SC",
        "url": "https://www.163.com/dy/article/IMD25M4Q0534A4SC.html"
    },
    {
        "title": "二七滨江奢装准现大平层，礼献千万人物",
        "docid": "IM87MRVD020998HG",
        "url": "https://www.163.com/dy/article/IM87MRVD020998HG.html"
    },
    {
        "title": "迪拜的住宅市场供应落后于人口增长",
        "docid": "IMD2PV900553TDXU",
        "url": "https://www.163.com/dy/article/IMD2PV900553TDXU.html"
    },
    {
        "title": "物业服务日常问题处理知识解答：",
        "docid": "IMD25FQM0535R28F",
        "url": "https://www.163.com/dy/article/IMD25FQM0535R28F.html"
    },
    {
        "title": "2023年最佳置换时机到来，换房的朋友们，不用再等待",
        "docid": "VULDSDUH1",
        "url": "https://www.163.com/dy/article/VULDSDUH1.html"
    },
    {
        "title": "房价下跌不可怕，更可怕的来了，专家：50岁除了房子你将一无所有",
        "docid": "VGLEUOGVT",
        "url": "https://www.163.com/dy/article/VGLEUOGVT.html"
    },
    {
        "title": "重庆167亿，成都1420亿，一个巨大的差距被拉开了",
        "docid": "IMD28GTT0534M7IC",
        "url": "https://www.163.com/dy/article/IMD28GTT0534M7IC.html"
    },
    {
        "title": "前两年跟风买了边户的房子，现在后悔得直拍大腿，肠子都悔青了",
        "docid": "ILVNSCSL0535MP84",
        "url": "https://www.163.com/dy/article/ILVNSCSL0535MP84.html"
    },
    {
        "title": "新西兰公寓楼开发遇阻，矛头直指“有钱的中老年人”",
        "docid": "IMD14RAI05560ZCW",
        "url": "https://www.163.com/dy/article/IMD14RAI05560ZCW.html"
    },
    {
        "title": "中银证券：新房二手房成交同环比均改善，京沪购房政策大力度放松",
        "docid": "IMD3UIVE0553YQBK",
        "url": "https://www.163.com/dy/article/IMD3UIVE0553YQBK.html"
    },
    {
        "title": "二七滨江奢装准现大平层，礼献千万人物",
        "docid": "IM87MRVD020998HG",
        "url": "https://www.163.com/dy/article/IM87MRVD020998HG.html"
    },
    {
        "title": "好不容易买了一套房，却百密一疏败在了电梯上，现在想卖都卖不掉",
        "docid": "ILVN4SQD0535KYBT",
        "url": "https://www.163.com/dy/article/ILVN4SQD0535KYBT.html"
    },
    {
        "title": "亚通股份两连板，房地产行业或还有利好，房地产ETF华夏(515060)有望受益",
        "docid": "IMD4BRIE0534A4SC",
        "url": "https://www.163.com/dy/article/IMD4BRIE0534A4SC.html"
    },
    {
        "title": "有钱人宁愿买“二手房”都不买“新房”？看完明白我为啥那么穷了",
        "docid": "ILVO94U70535MP84",
        "url": "https://www.163.com/dy/article/ILVO94U70535MP84.html"
    },
    {
        "title": "公租小区豪车如云，公租、廉租还是权力租！",
        "docid": "IMD0VD1U0524VJPV",
        "url": "https://www.163.com/dy/article/IMD0VD1U0524VJPV.html"
    },
    {
        "title": "蔡昉：户籍制度改革的效应、方向和路径",
        "docid": "IMD2NEKU05534KO1",
        "url": "https://www.163.com/dy/article/IMD2NEKU05534KO1.html"
    },
    {
        "title": "乔丹运营总部和科技研发中心大楼备案 总投3.53亿",
        "docid": "IMD5P9VK05524W85",
        "url": "https://www.163.com/dy/article/IMD5P9VK05524W85.html"
    },
    {
        "title": "先立后破，是不是意味着，房地产还有30年光景？",
        "docid": "ILR3H80P0535WDMF",
        "url": "https://www.163.com/dy/article/ILR3H80P0535WDMF.html"
    },
    {
        "title": "巴乐兔以完善及个性化服务，全方位保障用户租房",
        "docid": "IMD1V8TD0552UZ9V",
        "url": "https://www.163.com/dy/article/IMD1V8TD0552UZ9V.html"
    },
    {
        "title": "二七滨江奢装准现大平层，礼献千万人物",
        "docid": "IM87MRVD020998HG",
        "url": "https://www.163.com/dy/article/IM87MRVD020998HG.html"
    },
    {
        "title": "王健林所言非虚！未来中国40%以上的家庭，将不得不面对4大难题",
        "docid": "IMD4E0K70539SQ59",
        "url": "https://www.163.com/dy/article/IMD4E0K70539SQ59.html"
    },
    {
        "title": "小区可以取消物业管理吗？法律、经济、社会等多个层面探讨",
        "docid": "ILV4HMJ305562O3H",
        "url": "https://www.163.com/dy/article/ILV4HMJ305562O3H.html"
    },
    {
        "title": "临近年底，30岁，无存款，我还是选择了裸辞",
        "docid": "IMB0HBIU05566KUT",
        "url": "https://www.163.com/dy/article/IMB0HBIU05566KUT.html"
    },
    {
        "title": "95g物业资料，500个物业实用PPT！下午快递！",
        "docid": "IMD3H30R0535R288",
        "url": "https://www.163.com/dy/article/IMD3H30R0535R288.html"
    },
    {
        "title": "降价潮持续！上周东莞新房成交低位回升28%，房价跌幅超3000元/㎡",
        "docid": "IMD4JCTM0530OLSK",
        "url": "https://www.163.com/dy/article/IMD4JCTM0530OLSK.html"
    },
    {
        "title": "碧桂园“亏本”撤资万达商管，宇宙第一房企努力求生",
        "docid": "IMD5TKJ70552NXRF",
        "url": "https://www.163.com/dy/article/IMD5TKJ70552NXRF.html"
    },
    {
        "title": "10年之后，农村的房子、车子不再值钱，值钱的是这4样，你认同吗",
        "docid": "IM089N2P0553RHO2",
        "url": "https://www.163.com/dy/article/IM089N2P0553RHO2.html"
    },
    {
        "title": "高层住宅如何选楼层？过来人：需具备两个因素",
        "docid": "IM8JGVNS0540FQWZ",
        "url": "https://www.163.com/dy/article/IM8JGVNS0540FQWZ.html"
    },
    {
        "title": "二七滨江奢装准现大平层，礼献千万人物",
        "docid": "IM87MRVD020998HG",
        "url": "https://www.163.com/dy/article/IM87MRVD020998HG.html"
    },
    {
        "title": "难道这就是传说中的143平米极致户型吗？",
        "docid": "ILVN9R660535KYBT",
        "url": "https://www.163.com/dy/article/ILVN9R660535KYBT.html"
    },
    {
        "title": "买房的你还相信贷得越多越好吗",
        "docid": "VNLCNUCRL",
        "url": "https://www.163.com/dy/article/VNLCNUCRL.html"
    },
    {
        "title": "南方城市突然中介大量收购市中心老房子，“串串房”坑你倾家荡",
        "docid": "VPLCNJQPQ",
        "url": "https://www.163.com/dy/article/VPLCNJQPQ.html"
    },
    {
        "title": "恒大地产被强制执行9.6亿  风波外溢小县城大批受害业主举牌请愿",
        "docid": "VSLEEC4QP",
        "url": "https://www.163.com/dy/article/VSLEEC4QP.html"
    },
    {
        "title": "大家算一下，张雪峰老师买的房子赚了多少倍？",
        "docid": "IMD73V590537MZNL",
        "url": "https://www.163.com/dy/article/IMD73V590537MZNL.html"
    },
    {
        "title": "看了这篇文章，终于知道2024年房价的走势了",
        "docid": "IMD82Q440553TEV3",
        "url": "https://www.163.com/dy/article/IMD82Q440553TEV3.html"
    },
    {
        "title": "门槛升至3000万港元不包括房产！香港新版投资移民计划引关注",
        "docid": "IMD8QJ5V05198CJN",
        "url": "https://www.163.com/dy/article/IMD8QJ5V05198CJN.html"
    },
    {
        "title": "被揍的欧神，和逐渐远去的地产黄金时代",
        "docid": "IMD0ODHE0553TEQM",
        "url": "https://www.163.com/dy/article/IMD0ODHE0553TEQM.html"
    },
    {
        "title": "二七滨江奢装准现大平层，礼献千万人物",
        "docid": "IM87MRVD020998HG",
        "url": "https://www.163.com/dy/article/IM87MRVD020998HG.html"
    },
    {
        "title": "美国：开启全球反洗钱，全美房地产现金交易必须报告交易者名单",
        "docid": "IMD928940553TEV3",
        "url": "https://www.163.com/dy/article/IMD928940553TEV3.html"
    },
    {
        "title": "张玉良考察绿地兰姆公馆开发项目 后者为伦敦大型住宅社区",
        "docid": "IMD6VQC40519D45U",
        "url": "https://www.163.com/dy/article/IMD6VQC40519D45U.html"
    },
    {
        "title": "2023年十一月房地产大事件盘点",
        "docid": "IMD8JPN90515AN84",
        "url": "https://www.163.com/dy/article/IMD8JPN90515AN84.html"
    },
    {
        "title": "能精准预测楼市周期的“摩天大厦指数”，竟然在中国被驯服了吗？",
        "docid": "ILVVRMAC0535FFBB",
        "url": "https://www.163.com/dy/article/ILVVRMAC0535FFBB.html"
    },
    {
        "title": "200㎡豪宅大平层vs刚需、改善三房，哪个更适合居住？",
        "docid": "ILMCAJ730535WDMF",
        "url": "https://www.163.com/dy/article/ILMCAJ730535WDMF.html"
    },
    {
        "title": "孟晓苏：废除公摊面积，是把老百姓当傻子！真是这样？",
        "docid": "IMD0JUJ70535KAWB",
        "url": "https://www.163.com/dy/article/IMD0JUJ70535KAWB.html"
    },
    {
        "title": "教人买房的专家，被打了",
        "docid": "IMD18KT20545PEDS",
        "url": "https://www.163.com/dy/article/IMD18KT20545PEDS.html"
    },
    {
        "title": "各省万达广场数量分布！",
        "docid": "IM0A9GJJ0546MZPC",
        "url": "https://www.163.com/dy/article/IM0A9GJJ0546MZPC.html"
    },
    {
        "title": "二七滨江奢装准现大平层，礼献千万人物",
        "docid": "IM87MRVD020998HG",
        "url": "https://www.163.com/dy/article/IM87MRVD020998HG.html"
    },
    {
        "title": "中国未来20年，这10个城市还有大机会！",
        "docid": "IMDAJOF80515UN97",
        "url": "https://www.163.com/dy/article/IMDAJOF80515UN97.html"
    },
    {
        "title": "没想到，CBD的房价，开始出现崩塌了？",
        "docid": "IMDAJMP50515UN97",
        "url": "https://www.163.com/dy/article/IMDAJMP50515UN97.html"
    },
    {
        "title": "房子租给70后家长陪读租期到期退租，车库里的东西惊到了",
        "docid": "VQL24SNNK",
        "url": "https://www.163.com/dy/article/VQL24SNNK.html"
    },
    {
        "title": "断供潮来了！四大行开始起诉了！",
        "docid": "VCLFAR9NG",
        "url": "https://www.163.com/dy/article/VCLFAR9NG.html"
    },
    {
        "title": "建业集团：1-11月累计交付8.09万套 交付面积1082万平方米",
        "docid": "IMDCFI5B0519D45U",
        "url": "https://www.163.com/dy/article/IMDCFI5B0519D45U.html"
    },
    {
        "title": "二手婚房终于装好，没想到大家都说二手房做婚房不吉利？！",
        "docid": "IMAJDRJJ0520CBAF",
        "url": "https://www.163.com/dy/article/IMAJDRJJ0520CBAF.html"
    },
    {
        "title": "物业最忌讳的四种投诉途径：",
        "docid": "IMDD4O600535KYBM",
        "url": "https://www.163.com/dy/article/IMDD4O600535KYBM.html"
    },
    {
        "title": "在买房挑选户型时，有句俗语说：“聪明买边户，没人买中户”！",
        "docid": "IM8I5P3G0540FQWZ",
        "url": "https://www.163.com/dy/article/IM8I5P3G0540FQWZ.html"
    },
    {
        "title": "二七滨江奢装准现大平层，礼献千万人物",
        "docid": "IM87MRVD020998HG",
        "url": "https://www.163.com/dy/article/IM87MRVD020998HG.html"
    },
    {
        "title": "按揭利率下行刺激，新屋开工意外爆发，美国楼市又行了？",
        "docid": "IMD1U54F05198NMR",
        "url": "https://www.163.com/dy/article/IMD1U54F05198NMR.html"
    },
    {
        "title": "割肉南龙湖，亏本卖掉远郊的普通人",
        "docid": "IMD2PDNV05158VDP",
        "url": "https://www.163.com/dy/article/IMD2PDNV05158VDP.html"
    },
    {
        "title": "11月主要城市新房价格环比下降, 武汉新房价格同比连续四月增长!",
        "docid": "IM7F0114055324UK",
        "url": "https://www.163.com/dy/article/IM7F0114055324UK.html"
    },
    {
        "title": "年底楼市又迎来一波儿政策松动",
        "docid": "IMDCGR980535A920",
        "url": "https://www.163.com/dy/article/IMDCGR980535A920.html"
    },
    {
        "title": "嘉定《逸尊领峰_虹桥领寓》整层精装修公寓-官方网站-百度百科！",
        "docid": "IMAUA5A40556677G",
        "url": "https://www.163.com/dy/article/IMAUA5A40556677G.html"
    },
    {
        "title": "京沪同频 重磅新政带动楼市升温",
        "docid": "IMDEMUKV0514R9KE",
        "url": "https://www.163.com/dy/article/IMDEMUKV0514R9KE.html"
    },
    {
        "title": "2024楼市何去何从 68城房价跌回1年前 5大省会城市跌幅最狠",
        "docid": "VLLCNVR41",
        "url": "https://www.163.com/dy/article/VLLCNVR41.html"
    },
    {
        "title": "房价从22000跌到8000，免费送房无人问，走投无路只能断供吗？",
        "docid": "VWKVHG5FB",
        "url": "https://www.163.com/dy/article/VWKVHG5FB.html"
    },
    {
        "title": "二七滨江奢装准现大平层，礼献千万人物",
        "docid": "IM87MRVD020998HG",
        "url": "https://www.163.com/dy/article/IM87MRVD020998HG.html"
    },
    {
        "title": "600万卖掉深圳房子，到恒大海花岛400万投资6套海景房，肠子悔青",
        "docid": "VWL1VCATA",
        "url": "https://www.163.com/dy/article/VWL1VCATA.html"
    },
    {
        "title": "第八十集#小区赶走黑心物业，小区变的干净整洁安全了",
        "docid": "VUL2HRC6F",
        "url": "https://www.163.com/dy/article/VUL2HRC6F.html"
    },
    {
        "title": "房产证要不要加孩子的名字",
        "docid": "VZLCTAPTI",
        "url": "https://www.163.com/dy/article/VZLCTAPTI.html"
    },
    {
        "title": "房价还会涨吗？看完你就明白了！",
        "docid": "VZLFCKS7F",
        "url": "https://www.163.com/dy/article/VZLFCKS7F.html"
    },
    {
        "title": "加拿大11月通胀公布：3.1%！房租下降！这种房型还在涨价！",
        "docid": "IMDENB7M055625PT",
        "url": "https://www.163.com/dy/article/IMDENB7M055625PT.html"
    },
    {
        "title": "房奴攻略：这几种房子千万别买，存在很大的贬值风险！",
        "docid": "IMB5ERM10540H6M7",
        "url": "https://www.163.com/dy/article/IMB5ERM10540H6M7.html"
    },
    {
        "title": "LPR报价连续四个月“按兵不动”，明年还有下调空间吗？丨火线解读",
        "docid": "IMDFPTQ40519DDQ2",
        "url": "https://www.163.com/dy/article/IMDFPTQ40519DDQ2.html"
    },
    {
        "title": "农民进城后房子会被收回吗？",
        "docid": "IMDD9FI10532AYDR",
        "url": "https://www.163.com/dy/article/IMDD9FI10532AYDR.html"
    },
    {
        "title": "二七滨江奢装准现大平层，礼献千万人物",
        "docid": "IM87MRVD020998HG",
        "url": "https://www.163.com/dy/article/IM87MRVD020998HG.html"
    },
    {
        "title": "盘活烂尾楼人进去了期房不如二手房",
        "docid": "VNKVTCT34",
        "url": "https://www.163.com/dy/article/VNKVTCT34.html"
    },
    {
        "title": "龙湖的品质还是一直在线的，装修看多了差的突然觉得龙湖蛮良心的",
        "docid": "VGL29BBGF",
        "url": "https://www.163.com/dy/article/VGL29BBGF.html"
    },
    {
        "title": "住在1500w的顶楼豪宅是一种什么样的体验？",
        "docid": "VCL1VB15S",
        "url": "https://www.163.com/dy/article/VCL1VB15S.html"
    },
    {
        "title": "这算不算农村自建房的天花板？难得一见的豪宅今天算是开眼了",
        "docid": "VSL1U1NMN",
        "url": "https://www.163.com/dy/article/VSL1U1NMN.html"
    },
    {
        "title": "【年终盘点】地产业凛冬未过，千亿市值房企仅剩7家",
        "docid": "IMDGUKAS0519B04T",
        "url": "https://www.163.com/dy/article/IMDGUKAS0519B04T.html"
    },
    {
        "title": "北大专家说：廉租房不能配独立厕所，现在他说的一切正在变成现实",
        "docid": "IMDH8EA10535LAX2",
        "url": "https://www.163.com/dy/article/IMDH8EA10535LAX2.html"
    },
    {
        "title": "世界上最大的谎言，原来是贷款买房",
        "docid": "VPLFOIE87",
        "url": "https://www.163.com/dy/article/VPLFOIE87.html"
    },
    {
        "title": "房地产退潮后，海景房价格现出原形，还有什么高价物业是裸泳者？",
        "docid": "VNLFMJ76Q",
        "url": "https://www.163.com/dy/article/VNLFMJ76Q.html"
    },
    {
        "title": "二七滨江奢装准现大平层，礼献千万人物",
        "docid": "IM87MRVD020998HG",
        "url": "https://www.163.com/dy/article/IM87MRVD020998HG.html"
    },
    {
        "title": "一栋楼当中最难卖的楼层，聪明人都会避开",
        "docid": "VGLFAGPAP",
        "url": "https://www.163.com/dy/article/VGLFAGPAP.html"
    },
    {
        "title": "女生欲出国留学圆梦，起诉父母分割上海房产遭拒：替她还了50万债",
        "docid": "VTLDH5INL",
        "url": "https://www.163.com/dy/article/VTLDH5INL.html"
    },
    {
        "title": "房荒或将到来，一线强二线13城土拍腰膝斩，为反转埋下伏笔",
        "docid": "VDLFD4SAS",
        "url": "https://www.163.com/dy/article/VDLFD4SAS.html"
    },
    {
        "title": "群力东，群力观江国际！",
        "docid": "VGL0U2M77",
        "url": "https://www.163.com/dy/article/VGL0U2M77.html"
    },
    {
        "title": "“物业数字化推进小区治理现代化”学术研讨会胜利召开",
        "docid": "IMDHLGLO0535R288",
        "url": "https://www.163.com/dy/article/IMDHLGLO0535R288.html"
    },
    {
        "title": "平安证券：京沪楼市松绑，新模式方向渐明",
        "docid": "IM8FBHAF0553YQBK",
        "url": "https://www.163.com/dy/article/IM8FBHAF0553YQBK.html"
    },
    {
        "title": "羡慕！这个梅一板块的网红奢装盘精装交付了！都说业主赢麻了～",
        "docid": "IM0EI3OV05562FSA",
        "url": "https://www.163.com/dy/article/IM0EI3OV05562FSA.html"
    },
    {
        "title": "取消物业势如破竹，物业贪婪又可恨，收了钱不办正事！",
        "docid": "VPLCJEJQ7",
        "url": "https://www.163.com/dy/article/VPLCJEJQ7.html"
    },
    {
        "title": "二七滨江奢装准现大平层，礼献千万人物",
        "docid": "IM87MRVD020998HG",
        "url": "https://www.163.com/dy/article/IM87MRVD020998HG.html"
    },
    {
        "title": "上海徐汇买房，低调的板块，单价5万多",
        "docid": "VLLBHB1TR",
        "url": "https://www.163.com/dy/article/VLLBHB1TR.html"
    },
    {
        "title": "金山什么样的房子，才能保值",
        "docid": "VKLCSDF2A",
        "url": "https://www.163.com/dy/article/VKLCSDF2A.html"
    },
    {
        "title": "惠南镇：五条特色商业街亮相 挖掘消费潜力促发展",
        "docid": "VMLEF119Q",
        "url": "https://www.163.com/dy/article/VMLEF119Q.html"
    },
    {
        "title": "真是“穷疯”了！以前免费的四样东西，也开始逐一收费了！",
        "docid": "VMLECENMG",
        "url": "https://www.163.com/dy/article/VMLECENMG.html"
    },
    {
        "title": "不要再降价卖房，楼市迎来春天，重点城市加速去化，买房机会来了",
        "docid": "IMDIKBC805566C1Z",
        "url": "https://www.163.com/dy/article/IMDIKBC805566C1Z.html"
    },
    {
        "title": "重要信号！二手房迎来主升浪，不要降价卖房，买房上车最后的机会",
        "docid": "IMDGNDT005562DLL",
        "url": "https://www.163.com/dy/article/IMDGNDT005562DLL.html"
    },
    {
        "title": "别墅地下室没有排水系统怎么办？用污水提升泵来解决",
        "docid": "IMDJ20TV0535LAX2",
        "url": "https://www.163.com/dy/article/IMDJ20TV0535LAX2.html"
    },
    {
        "title": "奂熹说税 | 间接承租集体土地，是否需要缴纳城镇土地使用税？",
        "docid": "IMDKCERI05199DKK",
        "url": "https://www.163.com/dy/article/IMDKCERI05199DKK.html"
    },
    {
        "title": "二七滨江奢装准现大平层，礼献千万人物",
        "docid": "IM87MRVD020998HG",
        "url": "https://www.163.com/dy/article/IM87MRVD020998HG.html"
    },
    {
        "title": "不要等房价暴跌了，不要看空房地产市场，12月房贷利率维持不变！",
        "docid": "IMDH465305562DLL",
        "url": "https://www.163.com/dy/article/IMDH465305562DLL.html"
    },
    {
        "title": "小区保安深夜连刮业主汽车，物业称系个人行为",
        "docid": "VKLCIRRCB",
        "url": "https://www.163.com/dy/article/VKLCIRRCB.html"
    },
    {
        "title": "承认房价长期上涨的趋势并不难，难的是涨起来手上没货",
        "docid": "VEL2B7LUQ",
        "url": "https://www.163.com/dy/article/VEL2B7LUQ.html"
    },
    {
        "title": "最值钱楼层揭晓！住在这些层楼的人好运连连",
        "docid": "VWL1U2DUL",
        "url": "https://www.163.com/dy/article/VWL1U2DUL.html"
    },
    {
        "title": "自建房系统门窗价格多少钱？",
        "docid": "IM0JUVNJ05562I7O",
        "url": "https://www.163.com/dy/article/IM0JUVNJ05562I7O.html"
    },
    {
        "title": "官方网站发布图文解析-中国铁建熙语值得购买吗？售楼处电话/详情",
        "docid": "IM0N5KS505566894",
        "url": "https://www.163.com/dy/article/IM0N5KS505566894.html"
    },
    {
        "title": "为什么说长期来讲房价一定涨",
        "docid": "IMDM7I780534M7IC",
        "url": "https://www.163.com/dy/article/IMDM7I780534M7IC.html"
    },
    {
        "title": "中诚信国际：政策持续加码缓解行业风险，房地产市场信心仍需提振",
        "docid": "IMDNBK520553YQBK",
        "url": "https://www.163.com/dy/article/IMDNBK520553YQBK.html"
    },
    {
        "title": "二七滨江奢装准现大平层，礼献千万人物",
        "docid": "IM87MRVD020998HG",
        "url": "https://www.163.com/dy/article/IM87MRVD020998HG.html"
    },
    {
        "title": "彻底凉凉，11月重点城市房价继续下跌，只有成都和三亚微微上涨！",
        "docid": "IMDEO5E805562DLL",
        "url": "https://www.163.com/dy/article/IMDEO5E805562DLL.html"
    },
    {
        "title": "今明两年，最好不要随便拿钱买新房，4个原因很扎心",
        "docid": "IMDK71I80512ES8F",
        "url": "https://www.163.com/dy/article/IMDK71I80512ES8F.html"
    },
    {
        "title": "土地被收储给予补偿是否纳税？",
        "docid": "IMDL8LCH055616ZT",
        "url": "https://www.163.com/dy/article/IMDL8LCH055616ZT.html"
    },
    {
        "title": "千万不要急着买房，成交均价29,250元，跌幅高达10%，买房人注意",
        "docid": "IMDFLH0405562DLL",
        "url": "https://www.163.com/dy/article/IMDFLH0405562DLL.html"
    },
    {
        "title": "43城！2023年11月新房销售排行榜",
        "docid": "IMDO37HV0515AKPO",
        "url": "https://www.163.com/dy/article/IMDO37HV0515AKPO.html"
    },
    {
        "title": "房子多的人“有麻烦”？不是房产税，“这个”来了，两亿人受影响",
        "docid": "IMDOU2QE0540KLAM",
        "url": "https://www.163.com/dy/article/IMDOU2QE0540KLAM.html"
    },
    {
        "title": "万达危机解除！王健林和22位投资人达成协议，80亿债务转为股份",
        "docid": "IMDO9NRE0552QWNH",
        "url": "https://www.163.com/dy/article/IMDO9NRE0552QWNH.html"
    },
    {
        "title": "地价上限取消后，2024年土地市场将发生哪些变化？",
        "docid": "IMDNQ5M105159A0N",
        "url": "https://www.163.com/dy/article/IMDNQ5M105159A0N.html"
    },
    {
        "title": "二七滨江奢装准现大平层，礼献千万人物",
        "docid": "IM87MRVD020998HG",
        "url": "https://www.163.com/dy/article/IM87MRVD020998HG.html"
    },
    {
        "title": "地产启示录｜华侨城进退维谷",
        "docid": "IMDO3APK05199NPP",
        "url": "https://www.163.com/dy/article/IMDO3APK05199NPP.html"
    },
    {
        "title": "良有方｜买房、验房、装修过程中，你是不是有很多的疑惑，却找不到专业的人咨询呢？",
        "docid": "IM0HHIM40535JAVR",
        "url": "https://www.163.com/dy/article/IM0HHIM40535JAVR.html"
    },
    {
        "title": "欧盟“重磅炸弹”，希腊哪些房产将不能再交易？",
        "docid": "IMDLQMMU0553SGBF",
        "url": "https://www.163.com/dy/article/IMDLQMMU0553SGBF.html"
    },
    {
        "title": "一个不寻常的信号出现！央媒定调，楼市或迎“两个取消”，要了解",
        "docid": "IMDPOI5M0540A6F8",
        "url": "https://www.163.com/dy/article/IMDPOI5M0540A6F8.html"
    },
    {
        "title": "选错户型肠子悔青都没用！看完这篇你能成“户型专家”！完美避坑",
        "docid": "IM0OV12J0540FQWZ",
        "url": "https://www.163.com/dy/article/IM0OV12J0540FQWZ.html"
    },
    {
        "title": "建发房产“超级交付力”背后：产品力与服务力如何加持？",
        "docid": "IMDQTF560550WHYR",
        "url": "https://www.163.com/dy/article/IMDQTF560550WHYR.html"
    },
    {
        "title": "房价1.2万下跌到8千每平，房主：首付都亏没了，要求补差价或退房",
        "docid": "IMDP4H2P0540KLAM",
        "url": "https://www.163.com/dy/article/IMDP4H2P0540KLAM.html"
    },
    {
        "title": "解锁新姿势！公积金还能这么用？教你如何利用它轻松租房！",
        "docid": "IM0JI1Q20553AF6B",
        "url": "https://www.163.com/dy/article/IM0JI1Q20553AF6B.html"
    },
    {
        "title": "二七滨江奢装准现大平层，礼献千万人物",
        "docid": "IM87MRVD020998HG",
        "url": "https://www.163.com/dy/article/IM87MRVD020998HG.html"
    },
    {
        "title": "有房主房子涨了45万，挂出去3个月，卖不动，只能降价再试",
        "docid": "IMDQKTST0540SN7V",
        "url": "https://www.163.com/dy/article/IMDQKTST0540SN7V.html"
    },
    {
        "title": "俯瞰千亿金融城|东方希望中心·金融悦122㎡总裁套房 年末焕新",
        "docid": "IMDK0B2O05566JKK",
        "url": "https://www.163.com/dy/article/IMDK0B2O05566JKK.html"
    },
    {
        "title": "买房和不买房的区别！没买房就没有底气！",
        "docid": "IMDM74GQ0552QWNH",
        "url": "https://www.163.com/dy/article/IMDM74GQ0552QWNH.html"
    },
    {
        "title": "一支穿云箭，北京、上海楼市出大招了，炒房客沸腾了",
        "docid": "IM0N546C0535JMSP",
        "url": "https://www.163.com/dy/article/IM0N546C0535JMSP.html"
    },
    {
        "title": "腾云当代：绿色科技代建运营价值服务者 | 房企代建新探索系列访谈",
        "docid": "IMDNPI3C05159A0N",
        "url": "https://www.163.com/dy/article/IMDNPI3C05159A0N.html"
    },
    {
        "title": "真的存在如此雅致的139平米户型吗?",
        "docid": "IMDOOJNC0535KYBM",
        "url": "https://www.163.com/dy/article/IMDOOJNC0535KYBM.html"
    },
    {
        "title": "政府配租的保租房~燕和苑 #深圳公租房  #深圳保租房",
        "docid": "VGL0B16H9",
        "url": "https://www.163.com/dy/article/VGL0B16H9.html"
    },
    {
        "title": "现在是美国购房的好时机吗？美联储降息之时房价下跌之日",
        "docid": "VYLFTC7F1",
        "url": "https://www.163.com/dy/article/VYLFTC7F1.html"
    },
    {
        "title": "二七滨江豪门大户 116-500㎡服务式大平层 开盘在即",
        "docid": "IMB1E651020998HG",
        "url": "https://www.163.com/dy/article/IMB1E651020998HG.html"
    },
    {
        "title": "五类房子将失去出租资格",
        "docid": "VFLFUOP4E",
        "url": "https://www.163.com/dy/article/VFLFUOP4E.html"
    },
    {
        "title": "绷不住了！京沪楼市大招频出，楼市反弹信号强烈",
        "docid": "VQLCN16TH",
        "url": "https://www.163.com/dy/article/VQLCN16TH.html"
    },
    {
        "title": "业内人士常用的买房砍价方法",
        "docid": "VALCN2J46",
        "url": "https://www.163.com/dy/article/VALCN2J46.html"
    },
    {
        "title": "牛逼！大V出马买二手房，砍价是真牛逼，砍得是真猛！",
        "docid": "VCLFTS1EN",
        "url": "https://www.163.com/dy/article/VCLFTS1EN.html"
    },
    {
        "title": "2023年底置业攻略|买房为什么要选大品牌开发商？",
        "docid": "IMDSL05C0535TI2Q",
        "url": "https://www.163.com/dy/article/IMDSL05C0535TI2Q.html"
    },
    {
        "title": "最好卖的楼层排名出炉！",
        "docid": "IMDU7F0F0553CGT6",
        "url": "https://www.163.com/dy/article/IMDU7F0F0553CGT6.html"
    },
    {
        "title": "汉口二环内！双地铁口！20XXX元/平起！",
        "docid": "IMDVM7N3055616ZT",
        "url": "https://www.163.com/dy/article/IMDVM7N3055616ZT.html"
    },
    {
        "title": "浩德控股(08149.HK)附属拟1.8亿日圆收购日本物业",
        "docid": "IMDUJRHI05198ETO",
        "url": "https://www.163.com/dy/article/IMDUJRHI05198ETO.html"
    },
    {
        "title": "二七滨江奢装准现大平层，礼献千万人物",
        "docid": "IM87MRVD020998HG",
        "url": "https://www.163.com/dy/article/IM87MRVD020998HG.html"
    },
    {
        "title": "卖房时你越降价其实越不好卖",
        "docid": "IMDTK6A10553TEV3",
        "url": "https://www.163.com/dy/article/IMDTK6A10553TEV3.html"
    },
    {
        "title": "“有钱买二手房，没钱买新房”，这种说法真靠谱？看看内行的分析",
        "docid": "IM0QK7T20540KLAM",
        "url": "https://www.163.com/dy/article/IM0QK7T20540KLAM.html"
    },
    {
        "title": "五年后电梯房和步梯房哪个更保值呢",
        "docid": "VFLDBKU4L",
        "url": "https://www.163.com/dy/article/VFLDBKU4L.html"
    },
    {
        "title": "物业不清理积雪，还鼓励业主起诉保安？保安：钱多没地用啊",
        "docid": "VDLG4N7OB",
        "url": "https://www.163.com/dy/article/VDLG4N7OB.html"
    },
    {
        "title": "华侨城11年次新！波托菲诺！高层看高尔夫！175平4+1房16XX万！",
        "docid": "IMDVAQSE0552F71X",
        "url": "https://www.163.com/dy/article/IMDVAQSE0552F71X.html"
    },
    {
        "title": "【中集大成艺术中心】售楼处发布_在售户型丨项目介绍丨详细解答",
        "docid": "IMDU4OMA05566C0K",
        "url": "https://www.163.com/dy/article/IMDU4OMA05566C0K.html"
    },
    {
        "title": "卧底房产中介三个月，披露他们常用的6大阴招，你中招了吗？",
        "docid": "IMDQ2J0M0540SN7V",
        "url": "https://www.163.com/dy/article/IMDQ2J0M0540SN7V.html"
    },
    {
        "title": "破解物业纠纷困局 武汉市武昌区推行信托制物业服务模式",
        "docid": "IMDVUENB05346936",
        "url": "https://www.163.com/dy/article/IMDVUENB05346936.html"
    },
    {
        "title": "二七滨江豪门大户 116-500㎡服务式大平层 开盘在即",
        "docid": "IMB1E651020998HG",
        "url": "https://www.163.com/dy/article/IMB1E651020998HG.html"
    },
    {
        "title": "中化化肥(00297)附属与若干出租人就几处物业订立租赁协议",
        "docid": "IMDTFDCN05198UNI",
        "url": "https://www.163.com/dy/article/IMDTFDCN05198UNI.html"
    },
    {
        "title": "真是服了，现在的客户砍价都是这么狠的吗？#买房那些事",
        "docid": "VOKVT025C",
        "url": "https://www.163.com/dy/article/VOKVT025C.html"
    },
    {
        "title": "国家一锤定音，卖不掉又拆不掉的老房子，通通都这样处理",
        "docid": "VBLFTDQUV",
        "url": "https://www.163.com/dy/article/VBLFTDQUV.html"
    },
    {
        "title": "为什么有钱人都不买顶层？听听过来人的说法，别等买了后悔！",
        "docid": "VZLFPV5C8",
        "url": "https://www.163.com/dy/article/VZLFPV5C8.html"
    },
    {
        "title": "142.9平米户型，门口配置单独瑜伽房！",
        "docid": "IMDU28J10553TB8M",
        "url": "https://www.163.com/dy/article/IMDU28J10553TB8M.html"
    },
    {
        "title": "楼市传来3个利好消息, 房价或重演7年前景象! 刚需买房时机已到!",
        "docid": "IMBG7V510553IQR6",
        "url": "https://www.163.com/dy/article/IMBG7V510553IQR6.html"
    },
    {
        "title": "风财讯 | 2023房地产“殿堂级大忽悠” 有的消失有的疑被打",
        "docid": "IME1M0QN0553TEV3",
        "url": "https://www.163.com/dy/article/IME1M0QN0553TEV3.html"
    },
    {
        "title": "现在唯一决定因素就是经济，其他都是扯淡。",
        "docid": "IMDVH2AT0553RRD3",
        "url": "https://www.163.com/dy/article/IMDVH2AT0553RRD3.html"
    },
    {
        "title": "二七滨江奢装准现大平层，礼献千万人物",
        "docid": "IM87MRVD020998HG",
        "url": "https://www.163.com/dy/article/IM87MRVD020998HG.html"
    },
    {
        "title": "做生意，买铺和租铺哪个更划算？",
        "docid": "IMDTCSH80552QWCS",
        "url": "https://www.163.com/dy/article/IMDTCSH80552QWCS.html"
    },
    {
        "title": "凰家速地|武汉11宗地191亿网拍 台北路地块再度现身",
        "docid": "IME2E1A5055616ZT",
        "url": "https://www.163.com/dy/article/IME2E1A5055616ZT.html"
    },
    {
        "title": "震安科技：公司隔震和减震产品都能用于自建房",
        "docid": "IMDSAOTL0512B07B",
        "url": "https://www.163.com/dy/article/IMDSAOTL0512B07B.html"
    },
    {
        "title": "董宇辉回归直播，在线人数超三百万！已在北京买房：向俞敏洪借钱",
        "docid": "IME0QDCS055615MN",
        "url": "https://www.163.com/dy/article/IME0QDCS055615MN.html"
    },
    {
        "title": "（新华解码）新一轮保障性住房建设启动，保障谁？怎么保？谁来建？",
        "docid": "IMDVQFC005346RC6",
        "url": "https://www.163.com/dy/article/IMDVQFC005346RC6.html"
    },
    {
        "title": "养老度假优选户型，2024农村养老别墅首选，居家养老的一层自建房",
        "docid": "ILPJOQ6I0520BKDJ",
        "url": "https://www.163.com/dy/article/ILPJOQ6I0520BKDJ.html"
    },
    {
        "title": "亏本“卖掉”！恒大公布决定，许家印的“核心”也守不住了！",
        "docid": "IMDTLHEO0552F71X",
        "url": "https://www.163.com/dy/article/IMDTLHEO0552F71X.html"
    },
    {
        "title": "房价若降：三四线5千，二线1万，一线2万，专家：能否成真？",
        "docid": "IME0P4K10553TB9L",
        "url": "https://www.163.com/dy/article/IME0P4K10553TB9L.html"
    },
    {
        "title": "二七滨江豪门大户 116-500㎡服务式大平层 开盘在即",
        "docid": "IMB1E651020998HG",
        "url": "https://www.163.com/dy/article/IMB1E651020998HG.html"
    },
    {
        "title": "宝龙地产上千万美元利息无力支付，旗下项目多次出现安全事故",
        "docid": "IMDQOQIK055091L3",
        "url": "https://www.163.com/dy/article/IMDQOQIK055091L3.html"
    },
    {
        "title": "深圳龙华上塘理想城｜户型简介｜楼盘详情！",
        "docid": "IMBHLQES05563HNR",
        "url": "https://www.163.com/dy/article/IMBHLQES05563HNR.html"
    },
    {
        "title": "荣晟智慧物业与西部华宇物业正式开启深度合作模式",
        "docid": "IMBFQV430535R281",
        "url": "https://www.163.com/dy/article/IMBFQV430535R281.html"
    },
    {
        "title": "“保交楼”交付超165万套，房价下降城市持续增加……2023年房地产行业十大新闻 | NBD年度新闻榜",
        "docid": "IMDUKC28055616ZT",
        "url": "https://www.163.com/dy/article/IMDUKC28055616ZT.html"
    },
    {
        "title": "贪便宜165万购入香港叙利亚风豪宅！后续太糟心！",
        "docid": "IMBH8TUV05561QDT",
        "url": "https://www.163.com/dy/article/IMBH8TUV05561QDT.html"
    },
    {
        "title": "瑞典房屋开工率略有回升 但需求依然疲软",
        "docid": "IME3FRQH05198UNI",
        "url": "https://www.163.com/dy/article/IME3FRQH05198UNI.html"
    },
    {
        "title": "同比降23BP！12月百城首套平均房贷利率降至3.86% 今年房贷降息为购房者节省约185亿元",
        "docid": "IME53PRP05198CJN",
        "url": "https://www.163.com/dy/article/IME53PRP05198CJN.html"
    },
    {
        "title": "普通人日子怎么能过好？家庭收入30%用于住房性支出，怎么去生活",
        "docid": "IM0U12IO0552257Z",
        "url": "https://www.163.com/dy/article/IM0U12IO0552257Z.html"
    },
    {
        "title": "二七滨江奢装准现大平层，礼献千万人物",
        "docid": "IM87MRVD020998HG",
        "url": "https://www.163.com/dy/article/IM87MRVD020998HG.html"
    },
    {
        "title": "12月LPR按兵不动，但明年存量房贷又将省笔小钱！",
        "docid": "IME5H53Q05149FJ9",
        "url": "https://www.163.com/dy/article/IME5H53Q05149FJ9.html"
    },
    {
        "title": "12月20日武汉房价播报：光谷东核心区，备案均价约23421元/平！",
        "docid": "IME61MQQ0549RI77",
        "url": "https://www.163.com/dy/article/IME61MQQ0549RI77.html"
    },
    {
        "title": "欧暇·地中海酒店：岛屿城市投资的新热点",
        "docid": "IME4PPUF0530W132",
        "url": "https://www.163.com/dy/article/IME4PPUF0530W132.html"
    },
    {
        "title": "保交楼不等于保开发商？资深律师为防范化解房地产风险提出四点建议",
        "docid": "IMDUO4F30530OLSK",
        "url": "https://www.163.com/dy/article/IMDUO4F30530OLSK.html"
    },
    {
        "title": "普拉达宣布4.25亿美元收购纽约第五大道物业",
        "docid": "IME083GM0534A4SC",
        "url": "https://www.163.com/dy/article/IME083GM0534A4SC.html"
    },
    {
        "title": "东京人气赤羽商圈一栋楼，1992年建，埼京线赤羽站560米，店铺住宅相结合，永久土地面积77㎡！",
        "docid": "IME76LG905359JWY",
        "url": "https://www.163.com/dy/article/IME76LG905359JWY.html"
    },
    {
        "title": "究竟是哪位经纪人？让房主说非你不可",
        "docid": "IMBK93AJ0525JF4R",
        "url": "https://www.163.com/dy/article/IMBK93AJ0525JF4R.html"
    },
    {
        "title": "“聚合力 筑未来” 毕马威中国发布2023不动产科技趋势与展望报告",
        "docid": "IMBAT88O0553YQBK",
        "url": "https://www.163.com/dy/article/IMBAT88O0553YQBK.html"
    },
    {
        "title": "二七滨江豪门大户 116-500㎡服务式大平层 开盘在即",
        "docid": "IMB1E651020998HG",
        "url": "https://www.163.com/dy/article/IMB1E651020998HG.html"
    },
    {
        "title": "【通知】关于年终决算暂停办理业务和元旦放假安排的通知",
        "docid": "IME6S4UC0553RRD3",
        "url": "https://www.163.com/dy/article/IME6S4UC0553RRD3.html"
    },
    {
        "title": "国内房地产市场真的一去不复返了吗？到顶了吗？",
        "docid": "VBLGC0L1M",
        "url": "https://www.163.com/dy/article/VBLGC0L1M.html"
    },
    {
        "title": "万般无奈卖掉了人生第一套房，临走之前再看看，太多心酸和不舍",
        "docid": "VWL22JRRN",
        "url": "https://www.163.com/dy/article/VWL22JRRN.html"
    },
    {
        "title": "美国多次放水救市，雷倩分析美国政经体系困境",
        "docid": "VDLFT4637",
        "url": "https://www.163.com/dy/article/VDLFT4637.html"
    },
    {
        "title": "万锦Condo吸引大批人看房，还抢offer，最后竟被狠狠砍一刀",
        "docid": "IME4P8200534M7IC",
        "url": "https://www.163.com/dy/article/IME4P8200534M7IC.html"
    },
    {
        "title": "年末土拍潮！武汉首场百亿土拍即将来袭！",
        "docid": "IME7NQ1C0556123R",
        "url": "https://www.163.com/dy/article/IME7NQ1C0556123R.html"
    },
    {
        "title": "逼近10万套！成交创历史新高！",
        "docid": "IMDP036305522QVI",
        "url": "https://www.163.com/dy/article/IMDP036305522QVI.html"
    },
    {
        "title": "上下两层一楼门面加二楼带装修的三室一厅只要 23 万 太超值了！",
        "docid": "VYLGD5MDB",
        "url": "https://www.163.com/dy/article/VYLGD5MDB.html"
    },
    {
        "title": "二七滨江奢装准现大平层，礼献千万人物",
        "docid": "IM87MRVD020998HG",
        "url": "https://www.163.com/dy/article/IM87MRVD020998HG.html"
    },
    {
        "title": "如果房价大跌，最吃亏的是不是普通老百姓？",
        "docid": "VLLG2QVKH",
        "url": "https://www.163.com/dy/article/VLLG2QVKH.html"
    },
    {
        "title": "房龄超过20年的老房子，明年起，统一这样处理，有人要乐开花",
        "docid": "VMLDL7FMT",
        "url": "https://www.163.com/dy/article/VMLDL7FMT.html"
    },
    {
        "title": "与皇宫为邻！吉隆坡富人区超级大平层the peak",
        "docid": "VGLG4ABPD",
        "url": "https://www.163.com/dy/article/VGLG4ABPD.html"
    },
    {
        "title": "“邻居会说22种语言”楼盘广告引争议",
        "docid": "VHLGB67NT",
        "url": "https://www.163.com/dy/article/VHLGB67NT.html"
    },
    {
        "title": "美国30年期房贷利率创近6个月来新低 连续第五周下滑",
        "docid": "IMEA21CQ05198UNI",
        "url": "https://www.163.com/dy/article/IMEA21CQ05198UNI.html"
    },
    {
        "title": "专题 | 从多元化业务探讨房企未来发展的第二抓手",
        "docid": "IM1561R10515AR80",
        "url": "https://www.163.com/dy/article/IM1561R10515AR80.html"
    },
    {
        "title": "为什么说现在不是一个在美购房的好时机？",
        "docid": "IMEB3CAS0552F71X",
        "url": "https://www.163.com/dy/article/IMEB3CAS0552F71X.html"
    },
    {
        "title": "论复式别墅与旋转楼梯的适配度，就看这个户型，颜值十分在线！",
        "docid": "IME8D0PP0552QWCS",
        "url": "https://www.163.com/dy/article/IME8D0PP0552QWCS.html"
    },
    {
        "title": "二七滨江豪门大户 116-500㎡服务式大平层 开盘在即",
        "docid": "IMB1E651020998HG",
        "url": "https://www.163.com/dy/article/IMB1E651020998HG.html"
    },
    {
        "title": "落空！最新房贷利率公布，没有下降！2024年，或将下调.......",
        "docid": "IMEAOA5A0541NRKO",
        "url": "https://www.163.com/dy/article/IMEAOA5A0541NRKO.html"
    },
    {
        "title": "光谷这个楼盘摊上大事了，业主情绪激动！如何避免买到这种前脚买后脚降价的楼盘，10秒钟告诉你！",
        "docid": "VGLGEA52L",
        "url": "https://www.163.com/dy/article/VGLGEA52L.html"
    },
    {
        "title": "为什么很多人都说在某种特殊条件下也是很支持烂尾楼业主爆律师头",
        "docid": "VFLERN6PD",
        "url": "https://www.163.com/dy/article/VFLERN6PD.html"
    },
    {
        "title": "全国70城房价全部下跌，房价什么时候能跌到位？",
        "docid": "VMLG4AIBM",
        "url": "https://www.163.com/dy/article/VMLG4AIBM.html"
    },
    {
        "title": "实现多领域全面发展，随着社会经济的发展壮大，金地环湾城",
        "docid": "IM0PKQ6A05565TIT",
        "url": "https://www.163.com/dy/article/IM0PKQ6A05565TIT.html"
    },
    {
        "title": "日本人不明白，&quot;毫不起眼&quot;的中国人，哪来的那么多钱买房？",
        "docid": "ILUNO4KI05529KBU",
        "url": "https://www.163.com/dy/article/ILUNO4KI05529KBU.html"
    },
    {
        "title": "绝大多数人买房，只关心房价，而忽视了另外一个至关重要的问题:",
        "docid": "IMBC7UU305563MOV",
        "url": "https://www.163.com/dy/article/IMBC7UU305563MOV.html"
    },
    {
        "title": "房子为什么卖不动？我现在终于明白了",
        "docid": "IMBNCT4V05562BBD",
        "url": "https://www.163.com/dy/article/IMBNCT4V05562BBD.html"
    },
    {
        "title": "二七滨江奢装准现大平层，礼献千万人物",
        "docid": "IM87MRVD020998HG",
        "url": "https://www.163.com/dy/article/IM87MRVD020998HG.html"
    },
    {
        "title": "2023下半年，一旦房价大涨，那么我国经济将面临这6大问题",
        "docid": "IM0UO5A90540KQR7",
        "url": "https://www.163.com/dy/article/IM0UO5A90540KQR7.html"
    },
    {
        "title": "清仓时刻 | 本土房企开始抛售房产，上海诞生多个“伪新盘”",
        "docid": "IMEBNVG60553TB9L",
        "url": "https://www.163.com/dy/article/IMEBNVG60553TB9L.html"
    },
    {
        "title": "买房后悔买了13层，如果再有机会一定买25层，看着真让人生气",
        "docid": "VCLGDV8P1",
        "url": "https://www.163.com/dy/article/VCLGDV8P1.html"
    },
    {
        "title": "一楼带花园的房子能不能买？",
        "docid": "VULDJ03PQ",
        "url": "https://www.163.com/dy/article/VULDJ03PQ.html"
    },
    {
        "title": "武汉市自然资源和规划局确权登记处副处长22日做客市民有约",
        "docid": "IMEEA4UB053469LG",
        "url": "https://www.163.com/dy/article/IMEEA4UB053469LG.html"
    },
    {
        "title": "县城买房和农村盖房，10年后哪种选择才是正确的？答案已明确",
        "docid": "ILUPGL6E0552GJZ0",
        "url": "https://www.163.com/dy/article/ILUPGL6E0552GJZ0.html"
    },
    {
        "title": "这家亏损民营小房企，竟然抱上了央企大腿…",
        "docid": "IMDSIIEP0553KJYB",
        "url": "https://www.163.com/dy/article/IMDSIIEP0553KJYB.html"
    },
    {
        "title": "建发收购红星美凯龙签订第四份补充协议 支付款项有所变更",
        "docid": "IMED1G2L0519D45U",
        "url": "https://www.163.com/dy/article/IMED1G2L0519D45U.html"
    },
    {
        "title": "二七滨江豪门大户 116-500㎡服务式大平层 开盘在即",
        "docid": "IMB1E651020998HG",
        "url": "https://www.163.com/dy/article/IMB1E651020998HG.html"
    },
    {
        "title": "未来这些房子有可能一文不值",
        "docid": "VQL2UEE84",
        "url": "https://www.163.com/dy/article/VQL2UEE84.html"
    },
    {
        "title": "革命性话题：房子是买还是租？哪样划算？",
        "docid": "VCLGHEF5V",
        "url": "https://www.163.com/dy/article/VCLGHEF5V.html"
    },
    {
        "title": "在武汉终于找到有设计感的房子啦，0公摊的洋房羡慕坏了",
        "docid": "VCLGE5AON",
        "url": "https://www.163.com/dy/article/VCLGE5AON.html"
    },
    {
        "title": "国家对烂尾楼的处置方法是这样的！",
        "docid": "VWLGG8M9U",
        "url": "https://www.163.com/dy/article/VWLGG8M9U.html"
    },
    {
        "title": "公公一大早就拉着余雪看房子，独家独院简装65万，大家看看合适嘛",
        "docid": "VCLGJHVUV",
        "url": "https://www.163.com/dy/article/VCLGJHVUV.html"
    },
    {
        "title": "它是下一个浦东？还是下一个香港？",
        "docid": "VCL3IOQ2F",
        "url": "https://www.163.com/dy/article/VCL3IOQ2F.html"
    },
    {
        "title": "选错楼层太遗憾！2-16层视野分析大全，想看小区景观，以后别选错",
        "docid": "VBLE0D0R6",
        "url": "https://www.163.com/dy/article/VBLE0D0R6.html"
    },
    {
        "title": "投资武汉武昌区这些小区的人要哭了，武昌区跌幅最大的20个小区",
        "docid": "VGLGG3CFD",
        "url": "https://www.163.com/dy/article/VGLGG3CFD.html"
    },
    {
        "title": "二七滨江奢装准现大平层，礼献千万人物",
        "docid": "IM87MRVD020998HG",
        "url": "https://www.163.com/dy/article/IM87MRVD020998HG.html"
    },
    {
        "title": "新中式装修才是王道！730万 3+1 合院别墅，老祖宗的东西大宅范",
        "docid": "VPLG0LNJF",
        "url": "https://www.163.com/dy/article/VPLG0LNJF.html"
    },
    {
        "title": "曾为王建林身边二号人物！",
        "docid": "VMLDGS8H4",
        "url": "https://www.163.com/dy/article/VMLDGS8H4.html"
    },
    {
        "title": "西边建厨房，西户房型有何讲究？与你分享",
        "docid": "VSLDPKD6Q",
        "url": "https://www.163.com/dy/article/VSLDPKD6Q.html"
    },
    {
        "title": "友车科技：拟1.79亿元在上海购置办公楼，用于募投项目实施地点及日常办公使用",
        "docid": "VDLG6RMBV",
        "url": "https://www.163.com/dy/article/VDLG6RMBV.html"
    },
    {
        "title": "小区没有业委会，如何进行物业管理？",
        "docid": "ILUPQ9KF055356WR",
        "url": "https://www.163.com/dy/article/ILUPQ9KF055356WR.html"
    },
    {
        "title": "398平米的华丽空中花园户型是什么样子?",
        "docid": "IMEAALR60552QWCE",
        "url": "https://www.163.com/dy/article/IMEAALR60552QWCE.html"
    },
    {
        "title": "1.15亿！郴州桂阳八角井市场商铺拍卖",
        "docid": "IMBM6DSK0535NSXO",
        "url": "https://www.163.com/dy/article/IMBM6DSK0535NSXO.html"
    },
    {
        "title": "金茂府的“美”，远不止于此",
        "docid": "IM1D6TF90519BKE1",
        "url": "https://www.163.com/dy/article/IM1D6TF90519BKE1.html"
    },
    {
        "title": "二七滨江豪门大户 116-500㎡服务式大平层 开盘在即",
        "docid": "IMB1E651020998HG",
        "url": "https://www.163.com/dy/article/IMB1E651020998HG.html"
    },
    {
        "title": "房价越来越高，普通老百姓咋买房？住建部给答案了！",
        "docid": "IME87B4905561Z7Y",
        "url": "https://www.163.com/dy/article/IME87B4905561Z7Y.html"
    },
    {
        "title": "一套所有男人看了走不动道的别墅，和家人住在这里一定很幸福吧？",
        "docid": "VGLGE1IPP",
        "url": "https://www.163.com/dy/article/VGLGE1IPP.html"
    },
    {
        "title": "楼市不用救，要救的是老百姓",
        "docid": "VZLGMG86T",
        "url": "https://www.163.com/dy/article/VZLGMG86T.html"
    },
    {
        "title": "三大降价潮来袭，未来走势是怎样的？",
        "docid": "VMLGJIP4S",
        "url": "https://www.163.com/dy/article/VMLGJIP4S.html"
    }
]