[
    {
        "title": "中国金茂拟收购新茂置业51%股权，合作开发苏州一地块",
        "docid": "IKBJK2SI0512D3VJ",
        "url": "https://www.163.com/dy/article/IKBJK2SI0512D3VJ.html"
    },
    {
        "title": "未来几年，买这3种房子100%持续升值，聪明人早已经悄悄入手！",
        "docid": "IJSOG6MO0535KYBT",
        "url": "https://www.163.com/dy/article/IJSOG6MO0535KYBT.html"
    },
    {
        "title": "建设保障房未必要大拆大建——新“房改”系列之一",
        "docid": "IKBL07T10553TDVP",
        "url": "https://www.163.com/dy/article/IKBL07T10553TDVP.html"
    },
    {
        "title": "武汉取消出让黄陂、东湖高新3宗地块 总面积超35万平",
        "docid": "IKBLB3840519D45U",
        "url": "https://www.163.com/dy/article/IKBLB3840519D45U.html"
    },
    {
        "title": "当下，买房追求的东西变了",
        "docid": "IK6D89RM0552Q0TF",
        "url": "https://www.163.com/dy/article/IK6D89RM0552Q0TF.html"
    },
    {
        "title": "5年后，县城楼房和农村自建房哪个更吃香？看完这3点你就明白了",
        "docid": "VDJD2G1I7",
        "url": "https://www.163.com/dy/article/VDJD2G1I7.html"
    },
    {
        "title": "专家：不管放开几胎人口一定会快速萎缩，房地产再也回不到过去了",
        "docid": "VAJDOHOMV",
        "url": "https://www.163.com/dy/article/VAJDOHOMV.html"
    },
    {
        "title": "现在的房子，还有必要买吗？",
        "docid": "VCJB4PIAR",
        "url": "https://www.163.com/dy/article/VCJB4PIAR.html"
    },
    {
        "title": "小白买房，最容易选错！这样的8号楼不配叫楼王，不如身后两栋好",
        "docid": "VBJDN5PCR",
        "url": "https://www.163.com/dy/article/VBJDN5PCR.html"
    },
    {
        "title": "住这样的房子需要注意什么？",
        "docid": "VBJDHOV9F",
        "url": "https://www.163.com/dy/article/VBJDHOV9F.html"
    },
    {
        "title": "老旧小区电梯加装很“丝滑”！秘诀何在？",
        "docid": "IKA9CQDT0512DU6N",
        "url": "https://www.163.com/dy/article/IKA9CQDT0512DU6N.html"
    },
    {
        "title": "宇宙中心光谷东跌下神坛！曾经第一神盘二手房跌破12729元/平米！",
        "docid": "IK95414F0556123R",
        "url": "https://www.163.com/dy/article/IK95414F0556123R.html"
    },
    {
        "title": "武汉四批次供地：32宗涉宅地 其中经开区6宗地、洪山区5宗地",
        "docid": "IKA64ASD0553RRD3",
        "url": "https://www.163.com/dy/article/IKA64ASD0553RRD3.html"
    },
    {
        "title": "壹心学院在汉兴街道举办党建引领推动老旧小区物业长效管理培训",
        "docid": "IKARLBFC05566B74",
        "url": "https://www.163.com/dy/article/IKARLBFC05566B74.html"
    },
    {
        "title": "楼市调整到现在，有一种预感越来越强烈了",
        "docid": "IKBAEAPA05359WBS",
        "url": "https://www.163.com/dy/article/IKBAEAPA05359WBS.html"
    },
    {
        "title": "武汉青山区发布引才聚才政策：购买指定商品住房 给予5万元购房补贴",
        "docid": "IK57VH9M05198CJN",
        "url": "https://www.163.com/dy/article/IK57VH9M05198CJN.html"
    },
    {
        "title": "2023年武汉楼市：当下一定要擦亮眼睛",
        "docid": "IK6FIC2N05560R20",
        "url": "https://www.163.com/dy/article/IK6FIC2N05560R20.html"
    },
    {
        "title": "无开发资质却卖房84套，武汉德商荣和置业被罚",
        "docid": "IK57L7F30552H092",
        "url": "https://www.163.com/dy/article/IK57L7F30552H092.html"
    },
    {
        "title": "车谷城投底价斩获武汉经开区一宅地",
        "docid": "IKA4F7Q70550AAMM",
        "url": "https://www.163.com/dy/article/IKA4F7Q70550AAMM.html"
    },
    {
        "title": "高层住宅越来越不想吃香了，过来人提示：“3大缺点”太明显",
        "docid": "IK3BIPVT0532D0CK",
        "url": "https://www.163.com/dy/article/IK3BIPVT0532D0CK.html"
    },
    {
        "title": "12000买来的连廊房，搬进去才知道后悔！",
        "docid": "IKBN5HML055627OU",
        "url": "https://www.163.com/dy/article/IKBN5HML055627OU.html"
    },
    {
        "title": "物业费收费方式引发热议，你怎么看？",
        "docid": "IKBOU0NI05561J3R",
        "url": "https://www.163.com/dy/article/IKBOU0NI05561J3R.html"
    },
    {
        "title": "5年后，房子会“烂大街”？专家：若2大难题得到解决，还有转机",
        "docid": "IKBN6T5J0553TEV3",
        "url": "https://www.163.com/dy/article/IKBN6T5J0553TEV3.html"
    },
    {
        "title": "小作文又来了！50家房企白名单，能救活房地产吗？",
        "docid": "IKBN3OV80541MRXQ",
        "url": "https://www.163.com/dy/article/IKBN3OV80541MRXQ.html"
    },
    {
        "title": "就想问下大家，装这样的电梯有什么意义？",
        "docid": "IKBOP3J505561J3R",
        "url": "https://www.163.com/dy/article/IKBOP3J505561J3R.html"
    },
    {
        "title": "都说“东户”好，为何现在“西户”卖得更快？2个原因告诉你",
        "docid": "IK7JKUN50553SQD3",
        "url": "https://www.163.com/dy/article/IK7JKUN50553SQD3.html"
    },
    {
        "title": "人生最大的遗憾，莫过于放弃了不该放弃的，像极了爱情~",
        "docid": "VTJDUC3ES",
        "url": "https://www.163.com/dy/article/VTJDUC3ES.html"
    },
    {
        "title": "买房预算从250万到160万，区域从庐阳到包河再到新站的心路历程",
        "docid": "VZJ0S2A0M",
        "url": "https://www.163.com/dy/article/VZJ0S2A0M.html"
    },
    {
        "title": "这样建房你们觉得怎么样，有喜欢的吗？",
        "docid": "VBJDUT4GD",
        "url": "https://www.163.com/dy/article/VBJDUT4GD.html"
    },
    {
        "title": "超小的石头小房子，小小的厨房，小小的阁楼，小小的后花园，温馨又可爱。就是太小了",
        "docid": "VZJ0KQP72",
        "url": "https://www.163.com/dy/article/VZJ0KQP72.html"
    },
    {
        "title": "恭喜已经买了房的客户，房价将要大涨。",
        "docid": "IKBL31NE0553TEV3",
        "url": "https://www.163.com/dy/article/IKBL31NE0553TEV3.html"
    },
    {
        "title": "11.24黑色尾盘为什么拉升？",
        "docid": "IKBPI0890537QSIM",
        "url": "https://www.163.com/dy/article/IKBPI0890537QSIM.html"
    },
    {
        "title": "农村自建房建了60万，现在有人50万要买，该不该出手！",
        "docid": "IKBNGGOG0532D0CK",
        "url": "https://www.163.com/dy/article/IKBNGGOG0532D0CK.html"
    },
    {
        "title": "这好像是一家人的吗？真是开眼啦，这种神仙户型",
        "docid": "VZJ0NGTH3",
        "url": "https://www.163.com/dy/article/VZJ0NGTH3.html"
    },
    {
        "title": "东北人在海南，为什么会选这个项目",
        "docid": "VKJ0VMM6J",
        "url": "https://www.163.com/dy/article/VKJ0VMM6J.html"
    },
    {
        "title": "2023年买房，两年后会不会后悔呢",
        "docid": "VCJD1FPRH",
        "url": "https://www.163.com/dy/article/VCJD1FPRH.html"
    },
    {
        "title": "北边买房是生存，西边买房是生活。",
        "docid": "VGJ07VB41",
        "url": "https://www.163.com/dy/article/VGJ07VB41.html"
    },
    {
        "title": "为什么售楼处样板间总是那么漂亮",
        "docid": "VGIT5OL3N",
        "url": "https://www.163.com/dy/article/VGIT5OL3N.html"
    },
    {
        "title": "万科龙湖死防爆雷，未来中国房地产，千万不能只剩下国企！",
        "docid": "VOJDC4AHF",
        "url": "https://www.163.com/dy/article/VOJDC4AHF.html"
    },
    {
        "title": "五年后有房的和没房的区别！",
        "docid": "VSJDASID7",
        "url": "https://www.163.com/dy/article/VSJDASID7.html"
    },
    {
        "title": "房价一旦下跌，这5类房子最容易贬值！买了小心砸手里",
        "docid": "IJQKKPNJ0553SQD3",
        "url": "https://www.163.com/dy/article/IJQKKPNJ0553SQD3.html"
    },
    {
        "title": "如果你买了房子，会去买一个车位吗？",
        "docid": "IJURC6UC0532D0CK",
        "url": "https://www.163.com/dy/article/IJURC6UC0532D0CK.html"
    },
    {
        "title": "住在高层的朋友们，你们的勇气和毅力真的让人佩服！",
        "docid": "IKBP3CM605561J3R",
        "url": "https://www.163.com/dy/article/IKBP3CM605561J3R.html"
    },
    {
        "title": "32宗地！武汉第四批拟供地项目清单出炉！",
        "docid": "IK9K4P3C0552F71X",
        "url": "https://www.163.com/dy/article/IK9K4P3C0552F71X.html"
    },
    {
        "title": "在武汉，有眼光的人都买这里，最有价值的地段！",
        "docid": "IK85MHT005560R20",
        "url": "https://www.163.com/dy/article/IK85MHT005560R20.html"
    },
    {
        "title": "宇宙中心光谷东跌下神坛！曾经第一神盘二手房跌破12729元/平米！",
        "docid": "IK95414F0556123R",
        "url": "https://www.163.com/dy/article/IK95414F0556123R.html"
    },
    {
        "title": "2024年买房记住“七字真言”，买新、买中、不买三",
        "docid": "IKAS7FHE0552ZPDP",
        "url": "https://www.163.com/dy/article/IKAS7FHE0552ZPDP.html"
    },
    {
        "title": "壹心学院在汉兴街道举办党建引领推动老旧小区物业长效管理培训",
        "docid": "IKARLBFC05566B74",
        "url": "https://www.163.com/dy/article/IKARLBFC05566B74.html"
    },
    {
        "title": "武汉买房：2023年楼市走向明确！",
        "docid": "IK864M9005560R20",
        "url": "https://www.163.com/dy/article/IK864M9005560R20.html"
    },
    {
        "title": "武汉青山区发布引才聚才政策：购买指定商品住房 给予5万元购房补贴",
        "docid": "IK57VH9M05198CJN",
        "url": "https://www.163.com/dy/article/IK57VH9M05198CJN.html"
    },
    {
        "title": "《许家印后续曝光！倒查恒大暗藏三十年的秘密，震惊全球！》",
        "docid": "IKBRODI20556123R",
        "url": "https://www.163.com/dy/article/IKBRODI20556123R.html"
    },
    {
        "title": "顶楼房购买指南：需慎重选择，因人而异。",
        "docid": "IJUSVUIV0532D0CK",
        "url": "https://www.163.com/dy/article/IJUSVUIV0532D0CK.html"
    },
    {
        "title": "顶楼通常被认为是不太理想的选项，即使价格相对便宜",
        "docid": "IJUSSU9M0532D0CK",
        "url": "https://www.163.com/dy/article/IJUSSU9M0532D0CK.html"
    },
    {
        "title": "征地补偿款村民咋分配？",
        "docid": "IJUO7J0G0532Q69P",
        "url": "https://www.163.com/dy/article/IJUO7J0G0532Q69P.html"
    },
    {
        "title": "智慧的人已经开始尽量买房",
        "docid": "IJUNACMD05563TCH",
        "url": "https://www.163.com/dy/article/IJUNACMD05563TCH.html"
    },
    {
        "title": "32宗地！武汉第四批拟供地项目清单出炉！",
        "docid": "IK9K4P3C0552F71X",
        "url": "https://www.163.com/dy/article/IK9K4P3C0552F71X.html"
    },
    {
        "title": "壹心学院在汉兴街道举办党建引领推动老旧小区物业长效管理培训",
        "docid": "IKARLBFC05566B74",
        "url": "https://www.163.com/dy/article/IKARLBFC05566B74.html"
    },
    {
        "title": "武汉买房：2023年楼市走向明确！",
        "docid": "IK864M9005560R20",
        "url": "https://www.163.com/dy/article/IK864M9005560R20.html"
    },
    {
        "title": "如何理解“促进金融与房地产良性循环”",
        "docid": "IKBOBVTC055616ZT",
        "url": "https://www.163.com/dy/article/IKBOBVTC055616ZT.html"
    },
    {
        "title": "武汉青山区发布引才聚才政策：购买指定商品住房 给予5万元购房补贴",
        "docid": "IK57VH9M05198CJN",
        "url": "https://www.163.com/dy/article/IK57VH9M05198CJN.html"
    },
    {
        "title": "加装电梯，对于楼层较高的住户来说，无疑是一个福音",
        "docid": "IJUSRTCL0532D0CK",
        "url": "https://www.163.com/dy/article/IJUSRTCL0532D0CK.html"
    },
    {
        "title": "宇宙中心光谷东跌下神坛！曾经第一神盘二手房跌破12729元/平米！",
        "docid": "IK95414F0556123R",
        "url": "https://www.163.com/dy/article/IK95414F0556123R.html"
    },
    {
        "title": "武汉经开区一宅地24日出让 起拍楼面价2800元/平",
        "docid": "IK5JU58I0550AAMM",
        "url": "https://www.163.com/dy/article/IK5JU58I0550AAMM.html"
    },
    {
        "title": "武汉买房：2023年楼市走向明确！",
        "docid": "IK864M9005560R20",
        "url": "https://www.163.com/dy/article/IK864M9005560R20.html"
    },
    {
        "title": "武汉青山区发布引才聚才政策：购买指定商品住房 给予5万元购房补贴",
        "docid": "IK57VH9M05198CJN",
        "url": "https://www.163.com/dy/article/IK57VH9M05198CJN.html"
    },
    {
        "title": "无开发资质却卖房84套，武汉德商荣和置业被罚",
        "docid": "IK57L7F30552H092",
        "url": "https://www.163.com/dy/article/IK57L7F30552H092.html"
    },
    {
        "title": "今明两年买房，请牢记7字真言：“买新、买中、不买三”",
        "docid": "IKB7DEPJ05563VMS",
        "url": "https://www.163.com/dy/article/IKB7DEPJ05563VMS.html"
    },
    {
        "title": "房地产行业大事件汇总(2023.1124)：龙湖计划提前偿还银团贷",
        "docid": "IKA7O15Q0515APM9",
        "url": "https://www.163.com/dy/article/IKA7O15Q0515APM9.html"
    },
    {
        "title": "一超大城市二套房首付降至40%",
        "docid": "IK7QQPB80519QIKK",
        "url": "https://www.163.com/dy/article/IK7QQPB80519QIKK.html"
    },
    {
        "title": "春节前会有很多小区房东降价卖房子",
        "docid": "IK2JSU490535JMSP",
        "url": "https://www.163.com/dy/article/IK2JSU490535JMSP.html"
    },
    {
        "title": "为什么很多行业都要引进外资，外资对楼市有影响吗？",
        "docid": "IKC14QQA055633I2",
        "url": "https://www.163.com/dy/article/IKC14QQA055633I2.html"
    },
    {
        "title": "期房交房时间推迟，还要多久才能拿到房子？",
        "docid": "IJUT0V3V0532D0CK",
        "url": "https://www.163.com/dy/article/IJUT0V3V0532D0CK.html"
    },
    {
        "title": "拿到手的精装房，下了一个决定，砸了重新装修！！！",
        "docid": "IJUTRKFF05561J3R",
        "url": "https://www.163.com/dy/article/IJUTRKFF05561J3R.html"
    },
    {
        "title": "32宗地！武汉第四批拟供地项目清单出炉！",
        "docid": "IK9K4P3C0552F71X",
        "url": "https://www.163.com/dy/article/IK9K4P3C0552F71X.html"
    },
    {
        "title": "在武汉，有眼光的人都买这里，最有价值的地段！",
        "docid": "IK85MHT005560R20",
        "url": "https://www.163.com/dy/article/IK85MHT005560R20.html"
    },
    {
        "title": "宇宙中心光谷东跌下神坛！曾经第一神盘二手房跌破12729元/平米！",
        "docid": "IK95414F0556123R",
        "url": "https://www.163.com/dy/article/IK95414F0556123R.html"
    },
    {
        "title": "武汉四批次供地：32宗涉宅地 其中经开区6宗地、洪山区5宗地",
        "docid": "IKA64ASD0553RRD3",
        "url": "https://www.163.com/dy/article/IKA64ASD0553RRD3.html"
    },
    {
        "title": "武汉青山区发布引才聚才政策：购买指定商品住房 给予5万元购房补贴",
        "docid": "IK57VH9M05198CJN",
        "url": "https://www.163.com/dy/article/IK57VH9M05198CJN.html"
    },
    {
        "title": "无开发资质却卖房84套，武汉德商荣和置业被罚",
        "docid": "IK57L7F30552H092",
        "url": "https://www.163.com/dy/article/IK57L7F30552H092.html"
    },
    {
        "title": "应志刚调研安居链公司：高质量完成房地产供应链平台建设工作",
        "docid": "IK8FUJ800553TEQM",
        "url": "https://www.163.com/dy/article/IK8FUJ800553TEQM.html"
    },
    {
        "title": "涉及白沙洲一楼盘幼儿园规划，官方回应！",
        "docid": "IKC1RDOK0543PFJS",
        "url": "https://www.163.com/dy/article/IKC1RDOK0543PFJS.html"
    },
    {
        "title": "5年后，房子是“买不起”还是“随便挑”？经济学博士21字说透",
        "docid": "IK5HK2N00540A6F8",
        "url": "https://www.163.com/dy/article/IK5HK2N00540A6F8.html"
    },
    {
        "title": "央行等三部门为房地产发声：对正常经营的企业不惜贷、抽贷、断贷",
        "docid": "IKA746V20553TDTY",
        "url": "https://www.163.com/dy/article/IKA746V20553TDTY.html"
    },
    {
        "title": "农民的土地使用权要跟开发商的土地使用权同权同利",
        "docid": "VXJE4ND3V",
        "url": "https://www.163.com/dy/article/VXJE4ND3V.html"
    },
    {
        "title": "求大家一件事，房贷千万别断供！",
        "docid": "VWJ144BMJ",
        "url": "https://www.163.com/dy/article/VWJ144BMJ.html"
    },
    {
        "title": "被大家嫌弃的顶层，都被谁买走了",
        "docid": "VWJE4EOAV",
        "url": "https://www.163.com/dy/article/VWJE4EOAV.html"
    },
    {
        "title": "这才是真正的沪上阿姨 住在30万一平米房子 简直就是梦中达林",
        "docid": "VHIVD99NI",
        "url": "https://www.163.com/dy/article/VHIVD99NI.html"
    },
    {
        "title": "这些地方你敢买，就敢让你亏",
        "docid": "VZJE3IAVF",
        "url": "https://www.163.com/dy/article/VZJE3IAVF.html"
    },
    {
        "title": "武汉最猖狂钉子户，要价3000万被拒绝",
        "docid": "VAJE3M6A0",
        "url": "https://www.163.com/dy/article/VAJE3M6A0.html"
    },
    {
        "title": "排了三年终于排到的公租房给大家展示一下哈哈哈",
        "docid": "VDIVV0IIH",
        "url": "https://www.163.com/dy/article/VDIVV0IIH.html"
    },
    {
        "title": "五张图显示美国房地产严重低迷",
        "docid": "IKC58O290552JRS3",
        "url": "https://www.163.com/dy/article/IKC58O290552JRS3.html"
    },
    {
        "title": "“买一楼送花园”是馅饼还是陷阱! 遇到问题我能退房吗!",
        "docid": "IJUUSPE70552ZK62",
        "url": "https://www.163.com/dy/article/IJUUSPE70552ZK62.html"
    },
    {
        "title": "菲茨罗伊北住宅 Hecker Guthrie 2023 澳大利亚",
        "docid": "IKC2VQLH0556123R",
        "url": "https://www.163.com/dy/article/IKC2VQLH0556123R.html"
    },
    {
        "title": "同一栋楼，为何“东户”总是被嫌弃？老一辈一语道破，真实又无奈",
        "docid": "IK12H9MQ0532D0CK",
        "url": "https://www.163.com/dy/article/IK12H9MQ0532D0CK.html"
    },
    {
        "title": "十年的房贷终于还完了，可是房子也便宜了！感觉自己当了十年冤种",
        "docid": "IKC1JDT205564Z4P",
        "url": "https://www.163.com/dy/article/IKC1JDT205564Z4P.html"
    },
    {
        "title": "32宗地！武汉第四批拟供地项目清单出炉！",
        "docid": "IK9K4P3C0552F71X",
        "url": "https://www.163.com/dy/article/IK9K4P3C0552F71X.html"
    },
    {
        "title": "宇宙中心光谷东跌下神坛！曾经第一神盘二手房跌破12729元/平米！",
        "docid": "IK95414F0556123R",
        "url": "https://www.163.com/dy/article/IK95414F0556123R.html"
    },
    {
        "title": "武汉经开区一宅地24日出让 起拍楼面价2800元/平",
        "docid": "IK5JU58I0550AAMM",
        "url": "https://www.163.com/dy/article/IK5JU58I0550AAMM.html"
    },
    {
        "title": "壹心学院在汉兴街道举办党建引领推动老旧小区物业长效管理培训",
        "docid": "IKARLBFC05566B74",
        "url": "https://www.163.com/dy/article/IKARLBFC05566B74.html"
    },
    {
        "title": "武汉青山区发布引才聚才政策：购买指定商品住房 给予5万元购房补贴",
        "docid": "IK57VH9M05198CJN",
        "url": "https://www.163.com/dy/article/IK57VH9M05198CJN.html"
    },
    {
        "title": "32宗地！武汉第四批拟供地项目清单出炉！",
        "docid": "IK9K4P3C0552F71X",
        "url": "https://www.163.com/dy/article/IK9K4P3C0552F71X.html"
    },
    {
        "title": "壹心学院在汉兴街道举办党建引领推动老旧小区物业长效管理培训",
        "docid": "IKARLBFC05566B74",
        "url": "https://www.163.com/dy/article/IKARLBFC05566B74.html"
    },
    {
        "title": "武汉四批次供地：32宗涉宅地 其中经开区6宗地、洪山区5宗地",
        "docid": "IKA69PSO0519D45U",
        "url": "https://www.163.com/dy/article/IKA69PSO0519D45U.html"
    },
    {
        "title": "武汉买房：2023年楼市走向明确！",
        "docid": "IK864M9005560R20",
        "url": "https://www.163.com/dy/article/IK864M9005560R20.html"
    },
    {
        "title": "武汉青山区发布引才聚才政策：购买指定商品住房 给予5万元购房补贴",
        "docid": "IK57VH9M05198CJN",
        "url": "https://www.163.com/dy/article/IK57VH9M05198CJN.html"
    },
    {
        "title": "2023年武汉楼市：当下一定要擦亮眼睛",
        "docid": "IK6FIC2N05560R20",
        "url": "https://www.163.com/dy/article/IK6FIC2N05560R20.html"
    },
    {
        "title": "武汉5宗地块将于12月网拍 总起拍价97.58亿元",
        "docid": "IK5LOKI40519D45U",
        "url": "https://www.163.com/dy/article/IK5LOKI40519D45U.html"
    },
    {
        "title": "春节前会有很多小区房东降价卖房子",
        "docid": "IK2JSU490535JMSP",
        "url": "https://www.163.com/dy/article/IK2JSU490535JMSP.html"
    },
    {
        "title": "高新区GX5-3-59宗地用地规划条件公示",
        "docid": "IK6AKTPD0534M7IC",
        "url": "https://www.163.com/dy/article/IK6AKTPD0534M7IC.html"
    },
    {
        "title": "12地推房产“以旧换新”政策 缩短“卖旧买新”周期成重点",
        "docid": "IK8NIK820512D3VJ",
        "url": "https://www.163.com/dy/article/IK8NIK820512D3VJ.html"
    },
    {
        "title": "朝阳这些地方的拆迁腾退问题~相关部门回复了！",
        "docid": "IKBAUR0I05359UFM",
        "url": "https://www.163.com/dy/article/IKBAUR0I05359UFM.html"
    },
    {
        "title": "怎么评价武汉这个业主的卖房心态？从8月份到现在，反复涨价降价",
        "docid": "IKC7JRI105564Z4P",
        "url": "https://www.163.com/dy/article/IKC7JRI105564Z4P.html"
    },
    {
        "title": "32宗地！武汉第四批拟供地项目清单出炉！",
        "docid": "IK9K4P3C0552F71X",
        "url": "https://www.163.com/dy/article/IK9K4P3C0552F71X.html"
    },
    {
        "title": "在武汉，有眼光的人都买这里，最有价值的地段！",
        "docid": "IK85MHT005560R20",
        "url": "https://www.163.com/dy/article/IK85MHT005560R20.html"
    },
    {
        "title": "宇宙中心光谷东跌下神坛！曾经第一神盘二手房跌破12729元/平米！",
        "docid": "IK95414F0556123R",
        "url": "https://www.163.com/dy/article/IK95414F0556123R.html"
    },
    {
        "title": "武汉四批次供地：32宗涉宅地 其中经开区6宗地、洪山区5宗地",
        "docid": "IKA64ASD0553RRD3",
        "url": "https://www.163.com/dy/article/IKA64ASD0553RRD3.html"
    },
    {
        "title": "武汉买房：2023年楼市走向明确！",
        "docid": "IK864M9005560R20",
        "url": "https://www.163.com/dy/article/IK864M9005560R20.html"
    },
    {
        "title": "武汉青山区发布引才聚才政策：购买指定商品住房 给予5万元购房补贴",
        "docid": "IK57VH9M05198CJN",
        "url": "https://www.163.com/dy/article/IK57VH9M05198CJN.html"
    },
    {
        "title": "2023年武汉楼市：当下一定要擦亮眼睛",
        "docid": "IK6FIC2N05560R20",
        "url": "https://www.163.com/dy/article/IK6FIC2N05560R20.html"
    },
    {
        "title": "武汉5宗地块将于12月网拍 总起拍价97.58亿元",
        "docid": "IK5LOKI40519D45U",
        "url": "https://www.163.com/dy/article/IK5LOKI40519D45U.html"
    },
    {
        "title": "中国住房没有过剩？专家：农民工购房比例过低，要鼓励农民工买房",
        "docid": "IKBG1E5V05563VMS",
        "url": "https://www.163.com/dy/article/IKBG1E5V05563VMS.html"
    },
    {
        "title": "武汉发布第四批拟供地项目清单，共计32宗地块",
        "docid": "IKANDR2G0550AAMM",
        "url": "https://www.163.com/dy/article/IKANDR2G0550AAMM.html"
    },
    {
        "title": "武汉四批次供地：32宗涉宅地 其中经开区6宗地、洪山区5宗地",
        "docid": "IKA64ASD0553RRD3",
        "url": "https://www.163.com/dy/article/IKA64ASD0553RRD3.html"
    },
    {
        "title": "武汉买房：2023年楼市走向明确！",
        "docid": "IK864M9005560R20",
        "url": "https://www.163.com/dy/article/IK864M9005560R20.html"
    },
    {
        "title": "无开发资质却卖房84套，武汉德商荣和置业被罚",
        "docid": "IK57L7F30552H092",
        "url": "https://www.163.com/dy/article/IK57L7F30552H092.html"
    },
    {
        "title": "应志刚调研安居链公司：高质量完成房地产供应链平台建设工作",
        "docid": "IK8FUJ800553TEQM",
        "url": "https://www.163.com/dy/article/IK8FUJ800553TEQM.html"
    },
    {
        "title": "武汉600多万的房子挂卖价455万，此时换房是机遇还是坑？",
        "docid": "IK9MGDQE0535MP84",
        "url": "https://www.163.com/dy/article/IK9MGDQE0535MP84.html"
    },
    {
        "title": "洪山村城中村改造K5地块开发项目公示！",
        "docid": "IK6F9SEM0534SV3Y",
        "url": "https://www.163.com/dy/article/IK6F9SEM0534SV3Y.html"
    },
    {
        "title": "这是什么世道！有些开发商没钱建房，却有钱雇打手！",
        "docid": "IJURK4OP05563RT8",
        "url": "https://www.163.com/dy/article/IJURK4OP05563RT8.html"
    },
    {
        "title": "武汉新城 | 科学岛1宗住宅用地挂牌，起始楼面价7600元/平！",
        "docid": "IKBK7NTF0534SV3Y",
        "url": "https://www.163.com/dy/article/IKBK7NTF0534SV3Y.html"
    },
    {
        "title": "郑州法拍房挂拍9500套，成交率不足2成",
        "docid": "IKCDK5V905159A0N",
        "url": "https://www.163.com/dy/article/IKCDK5V905159A0N.html"
    },
    {
        "title": "无比沉重的现实，有心无力的对话",
        "docid": "IKCDSCTL055633GB",
        "url": "https://www.163.com/dy/article/IKCDSCTL055633GB.html"
    },
    {
        "title": "嘴里天天复工保交楼，但他心里非常清楚没资金不可能，钱从何来？",
        "docid": "IKC6G5RK0535KYBT",
        "url": "https://www.163.com/dy/article/IKC6G5RK0535KYBT.html"
    },
    {
        "title": "很明显：这是一款奢华的大户型",
        "docid": "IKC6RBGA0552QWCE",
        "url": "https://www.163.com/dy/article/IKC6RBGA0552QWCE.html"
    },
    {
        "title": "叹为观止，华裔赚钱的手段让美国人惊了！",
        "docid": "IKC6QLR10535KYC0",
        "url": "https://www.163.com/dy/article/IKC6QLR10535KYC0.html"
    },
    {
        "title": "煎熬！疫情居家18天，让我醒悟，这类房子打死也不能买",
        "docid": "IKC6VLVF0535MP84",
        "url": "https://www.163.com/dy/article/IKC6VLVF0535MP84.html"
    },
    {
        "title": "房子真的砸在自己手里了！",
        "docid": "IKC6RRR10535KYBT",
        "url": "https://www.163.com/dy/article/IKC6RRR10535KYBT.html"
    },
    {
        "title": "降维打击下的绝望：杭州租金与北大毕业生收入对比",
        "docid": "VXJ167CRS",
        "url": "https://www.163.com/dy/article/VXJ167CRS.html"
    },
    {
        "title": "国家要“动真格”了？催买房不成，黄奇帆提“好方案”，网友支持",
        "docid": "VAJ79C359",
        "url": "https://www.163.com/dy/article/VAJ79C359.html"
    },
    {
        "title": "著名歌唱家，毛阿敏在北京的顶级豪宅，单价15万，看看有多气派",
        "docid": "VDJ15BJO2",
        "url": "https://www.163.com/dy/article/VDJ15BJO2.html"
    },
    {
        "title": "4年前王大陆贷款596万买了825万的房子，如今房子没了，倒欠百万",
        "docid": "IKC7Q99H0535MP84",
        "url": "https://www.163.com/dy/article/IKC7Q99H0535MP84.html"
    },
    {
        "title": "闺蜜在同一个小区看中两套140平米的房子，她犯难了",
        "docid": "IKC81RF10535KYBT",
        "url": "https://www.163.com/dy/article/IKC81RF10535KYBT.html"
    },
    {
        "title": "32宗地！武汉第四批拟供地项目清单出炉！",
        "docid": "IK9K4P3C0552F71X",
        "url": "https://www.163.com/dy/article/IK9K4P3C0552F71X.html"
    },
    {
        "title": "在武汉，有眼光的人都买这里，最有价值的地段！",
        "docid": "IK85MHT005560R20",
        "url": "https://www.163.com/dy/article/IK85MHT005560R20.html"
    },
    {
        "title": "国家动真格了？刺激买房无果后，黄奇帆提“好方案”，获网友支持",
        "docid": "IKBJ8JM90519GBC0",
        "url": "https://www.163.com/dy/article/IKBJ8JM90519GBC0.html"
    },
    {
        "title": "武汉四批次供地：32宗涉宅地 其中经开区6宗地、洪山区5宗地",
        "docid": "IKA64ASD0553RRD3",
        "url": "https://www.163.com/dy/article/IKA64ASD0553RRD3.html"
    },
    {
        "title": "武汉青山区发布引才聚才政策：购买指定商品住房 给予5万元购房补贴",
        "docid": "IK57VH9M05198CJN",
        "url": "https://www.163.com/dy/article/IK57VH9M05198CJN.html"
    },
    {
        "title": "2023年武汉楼市：当下一定要擦亮眼睛",
        "docid": "IK6FIC2N05560R20",
        "url": "https://www.163.com/dy/article/IK6FIC2N05560R20.html"
    },
    {
        "title": "无开发资质却卖房84套，武汉德商荣和置业被罚",
        "docid": "IK57L7F30552H092",
        "url": "https://www.163.com/dy/article/IK57L7F30552H092.html"
    },
    {
        "title": "武汉5宗地块将于12月网拍 总起拍价97.58亿元",
        "docid": "IK5LOKI40519D45U",
        "url": "https://www.163.com/dy/article/IK5LOKI40519D45U.html"
    },
    {
        "title": "3.5万跌至1.2万，工业强县房价缩水70%，投资者：当年真不该跟风",
        "docid": "IKC88DKM0535MP84",
        "url": "https://www.163.com/dy/article/IKC88DKM0535MP84.html"
    },
    {
        "title": "未来五年，要好好活下去，建议普通百姓做好以下几点，未雨绸缪",
        "docid": "IKCAB5U80535KYBT",
        "url": "https://www.163.com/dy/article/IKCAB5U80535KYBT.html"
    },
    {
        "title": "澳洲天堂小岛，中国投资者遭到集体围攻，在当地做慈善啊",
        "docid": "IKC86S0N0552QWCL",
        "url": "https://www.163.com/dy/article/IKC86S0N0552QWCL.html"
    },
    {
        "title": "接近满分的户型：活动厅相当有品味",
        "docid": "IKCA5MOV0552QWCL",
        "url": "https://www.163.com/dy/article/IKCA5MOV0552QWCL.html"
    },
    {
        "title": "这个房子也太漂亮了，买房可以参考这个户型",
        "docid": "IKC99TNV0535MP84",
        "url": "https://www.163.com/dy/article/IKC99TNV0535MP84.html"
    },
    {
        "title": "彻底沸腾，全国限购政策相继出台，年龄放宽至七十周岁",
        "docid": "IKCA05LS0552CPHG",
        "url": "https://www.163.com/dy/article/IKCA05LS0552CPHG.html"
    },
    {
        "title": "曾花18亿买下海南3300亩地，86亿转卖恒大后，还没开发如今已被没收",
        "docid": "IKC9DIBE0535L5VU",
        "url": "https://www.163.com/dy/article/IKC9DIBE0535L5VU.html"
    },
    {
        "title": "房东 租房合同正规版本 房屋租赁合同范本 租房合同",
        "docid": "VNJEGHDVK",
        "url": "https://www.163.com/dy/article/VNJEGHDVK.html"
    },
    {
        "title": "月供还不上了，爱咋地咋地吧！",
        "docid": "VGJEE3MLH",
        "url": "https://www.163.com/dy/article/VGJEE3MLH.html"
    },
    {
        "title": "2023年以后，什么房子值得买？",
        "docid": "VGJECT6ON",
        "url": "https://www.163.com/dy/article/VGJECT6ON.html"
    },
    {
        "title": "现在一线城市的那些房东是心情最坎坷的了。",
        "docid": "IKCAGS8H0535KYBT",
        "url": "https://www.163.com/dy/article/IKCAGS8H0535KYBT.html"
    },
    {
        "title": "有专家说，五年以后高层住宅6楼以上没人住，你信吗？",
        "docid": "IKC903RQ0535MP84",
        "url": "https://www.163.com/dy/article/IKC903RQ0535MP84.html"
    },
    {
        "title": "女子将毛坯房出租，10年以后发现，房子变成了精装修",
        "docid": "IKC86O7V0535KYBT",
        "url": "https://www.163.com/dy/article/IKC86O7V0535KYBT.html"
    },
    {
        "title": "人口仅30万的小县城，坐拥2个碧桂园、3个恒大？房子由谁来买？",
        "docid": "IKCAKH710535KYBT",
        "url": "https://www.163.com/dy/article/IKCAKH710535KYBT.html"
    },
    {
        "title": "人民专家为人民，我咋一算算迷糊了",
        "docid": "IKC9FDIB0535KYBT",
        "url": "https://www.163.com/dy/article/IKC9FDIB0535KYBT.html"
    },
    {
        "title": "去年冲动买了套房，现在我成了朋友的笑料",
        "docid": "IKC8RPIU0535KYBT",
        "url": "https://www.163.com/dy/article/IKC8RPIU0535KYBT.html"
    },
    {
        "title": "亲戚想400万买我的房，为何却370万卖给陌生人？交易成本更重要？",
        "docid": "IKC8Q45Q0535MP84",
        "url": "https://www.163.com/dy/article/IKC8Q45Q0535MP84.html"
    },
    {
        "title": "堪比高房价更揪心的问题，已在各大城市蔓延？没买房的人要愁了",
        "docid": "IJVBNMJE0535KYBT",
        "url": "https://www.163.com/dy/article/IJVBNMJE0535KYBT.html"
    },
    {
        "title": "文旅项目这样卖，不愁没客户",
        "docid": "IJVJIECH05158B67",
        "url": "https://www.163.com/dy/article/IJVJIECH05158B67.html"
    },
    {
        "title": "入住别墅后，只想尽快搬回高层，没有想象中那么好，住了才知道",
        "docid": "VZJEGLPFT",
        "url": "https://www.163.com/dy/article/VZJEGLPFT.html"
    },
    {
        "title": "今年最优雅的180平米户型，有入户花园、空中庭院、独立老人套房",
        "docid": "IJVAUU880535L5VU",
        "url": "https://www.163.com/dy/article/IJVAUU880535L5VU.html"
    },
    {
        "title": "武汉挂牌9宗涉宅地块，总土地面积49.87万平方米",
        "docid": "IKCK9LD50539AP40",
        "url": "https://www.163.com/dy/article/IKCK9LD50539AP40.html"
    },
    {
        "title": "拿到房产证后，要和开发商去要这笔钱，否则就会被私吞了",
        "docid": "IKCJGL040553RRD3",
        "url": "https://www.163.com/dy/article/IKCJGL040553RRD3.html"
    },
    {
        "title": "司马南在美国的巨额资产曝光",
        "docid": "IKCAEVE50535L5VU",
        "url": "https://www.163.com/dy/article/IKCAEVE50535L5VU.html"
    },
    {
        "title": "融创惊险过关？2024该买房还是存钱？",
        "docid": "IKCKMBT20553TDXU",
        "url": "https://www.163.com/dy/article/IKCKMBT20553TDXU.html"
    },
    {
        "title": "为何265平米的大平层能成为五室户型的标杆？",
        "docid": "IJVCHT260552QWCS",
        "url": "https://www.163.com/dy/article/IJVCHT260552QWCS.html"
    },
    {
        "title": "武汉楼市：近期是个不错的窗口！",
        "docid": "IKB7EUNS05560R20",
        "url": "https://www.163.com/dy/article/IKB7EUNS05560R20.html"
    },
    {
        "title": "明年开始，存款超过30万的家庭要注意守好钱袋子，否则就要伤心了",
        "docid": "VHJEOUPNB",
        "url": "https://www.163.com/dy/article/VHJEOUPNB.html"
    },
    {
        "title": "再这样下去，国内将不会有任何未来！",
        "docid": "VZJEKE640",
        "url": "https://www.163.com/dy/article/VZJEKE640.html"
    },
    {
        "title": "农村建房，中式小院就不错，",
        "docid": "VDJ1N973C",
        "url": "https://www.163.com/dy/article/VDJ1N973C.html"
    },
    {
        "title": "为什么有钱人会喜欢买二手房，没钱人会喜欢买新房，中介说出原因",
        "docid": "IKCL9SQ40553TEV3",
        "url": "https://www.163.com/dy/article/IKCL9SQ40553TEV3.html"
    },
    {
        "title": "城市郊区和新开发区的房产，为什么不香了？",
        "docid": "IJGDVOUR0535WDMF",
        "url": "https://www.163.com/dy/article/IJGDVOUR0535WDMF.html"
    },
    {
        "title": "中国房价，究竟有多高？中国房价，会不会暴跌？看看真实的数据吧",
        "docid": "IKC8S12T0535MP84",
        "url": "https://www.163.com/dy/article/IKC8S12T0535MP84.html"
    },
    {
        "title": "海南落户口需要哪些条件和资料？海南落户政策2023及办理流程",
        "docid": "IKA99A20055669UT",
        "url": "https://www.163.com/dy/article/IKA99A20055669UT.html"
    },
    {
        "title": "“公寓”和“住宅”到底差别在哪儿？为何有钱人爱买前者了",
        "docid": "IK5L8F2D0540KLAM",
        "url": "https://www.163.com/dy/article/IK5L8F2D0540KLAM.html"
    },
    {
        "title": "武汉发布第四批拟供地项目清单，共计32宗地块",
        "docid": "IKANDR2G0550AAMM",
        "url": "https://www.163.com/dy/article/IKANDR2G0550AAMM.html"
    },
    {
        "title": "武汉四批次供地：32宗涉宅地 其中经开区6宗地、洪山区5宗地",
        "docid": "IKA64ASD0553RRD3",
        "url": "https://www.163.com/dy/article/IKA64ASD0553RRD3.html"
    },
    {
        "title": "武汉买房：2023年楼市走向明确！",
        "docid": "IK864M9005560R20",
        "url": "https://www.163.com/dy/article/IK864M9005560R20.html"
    },
    {
        "title": "武汉挂牌9宗涉宅地块，总土地面积49.87万平方米",
        "docid": "IKCK8EVI0514R9P4",
        "url": "https://www.163.com/dy/article/IKCK8EVI0514R9P4.html"
    },
    {
        "title": "无开发资质却卖房84套，武汉德商荣和置业被罚",
        "docid": "IK57L7F30552H092",
        "url": "https://www.163.com/dy/article/IK57L7F30552H092.html"
    },
    {
        "title": "376平米奢华户型，自带空中露台",
        "docid": "IJVDNV4I0552QWCS",
        "url": "https://www.163.com/dy/article/IJVDNV4I0552QWCS.html"
    },
    {
        "title": "深圳广州带头新一波楼市松绑，成交下跌的北京上海即将跟进！",
        "docid": "IKCMPM6N0535KAWB",
        "url": "https://www.163.com/dy/article/IKCMPM6N0535KAWB.html"
    },
    {
        "title": "物业公司标准工作流程体系汇编",
        "docid": "IKCNNNOT0535R288",
        "url": "https://www.163.com/dy/article/IKCNNNOT0535R288.html"
    },
    {
        "title": "孟晓苏：让穷人能住上房，让富人能住好房，这就是双轨制的意义。",
        "docid": "IKCNK8H20542M5JD",
        "url": "https://www.163.com/dy/article/IKCNK8H20542M5JD.html"
    },
    {
        "title": "32宗地！武汉第四批拟供地项目清单出炉！",
        "docid": "IK9K4P3C0552F71X",
        "url": "https://www.163.com/dy/article/IK9K4P3C0552F71X.html"
    },
    {
        "title": "宇宙中心光谷东跌下神坛！曾经第一神盘二手房跌破12729元/平米！",
        "docid": "IK95414F0556123R",
        "url": "https://www.163.com/dy/article/IK95414F0556123R.html"
    },
    {
        "title": "武汉挂牌9宗涉宅地块，总土地面积49.87万平方米",
        "docid": "IKCK9LD50539AP40",
        "url": "https://www.163.com/dy/article/IKCK9LD50539AP40.html"
    },
    {
        "title": "武汉四批次供地：32宗涉宅地 其中经开区6宗地、洪山区5宗地",
        "docid": "IKA69PSO0519D45U",
        "url": "https://www.163.com/dy/article/IKA69PSO0519D45U.html"
    },
    {
        "title": "武汉买房：2023年楼市走向明确！",
        "docid": "IK864M9005560R20",
        "url": "https://www.163.com/dy/article/IK864M9005560R20.html"
    },
    {
        "title": "2023年武汉楼市：当下一定要擦亮眼睛",
        "docid": "IK6FIC2N05560R20",
        "url": "https://www.163.com/dy/article/IK6FIC2N05560R20.html"
    },
    {
        "title": "万达扛不住了？面临巨大压力，老王能否力挽狂澜",
        "docid": "IKCOABD405561JTQ",
        "url": "https://www.163.com/dy/article/IKCOABD405561JTQ.html"
    },
    {
        "title": "老破小的学区房是否值得去买？不妨看看这3点再做决定",
        "docid": "IK5LARTR0540KLAM",
        "url": "https://www.163.com/dy/article/IK5LARTR0540KLAM.html"
    },
    {
        "title": "自如租房半年发现生活用水为中水",
        "docid": "IKCOQHLE055628N9",
        "url": "https://www.163.com/dy/article/IKCOQHLE055628N9.html"
    },
    {
        "title": "海得拉巴成为印度顶级办公空间市场，租赁面积超德里、班加罗尔",
        "docid": "IKAD54HQ05563S5U",
        "url": "https://www.163.com/dy/article/IKAD54HQ05563S5U.html"
    },
    {
        "title": "今日开放样板间！华润观宸润府即将入市，均价63520元/㎡（官网）",
        "docid": "IKCO5UA305565QXD",
        "url": "https://www.163.com/dy/article/IKCO5UA305565QXD.html"
    },
    {
        "title": "绿城管理将合营公司绿城时代整体管理，纳入自身范畴",
        "docid": "IKCMFVGH055381XS",
        "url": "https://www.163.com/dy/article/IKCMFVGH055381XS.html"
    },
    {
        "title": "每月公积金自己缴1500，公司缴1500，在国内是什么水平？",
        "docid": "IKAUQE2205561BO9",
        "url": "https://www.163.com/dy/article/IKAUQE2205561BO9.html"
    },
    {
        "title": "看着挺普通的一栋小别墅，实则花了主人很多心思，这套房子很实用",
        "docid": "VWJEHO2QB",
        "url": "https://www.163.com/dy/article/VWJEHO2QB.html"
    },
    {
        "title": "房子租给70后家长陪读租期到期退租，车库里的东西惊到了",
        "docid": "VQJEHGSF5",
        "url": "https://www.163.com/dy/article/VQJEHGSF5.html"
    },
    {
        "title": "从现在往后，这四类人 千万别来海南买房了！否则要吃大亏的",
        "docid": "VCJ03P6IE",
        "url": "https://www.163.com/dy/article/VCJ03P6IE.html"
    },
    {
        "title": "龙岩市区2宗地成功“出嫁” 汇金收获1宗龙津湖宅地",
        "docid": "IKB9SDB10515AMRT",
        "url": "https://www.163.com/dy/article/IKB9SDB10515AMRT.html"
    },
    {
        "title": "内行教你：买房认清楚这几类，巧妙避开潜在&quot;公摊费&quot;！",
        "docid": "IK5LIV7C0540KLAM",
        "url": "https://www.163.com/dy/article/IK5LIV7C0540KLAM.html"
    },
    {
        "title": "人均住房面积：北上广深小于35平，江西这3城超60平",
        "docid": "IKCPNT4H0536I1QE",
        "url": "https://www.163.com/dy/article/IKCPNT4H0536I1QE.html"
    },
    {
        "title": "32宗地！武汉第四批拟供地项目清单出炉！",
        "docid": "IK9K4P3C0552F71X",
        "url": "https://www.163.com/dy/article/IK9K4P3C0552F71X.html"
    },
    {
        "title": "在武汉，有眼光的人都买这里，最有价值的地段！",
        "docid": "IK85MHT005560R20",
        "url": "https://www.163.com/dy/article/IK85MHT005560R20.html"
    },
    {
        "title": "宇宙中心光谷东跌下神坛！曾经第一神盘二手房跌破12729元/平米！",
        "docid": "IK95414F0556123R",
        "url": "https://www.163.com/dy/article/IK95414F0556123R.html"
    },
    {
        "title": "武汉挂牌9宗涉宅地块，总土地面积49.87万平方米",
        "docid": "IKCK9LD50539AP40",
        "url": "https://www.163.com/dy/article/IKCK9LD50539AP40.html"
    },
    {
        "title": "武汉经开区一宅地24日出让 起拍楼面价2800元/平",
        "docid": "IK5JU58I0550AAMM",
        "url": "https://www.163.com/dy/article/IK5JU58I0550AAMM.html"
    },
    {
        "title": "壹心学院在汉兴街道举办党建引领推动老旧小区物业长效管理培训",
        "docid": "IKARLBFC05566B74",
        "url": "https://www.163.com/dy/article/IKARLBFC05566B74.html"
    },
    {
        "title": "无开发资质却卖房84套，武汉德商荣和置业被罚",
        "docid": "IK57L7F30552H092",
        "url": "https://www.163.com/dy/article/IK57L7F30552H092.html"
    },
    {
        "title": "新政！2024年起，想要申请赴日长期签证的国内人士，可能得多加一份材料证明……",
        "docid": "IKCQRAH205359JWY",
        "url": "https://www.163.com/dy/article/IKCQRAH205359JWY.html"
    },
    {
        "title": "农村年轻人，为何不回农村盖自建房？掏空6个钱包也要在城里买房",
        "docid": "IIK1GT660535WDMF",
        "url": "https://www.163.com/dy/article/IIK1GT660535WDMF.html"
    },
    {
        "title": "在武汉，有眼光的人都买这里，最有价值的地段！",
        "docid": "IK85MHT005560R20",
        "url": "https://www.163.com/dy/article/IK85MHT005560R20.html"
    },
    {
        "title": "武汉经开区一宅地24日出让 起拍楼面价2800元/平",
        "docid": "IK5JU58I0550AAMM",
        "url": "https://www.163.com/dy/article/IK5JU58I0550AAMM.html"
    },
    {
        "title": "武汉发布第四批拟供地项目清单，共计32宗地块",
        "docid": "IKANDR2G0550AAMM",
        "url": "https://www.163.com/dy/article/IKANDR2G0550AAMM.html"
    },
    {
        "title": "武汉买房：2023年楼市走向明确！",
        "docid": "IK864M9005560R20",
        "url": "https://www.163.com/dy/article/IK864M9005560R20.html"
    },
    {
        "title": "武汉挂牌9宗涉宅地块，总土地面积49.87万平方米",
        "docid": "IKCK8EVI0514R9P4",
        "url": "https://www.163.com/dy/article/IKCK8EVI0514R9P4.html"
    },
    {
        "title": "武汉5宗地块将于12月网拍 总起拍价97.58亿元",
        "docid": "IK5LOKI40519D45U",
        "url": "https://www.163.com/dy/article/IK5LOKI40519D45U.html"
    },
    {
        "title": "春节前会有很多小区房东降价卖房子",
        "docid": "IK2JSU490535JMSP",
        "url": "https://www.163.com/dy/article/IK2JSU490535JMSP.html"
    },
    {
        "title": "应志刚调研安居链公司：高质量完成房地产供应链平台建设工作",
        "docid": "IK8FUJ800553TEQM",
        "url": "https://www.163.com/dy/article/IK8FUJ800553TEQM.html"
    },
    {
        "title": "小别墅也能建好房, 这款就很不错, 要建房的别错过",
        "docid": "IJVS2H9905534LU1",
        "url": "https://www.163.com/dy/article/IJVS2H9905534LU1.html"
    },
    {
        "title": "持有越久可能亏越多，有时候止损本身也是一种赚，绿景白石洲",
        "docid": "IKCSJ7CM055667XI",
        "url": "https://www.163.com/dy/article/IKCSJ7CM055667XI.html"
    },
    {
        "title": "最后的疯狂！许家印海外资产全曝光，私人住宅遍布欧美澳",
        "docid": "IKCQV3RA05532R06",
        "url": "https://www.163.com/dy/article/IKCQV3RA05532R06.html"
    },
    {
        "title": "在购买房产时，选择东户还是西户是一个需要仔细考虑的问题",
        "docid": "IJSAACC80532D0CK",
        "url": "https://www.163.com/dy/article/IJSAACC80532D0CK.html"
    },
    {
        "title": "中国未来20年，最值得投资的不再是房子，而是这2个新产业",
        "docid": "IKCAH89V0535MP84",
        "url": "https://www.163.com/dy/article/IKCAH89V0535MP84.html"
    },
    {
        "title": "分享|德国柏林64平老公寓",
        "docid": "IKCS0JEP0553T643",
        "url": "https://www.163.com/dy/article/IKCS0JEP0553T643.html"
    },
    {
        "title": "那些翁同龢式的灵魂之问.......",
        "docid": "IKCF98NF0553JMK2",
        "url": "https://www.163.com/dy/article/IKCF98NF0553JMK2.html"
    },
    {
        "title": "据说曾答应给房主30万他都不搬，他执意要50万才搬，最终还是没达成协议，你们觉得呢！",
        "docid": "VKJF37F3D",
        "url": "https://www.163.com/dy/article/VKJF37F3D.html"
    },
    {
        "title": "你们想看的带尺寸的庭院 爸妈都说好",
        "docid": "VSJF0ATLG",
        "url": "https://www.163.com/dy/article/VSJF0ATLG.html"
    },
    {
        "title": "聪明人开始布局旧小区，你还在买高层住宅？听听聪明人如何说",
        "docid": "VGJC1IH11",
        "url": "https://www.163.com/dy/article/VGJC1IH11.html"
    },
    {
        "title": "我外甥在县城花800000元买了一套房子，五一乔迁...",
        "docid": "IKCRH9Q00542M5JD",
        "url": "https://www.163.com/dy/article/IKCRH9Q00542M5JD.html"
    },
    {
        "title": "【微分享】住宅小区室外排水系统常见问题与解决措施",
        "docid": "IKCV1FQQ0552QWCS",
        "url": "https://www.163.com/dy/article/IKCV1FQQ0552QWCS.html"
    },
    {
        "title": "千万别说涨跌无所谓，没有人的钱是大风刮来的，绿景白石洲",
        "docid": "IKCUA40M055667XI",
        "url": "https://www.163.com/dy/article/IKCUA40M055667XI.html"
    },
    {
        "title": "总价341万起，大华星曜，已过会，预计月底开启认购！（官网）",
        "docid": "IKCUIVK105565QF9",
        "url": "https://www.163.com/dy/article/IKCUIVK105565QF9.html"
    },
    {
        "title": "价格再便宜这两个楼层也不要买",
        "docid": "VGJF55AM0",
        "url": "https://www.163.com/dy/article/VGJF55AM0.html"
    },
    {
        "title": "房价下降只会要你的钱，买错房会要你的命",
        "docid": "VPJF5C75M",
        "url": "https://www.163.com/dy/article/VPJF5C75M.html"
    },
    {
        "title": "王石：年轻人没必要买房，现在的时代房子是过剩的",
        "docid": "VDJF55QQH",
        "url": "https://www.163.com/dy/article/VDJF55QQH.html"
    },
    {
        "title": "房子烂尾了，到底谁的责任？",
        "docid": "VMJ2TPNCQ",
        "url": "https://www.163.com/dy/article/VMJ2TPNCQ.html"
    },
    {
        "title": "大佬们纷纷抛售豪宅，这是为何？",
        "docid": "VWJ14142F",
        "url": "https://www.163.com/dy/article/VWJ14142F.html"
    },
    {
        "title": "房产中介很吃香，掌控信息速度快，一个不会被取缔的行业",
        "docid": "VUJERU49U",
        "url": "https://www.163.com/dy/article/VUJERU49U.html"
    },
    {
        "title": "曝光！这5大信号等于告诉你“楼市即将触底”，买房还需尽早！",
        "docid": "IKCUN9SD0515DKDK",
        "url": "https://www.163.com/dy/article/IKCUN9SD0515DKDK.html"
    },
    {
        "title": "太激动！大学生缴1008元公积金，毕业5年内可贷60万，别急着卖房",
        "docid": "IKD1F2F505562DLL",
        "url": "https://www.163.com/dy/article/IKD1F2F505562DLL.html"
    },
    {
        "title": "公摊面积的争议：买100平的楼，住80平的房，却交100平的物业费",
        "docid": "IK01LTVF0552NSSC",
        "url": "https://www.163.com/dy/article/IK01LTVF0552NSSC.html"
    },
    {
        "title": "楼市迎来重要转机，房价开启分化，未来只有这4个地区值得买房！",
        "docid": "IKD23IJV05562DLL",
        "url": "https://www.163.com/dy/article/IKD23IJV05562DLL.html"
    },
    {
        "title": "售楼小姐说漏嘴：买房不要选双卫生间户型了，住进去肠子悔青",
        "docid": "IKAVIFJH0540B07R",
        "url": "https://www.163.com/dy/article/IKAVIFJH0540B07R.html"
    },
    {
        "title": "银行不良资产处置潮起 涉房类零售不良贷款ABS发行创七年新高",
        "docid": "IKCK2JA005199DKK",
        "url": "https://www.163.com/dy/article/IKCK2JA005199DKK.html"
    },
    {
        "title": "建筑学家直言：一栋楼不管多少层，这3个楼层都属于“黄金楼层”",
        "docid": "VFJEV8E6J",
        "url": "https://www.163.com/dy/article/VFJEV8E6J.html"
    },
    {
        "title": "没有车贷没有房贷，钱都去哪了？",
        "docid": "VEJF71D9A",
        "url": "https://www.163.com/dy/article/VEJF71D9A.html"
    },
    {
        "title": "房东有情10年不涨房租，租客有义毛坯变精装房",
        "docid": "VQITHJ5L5",
        "url": "https://www.163.com/dy/article/VQITHJ5L5.html"
    },
    {
        "title": "租房可落户，抢人大战硝烟再起，城市们在焦虑什么?",
        "docid": "VDJD98644",
        "url": "https://www.163.com/dy/article/VDJD98644.html"
    },
    {
        "title": "建筑行业今日头条（2023年11月23日）",
        "docid": "IKCRQTF10549RI77",
        "url": "https://www.163.com/dy/article/IKCRQTF10549RI77.html"
    },
    {
        "title": "城市更新“加速度” 广州启动城中村改造立法",
        "docid": "IKD2QJML0514R9KQ",
        "url": "https://www.163.com/dy/article/IKD2QJML0514R9KQ.html"
    },
    {
        "title": "房子终于卖掉了，心都在滴血，这也算是亏损的解脱了",
        "docid": "IKCV3M2405562BBD",
        "url": "https://www.163.com/dy/article/IKCV3M2405562BBD.html"
    },
    {
        "title": "在武汉，有眼光的人都买这里，最有价值的地段！",
        "docid": "IK85MHT005560R20",
        "url": "https://www.163.com/dy/article/IK85MHT005560R20.html"
    },
    {
        "title": "宇宙中心光谷东跌下神坛！曾经第一神盘二手房跌破12729元/平米！",
        "docid": "IK95414F0556123R",
        "url": "https://www.163.com/dy/article/IK95414F0556123R.html"
    },
    {
        "title": "武汉挂牌9宗涉宅地块，总土地面积49.87万平方米",
        "docid": "IKCK9LD50539AP40",
        "url": "https://www.163.com/dy/article/IKCK9LD50539AP40.html"
    },
    {
        "title": "武汉发布第四批拟供地项目清单，共计32宗地块",
        "docid": "IKANDR2G0550AAMM",
        "url": "https://www.163.com/dy/article/IKANDR2G0550AAMM.html"
    },
    {
        "title": "武汉四批次供地：32宗涉宅地 其中经开区6宗地、洪山区5宗地",
        "docid": "IKA64ASD0553RRD3",
        "url": "https://www.163.com/dy/article/IKA64ASD0553RRD3.html"
    },
    {
        "title": "壹心学院在汉兴街道举办党建引领推动老旧小区物业长效管理培训",
        "docid": "IKARLBFC05566B74",
        "url": "https://www.163.com/dy/article/IKARLBFC05566B74.html"
    },
    {
        "title": "放开后，武汉楼市会反弹？",
        "docid": "IKB7ASNG05560R20",
        "url": "https://www.163.com/dy/article/IKB7ASNG05560R20.html"
    },
    {
        "title": "太吓人了！网友：中国房价两种截然不同的命运，浓缩在这两张图上",
        "docid": "IKD2KRE405562DLL",
        "url": "https://www.163.com/dy/article/IKD2KRE405562DLL.html"
    },
    {
        "title": "太扎心！人口红利逐渐消失，谁把孩子生在巅峰时期，楼市扛得住吗",
        "docid": "IK01M97F05562DLL",
        "url": "https://www.163.com/dy/article/IK01M97F05562DLL.html"
    },
    {
        "title": "在武汉，有眼光的人都买这里，最有价值的地段！",
        "docid": "IK85MHT005560R20",
        "url": "https://www.163.com/dy/article/IK85MHT005560R20.html"
    },
    {
        "title": "宇宙中心光谷东跌下神坛！曾经第一神盘二手房跌破12729元/平米！",
        "docid": "IK95414F0556123R",
        "url": "https://www.163.com/dy/article/IK95414F0556123R.html"
    },
    {
        "title": "武汉挂牌9宗涉宅地块，总土地面积49.87万平方米",
        "docid": "IKCK9LD50539AP40",
        "url": "https://www.163.com/dy/article/IKCK9LD50539AP40.html"
    },
    {
        "title": "武汉经开区一宅地24日出让 起拍楼面价2800元/平",
        "docid": "IK5JU58I0550AAMM",
        "url": "https://www.163.com/dy/article/IK5JU58I0550AAMM.html"
    },
    {
        "title": "武汉发布第四批拟供地项目清单，共计32宗地块",
        "docid": "IKANDR2G0550AAMM",
        "url": "https://www.163.com/dy/article/IKANDR2G0550AAMM.html"
    },
    {
        "title": "壹心学院在汉兴街道举办党建引领推动老旧小区物业长效管理培训",
        "docid": "IKARLBFC05566B74",
        "url": "https://www.163.com/dy/article/IKARLBFC05566B74.html"
    },
    {
        "title": "武汉买房：2023年楼市走向明确！",
        "docid": "IK864M9005560R20",
        "url": "https://www.163.com/dy/article/IK864M9005560R20.html"
    },
    {
        "title": "2023年武汉楼市：当下一定要擦亮眼睛",
        "docid": "IK6FIC2N05560R20",
        "url": "https://www.163.com/dy/article/IK6FIC2N05560R20.html"
    },
    {
        "title": "重要信号！二手房挂牌量不断减少，卖方市场来了，不要降价卖房！",
        "docid": "IKD6F7I805562DLL",
        "url": "https://www.163.com/dy/article/IKD6F7I805562DLL.html"
    },
    {
        "title": "真相！高新技术企业数量排名，这个城市1.3万家，难怪房价上涨！",
        "docid": "IKD5T7A105562DLL",
        "url": "https://www.163.com/dy/article/IKD5T7A105562DLL.html"
    },
    {
        "title": "房贷利率降一口气降到2.5左右才好！",
        "docid": "IKD6TG1I0546MZUE",
        "url": "https://www.163.com/dy/article/IKD6TG1I0546MZUE.html"
    },
    {
        "title": "土拍丨郑州三宗地揽金14.3亿元，电建/惠之泰/恒司置业摘地",
        "docid": "IKA9B7LM0552470H",
        "url": "https://www.163.com/dy/article/IKA9B7LM0552470H.html"
    },
    {
        "title": "32宗地！武汉第四批拟供地项目清单出炉！",
        "docid": "IK9K4P3C0552F71X",
        "url": "https://www.163.com/dy/article/IK9K4P3C0552F71X.html"
    },
    {
        "title": "在武汉，有眼光的人都买这里，最有价值的地段！",
        "docid": "IK85MHT005560R20",
        "url": "https://www.163.com/dy/article/IK85MHT005560R20.html"
    },
    {
        "title": "宇宙中心光谷东跌下神坛！曾经第一神盘二手房跌破12729元/平米！",
        "docid": "IK95414F0556123R",
        "url": "https://www.163.com/dy/article/IK95414F0556123R.html"
    },
    {
        "title": "武汉挂牌9宗涉宅地块，总土地面积49.87万平方米",
        "docid": "IKCK9LD50539AP40",
        "url": "https://www.163.com/dy/article/IKCK9LD50539AP40.html"
    },
    {
        "title": "武汉四批次供地：32宗涉宅地 其中经开区6宗地、洪山区5宗地",
        "docid": "IKA64ASD0553RRD3",
        "url": "https://www.163.com/dy/article/IKA64ASD0553RRD3.html"
    },
    {
        "title": "武汉买房：2023年楼市走向明确！",
        "docid": "IK864M9005560R20",
        "url": "https://www.163.com/dy/article/IK864M9005560R20.html"
    },
    {
        "title": "&quot;央行表态引发猜测：未来楼市走向两大预判揭秘&quot;",
        "docid": "IK87GF1J0540A6F8",
        "url": "https://www.163.com/dy/article/IK87GF1J0540A6F8.html"
    },
    {
        "title": "王健林再迎“大考”，这次能过关吗？",
        "docid": "IKD8LU0L05390H81",
        "url": "https://www.163.com/dy/article/IKD8LU0L05390H81.html"
    },
    {
        "title": "山海一程，何其有幸，感恩相遇，与妈湾共成长",
        "docid": "IKD8ROS50519DU0P",
        "url": "https://www.163.com/dy/article/IKD8ROS50519DU0P.html"
    },
    {
        "title": "建议看看日本40年房价走势！",
        "docid": "IKD7ORRI0553CGSZ",
        "url": "https://www.163.com/dy/article/IKD7ORRI0553CGSZ.html"
    },
    {
        "title": "32宗地！武汉第四批拟供地项目清单出炉！",
        "docid": "IK9K4P3C0552F71X",
        "url": "https://www.163.com/dy/article/IK9K4P3C0552F71X.html"
    },
    {
        "title": "武汉经开区一宅地24日出让 起拍楼面价2800元/平",
        "docid": "IK5JU58I0550AAMM",
        "url": "https://www.163.com/dy/article/IK5JU58I0550AAMM.html"
    },
    {
        "title": "壹心学院在汉兴街道举办党建引领推动老旧小区物业长效管理培训",
        "docid": "IKARLBFC05566B74",
        "url": "https://www.163.com/dy/article/IKARLBFC05566B74.html"
    },
    {
        "title": "武汉买房：2023年楼市走向明确！",
        "docid": "IK864M9005560R20",
        "url": "https://www.163.com/dy/article/IK864M9005560R20.html"
    },
    {
        "title": "2023年武汉楼市：当下一定要擦亮眼睛",
        "docid": "IK6FIC2N05560R20",
        "url": "https://www.163.com/dy/article/IK6FIC2N05560R20.html"
    },
    {
        "title": "放开后，武汉楼市会反弹？",
        "docid": "IKB7ASNG05560R20",
        "url": "https://www.163.com/dy/article/IKB7ASNG05560R20.html"
    },
    {
        "title": "代建双周报 | 蓝城与衡水市建设投资集团战略合作；中国房地产业协会代建分会正式成立（11.11-11.24）",
        "docid": "IKDA26VF0552F71X",
        "url": "https://www.163.com/dy/article/IKDA26VF0552F71X.html"
    },
    {
        "title": "降价大逃亡还是套路？实地踩盘，深度剖析！",
        "docid": "IKD9UT200549RI77",
        "url": "https://www.163.com/dy/article/IKD9UT200549RI77.html"
    },
    {
        "title": "调控再次升级！“炒房第一城”也顶不住了？房价还能继续下跌？",
        "docid": "IK875QI20540A6F8",
        "url": "https://www.163.com/dy/article/IK875QI20540A6F8.html"
    },
    {
        "title": "因为房子，眼里没光的人越来越多了",
        "docid": "IKB8O21705359JNR",
        "url": "https://www.163.com/dy/article/IKB8O21705359JNR.html"
    },
    {
        "title": "澳洲房产造富神话，还能继续吗？",
        "docid": "IKD9GJ4E05199N88",
        "url": "https://www.163.com/dy/article/IKD9GJ4E05199N88.html"
    },
    {
        "title": "上海宝山新四季都会首页丨新四季都会售楼处-官方网站-欢迎您",
        "docid": "IKD7TTRP05565VIU",
        "url": "https://www.163.com/dy/article/IKD7TTRP05565VIU.html"
    },
    {
        "title": "托底楼市！第二轮救市政策来袭，3个“不低于”果断出台",
        "docid": "VQJFFVV7O",
        "url": "https://www.163.com/dy/article/VQJFFVV7O.html"
    },
    {
        "title": "农村宅基地，你的隐形资产。",
        "docid": "VOJFAASG9",
        "url": "https://www.163.com/dy/article/VOJFAASG9.html"
    },
    {
        "title": "李嘉诚神预言！我国手握“两套房”的家庭，或将注定3个结果",
        "docid": "VCJFGL52B",
        "url": "https://www.163.com/dy/article/VCJFGL52B.html"
    },
    {
        "title": "“外墙”不会说话，  却可以彰显您的身份与品味！",
        "docid": "VNJF9JBUA",
        "url": "https://www.163.com/dy/article/VNJF9JBUA.html"
    },
    {
        "title": "为什么有钱人宁可住高层也不想买别墅？行家：这四个问题难解决",
        "docid": "IK1UKD7E0535MP84",
        "url": "https://www.163.com/dy/article/IK1UKD7E0535MP84.html"
    },
    {
        "title": "全国政协双周座谈会召开，关注房地产市场平稳健康发展",
        "docid": "IKDB8H4O0514R9P4",
        "url": "https://www.163.com/dy/article/IKDB8H4O0514R9P4.html"
    },
    {
        "title": "在武汉，有眼光的人都买这里，最有价值的地段！",
        "docid": "IK85MHT005560R20",
        "url": "https://www.163.com/dy/article/IK85MHT005560R20.html"
    },
    {
        "title": "武汉挂牌9宗涉宅地块，总土地面积49.87万平方米",
        "docid": "IKCK9LD50539AP40",
        "url": "https://www.163.com/dy/article/IKCK9LD50539AP40.html"
    },
    {
        "title": "武汉发布第四批拟供地项目清单，共计32宗地块",
        "docid": "IKANDR2G0550AAMM",
        "url": "https://www.163.com/dy/article/IKANDR2G0550AAMM.html"
    },
    {
        "title": "武汉四批次供地：32宗涉宅地 其中经开区6宗地、洪山区5宗地",
        "docid": "IKA64ASD0553RRD3",
        "url": "https://www.163.com/dy/article/IKA64ASD0553RRD3.html"
    },
    {
        "title": "2023年武汉楼市：当下一定要擦亮眼睛",
        "docid": "IK6FIC2N05560R20",
        "url": "https://www.163.com/dy/article/IK6FIC2N05560R20.html"
    },
    {
        "title": "春节前会有很多小区房东降价卖房子",
        "docid": "IK2JSU490535JMSP",
        "url": "https://www.163.com/dy/article/IK2JSU490535JMSP.html"
    },
    {
        "title": "催买房无果后三部委发声！从明年起，房地产或大概率出现2个趋势",
        "docid": "IKD77NTR0553TB9L",
        "url": "https://www.163.com/dy/article/IKD77NTR0553TB9L.html"
    },
    {
        "title": "武汉600多万的房子挂卖价455万，此时换房是机遇还是坑？",
        "docid": "IK9MGDQE0535MP84",
        "url": "https://www.163.com/dy/article/IK9MGDQE0535MP84.html"
    },
    {
        "title": "北京西山云庐售楼处电话【官方】欢迎您_西山云庐营销中心电话",
        "docid": "IK099G6C05566895",
        "url": "https://www.163.com/dy/article/IK099G6C05566895.html"
    },
    {
        "title": "真是气死人！165万的房子，居然给开价95万！",
        "docid": "IKDCLQPB0553TEQM",
        "url": "https://www.163.com/dy/article/IKDCLQPB0553TEQM.html"
    },
    {
        "title": "中产阶级群体悲哀：三套房、100万现金、天天跑滴滴，没有安全感",
        "docid": "IK0DCOH30553TDTY",
        "url": "https://www.163.com/dy/article/IK0DCOH30553TDTY.html"
    },
    {
        "title": "有没有办法阻止房价下跌？",
        "docid": "IKDCP1KU0553CGI3",
        "url": "https://www.163.com/dy/article/IKDCP1KU0553CGI3.html"
    },
    {
        "title": "买房要当心，聪明人绝不会买的五种房子，不好住，不好卖，不保值",
        "docid": "IK0E3SDU0540KLAM",
        "url": "https://www.163.com/dy/article/IK0E3SDU0540KLAM.html"
    },
    {
        "title": "我的地产江湖—遭遇同性恋",
        "docid": "IKDCTBTG0553VHB4",
        "url": "https://www.163.com/dy/article/IKDCTBTG0553VHB4.html"
    },
    {
        "title": "32宗地！武汉第四批拟供地项目清单出炉！",
        "docid": "IK9K4P3C0552F71X",
        "url": "https://www.163.com/dy/article/IK9K4P3C0552F71X.html"
    },
    {
        "title": "宇宙中心光谷东跌下神坛！曾经第一神盘二手房跌破12729元/平米！",
        "docid": "IK95414F0556123R",
        "url": "https://www.163.com/dy/article/IK95414F0556123R.html"
    },
    {
        "title": "武汉四批次供地：32宗涉宅地 其中经开区6宗地、洪山区5宗地",
        "docid": "IKA64ASD0553RRD3",
        "url": "https://www.163.com/dy/article/IKA64ASD0553RRD3.html"
    },
    {
        "title": "壹心学院在汉兴街道举办党建引领推动老旧小区物业长效管理培训",
        "docid": "IKARLBFC05566B74",
        "url": "https://www.163.com/dy/article/IKARLBFC05566B74.html"
    },
    {
        "title": "武汉楼市：选筹结果取决你的买房需求的出发点！",
        "docid": "IKB7DUP105560R20",
        "url": "https://www.163.com/dy/article/IKB7DUP105560R20.html"
    },
    {
        "title": "房价到2030年的时候啥样？是降是涨？专家一席话让人心凉……",
        "docid": "IK0E22AG0540KLAM",
        "url": "https://www.163.com/dy/article/IK0E22AG0540KLAM.html"
    },
    {
        "title": "全国房地产企业权益拿地金额",
        "docid": "IKDE0M400553WHJN",
        "url": "https://www.163.com/dy/article/IKDE0M400553WHJN.html"
    },
    {
        "title": "几乎大部分中国人，依然摆脱不了对好的追求，方直珑樾山",
        "docid": "IK0CU0GG055667XI",
        "url": "https://www.163.com/dy/article/IK0CU0GG055667XI.html"
    },
    {
        "title": "32宗地！武汉第四批拟供地项目清单出炉！",
        "docid": "IK9K4P3C0552F71X",
        "url": "https://www.163.com/dy/article/IK9K4P3C0552F71X.html"
    },
    {
        "title": "在武汉，有眼光的人都买这里，最有价值的地段！",
        "docid": "IK85MHT005560R20",
        "url": "https://www.163.com/dy/article/IK85MHT005560R20.html"
    },
    {
        "title": "武汉挂牌9宗涉宅地块，总土地面积49.87万平方米",
        "docid": "IKCK9LD50539AP40",
        "url": "https://www.163.com/dy/article/IKCK9LD50539AP40.html"
    },
    {
        "title": "武汉四批次供地：32宗涉宅地 其中经开区6宗地、洪山区5宗地",
        "docid": "IKA64ASD0553RRD3",
        "url": "https://www.163.com/dy/article/IKA64ASD0553RRD3.html"
    },
    {
        "title": "武汉买房：2023年楼市走向明确！",
        "docid": "IK864M9005560R20",
        "url": "https://www.163.com/dy/article/IK864M9005560R20.html"
    },
    {
        "title": "2023年武汉楼市：当下一定要擦亮眼睛",
        "docid": "IK6FIC2N05560R20",
        "url": "https://www.163.com/dy/article/IK6FIC2N05560R20.html"
    },
    {
        "title": "武汉金都汉宫旁一宗住宅地块被解除成交！地价:3.33亿！",
        "docid": "IKDGHM830553RRD3",
        "url": "https://www.163.com/dy/article/IKDGHM830553RRD3.html"
    },
    {
        "title": "背后有认知的差异，不同人对好城市价值定义是不同的，方直珑樾山",
        "docid": "IK0GK2QO0556677R",
        "url": "https://www.163.com/dy/article/IK0GK2QO0556677R.html"
    },
    {
        "title": "288平米顶层复式户型，值得拥有",
        "docid": "IKDD1B800552QWCE",
        "url": "https://www.163.com/dy/article/IKDD1B800552QWCE.html"
    },
    {
        "title": "32宗地！武汉第四批拟供地项目清单出炉！",
        "docid": "IK9K4P3C0552F71X",
        "url": "https://www.163.com/dy/article/IK9K4P3C0552F71X.html"
    },
    {
        "title": "在武汉，有眼光的人都买这里，最有价值的地段！",
        "docid": "IK85MHT005560R20",
        "url": "https://www.163.com/dy/article/IK85MHT005560R20.html"
    },
    {
        "title": "壹心学院在汉兴街道举办党建引领推动老旧小区物业长效管理培训",
        "docid": "IKARLBFC05566B74",
        "url": "https://www.163.com/dy/article/IKARLBFC05566B74.html"
    },
    {
        "title": "武汉买房：2023年楼市走向明确！",
        "docid": "IK864M9005560R20",
        "url": "https://www.163.com/dy/article/IK864M9005560R20.html"
    },
    {
        "title": "放开后，武汉楼市会反弹？",
        "docid": "IKB7ASNG05560R20",
        "url": "https://www.163.com/dy/article/IKB7ASNG05560R20.html"
    },
    {
        "title": "车谷城投底价斩获武汉经开区一宅地",
        "docid": "IKA4F7Q70550AAMM",
        "url": "https://www.163.com/dy/article/IKA4F7Q70550AAMM.html"
    },
    {
        "title": "武汉挂牌9宗涉宅地块 总土地面积49.87万平方米",
        "docid": "IKCMDEJI0512B07B",
        "url": "https://www.163.com/dy/article/IKCMDEJI0512B07B.html"
    },
    {
        "title": "暖风吹不停，该去看看房了，不要又错过了风口",
        "docid": "IKDCBGFD0552K3NO",
        "url": "https://www.163.com/dy/article/IKDCBGFD0552K3NO.html"
    },
    {
        "title": "《上财宏观报告》：建议放松二次抵押限制 激发购房需求",
        "docid": "IKDI9CCN05199NHJ",
        "url": "https://www.163.com/dy/article/IKDI9CCN05199NHJ.html"
    },
    {
        "title": "继百盛苑小区之后，下沙又一小区进行改造提升",
        "docid": "IKDFPFBO0534BASM",
        "url": "https://www.163.com/dy/article/IKDFPFBO0534BASM.html"
    },
    {
        "title": "好像时代在进步，但有些需求是没有改变的，方直珑樾山",
        "docid": "IK0EUIR60556677R",
        "url": "https://www.163.com/dy/article/IK0EUIR60556677R.html"
    },
    {
        "title": "楼市、股市冰火两重天！",
        "docid": "IK82808B0552QWCE",
        "url": "https://www.163.com/dy/article/IK82808B0552QWCE.html"
    },
    {
        "title": "房价崩盘后，会带来哪些机会？看看日本经历了什么，这些行业爆发",
        "docid": "IK0G5N140553BEU1",
        "url": "https://www.163.com/dy/article/IK0G5N140553BEU1.html"
    },
    {
        "title": "银行数字化转型导师坚鹏：中国邮政储蓄银行运营中心培训视频1",
        "docid": "VNJFJHJ7O",
        "url": "https://www.163.com/dy/article/VNJFJHJ7O.html"
    },
    {
        "title": "为什么房地产是本轮行情主线？政策全面发力下，两大核心破局方向",
        "docid": "VSJFMLDMC",
        "url": "https://www.163.com/dy/article/VSJFMLDMC.html"
    },
    {
        "title": "你敢相信吗？这个房子可以居住和办公",
        "docid": "VKJFAU59U",
        "url": "https://www.163.com/dy/article/VKJFAU59U.html"
    },
    {
        "title": "普通家庭买房的真实状况",
        "docid": "VFJFKUV3K",
        "url": "https://www.163.com/dy/article/VFJFKUV3K.html"
    },
    {
        "title": "住房公积金提前还贷在线办理流程",
        "docid": "IKDJURI80542M5JD",
        "url": "https://www.163.com/dy/article/IKDJURI80542M5JD.html"
    },
    {
        "title": "不管市场如何，这类型的房子是可以去穿越周期的存在",
        "docid": "IKDKCVVH0515AP70",
        "url": "https://www.163.com/dy/article/IKDKCVVH0515AP70.html"
    },
    {
        "title": "历史不会简单重复，但会踏着相同的韵脚和节奏，绿景白石洲",
        "docid": "IKDHJHJI0556677R",
        "url": "https://www.163.com/dy/article/IKDHJHJI0556677R.html"
    },
    {
        "title": "孟晓苏：新一轮房改必须由中央财政出钱",
        "docid": "IKDKNLJA0552NZ1I",
        "url": "https://www.163.com/dy/article/IKDKNLJA0552NZ1I.html"
    },
    {
        "title": "看一下各个城市卖地收入排行",
        "docid": "IK0KF0J50553WHJN",
        "url": "https://www.163.com/dy/article/IK0KF0J50553WHJN.html"
    },
    {
        "title": "唱衰房地产的人，快醒醒吧，房地产不会大幅度下跌，更没有泡沫",
        "docid": "IK0KFDF70552ZPDP",
        "url": "https://www.163.com/dy/article/IK0KFDF70552ZPDP.html"
    },
    {
        "title": "土拍速报：4.6亿！经开区地块底价成交",
        "docid": "IKDJU9KF0534M7IC",
        "url": "https://www.163.com/dy/article/IKDJU9KF0534M7IC.html"
    },
    {
        "title": "法政府“减赤”猛砍办公楼开支",
        "docid": "IKDJLFQR0514BQ68",
        "url": "https://www.163.com/dy/article/IKDJLFQR0514BQ68.html"
    },
    {
        "title": "从1.7万降到9000元？成都一楼盘降价超40%，管委会：涉嫌扰乱正常秩序",
        "docid": "VCJFOH8AM",
        "url": "https://www.163.com/dy/article/VCJFOH8AM.html"
    },
    {
        "title": "除了房地产，难道没有别的招了吗？",
        "docid": "VDJFBIDQ6",
        "url": "https://www.163.com/dy/article/VDJFBIDQ6.html"
    },
    {
        "title": "加拿大夫妇花$5w买下拍卖房！砸60万翻新打算转卖！结果屋归原主",
        "docid": "IK0L825D0552QDEA",
        "url": "https://www.163.com/dy/article/IK0L825D0552QDEA.html"
    },
    {
        "title": "汉口北，签约了，将打造“夜汉口”项目",
        "docid": "IKDM5SLQ0545ACCK",
        "url": "https://www.163.com/dy/article/IKDM5SLQ0545ACCK.html"
    },
    {
        "title": "中国妹子花3亿现金买日本豪宅，惊呆日本网友：中国人太有钱",
        "docid": "IKDMB12T0545W66O",
        "url": "https://www.163.com/dy/article/IKDMB12T0545W66O.html"
    },
    {
        "title": "32宗地！武汉第四批拟供地项目清单出炉！",
        "docid": "IK9K4P3C0552F71X",
        "url": "https://www.163.com/dy/article/IK9K4P3C0552F71X.html"
    },
    {
        "title": "在武汉，有眼光的人都买这里，最有价值的地段！",
        "docid": "IK85MHT005560R20",
        "url": "https://www.163.com/dy/article/IK85MHT005560R20.html"
    },
    {
        "title": "武汉挂牌9宗涉宅地块，总土地面积49.87万平方米",
        "docid": "IKCK9LD50539AP40",
        "url": "https://www.163.com/dy/article/IKCK9LD50539AP40.html"
    },
    {
        "title": "2023年武汉楼市：当下一定要擦亮眼睛",
        "docid": "IK6FIC2N05560R20",
        "url": "https://www.163.com/dy/article/IK6FIC2N05560R20.html"
    },
    {
        "title": "放开后，武汉楼市会反弹？",
        "docid": "IKB7ASNG05560R20",
        "url": "https://www.163.com/dy/article/IKB7ASNG05560R20.html"
    },
    {
        "title": "全国政协召开双周协商座谈会，围绕“促进房地产市场平稳健康发展”协商议政",
        "docid": "IKDC82J30534A4SC",
        "url": "https://www.163.com/dy/article/IKDC82J30534A4SC.html"
    },
    {
        "title": "应志刚调研安居链公司：高质量完成房地产供应链平台建设工作",
        "docid": "IK8FUJ800553TEQM",
        "url": "https://www.163.com/dy/article/IK8FUJ800553TEQM.html"
    },
    {
        "title": "这十座豪宅才是“壕”气冲天！",
        "docid": "IKDM0PIJ0552QWCS",
        "url": "https://www.163.com/dy/article/IKDM0PIJ0552QWCS.html"
    },
    {
        "title": "周末听到的一些消息，感觉楼市不太妙",
        "docid": "IK0IL0JG0535JMSP",
        "url": "https://www.163.com/dy/article/IK0IL0JG0535JMSP.html"
    },
    {
        "title": "在武汉，有眼光的人都买这里，最有价值的地段！",
        "docid": "IK85MHT005560R20",
        "url": "https://www.163.com/dy/article/IK85MHT005560R20.html"
    },
    {
        "title": "武汉楼市：选筹结果取决你的买房需求的出发点！",
        "docid": "IKB7DUP105560R20",
        "url": "https://www.163.com/dy/article/IKB7DUP105560R20.html"
    },
    {
        "title": "宇宙中心光谷东跌下神坛！曾经第一神盘二手房跌破12729元/平米！",
        "docid": "IK95414F0556123R",
        "url": "https://www.163.com/dy/article/IK95414F0556123R.html"
    },
    {
        "title": "武汉挂牌9宗涉宅地块，总土地面积49.87万平方米",
        "docid": "IKCK9LD50539AP40",
        "url": "https://www.163.com/dy/article/IKCK9LD50539AP40.html"
    },
    {
        "title": "武汉发布第四批拟供地项目清单，共计32宗地块",
        "docid": "IKANDR2G0550AAMM",
        "url": "https://www.163.com/dy/article/IKANDR2G0550AAMM.html"
    },
    {
        "title": "壹心学院在汉兴街道举办党建引领推动老旧小区物业长效管理培训",
        "docid": "IKARLBFC05566B74",
        "url": "https://www.163.com/dy/article/IKARLBFC05566B74.html"
    },
    {
        "title": "武汉金都汉宫旁一宗住宅地块被解除成交！地价:3.33亿！",
        "docid": "IKDGHM830553RRD3",
        "url": "https://www.163.com/dy/article/IKDGHM830553RRD3.html"
    },
    {
        "title": "武汉买房：2023年楼市走向明确！",
        "docid": "IK864M9005560R20",
        "url": "https://www.163.com/dy/article/IK864M9005560R20.html"
    },
    {
        "title": "说说物价的阶段性和阶层性",
        "docid": "IK0MOB0J05199DKK",
        "url": "https://www.163.com/dy/article/IK0MOB0J05199DKK.html"
    },
    {
        "title": "监管部门正在拟融资“白名单”？ 多家房企称尚没有确认的消息",
        "docid": "IKDOB89L0514R9KQ",
        "url": "https://www.163.com/dy/article/IKDOB89L0514R9KQ.html"
    },
    {
        "title": "公务员注意！不到万不得已，住房公积金千万不要提取出来！",
        "docid": "IKDOQHPT05562E40",
        "url": "https://www.163.com/dy/article/IKDOQHPT05562E40.html"
    },
    {
        "title": "32宗地！武汉第四批拟供地项目清单出炉！",
        "docid": "IK9K4P3C0552F71X",
        "url": "https://www.163.com/dy/article/IK9K4P3C0552F71X.html"
    },
    {
        "title": "宇宙中心光谷东跌下神坛！曾经第一神盘二手房跌破12729元/平米！",
        "docid": "IK95414F0556123R",
        "url": "https://www.163.com/dy/article/IK95414F0556123R.html"
    },
    {
        "title": "武汉挂牌9宗涉宅地块，总土地面积49.87万平方米",
        "docid": "IKCK9LD50539AP40",
        "url": "https://www.163.com/dy/article/IKCK9LD50539AP40.html"
    },
    {
        "title": "壹心学院在汉兴街道举办党建引领推动老旧小区物业长效管理培训",
        "docid": "IKARLBFC05566B74",
        "url": "https://www.163.com/dy/article/IKARLBFC05566B74.html"
    },
    {
        "title": "2023年武汉楼市：当下一定要擦亮眼睛",
        "docid": "IK6FIC2N05560R20",
        "url": "https://www.163.com/dy/article/IK6FIC2N05560R20.html"
    },
    {
        "title": "放开后，武汉楼市会反弹？",
        "docid": "IKB7ASNG05560R20",
        "url": "https://www.163.com/dy/article/IKB7ASNG05560R20.html"
    },
    {
        "title": "春节前会有很多小区房东降价卖房子",
        "docid": "IK2JSU490535JMSP",
        "url": "https://www.163.com/dy/article/IK2JSU490535JMSP.html"
    },
    {
        "title": "速查，你的账户有变化！有人多了10000多",
        "docid": "IKDO14HJ0542M5JD",
        "url": "https://www.163.com/dy/article/IKDO14HJ0542M5JD.html"
    },
    {
        "title": "经济学与社会学交叉研究新成果：房价与人性的关系",
        "docid": "IK0I68GL05561IZQ",
        "url": "https://www.163.com/dy/article/IK0I68GL05561IZQ.html"
    },
    {
        "title": "房价什么时候下跌？我们就什么时候买房？",
        "docid": "IKDPJJG00535MR82",
        "url": "https://www.163.com/dy/article/IKDPJJG00535MR82.html"
    },
    {
        "title": "一文说清楚，卖房谈判怎么谈",
        "docid": "IKDS28SM0553TDXU",
        "url": "https://www.163.com/dy/article/IKDS28SM0553TDXU.html"
    },
    {
        "title": "兴城之星秒杀了伪通透大平层豪宅",
        "docid": "IKDS9L0U055381XS",
        "url": "https://www.163.com/dy/article/IKDS9L0U055381XS.html"
    },
    {
        "title": "房屋过户公证委托书怎么办理",
        "docid": "IK8K2A47055668AT",
        "url": "https://www.163.com/dy/article/IK8K2A47055668AT.html"
    },
    {
        "title": "经典致新，中国铁建高端产品系「花语江南」强势跃级!",
        "docid": "IKDC2R49051498V1",
        "url": "https://www.163.com/dy/article/IKDC2R49051498V1.html"
    },
    {
        "title": "盒马：推动零售变革全面折扣化；长沙万科降价30%卖房",
        "docid": "IKDSP29F0552F71X",
        "url": "https://www.163.com/dy/article/IKDSP29F0552F71X.html"
    },
    {
        "title": "全国各主要大城市的房子都被谁买了",
        "docid": "IK0NP4FJ05562I7U",
        "url": "https://www.163.com/dy/article/IK0NP4FJ05562I7U.html"
    },
    {
        "title": "有100万到底要不要买房",
        "docid": "VQJ2GSRHH",
        "url": "https://www.163.com/dy/article/VQJ2GSRHH.html"
    },
    {
        "title": "“聪明人买边户，买中户就是傻”？建议买“边户”的就是好人？",
        "docid": "IKDTEUR30553TB9L",
        "url": "https://www.163.com/dy/article/IKDTEUR30553TB9L.html"
    },
    {
        "title": "再强调一遍，其实当下的房地产，说到底，普通人要做好2个准备",
        "docid": "IKDNQCNM0535MR82",
        "url": "https://www.163.com/dy/article/IKDNQCNM0535MR82.html"
    },
    {
        "title": "7个月只卖52套? 百万方大盘，双名校救场来了！",
        "docid": "IKDTL6MC0545PEDS",
        "url": "https://www.163.com/dy/article/IKDTL6MC0545PEDS.html"
    },
    {
        "title": "武汉楼市分化，买房合适最重要！",
        "docid": "IKB79NOF05560R20",
        "url": "https://www.163.com/dy/article/IKB79NOF05560R20.html"
    },
    {
        "title": "买烂尾楼的亮亮丽君，想到了开头，却没想到结尾！",
        "docid": "IKDRHTQF0553BZUM",
        "url": "https://www.163.com/dy/article/IKDRHTQF0553BZUM.html"
    },
    {
        "title": "女子花100万买到凶宅，起诉后卖家退还23万！如何避免买到凶宅？",
        "docid": "IK0Q2K780552628X",
        "url": "https://www.163.com/dy/article/IK0Q2K780552628X.html"
    },
    {
        "title": "万科东荟城，100㎡南向三房，晚买两年能省200万！",
        "docid": "IKDTAQBR05159GE6",
        "url": "https://www.163.com/dy/article/IKDTAQBR05159GE6.html"
    },
    {
        "title": "商品房到期70年后怎么续期？",
        "docid": "VDJ336U3R",
        "url": "https://www.163.com/dy/article/VDJ336U3R.html"
    },
    {
        "title": "生活总得继续，办法总比困难多！坚持下去，一切都会好起来的",
        "docid": "VCJFT4BCG",
        "url": "https://www.163.com/dy/article/VCJFT4BCG.html"
    },
    {
        "title": "一二三线城市房价加速调整，还有哪些刺激政策值得期待？",
        "docid": "VGIRIIG9A",
        "url": "https://www.163.com/dy/article/VGIRIIG9A.html"
    },
    {
        "title": "银行将为房企“输血”？这次可能是来真的！",
        "docid": "IKE05H9U0553XH85",
        "url": "https://www.163.com/dy/article/IKE05H9U0553XH85.html"
    },
    {
        "title": "人口红利时代，造就了东莞本地人",
        "docid": "IKDTQGGS0552QWCE",
        "url": "https://www.163.com/dy/article/IKDTQGGS0552QWCE.html"
    },
    {
        "title": "中东的拉斯维加斯，全球富人的资产避风港！",
        "docid": "IKDVH0IV0515DBP5",
        "url": "https://www.163.com/dy/article/IKDVH0IV0515DBP5.html"
    },
    {
        "title": "快醒醒，不要看衰房楼市，一楼盘降价40%，扰乱市场无法办理备案",
        "docid": "IKDVF71505562DLL",
        "url": "https://www.163.com/dy/article/IKDVF71505562DLL.html"
    },
    {
        "title": "看看我老爸分的房子，你们觉得公平吗？我是捡来的吗？",
        "docid": "VBJG161C0",
        "url": "https://www.163.com/dy/article/VBJG161C0.html"
    },
    {
        "title": "你真以为许家印是靠卖房子赚钱的吗",
        "docid": "VCJG0O9IT",
        "url": "https://www.163.com/dy/article/VCJG0O9IT.html"
    },
    {
        "title": "商住楼都不能落户口，一定要记住",
        "docid": "VUJFV1RQF",
        "url": "https://www.163.com/dy/article/VUJFV1RQF.html"
    },
    {
        "title": "成都一楼盘降价40%，引出一堆尴尬事儿",
        "docid": "VZJG4JGU7",
        "url": "https://www.163.com/dy/article/VZJG4JGU7.html"
    },
    {
        "title": "提前还贷款最省钱的办法你知道是啥吗？",
        "docid": "VWJG2Q26M",
        "url": "https://www.163.com/dy/article/VWJG2Q26M.html"
    },
    {
        "title": "生活就是家：朋友要租房子",
        "docid": "VUJE8IK6K",
        "url": "https://www.163.com/dy/article/VUJE8IK6K.html"
    },
    {
        "title": "一线豪宅大跌，何时回调？",
        "docid": "IKDVHECA0515DBP5",
        "url": "https://www.163.com/dy/article/IKDVHECA0515DBP5.html"
    },
    {
        "title": "武汉军山城市资产运营有限公司约4.64亿斩获车谷地块！",
        "docid": "IKE06K310553TB8M",
        "url": "https://www.163.com/dy/article/IKE06K310553TB8M.html"
    },
    {
        "title": "租房就能落户！这个特大城市为何出大招？",
        "docid": "IK80P1GA0519DBFP",
        "url": "https://www.163.com/dy/article/IK80P1GA0519DBFP.html"
    },
    {
        "title": "明年终于可以放心买房了？央媒提出“解决方案”，网友表示期待",
        "docid": "IK0UU4P405359WBS",
        "url": "https://www.163.com/dy/article/IK0UU4P405359WBS.html"
    },
    {
        "title": "32宗地！武汉第四批拟供地项目清单出炉！",
        "docid": "IK9K4P3C0552F71X",
        "url": "https://www.163.com/dy/article/IK9K4P3C0552F71X.html"
    },
    {
        "title": "在武汉，有眼光的人都买这里，最有价值的地段！",
        "docid": "IK85MHT005560R20",
        "url": "https://www.163.com/dy/article/IK85MHT005560R20.html"
    },
    {
        "title": "宇宙中心光谷东跌下神坛！曾经第一神盘二手房跌破12729元/平米！",
        "docid": "IK95414F0556123R",
        "url": "https://www.163.com/dy/article/IK95414F0556123R.html"
    },
    {
        "title": "武汉挂牌9宗涉宅地块，总土地面积49.87万平方米",
        "docid": "IKCK9LD50539AP40",
        "url": "https://www.163.com/dy/article/IKCK9LD50539AP40.html"
    },
    {
        "title": "壹心学院在汉兴街道举办党建引领推动老旧小区物业长效管理培训",
        "docid": "IKARLBFC05566B74",
        "url": "https://www.163.com/dy/article/IKARLBFC05566B74.html"
    },
    {
        "title": "2023年武汉楼市：当下一定要擦亮眼睛",
        "docid": "IK6FIC2N05560R20",
        "url": "https://www.163.com/dy/article/IK6FIC2N05560R20.html"
    },
    {
        "title": "这回真让你的房子一房传三代了呀！",
        "docid": "IKE10FKC0553GD76",
        "url": "https://www.163.com/dy/article/IKE10FKC0553GD76.html"
    },
    {
        "title": "九紫离火马上来了！ 这些重点，你必须要记进心里",
        "docid": "IKE1VUBJ0556123R",
        "url": "https://www.163.com/dy/article/IKE1VUBJ0556123R.html"
    },
    {
        "title": "送给要建房的你，6款别墅，造价经济，简约大方，适合90%农村家庭",
        "docid": "IKE21G5F0552QWCL",
        "url": "https://www.163.com/dy/article/IKE21G5F0552QWCL.html"
    },
    {
        "title": "两大央企再出手！中海、招商再次落子高新CID！",
        "docid": "IKE0BLO60515DC4C",
        "url": "https://www.163.com/dy/article/IKE0BLO60515DC4C.html"
    },
    {
        "title": "不要再等房价暴跌，20年时间房价涨了4倍，千万别急着降价卖房！",
        "docid": "IKE119C505566C1Z",
        "url": "https://www.163.com/dy/article/IKE119C505566C1Z.html"
    },
    {
        "title": "32宗地！武汉第四批拟供地项目清单出炉！",
        "docid": "IK9K4P3C0552F71X",
        "url": "https://www.163.com/dy/article/IK9K4P3C0552F71X.html"
    },
    {
        "title": "在武汉，有眼光的人都买这里，最有价值的地段！",
        "docid": "IK85MHT005560R20",
        "url": "https://www.163.com/dy/article/IK85MHT005560R20.html"
    },
    {
        "title": "宇宙中心光谷东跌下神坛！曾经第一神盘二手房跌破12729元/平米！",
        "docid": "IK95414F0556123R",
        "url": "https://www.163.com/dy/article/IK95414F0556123R.html"
    },
    {
        "title": "武汉挂牌9宗涉宅地块，总土地面积49.87万平方米",
        "docid": "IKCK9LD50539AP40",
        "url": "https://www.163.com/dy/article/IKCK9LD50539AP40.html"
    },
    {
        "title": "武汉金都汉宫旁一宗住宅地块被解除成交！地价:3.33亿！",
        "docid": "IKDGHM830553RRD3",
        "url": "https://www.163.com/dy/article/IKDGHM830553RRD3.html"
    },
    {
        "title": "当房子回归到一个较合理的价位却被紧急叫停，是谁不想让房子降价",
        "docid": "IKE3MUQD05561UAV",
        "url": "https://www.163.com/dy/article/IKE3MUQD05561UAV.html"
    },
    {
        "title": "花了35万的装修费，验房后却发现5万都不值，是不是该走法律程序",
        "docid": "VBJ1O0FJI",
        "url": "https://www.163.com/dy/article/VBJ1O0FJI.html"
    },
    {
        "title": "买新房草签合同与网签合同那些事",
        "docid": "VAJ2C7NRG",
        "url": "https://www.163.com/dy/article/VAJ2C7NRG.html"
    },
    {
        "title": "最好的楼层你知道是几层吗",
        "docid": "VEJ2JELU4",
        "url": "https://www.163.com/dy/article/VEJ2JELU4.html"
    },
    {
        "title": "买房时“一次性付清”和“还贷20年”，区别大不大？幸好知道得早",
        "docid": "VXJ2K46LJ",
        "url": "https://www.163.com/dy/article/VXJ2K46LJ.html"
    },
    {
        "title": "买到这种房子，真是“出师不利”！负面影响太大，不适合长久居住",
        "docid": "VBJG90A9O",
        "url": "https://www.163.com/dy/article/VBJG90A9O.html"
    },
    {
        "title": "朝阳和海淀哪个区更好？",
        "docid": "VCJ2JHAGG",
        "url": "https://www.163.com/dy/article/VCJ2JHAGG.html"
    },
    {
        "title": "“蹭暖族”越来越多！为何不敢收停供费？",
        "docid": "VOJ29E4M1",
        "url": "https://www.163.com/dy/article/VOJ29E4M1.html"
    },
    {
        "title": "买房先交首付，小心吃大亏",
        "docid": "VFJ2P5I8N",
        "url": "https://www.163.com/dy/article/VFJ2P5I8N.html"
    },
    {
        "title": "这样的楼盘，购房小白最容易选错！专业分析辅助，帮你选到好位置",
        "docid": "VBJG9LNU4",
        "url": "https://www.163.com/dy/article/VBJG9LNU4.html"
    }
]