[
    {
        "title": "我在加拿大省城 埃德蒙顿市买的房子约二十五万 看值不值",
        "docid": "VBM2B15CU",
        "url": "https://www.163.com/dy/article/VBM2B15CU.html"
    },
    {
        "title": "回村后的诱惑，带女朋友看县城婚房，9年学区房全款只要32万？",
        "docid": "VZLLTA4Q2",
        "url": "https://www.163.com/dy/article/VZLLTA4Q2.html"
    },
    {
        "title": "探访女演员关晓彤北京的豪宅，真气派，邻居都是一线明星",
        "docid": "VZLUG46US",
        "url": "https://www.163.com/dy/article/VZLUG46US.html"
    },
    {
        "title": "农村小院的阳光房完工了，30平花费4300，枚子兴高采烈开始布置",
        "docid": "VCLL0J7RM",
        "url": "https://www.163.com/dy/article/VCLL0J7RM.html"
    },
    {
        "title": "2027年租房市场规模或超2.8万亿",
        "docid": "VGM4J616U",
        "url": "https://www.163.com/dy/article/VGM4J616U.html"
    },
    {
        "title": "不要卖房子，不要卖房子，千万不要卖房子！看完视频你就明白了",
        "docid": "VMLQJTU0G",
        "url": "https://www.163.com/dy/article/VMLQJTU0G.html"
    },
    {
        "title": "邻居说我好像有装房子的超能力",
        "docid": "VCM35Q6DJ",
        "url": "https://www.163.com/dy/article/VCM35Q6DJ.html"
    },
    {
        "title": "姥姥被忽悠到海南买了49㎡小别墅，去了发现带花园，一家人真香了",
        "docid": "VGLUE3E04",
        "url": "https://www.163.com/dy/article/VGLUE3E04.html"
    },
    {
        "title": "一线城市的房价真的不会跌吗？",
        "docid": "VWM2TFHFF",
        "url": "https://www.163.com/dy/article/VWM2TFHFF.html"
    },
    {
        "title": "未来三年，这四种人日子可能会越过越难，希望你不在其中",
        "docid": "IN36S9MK0519GBC0",
        "url": "https://www.163.com/dy/article/IN36S9MK0519GBC0.html"
    },
    {
        "title": "不动产登记公告（法院拍卖-安玲娟户）",
        "docid": "IN3075090552ADWT",
        "url": "https://www.163.com/dy/article/IN3075090552ADWT.html"
    },
    {
        "title": "住建厅印发老旧小区改造(宜居住宅创建)技术指南，69页可下载！",
        "docid": "IN2UKEFA0553TDXU",
        "url": "https://www.163.com/dy/article/IN2UKEFA0553TDXU.html"
    },
    {
        "title": "马上，多数人的月供要降低了！",
        "docid": "IN38H5HD0515DBP5",
        "url": "https://www.163.com/dy/article/IN38H5HD0515DBP5.html"
    },
    {
        "title": "老爸看见眼睛都移不开，海南这套181平海景别墅，我们一家沉迷了",
        "docid": "VOLKBJISH",
        "url": "https://www.163.com/dy/article/VOLKBJISH.html"
    },
    {
        "title": "想啥呢，中国楼市变天了，未来卖房比买房更难，想卖房的，赶紧！",
        "docid": "VCLK5RKNM",
        "url": "https://www.163.com/dy/article/VCLK5RKNM.html"
    },
    {
        "title": "650万的商铺过户税费高达367万，卖不出去了，当年80万买的！",
        "docid": "VWLK3P5C7",
        "url": "https://www.163.com/dy/article/VWLK3P5C7.html"
    },
    {
        "title": "你认为房子是给老百姓建的？大错特错，真相颠覆你的认知！",
        "docid": "VGM3ITMEF",
        "url": "https://www.163.com/dy/article/VGM3ITMEF.html"
    },
    {
        "title": "老旧小区加装了电梯，所有业主都后悔了，花钱买了个大麻烦！",
        "docid": "VMLSU7126",
        "url": "https://www.163.com/dy/article/VMLSU7126.html"
    },
    {
        "title": "5年之间，房价从2.5万跌倒8000，还是无人接盘，投资客：快崩溃了",
        "docid": "IMT49PKQ0540A6F8",
        "url": "https://www.163.com/dy/article/IMT49PKQ0540A6F8.html"
    },
    {
        "title": "2023年，保障房全面爆发",
        "docid": "IN369S0B05563TCH",
        "url": "https://www.163.com/dy/article/IN369S0B05563TCH.html"
    },
    {
        "title": "家里有现金的赶紧看一下",
        "docid": "VWM029CNC",
        "url": "https://www.163.com/dy/article/VWM029CNC.html"
    },
    {
        "title": "买房时必须注意的这些老人言",
        "docid": "VEM0K0HNV",
        "url": "https://www.163.com/dy/article/VEM0K0HNV.html"
    },
    {
        "title": "五四北精装房，保利国贸联合开发的项目，值得一看",
        "docid": "VULVN06IR",
        "url": "https://www.163.com/dy/article/VULVN06IR.html"
    },
    {
        "title": "70万的存款和70万的房子，哪个更保值",
        "docid": "VZLSBQCNC",
        "url": "https://www.163.com/dy/article/VZLSBQCNC.html"
    },
    {
        "title": "什么样的人适合住这800平花园的别墅",
        "docid": "VGLN86HRE",
        "url": "https://www.163.com/dy/article/VGLN86HRE.html"
    },
    {
        "title": "楼市没火，民政局到火了",
        "docid": "VFM1U9F2D",
        "url": "https://www.163.com/dy/article/VFM1U9F2D.html"
    },
    {
        "title": "比买不起房更可怕的事发生了！您知道是什么吗？关乎所有人！",
        "docid": "VZM4S1O2L",
        "url": "https://www.163.com/dy/article/VZM4S1O2L.html"
    },
    {
        "title": "经开 | 车谷会展中心地块挂牌！",
        "docid": "IN39TI840534SV3Y",
        "url": "https://www.163.com/dy/article/IN39TI840534SV3Y.html"
    },
    {
        "title": "土拍预告丨12月27日42城100宗地块挂牌截止，其中涉宅用地64宗",
        "docid": "IMTEODLK055616ZT",
        "url": "https://www.163.com/dy/article/IMTEODLK055616ZT.html"
    },
    {
        "title": "发改委：更好支持刚性和改善性住房需求，建立房地产业发展新模式",
        "docid": "IN249FOQ055284JB",
        "url": "https://www.163.com/dy/article/IN249FOQ055284JB.html"
    },
    {
        "title": "中国房产已彻底崩塌！三房主抢一个购房人！暴跌无悬念！",
        "docid": "VZM4UOS2A",
        "url": "https://www.163.com/dy/article/VZM4UOS2A.html"
    },
    {
        "title": "元玺评测  先把颜值拉满再说...值不值得买？金安桥 | 石景山",
        "docid": "VCM2D3Q07",
        "url": "https://www.163.com/dy/article/VCM2D3Q07.html"
    },
    {
        "title": "日本的房子适合我们居住吗？",
        "docid": "VBLNS6NVB",
        "url": "https://www.163.com/dy/article/VBLNS6NVB.html"
    },
    {
        "title": "新房的优势就是价格便宜，二手房的优势就是买着放心啊",
        "docid": "VZM5DR12V",
        "url": "https://www.163.com/dy/article/VZM5DR12V.html"
    },
    {
        "title": "恒大在云南建的高档住宅，四周荒无人烟，建筑材料都已锈迹斑斑",
        "docid": "VWLO8CFJ5",
        "url": "https://www.163.com/dy/article/VWLO8CFJ5.html"
    },
    {
        "title": "5句话告诉你，房价还会不会上涨",
        "docid": "VFM1TORS1",
        "url": "https://www.163.com/dy/article/VFM1TORS1.html"
    },
    {
        "title": "为啥买房不建议选3楼、7楼、10楼、17楼？售楼小姐终于说出了真相",
        "docid": "IN2ED6DN054057BR",
        "url": "https://www.163.com/dy/article/IN2ED6DN054057BR.html"
    },
    {
        "title": "世界上最高的顶层公寓豪宅，售价高达17亿，豪华程度常人无法想象",
        "docid": "IMM8RQ98055650WJ",
        "url": "https://www.163.com/dy/article/IMM8RQ98055650WJ.html"
    },
    {
        "title": "房子断供的人越来越多，真的太惨了！",
        "docid": "VZM3DBD7G",
        "url": "https://www.163.com/dy/article/VZM3DBD7G.html"
    },
    {
        "title": "坚持三个月不卖房的后果：房子安好，你也安好！",
        "docid": "VCLLPKV4H",
        "url": "https://www.163.com/dy/article/VCLLPKV4H.html"
    },
    {
        "title": "二十年前花100多万买的800平花园别墅，现在卖七百多万是亏还是赚",
        "docid": "VGLUITSB1",
        "url": "https://www.163.com/dy/article/VGLUITSB1.html"
    },
    {
        "title": "我妈背着全家买了海口332㎡豪宅别墅，花园400㎡，直接躺平养老",
        "docid": "VWM10L65P",
        "url": "https://www.163.com/dy/article/VWM10L65P.html"
    },
    {
        "title": "上半年没买房的朋友，真的是赢麻了！ #一个敢说真话的房产人",
        "docid": "VOLKCM2SH",
        "url": "https://www.163.com/dy/article/VOLKCM2SH.html"
    },
    {
        "title": "有钱不买房可以吗？未来五年，你的钱可能会这样赔光",
        "docid": "VRLK16ET7",
        "url": "https://www.163.com/dy/article/VRLK16ET7.html"
    },
    {
        "title": "说真心话：今明两年，你买到的房子可能是史上最差的",
        "docid": "VWM3FMTPF",
        "url": "https://www.163.com/dy/article/VWM3FMTPF.html"
    },
    {
        "title": "明明财产都被拿走了，地主后代为什么又富裕了？",
        "docid": "IMLVKUCC055657E9",
        "url": "https://www.163.com/dy/article/IMLVKUCC055657E9.html"
    },
    {
        "title": "盘点·企业坚持品质服务助力行业发展",
        "docid": "IN36UD4V05561K9P",
        "url": "https://www.163.com/dy/article/IN36UD4V05561K9P.html"
    },
    {
        "title": "中国宏桥(01378.HK)附属以总代价2.4亿元收购山东邹平市地块",
        "docid": "IN2FTG6205198ETO",
        "url": "https://www.163.com/dy/article/IN2FTG6205198ETO.html"
    },
    {
        "title": "为什么花了700万装修的别墅，一天不住就要卖，有钱人的世界不懂",
        "docid": "VGM35KL9C",
        "url": "https://www.163.com/dy/article/VGM35KL9C.html"
    },
    {
        "title": "才100多W？见过最便宜的独栋别墅，离广州20分钟，小区环境太美了",
        "docid": "VCM5GAB0F",
        "url": "https://www.163.com/dy/article/VCM5GAB0F.html"
    },
    {
        "title": "从明年开始存款超过20万 的要提前做好准备 ",
        "docid": "VZM2U3HJQ",
        "url": "https://www.163.com/dy/article/VZM2U3HJQ.html"
    },
    {
        "title": "前高管反击碧桂园不该在三四线拿地：一二线城市房子也卖不出去啊",
        "docid": "VZM364F03",
        "url": "https://www.163.com/dy/article/VZM364F03.html"
    },
    {
        "title": "没人入住的空置房物业费到底怎么交合适呢？到底该打几折？",
        "docid": "VFLVNQR5B",
        "url": "https://www.163.com/dy/article/VFLVNQR5B.html"
    },
    {
        "title": "明年起，“买房”还是“卖房”？曹德旺给出忠告：再等很危险 (1)",
        "docid": "VZM4TC795",
        "url": "https://www.163.com/dy/article/VZM4TC795.html"
    },
    {
        "title": "再过一段时间可能就没有房子卖了！",
        "docid": "VZM2Q6PEJ",
        "url": "https://www.163.com/dy/article/VZM2Q6PEJ.html"
    },
    {
        "title": "315万的房子135万拿下，成功捡漏180多万，简直不敢相信！",
        "docid": "VZLK041IP",
        "url": "https://www.163.com/dy/article/VZLK041IP.html"
    },
    {
        "title": "房地产报建议：房企可自主降价！那之前高价买房的怎么办？",
        "docid": "VQLUME3K9",
        "url": "https://www.163.com/dy/article/VQLUME3K9.html"
    },
    {
        "title": "2024 房价不涨物价涨，物价要代房价涨？",
        "docid": "VKM46BNR5",
        "url": "https://www.163.com/dy/article/VKM46BNR5.html"
    },
    {
        "title": "西双版纳买房的，好消息来了…",
        "docid": "VCM2P567A",
        "url": "https://www.163.com/dy/article/VCM2P567A.html"
    },
    {
        "title": "废弃的房子，晚上也许有人住进去，听说过么",
        "docid": "VZM0D5VNP",
        "url": "https://www.163.com/dy/article/VZM0D5VNP.html"
    },
    {
        "title": "回农村建房是二层还是三层好呢，这种带阳光房的二层就不错 ",
        "docid": "VDM0EMMOL",
        "url": "https://www.163.com/dy/article/VDM0EMMOL.html"
    },
    {
        "title": "买到这样的楼层，太悲伤了！难怪整天返潮黏黏糊糊，阳光忒少了",
        "docid": "VBM01HM2J",
        "url": "https://www.163.com/dy/article/VBM01HM2J.html"
    },
    {
        "title": "不交房赔10万，14000上车武汉二环地铁楼盘",
        "docid": "VWM5FDC6J",
        "url": "https://www.163.com/dy/article/VWM5FDC6J.html"
    },
    {
        "title": "“订金”还是“定金”，您分清了吗？",
        "docid": "IN3BDJ5P0553TDTY",
        "url": "https://www.163.com/dy/article/IN3BDJ5P0553TDTY.html"
    },
    {
        "title": "400万卖掉所有房子，一套也没留！一身轻，打算全款3万鹤壁买套房",
        "docid": "VGLU8J7HE",
        "url": "https://www.163.com/dy/article/VGLU8J7HE.html"
    },
    {
        "title": "超哥准备买楼房，六间房150平米，15万贵不贵？买来给我爸妈住",
        "docid": "VCLNP6S68",
        "url": "https://www.163.com/dy/article/VCLNP6S68.html"
    },
    {
        "title": "up主在韩买房被坑，和韩国财阀打官司全过程",
        "docid": "VZM15BTMO",
        "url": "https://www.163.com/dy/article/VZM15BTMO.html"
    },
    {
        "title": "一旦出现三大信号立刻买房",
        "docid": "VFM1U9CI3",
        "url": "https://www.163.com/dy/article/VFM1U9CI3.html"
    },
    {
        "title": "这才是真“金典”户型，不用担心人房不配，适合人群广得房率贼高",
        "docid": "VBM01TKS6",
        "url": "https://www.163.com/dy/article/VBM01TKS6.html"
    },
    {
        "title": "洛杉矶 Doheny Estates的山丘上的现代风格别墅",
        "docid": "VWLV8F9SO",
        "url": "https://www.163.com/dy/article/VWLV8F9SO.html"
    },
    {
        "title": "许家印这招操作，让你秒懂房地产割韭菜秘密！",
        "docid": "VWM5JGJDF",
        "url": "https://www.163.com/dy/article/VWM5JGJDF.html"
    },
    {
        "title": "静安区相当炸裂的一套61平2房1厅加天井！长度16米的卧室客厅天井",
        "docid": "VGLRASH4K",
        "url": "https://www.163.com/dy/article/VGLRASH4K.html"
    },
    {
        "title": "对话拍卖亿元豪宅的韩后创始人：不要嘲笑困境中的企业，不下牌桌就有机会",
        "docid": "IN36PQ6L0512B07B",
        "url": "https://www.163.com/dy/article/IN36PQ6L0512B07B.html"
    },
    {
        "title": "信不信，房贷还得继续降",
        "docid": "IN33IPHU05563TCH",
        "url": "https://www.163.com/dy/article/IN33IPHU05563TCH.html"
    },
    {
        "title": "执行现场：无良开发商一房两卖，假房主成了老赖，真房主被迫腾房",
        "docid": "VLM5K0DM8",
        "url": "https://www.163.com/dy/article/VLM5K0DM8.html"
    },
    {
        "title": "在破产边缘试探都要买的破房子有多牛？小伙告诉你，一切都值得！",
        "docid": "VGM3R7ECQ",
        "url": "https://www.163.com/dy/article/VGM3R7ECQ.html"
    },
    {
        "title": "董教授说：农民可以开着车去种地",
        "docid": "VVLK43S49",
        "url": "https://www.163.com/dy/article/VVLK43S49.html"
    },
    {
        "title": "房价下跌不是最可怕的，影响更大的三个危机已出现，大家做好准备",
        "docid": "VMM297F2C",
        "url": "https://www.163.com/dy/article/VMM297F2C.html"
    },
    {
        "title": "胜券在握了，手上有三套房以上的房东，开始笑起来了",
        "docid": "VEM5889C7",
        "url": "https://www.163.com/dy/article/VEM5889C7.html"
    },
    {
        "title": "官方涨价通知还是下来了，其中紫云大涨，另利群炫赫门万宝路系列",
        "docid": "VULVU5953",
        "url": "https://www.163.com/dy/article/VULVU5953.html"
    },
    {
        "title": "480万的房子，非得400万卖",
        "docid": "VZLM1S8NR",
        "url": "https://www.163.com/dy/article/VZLM1S8NR.html"
    },
    {
        "title": "中指研究院常务副院长黄瑜：房地产政策环境已接近2014年宽松阶段，2024年核心城市投资有望改善",
        "docid": "IN23NBKR0512B07B",
        "url": "https://www.163.com/dy/article/IN23NBKR0512B07B.html"
    },
    {
        "title": "饭店老板关门去燕郊看房，燕郊的房便宜的让人吃惊，能下手吗现在",
        "docid": "VGM2CSA8G",
        "url": "https://www.163.com/dy/article/VGM2CSA8G.html"
    },
    {
        "title": "结个屁婚，不结了，委屈了，卖房卖房！ ",
        "docid": "VCLMNFGKG",
        "url": "https://www.163.com/dy/article/VCLMNFGKG.html"
    },
    {
        "title": "2024年楼市注定大变局，买不起房的人会更多",
        "docid": "VZLVH319O",
        "url": "https://www.163.com/dy/article/VZLVH319O.html"
    },
    {
        "title": "26岁赚到100万，他娶娇妻蜗居50平2室1厅千万豪宅",
        "docid": "VPM58EJ3I",
        "url": "https://www.163.com/dy/article/VPM58EJ3I.html"
    },
    {
        "title": "实勘渝北区中央公园顶峰林语蝶院（2023版）",
        "docid": "VRLVR7LJN",
        "url": "https://www.163.com/dy/article/VRLVR7LJN.html"
    },
    {
        "title": "为什么现在房子卖不动了？#讨论 #房地产 #楼市",
        "docid": "VFLPHGIJH",
        "url": "https://www.163.com/dy/article/VFLPHGIJH.html"
    },
    {
        "title": "对于买房者，现在是入手好时机吗？买房千万避开这个时期",
        "docid": "VGM5IIPFV",
        "url": "https://www.163.com/dy/article/VGM5IIPFV.html"
    },
    {
        "title": "中国房地产抵抗美国金融收割的全过程，大智慧、大气魄",
        "docid": "VYLK8VH0I",
        "url": "https://www.163.com/dy/article/VYLK8VH0I.html"
    },
    {
        "title": "美国驻华大使馆称: 美国近40%的房主没有房贷压力！",
        "docid": "IN0UINBI0552F1OG",
        "url": "https://www.163.com/dy/article/IN0UINBI0552F1OG.html"
    },
    {
        "title": "不要卖房子，赶快去买房子，回顾历史，刻不容缓。",
        "docid": "IN3MQQC50542M5JD",
        "url": "https://www.163.com/dy/article/IN3MQQC50542M5JD.html"
    },
    {
        "title": "人住几楼寿命最长，不是迷信，难怪有钱人都争着买这几层",
        "docid": "VMM276E28",
        "url": "https://www.163.com/dy/article/VMM276E28.html"
    },
    {
        "title": "老西门街道动迁房望云路只剩一家了 四代人挤在小楼里 侬来评评理",
        "docid": "VCLNL6PMN",
        "url": "https://www.163.com/dy/article/VCLNL6PMN.html"
    },
    {
        "title": "中式庭院遇到欧式装修！300万打造的联排别墅，业主只住了 20 天",
        "docid": "VGLMNMJ3F",
        "url": "https://www.163.com/dy/article/VGLMNMJ3F.html"
    },
    {
        "title": "以前做梦都想有个小院，现在住过了才知道，院子真的不适合懒人！",
        "docid": "VZLNPSOSS",
        "url": "https://www.163.com/dy/article/VZLNPSOSS.html"
    },
    {
        "title": "房子6折终于卖出去了，价格难以接受\n！现在心简直在滴血",
        "docid": "VMLLEL77U",
        "url": "https://www.163.com/dy/article/VMLLEL77U.html"
    },
    {
        "title": "90后贷款150万30年月供一万买房，如今还不起了崩溃大哭",
        "docid": "VZLK3DR0E",
        "url": "https://www.163.com/dy/article/VZLK3DR0E.html"
    },
    {
        "title": "5年后，现在300万的房产大概值多少钱？马光远讲清楚了，很真实",
        "docid": "VCM3TQ1QR",
        "url": "https://www.163.com/dy/article/VCM3TQ1QR.html"
    },
    {
        "title": "这是网友的物业费，我咋感觉一年的物业费像很多人一年的工资呢？",
        "docid": "IMJNMK3R0553XEI5",
        "url": "https://www.163.com/dy/article/IMJNMK3R0553XEI5.html"
    },
    {
        "title": "现在有产权的车位都白菜价了吗？1万多，2、3万？",
        "docid": "IN2G8L1N0552QWCL",
        "url": "https://www.163.com/dy/article/IN2G8L1N0552QWCL.html"
    },
    {
        "title": "2023年房地产市场有三个数字值得注意，数字变化意味着什么？",
        "docid": "IN1S1B6O051282UI",
        "url": "https://www.163.com/dy/article/IN1S1B6O051282UI.html"
    },
    {
        "title": "急！同学们，大家看下这房子现在值多少钱？我好去谈价！",
        "docid": "VCM5FIJBR",
        "url": "https://www.163.com/dy/article/VCM5FIJBR.html"
    },
    {
        "title": "揭秘赖清德老家“赖皮寮”别墅真实内幕，警卫部队灰溜溜撤岗囧样",
        "docid": "VWLL0UTGQ",
        "url": "https://www.163.com/dy/article/VWLL0UTGQ.html"
    },
    {
        "title": "恒大最大烂尾项目，占地8000亩耗资上千亿，网友提出绝佳解决方案",
        "docid": "VWM4N1OFG",
        "url": "https://www.163.com/dy/article/VWM4N1OFG.html"
    },
    {
        "title": "16000入手4500甩不掉，犹如臭膏药的房子，把投资客坑惨了，扎心",
        "docid": "VCM27Q1M1",
        "url": "https://www.163.com/dy/article/VCM27Q1M1.html"
    },
    {
        "title": "房子不仅没有过剩，而且还非常稀缺！ ",
        "docid": "VZM2K0S5B",
        "url": "https://www.163.com/dy/article/VZM2K0S5B.html"
    },
    {
        "title": "10平米竟然做了loft，这也就是在北京啊！",
        "docid": "VCM46T61H",
        "url": "https://www.163.com/dy/article/VCM46T61H.html"
    },
    {
        "title": "2023选择卖房, 5年后会庆幸还是懊悔! 两位大佬观点不谋而合",
        "docid": "IN3JUDSS055324FL",
        "url": "https://www.163.com/dy/article/IN3JUDSS055324FL.html"
    },
    {
        "title": "二手房周报 | 14城成交环增6%，京杭增幅达3成（12.18-12.24）",
        "docid": "IN0J36AL0535A6CE",
        "url": "https://www.163.com/dy/article/IN0J36AL0535A6CE.html"
    },
    {
        "title": "聊聊近期我家附近房价和河北大厂房价",
        "docid": "VGM5E2PHR",
        "url": "https://www.163.com/dy/article/VGM5E2PHR.html"
    },
    {
        "title": "稳中求胜2024：房产-黄金-美元",
        "docid": "VFM4BJLC0",
        "url": "https://www.163.com/dy/article/VFM4BJLC0.html"
    },
    {
        "title": "原来水够热一平米暖气能带一百平房子",
        "docid": "VCLLFNTB0",
        "url": "https://www.163.com/dy/article/VCLLFNTB0.html"
    },
    {
        "title": "2023葛店楼市已亡，多少炒房客梦碎！往后除了并入武汉",
        "docid": "VZLV9J8E0",
        "url": "https://www.163.com/dy/article/VZLV9J8E0.html"
    },
    {
        "title": "从国外回来的姐姐把房子推了重新盖！喝过洋墨水的就是不一样",
        "docid": "VDLVIFDT8",
        "url": "https://www.163.com/dy/article/VDLVIFDT8.html"
    },
    {
        "title": "未来什么会取代房产，成为下一个风口",
        "docid": "VMM2298C9",
        "url": "https://www.163.com/dy/article/VMM2298C9.html"
    },
    {
        "title": "这个顶楼是可以搭阁楼的，采光视野特别好！",
        "docid": "VYM2QKEAA",
        "url": "https://www.163.com/dy/article/VYM2QKEAA.html"
    },
    {
        "title": "恒志云都荣获凤凰网“中国好房·2023年度品质交付标杆”",
        "docid": "IN30SDPF0553TDTY",
        "url": "https://www.163.com/dy/article/IN30SDPF0553TDTY.html"
    },
    {
        "title": "700m²花园的独栋别墅，一线临湖贵了上千万，果真豪宅不坑穷人啊",
        "docid": "VBM51SQCP",
        "url": "https://www.163.com/dy/article/VBM51SQCP.html"
    },
    {
        "title": "99%的人买房都选错了户型",
        "docid": "VGLV0QEMH",
        "url": "https://www.163.com/dy/article/VGLV0QEMH.html"
    },
    {
        "title": "玖珑湾业主强烈要求停息停贷，业主哭诉养儿压力大，生存困难",
        "docid": "VGM1H5PDE",
        "url": "https://www.163.com/dy/article/VGM1H5PDE.html"
    },
    {
        "title": "后悔买房了！30岁每月房贷10000元，30年还完才还第一年就扛不住",
        "docid": "VGLM4BQNP",
        "url": "https://www.163.com/dy/article/VGLM4BQNP.html"
    },
    {
        "title": "恒大超级烂尾楼，地基像鱼池一般，多少老百姓的心血",
        "docid": "VRM34N2PQ",
        "url": "https://www.163.com/dy/article/VRM34N2PQ.html"
    },
    {
        "title": "英国17万英镑的2卧室联排房子，一个工薪阶层7-8年的工资",
        "docid": "VBM5G5258",
        "url": "https://www.163.com/dy/article/VBM5G5258.html"
    },
    {
        "title": "东北第一大城市，整座山都是荒废的别墅，这里发生了什么？",
        "docid": "VSM3BVP92",
        "url": "https://www.163.com/dy/article/VSM3BVP92.html"
    },
    {
        "title": "借名买房︱借名给他人买房会有什么严重后果你知道嘛",
        "docid": "VJLV3344Q",
        "url": "https://www.163.com/dy/article/VJLV3344Q.html"
    },
    {
        "title": "美国“洞穴住宅”售价$59万",
        "docid": "IN3S4RHF0552JRS3",
        "url": "https://www.163.com/dy/article/IN3S4RHF0552JRS3.html"
    },
    {
        "title": "乌鲁木齐最难卖的二手房小区有哪些？",
        "docid": "VZM4C21FU",
        "url": "https://www.163.com/dy/article/VZM4C21FU.html"
    },
    {
        "title": "北漂十年回河北老家买楼房，老家的房价让我大吃一惊，下定决心买",
        "docid": "VGLO7G45Q",
        "url": "https://www.163.com/dy/article/VGLO7G45Q.html"
    },
    {
        "title": "幸亏买了带院子的房子 浪漫花园真惬意",
        "docid": "VZM2B4QV2",
        "url": "https://www.163.com/dy/article/VZM2B4QV2.html"
    },
    {
        "title": "现在要卖房的业主们一定要注意",
        "docid": "VPM45KL0S",
        "url": "https://www.163.com/dy/article/VPM45KL0S.html"
    },
    {
        "title": "楼市需要补大蛋糕，政策只是奶油剂",
        "docid": "VJLVTE0FN",
        "url": "https://www.163.com/dy/article/VJLVTE0FN.html"
    },
    {
        "title": "楼市调控 谁在一厢情愿？",
        "docid": "VKLQVHO58",
        "url": "https://www.163.com/dy/article/VKLQVHO58.html"
    },
    {
        "title": "2024年房价一定会大涨",
        "docid": "VFM1U99PA",
        "url": "https://www.163.com/dy/article/VFM1U99PA.html"
    },
    {
        "title": "2023年房地产利空全剧终！2024年楼市反弹速度超乎想象！",
        "docid": "VGM35HD1L",
        "url": "https://www.163.com/dy/article/VGM35HD1L.html"
    },
    {
        "title": "当然！没买到前海时代三期是件值得庆祝的事情",
        "docid": "IN3VNGT80552F71X",
        "url": "https://www.163.com/dy/article/IN3VNGT80552F71X.html"
    },
    {
        "title": "你相信吗？人见人爱的房子真的存在！",
        "docid": "IN3PJHVV0535MP84",
        "url": "https://www.163.com/dy/article/IN3PJHVV0535MP84.html"
    },
    {
        "title": "2024年房屋拆迁6招让补偿利益最大化",
        "docid": "IN40BO6M0549RI77",
        "url": "https://www.163.com/dy/article/IN40BO6M0549RI77.html"
    },
    {
        "title": "李嘉诚预言准了！我国手握“多套房”家庭，或将面临3个结果！",
        "docid": "VWM35GST5",
        "url": "https://www.163.com/dy/article/VWM35GST5.html"
    },
    {
        "title": "高层住宅，危机在哪里？",
        "docid": "VCM4CHDPE",
        "url": "https://www.163.com/dy/article/VCM4CHDPE.html"
    },
    {
        "title": "新疆人成都买房血亏，80%的南疆人当了炮灰，小心黄鼠狼给鸡拜年",
        "docid": "VYM3T4B73",
        "url": "https://www.163.com/dy/article/VYM3T4B73.html"
    },
    {
        "title": "巨型动漫屋！大连漫画家90㎡，繁而不乱的家",
        "docid": "VCLO8I67B",
        "url": "https://www.163.com/dy/article/VCLO8I67B.html"
    },
    {
        "title": "小区现诡异“骨灰房”？辛苦半辈子买的房子，网友直言太晦气",
        "docid": "VQM1DRV6D",
        "url": "https://www.163.com/dy/article/VQM1DRV6D.html"
    },
    {
        "title": "参考日本的房价我们该如何调整",
        "docid": "VYLT7NOPN",
        "url": "https://www.163.com/dy/article/VYLT7NOPN.html"
    },
    {
        "title": "中国城市分级，否认新一线城市，却承认一线城市？",
        "docid": "IN3J6CDE0553TEV3",
        "url": "https://www.163.com/dy/article/IN3J6CDE0553TEV3.html"
    },
    {
        "title": "千万级会员联动，这家房企的护城河又拓宽了",
        "docid": "IN40UQ6M05158B67",
        "url": "https://www.163.com/dy/article/IN40UQ6M05158B67.html"
    },
    {
        "title": "豪宅最大的毛病就是：壕",
        "docid": "VGM3IREO6",
        "url": "https://www.163.com/dy/article/VGM3IREO6.html"
    },
    {
        "title": "温铁军：为何不能轻易推出房产税？",
        "docid": "VWM2O088R",
        "url": "https://www.163.com/dy/article/VWM2O088R.html"
    },
    {
        "title": "2024年开始，房价将会再下跌？专家：真正受影响的只有这几类人！",
        "docid": "VWM5J0F7P",
        "url": "https://www.163.com/dy/article/VWM5J0F7P.html"
    },
    {
        "title": "看完这条视频，人人都能会计算楼层挡光！准备买房，赶紧收藏备用",
        "docid": "VBLLATCUN",
        "url": "https://www.163.com/dy/article/VBLLATCUN.html"
    },
    {
        "title": "地方财政挺缺钱，咱们买房人更缺钱",
        "docid": "VJM2F37I9",
        "url": "https://www.163.com/dy/article/VJM2F37I9.html"
    },
    {
        "title": "这是一位小军山佳兆业业主的真实经历…断供了",
        "docid": "VGM1ITH6T",
        "url": "https://www.163.com/dy/article/VGM1ITH6T.html"
    },
    {
        "title": "孙维在澳大利亚的公司房产正处于拍卖过程",
        "docid": "VSM6583SI",
        "url": "https://www.163.com/dy/article/VSM6583SI.html"
    },
    {
        "title": "翻建老宅不可不知的潜在风险，错一步就踩雷！",
        "docid": "IN43PA480535W7UR",
        "url": "https://www.163.com/dy/article/IN43PA480535W7UR.html"
    },
    {
        "title": "“抛售潮”还没出现，断供的人却“成批”增加，这意味着什么？",
        "docid": "IN3OS4DD0535KYBT",
        "url": "https://www.163.com/dy/article/IN3OS4DD0535KYBT.html"
    },
    {
        "title": "警惕开发商新套路，有人险些倾家荡产…",
        "docid": "IN42K67P0552HI5G",
        "url": "https://www.163.com/dy/article/IN42K67P0552HI5G.html"
    },
    {
        "title": "国际大米价格创15年新高，京东采销人员逆势涨薪 | 财经日日评",
        "docid": "IN431I0105199A0B",
        "url": "https://www.163.com/dy/article/IN431I0105199A0B.html"
    },
    {
        "title": "2023年，城投打了多场硬仗",
        "docid": "IN410H8M05158B67",
        "url": "https://www.163.com/dy/article/IN410H8M05158B67.html"
    },
    {
        "title": "大霄是个好人，但他的观点也救不了市",
        "docid": "VGLGAACMB",
        "url": "https://www.163.com/dy/article/VGLGAACMB.html"
    },
    {
        "title": "房价为什么降不下来？背后的真相不简单",
        "docid": "VMLKC39BQ",
        "url": "https://www.163.com/dy/article/VMLKC39BQ.html"
    },
    {
        "title": "现在还鼓吹让买房就是祸国殃民！",
        "docid": "VJM46R9CV",
        "url": "https://www.163.com/dy/article/VJM46R9CV.html"
    },
    {
        "title": "农村人在城里买了房，也成为不了城市人，需要两三代人去融入城市",
        "docid": "VWLMNLL7B",
        "url": "https://www.163.com/dy/article/VWLMNLL7B.html"
    },
    {
        "title": "美国11月二手房签约量指数意外持平 不及预期",
        "docid": "IN3U2RRM05198UNI",
        "url": "https://www.163.com/dy/article/IN3U2RRM05198UNI.html"
    },
    {
        "title": "央行：因城施策精准实施差别化住房信贷政策，更好支持刚性和改善性住房需求",
        "docid": "IN2PP1540539AP40",
        "url": "https://www.163.com/dy/article/IN2PP1540539AP40.html"
    },
    {
        "title": "坚持不买房的人，这次真的赢麻了",
        "docid": "VWM2K8POE",
        "url": "https://www.163.com/dy/article/VWM2K8POE.html"
    },
    {
        "title": "这才是中国最牛逼的房子，中式三合院，一百年不过时，有全套图纸！",
        "docid": "VBLMAIATP",
        "url": "https://www.163.com/dy/article/VBLMAIATP.html"
    },
    {
        "title": "这一招拯救房地产真的牛",
        "docid": "VMLSTHFVA",
        "url": "https://www.163.com/dy/article/VMLSTHFVA.html"
    },
    {
        "title": "100米楼间距，哪些楼层视野最好？视频全程模拟，再也不怕选错了",
        "docid": "VBLLCPDUU",
        "url": "https://www.163.com/dy/article/VBLLCPDUU.html"
    },
    {
        "title": "不听劝阻买到电梯房一楼，看完房子后太喜欢了，居然有意外惊喜",
        "docid": "VWM643AF7",
        "url": "https://www.163.com/dy/article/VWM643AF7.html"
    },
    {
        "title": "一夜之间，仿佛全国人民都在卖房",
        "docid": "VFM1TVA07",
        "url": "https://www.163.com/dy/article/VFM1TVA07.html"
    },
    {
        "title": "再便宜也不买这两个楼层",
        "docid": "VCM53EH4F",
        "url": "https://www.163.com/dy/article/VCM53EH4F.html"
    },
    {
        "title": "韩国房价太高，在首尔买房需要不吃不喝15年",
        "docid": "IMU0A5IB05565ANO",
        "url": "https://www.163.com/dy/article/IMU0A5IB05565ANO.html"
    },
    {
        "title": "丁祖昱：2023年住房总需求同比回升，二手房成交规模创新高",
        "docid": "IN45FD480535A68O",
        "url": "https://www.163.com/dy/article/IN45FD480535A68O.html"
    },
    {
        "title": "紫金108乐山停工！朗绿被卖！朗诗这是准备退出地产业？",
        "docid": "IN46OH410535IJRN",
        "url": "https://www.163.com/dy/article/IN46OH410535IJRN.html"
    },
    {
        "title": "中国第三轮房改即将开始，香港模式退出，新加坡模式正式登台",
        "docid": "II2JLTF905562FEF",
        "url": "https://www.163.com/dy/article/II2JLTF905562FEF.html"
    },
    {
        "title": "小区物业工程知识必知必会19问",
        "docid": "IN469FAR0535R28F",
        "url": "https://www.163.com/dy/article/IN469FAR0535R28F.html"
    },
    {
        "title": "政策大转向、市场筑底、保利登顶，房地产新发展模式“破题”｜回望2023㉑",
        "docid": "IN474H8P0534A4SC",
        "url": "https://www.163.com/dy/article/IN474H8P0534A4SC.html"
    },
    {
        "title": "再也扛不住了！终于决定卖房！结果却被气炸了，希望大家引以为戒",
        "docid": "VCM66JCUM",
        "url": "https://www.163.com/dy/article/VCM66JCUM.html"
    },
    {
        "title": "朋友不听劝，多花30万买了没人要的顶楼，交房一看惊呆了，像别墅",
        "docid": "VCM65EBHS",
        "url": "https://www.163.com/dy/article/VCM65EBHS.html"
    },
    {
        "title": "连续3年土地成交不足千亩，依靠卖土地的昆明还要过多久苦日子？",
        "docid": "VTM2PC1EN",
        "url": "https://www.163.com/dy/article/VTM2PC1EN.html"
    },
    {
        "title": "有没有一种大平层户型可以颠覆你传统的认知呢？",
        "docid": "IN3OEQO60552QWCE",
        "url": "https://www.163.com/dy/article/IN3OEQO60552QWCE.html"
    },
    {
        "title": "房价从2.5万降到8千，依然无人问津，投资客：当初太盲目自信了！",
        "docid": "IMV5IBVV0553SQD3",
        "url": "https://www.163.com/dy/article/IMV5IBVV0553SQD3.html"
    },
    {
        "title": "马光远预测：5年后，房价下跌50%！是唱衰吗？",
        "docid": "IN44L3GT0535KAWB",
        "url": "https://www.163.com/dy/article/IN44L3GT0535KAWB.html"
    },
    {
        "title": "圣基茨房地产的最新CBI法规",
        "docid": "IN495VQ40553CZVR",
        "url": "https://www.163.com/dy/article/IN495VQ40553CZVR.html"
    },
    {
        "title": "6款三层农村别墅，都是流行款，每款都精致实用，一眼就能吸引人",
        "docid": "IN3NJM8D0552QWCS",
        "url": "https://www.163.com/dy/article/IN3NJM8D0552QWCS.html"
    },
    {
        "title": "2024你不买房子，未来十年，你更买不起",
        "docid": "IN44OH880553TDVP",
        "url": "https://www.163.com/dy/article/IN44OH880553TDVP.html"
    },
    {
        "title": "奥地利Signa两大房地产业务破产保护 物业估值193亿欧",
        "docid": "IN47S72L0519D45U",
        "url": "https://www.163.com/dy/article/IN47S72L0519D45U.html"
    },
    {
        "title": "嘉定区西门历史文化风貌区旧改项目首发地块发布协议出让公示→",
        "docid": "IN45VM9V0512DU6N",
        "url": "https://www.163.com/dy/article/IN45VM9V0512DU6N.html"
    },
    {
        "title": "一场重要直播：楼市终局及购买建议！",
        "docid": "IN40CVM20549RI77",
        "url": "https://www.163.com/dy/article/IN40CVM20549RI77.html"
    },
    {
        "title": "全珠海集结！仁恒滨海湾&amp;珠海中山公园生活节，元旦三天现场抽奢牌盲盒！",
        "docid": "IN49MVQE05524FNS",
        "url": "https://www.163.com/dy/article/IN49MVQE05524FNS.html"
    },
    {
        "title": "为什么回迁房越来越不受欢迎？拆迁户称：有4个缺点无法忍受",
        "docid": "IN4633K30534M7IC",
        "url": "https://www.163.com/dy/article/IN4633K30534M7IC.html"
    },
    {
        "title": "2024新年献词丨让好房子的列车带上每一个人，驶入人人住好房的新赛道",
        "docid": "IN4ASAFK05352LE9",
        "url": "https://www.163.com/dy/article/IN4ASAFK05352LE9.html"
    },
    {
        "title": "房地产的国之大者：跌宕2023光芒2024丨记忆与展望",
        "docid": "IN49N47305352LE9",
        "url": "https://www.163.com/dy/article/IN49N47305352LE9.html"
    },
    {
        "title": "法国房贷利率开始回落 2024年下半年可能全面下降",
        "docid": "IN46JMCG0514R9L4",
        "url": "https://www.163.com/dy/article/IN46JMCG0514R9L4.html"
    },
    {
        "title": "未来靠近这三个地方的房子，越来越值钱",
        "docid": "VHLNKRNMC",
        "url": "https://www.163.com/dy/article/VHLNKRNMC.html"
    },
    {
        "title": "买的29层住了两个月就算赔30万也要换房，总结高层让人崩溃坑",
        "docid": "VMLQK3TJA",
        "url": "https://www.163.com/dy/article/VMLQK3TJA.html"
    },
    {
        "title": "二手房降价太猛了！当初花100万买的大三房，如今白菜价也卖不掉",
        "docid": "VCM645K3F",
        "url": "https://www.163.com/dy/article/VCM645K3F.html"
    },
    {
        "title": "人住几楼寿命最长，不是迷信，难怪有钱人都争着买这几层",
        "docid": "VGLPFE50N",
        "url": "https://www.163.com/dy/article/VGLPFE50N.html"
    },
    {
        "title": "4层以上住户留意：房子或迎来“新标准”，高楼停止，3类人受益",
        "docid": "IMMSR9E40535KYBT",
        "url": "https://www.163.com/dy/article/IMMSR9E40535KYBT.html"
    },
    {
        "title": "「民生」房贷办不下来怎么办？首付和定金能拿回吗？",
        "docid": "IN279R2S0553E0D8",
        "url": "https://www.163.com/dy/article/IN279R2S0553E0D8.html"
    },
    {
        "title": "印尼华商接盘外滩瑞华后，万达能卖的酒店不多了",
        "docid": "IN46EEQ50552BL5C",
        "url": "https://www.163.com/dy/article/IN46EEQ50552BL5C.html"
    },
    {
        "title": "美国抵押贷款利率降至6.61%，为5月以来最低",
        "docid": "IN4AMQK20534A4SC",
        "url": "https://www.163.com/dy/article/IN4AMQK20534A4SC.html"
    },
    {
        "title": "物业知识——小区物业消防安全课件",
        "docid": "IMS517DQ0552QWCS",
        "url": "https://www.163.com/dy/article/IMS517DQ0552QWCS.html"
    },
    {
        "title": "扛不住了，炒房客扛不住了开始低价甩卖，3天疯狂甩卖70套房子",
        "docid": "VMM4M97AK",
        "url": "https://www.163.com/dy/article/VMM4M97AK.html"
    },
    {
        "title": "妹妹家安置房真划算啊，128平三室两厅只要28万，看完我都想买了",
        "docid": "VCLPERPJD",
        "url": "https://www.163.com/dy/article/VCLPERPJD.html"
    },
    {
        "title": "花了半辈子的积蓄买下这套江景房，大家说值吗？",
        "docid": "VTLNQDA0F",
        "url": "https://www.163.com/dy/article/VTLNQDA0F.html"
    },
    {
        "title": "房子周围有这六个建筑物买的时候要慎重",
        "docid": "VWLPFFSJ9",
        "url": "https://www.163.com/dy/article/VWLPFFSJ9.html"
    },
    {
        "title": "为什么有些地方，注定会衰败？？",
        "docid": "IN3Q0BMB0535MP84",
        "url": "https://www.163.com/dy/article/IN3Q0BMB0535MP84.html"
    },
    {
        "title": "20个有效攒钱小方法，月入5000千也能买房！",
        "docid": "IN48RFHC05566DVL",
        "url": "https://www.163.com/dy/article/IN48RFHC05566DVL.html"
    },
    {
        "title": "重磅！吴建斌提议国家20-30万亿回购房子：钱从何来？意义何在？",
        "docid": "IN45FPJM055616ZT",
        "url": "https://www.163.com/dy/article/IN45FPJM055616ZT.html"
    },
    {
        "title": "地产盘点| 辞任、失联、降薪，房企高管失意2023",
        "docid": "IN4CAUE00519DDQ2",
        "url": "https://www.163.com/dy/article/IN4CAUE00519DDQ2.html"
    },
    {
        "title": "看房两个月，最终全款拿下这套3个露台3个阳台的老破大",
        "docid": "VCM648A8U",
        "url": "https://www.163.com/dy/article/VCM648A8U.html"
    },
    {
        "title": "房屋滞销：一套37.5万美元房屋滞销了，改造后却遭遇疯抢！",
        "docid": "VBLPDJUD3",
        "url": "https://www.163.com/dy/article/VBLPDJUD3.html"
    },
    {
        "title": "我前年买的房今年亏30万，谁说买房不会亏？我还是太冲动啦",
        "docid": "VBLP4VC4H",
        "url": "https://www.163.com/dy/article/VBLP4VC4H.html"
    },
    {
        "title": "这个事情比房价下跌还严重",
        "docid": "VPLKVLDH4",
        "url": "https://www.163.com/dy/article/VPLKVLDH4.html"
    },
    {
        "title": "一个敢说真话的房产人 说真话 金牌中介 房地产销售日常 地产人",
        "docid": "VBM6911M2",
        "url": "https://www.163.com/dy/article/VBM6911M2.html"
    },
    {
        "title": "楼市变天？2023年准备买房的人，送你四个忠告，很实用！",
        "docid": "IMITBIEJ0540KLAM",
        "url": "https://www.163.com/dy/article/IMITBIEJ0540KLAM.html"
    },
    {
        "title": "房屋空置可以“免缴物业费”？新法规确定了：统一“这样”收",
        "docid": "IN46H3CR055640VF",
        "url": "https://www.163.com/dy/article/IN46H3CR055640VF.html"
    },
    {
        "title": "房子首付从30%降至20%，利息从6.2%降至3.7%，唯独房价打死也不降",
        "docid": "IMMTHDDH0552CPHG",
        "url": "https://www.163.com/dy/article/IMMTHDDH0552CPHG.html"
    },
    {
        "title": "河南信阳这么好的地方，面山背水，为什么没能成为首都呢？",
        "docid": "IN4EDF2L0535FFBB",
        "url": "https://www.163.com/dy/article/IN4EDF2L0535FFBB.html"
    },
    {
        "title": "「房产」国家采取措施：住建部：2020年稳房价 不用房产刺激经济",
        "docid": "IN272R4V05562GZK",
        "url": "https://www.163.com/dy/article/IN272R4V05562GZK.html"
    },
    {
        "title": "现象级的大平层户型，值得品鉴",
        "docid": "IMMTU6BL0535LAX2",
        "url": "https://www.163.com/dy/article/IMMTU6BL0535LAX2.html"
    },
    {
        "title": "四年前花29万在广西北海买的海景房，现在只能卖20万，愁坏全家",
        "docid": "VZLP60I7F",
        "url": "https://www.163.com/dy/article/VZLP60I7F.html"
    },
    {
        "title": "专家：国家拿出30万亿回购房产，盘活行业且促进资金流动？",
        "docid": "VSM64NUHV",
        "url": "https://www.163.com/dy/article/VSM64NUHV.html"
    },
    {
        "title": "每户要交1亿！物业要收107亿维修费，并称无需和业主商量",
        "docid": "VSLMUJMS4",
        "url": "https://www.163.com/dy/article/VSLMUJMS4.html"
    },
    {
        "title": "【社区观察】取消物业容易，可你知道不受控的业委会有多糟",
        "docid": "IN4GND8D0552QWCL",
        "url": "https://www.163.com/dy/article/IN4GND8D0552QWCL.html"
    },
    {
        "title": "凰家速地|武汉合昌创智产业8.17亿元竞得武昌区农讲所片地块",
        "docid": "IN4JMJ9S0545PEDS",
        "url": "https://www.163.com/dy/article/IN4JMJ9S0545PEDS.html"
    },
    {
        "title": "怪了！普通人坐等房子再降价，内行人称：再降下去，你没买的机会",
        "docid": "IN47VE6K0553RHO2",
        "url": "https://www.163.com/dy/article/IN47VE6K0553RHO2.html"
    },
    {
        "title": "全国28城77%盘完成交房 60盘至今仍未交付",
        "docid": "IN4GF83D0530OLSK",
        "url": "https://www.163.com/dy/article/IN4GF83D0530OLSK.html"
    },
    {
        "title": "2024年！拐点到了，你是留钱还是买房？",
        "docid": "IN4GCQ3L0515UN97",
        "url": "https://www.163.com/dy/article/IN4GCQ3L0515UN97.html"
    },
    {
        "title": "目光所及处皆是温柔，朝着有光方向去奔赴，金地环湾城",
        "docid": "IN4DPM4T05565TIT",
        "url": "https://www.163.com/dy/article/IN4DPM4T05565TIT.html"
    },
    {
        "title": "1420亿与18万套，逆袭全国第一，成都赢麻了",
        "docid": "IN463IE805561UAV",
        "url": "https://www.163.com/dy/article/IN463IE805561UAV.html"
    },
    {
        "title": "雅诗阁今年在华新开物业总数刷新纪录",
        "docid": "IN44HROR0534A4SC",
        "url": "https://www.163.com/dy/article/IN44HROR0534A4SC.html"
    },
    {
        "title": "房价从11000降到6000，抄底买了一套，如今3000一平难出手，泪奔",
        "docid": "VGM66IGKD",
        "url": "https://www.163.com/dy/article/VGM66IGKD.html"
    },
    {
        "title": "一夜之间风向变了，出现了几个反常的变化，国外就是我们的镜子",
        "docid": "IMNIQFSH05562BBD",
        "url": "https://www.163.com/dy/article/IMNIQFSH05562BBD.html"
    },
    {
        "title": "凰家速地|武汉文化旅游集团4.9亿元竞得汉阳戏曲艺术中心地块",
        "docid": "IN4JNBQ90553TB8M",
        "url": "https://www.163.com/dy/article/IN4JNBQ90553TB8M.html"
    },
    {
        "title": "万物云“研选家”发布白皮书：局改市场政策利好",
        "docid": "IN4JAC9M0519D45U",
        "url": "https://www.163.com/dy/article/IN4JAC9M0519D45U.html"
    },
    {
        "title": "农村宅基地审批放开了，满足4个条件就能申请建房，看看有你没？",
        "docid": "IN4GDS6M0530ICNH",
        "url": "https://www.163.com/dy/article/IN4GDS6M0530ICNH.html"
    },
    {
        "title": "新周期元年，房企如何活下去？！且看2024楼市十大预言",
        "docid": "IMVV75OL0552BMBC",
        "url": "https://www.163.com/dy/article/IMVV75OL0552BMBC.html"
    },
    {
        "title": "这个待遇是真香啊到手 20-30W公积金一个月8k还有年终奖不会有危机",
        "docid": "IN4912ND0553TEV3",
        "url": "https://www.163.com/dy/article/IN4912ND0553TEV3.html"
    },
    {
        "title": "地产交付季：超强交付力靠的是什么？",
        "docid": "IN4DLBU605526O4T",
        "url": "https://www.163.com/dy/article/IN4DLBU605526O4T.html"
    },
    {
        "title": "房价下跌，中产何去何从",
        "docid": "VWLMNJB9N",
        "url": "https://www.163.com/dy/article/VWLMNJB9N.html"
    },
    {
        "title": "在大城市里有个院子是种什么样的体验？ ",
        "docid": "VCM67M70V",
        "url": "https://www.163.com/dy/article/VCM67M70V.html"
    },
    {
        "title": "炒房客现在很多都被套住了，想脱手真的很难",
        "docid": "IN4LNK2P0553SPQJ",
        "url": "https://www.163.com/dy/article/IN4LNK2P0553SPQJ.html"
    },
    {
        "title": "买房是成年人最大的成绩单，年底买房您一定要看这里！",
        "docid": "IN4EM8MO0550EWRZ",
        "url": "https://www.163.com/dy/article/IN4EM8MO0550EWRZ.html"
    },
    {
        "title": "2024楼市：“好房子”引领行业变革",
        "docid": "IN4C54550553TDVP",
        "url": "https://www.163.com/dy/article/IN4C54550553TDVP.html"
    },
    {
        "title": "领潮供应链杨鸥：房地产是长期充满活力的支柱产业 | 中国式现代化实践发展论坛",
        "docid": "IN4I9N4U05199DKK",
        "url": "https://www.163.com/dy/article/IN4I9N4U05199DKK.html"
    },
    {
        "title": "连平：明年楼市将逐步回稳 差异性或加大 市场将寻求供求关系新平衡",
        "docid": "IN4JLA6L0519DDQ2",
        "url": "https://www.163.com/dy/article/IN4JLA6L0519DDQ2.html"
    },
    {
        "title": "中金2024十大预测出炉，楼市和股市有戏？",
        "docid": "IN3VFUVQ0553XVC8",
        "url": "https://www.163.com/dy/article/IN3VFUVQ0553XVC8.html"
    },
    {
        "title": "3楼，7楼，10楼，17楼，24楼是槽钢层吗？",
        "docid": "VWM6A1UP1",
        "url": "https://www.163.com/dy/article/VWM6A1UP1.html"
    },
    {
        "title": "花了35万的装修费，验房后却发现5万都不值，是不是该走法律程序",
        "docid": "VCM5UKA58",
        "url": "https://www.163.com/dy/article/VCM5UKA58.html"
    },
    {
        "title": "高层住宅太闹心了，我住在29楼已经5年，太多的不爽和无奈",
        "docid": "VXLPJQ35N",
        "url": "https://www.163.com/dy/article/VXLPJQ35N.html"
    },
    {
        "title": "各线城市房价持续“全跌”态势，同比仅一线维持正增长",
        "docid": "IN4O4BP9051590L9",
        "url": "https://www.163.com/dy/article/IN4O4BP9051590L9.html"
    },
    {
        "title": "司马南盯上了潘石屹！老潘的钱确实出去了但SOHO建的楼都好好的",
        "docid": "IN4C6GQ80553XH85",
        "url": "https://www.163.com/dy/article/IN4C6GQ80553XH85.html"
    },
    {
        "title": "逆势思维！房地产将引领2024至2026年的中国牛市！",
        "docid": "IN4OBSQ90556123R",
        "url": "https://www.163.com/dy/article/IN4OBSQ90556123R.html"
    },
    {
        "title": "会议预告丨中国城市住房可支付指数发布暨房地产发展新模式研讨会",
        "docid": "IN4J2D720516R4QO",
        "url": "https://www.163.com/dy/article/IN4J2D720516R4QO.html"
    },
    {
        "title": "2023年终观察 10万亿+房地产市场发生了哪些变化？",
        "docid": "IN4981MT0519C6T9",
        "url": "https://www.163.com/dy/article/IN4981MT0519C6T9.html"
    },
    {
        "title": "这三类房产千万不要买，未来将会无人接盘！",
        "docid": "VGM6EM8JL",
        "url": "https://www.163.com/dy/article/VGM6EM8JL.html"
    },
    {
        "title": "动真格了！一线楼市率先回暖，2024房价反弹在即",
        "docid": "VQM400OTJ",
        "url": "https://www.163.com/dy/article/VQM400OTJ.html"
    },
    {
        "title": "碧桂园原执行董事：房地产下跌是要死人的，上升了反而皆大欢喜",
        "docid": "VJM69FL76",
        "url": "https://www.163.com/dy/article/VJM69FL76.html"
    },
    {
        "title": "专家和碧桂园前高管激辩预售制：预售制到底有没有错？",
        "docid": "VCM35TVTL",
        "url": "https://www.163.com/dy/article/VCM35TVTL.html"
    },
    {
        "title": "「民生」房产税即将开征，是否应该把多余的房子卖掉",
        "docid": "IN2794UJ0553E0D1",
        "url": "https://www.163.com/dy/article/IN2794UJ0553E0D1.html"
    },
    {
        "title": "缅甸两周批复126栋建筑的建设许可，以及36栋建筑的竣工准住证",
        "docid": "IN4PAA9U0534MHMX",
        "url": "https://www.163.com/dy/article/IN4PAA9U0534MHMX.html"
    },
    {
        "title": "要活得热气腾腾，生活一直在我们心中，金地环湾城",
        "docid": "IN4KUCUG05565TIT",
        "url": "https://www.163.com/dy/article/IN4KUCUG05565TIT.html"
    },
    {
        "title": "物业公司各岗位题库汇编（约400题，可用于竞赛）",
        "docid": "IN4AEVQB0535R288",
        "url": "https://www.163.com/dy/article/IN4AEVQB0535R288.html"
    },
    {
        "title": "郭奎章：未来五年房地产房价趋势",
        "docid": "VCM6D7SBO",
        "url": "https://www.163.com/dy/article/VCM6D7SBO.html"
    },
    {
        "title": "涛子综合考虑计划市区买房，直播间却说自媒体拍摄更适合农村发现",
        "docid": "VWLV9ITRL",
        "url": "https://www.163.com/dy/article/VWLV9ITRL.html"
    },
    {
        "title": "粉丝去周海媚别墅探望，其母已带家当回香港，北京豪宅获将拍卖？",
        "docid": "VZLPGPLAG",
        "url": "https://www.163.com/dy/article/VZLPGPLAG.html"
    },
    {
        "title": "比房价下跌更可怕的事正在各大城市上演",
        "docid": "VZLU9J1UO",
        "url": "https://www.163.com/dy/article/VZLU9J1UO.html"
    },
    {
        "title": "万科大都会两房12月29日全部选完",
        "docid": "VTM6V7JT2",
        "url": "https://www.163.com/dy/article/VTM6V7JT2.html"
    },
    {
        "title": "昨天，我们房子终于卖出去！可是心在滴血！",
        "docid": "IN4EJ93F05562BBD",
        "url": "https://www.163.com/dy/article/IN4EJ93F05562BBD.html"
    },
    {
        "title": "新房首付款和二手房首付款的区别",
        "docid": "IN4DQE2O0553TEQM",
        "url": "https://www.163.com/dy/article/IN4DQE2O0553TEQM.html"
    },
    {
        "title": "12月百城二手房市场均价持续下行，环比降幅略微收窄",
        "docid": "IN4O4BC0051590L9",
        "url": "https://www.163.com/dy/article/IN4O4BC0051590L9.html"
    },
    {
        "title": "新家丨万科海上城市于12月24日进行交付",
        "docid": "IN4QDDO10556025S",
        "url": "https://www.163.com/dy/article/IN4QDDO10556025S.html"
    },
    {
        "title": "新年将至，说两个好消息~",
        "docid": "IN4P4OR70538O5JP",
        "url": "https://www.163.com/dy/article/IN4P4OR70538O5JP.html"
    },
    {
        "title": "以小博大：一分钱如何掰八半儿用？",
        "docid": "IN40BF0805563HTE",
        "url": "https://www.163.com/dy/article/IN40BF0805563HTE.html"
    },
    {
        "title": "7-8F真洋房+硬核湖居！东三环百亩湖居红盘再度上新",
        "docid": "IN4RISU20514D3UH",
        "url": "https://www.163.com/dy/article/IN4RISU20514D3UH.html"
    },
    {
        "title": "同一户型，为啥聪明人选西户",
        "docid": "VFM1U9G0M",
        "url": "https://www.163.com/dy/article/VFM1U9G0M.html"
    },
    {
        "title": "光顾着买房，忘了这两件事",
        "docid": "VZM43K9BO",
        "url": "https://www.163.com/dy/article/VZM43K9BO.html"
    },
    {
        "title": "美不胜收的意境，生命的美就得到了如诗般净化和提升，金地环湾城",
        "docid": "IN4QPEMU0556677U",
        "url": "https://www.163.com/dy/article/IN4QPEMU0556677U.html"
    },
    {
        "title": "11月美国待过户成屋销售指数71.6创新低",
        "docid": "IN4PACQR0519D45U",
        "url": "https://www.163.com/dy/article/IN4PACQR0519D45U.html"
    },
    {
        "title": "报告：今年前10月GCC房地产成交同比增两成 “豪宅宠儿”阿联酋成领头羊",
        "docid": "IN4HJCOH05198CJN",
        "url": "https://www.163.com/dy/article/IN4HJCOH05198CJN.html"
    },
    {
        "title": "踏踏实实工作，有机会买房吗？",
        "docid": "IN4R95Q30535JMSP",
        "url": "https://www.163.com/dy/article/IN4R95Q30535JMSP.html"
    },
    {
        "title": "24年的开局行情，可能会弱于23年",
        "docid": "IN42LA4C0515IKNK",
        "url": "https://www.163.com/dy/article/IN42LA4C0515IKNK.html"
    },
    {
        "title": "楼市周报丨住建部定调明年楼市：核心城市政策有望继续优化",
        "docid": "IN2AERV80514D3UH",
        "url": "https://www.163.com/dy/article/IN2AERV80514D3UH.html"
    },
    {
        "title": "未来这些房子有可能一文不值",
        "docid": "VQLSN63HK",
        "url": "https://www.163.com/dy/article/VQLSN63HK.html"
    },
    {
        "title": "炒房客洗干净了，剩下的都是实力派，0首付买房揭秘",
        "docid": "VEM70BVMC",
        "url": "https://www.163.com/dy/article/VEM70BVMC.html"
    },
    {
        "title": "享受过的东西卖了叫处理，没享受过还赔钱卖的东西叫什么",
        "docid": "VBLOQF49J",
        "url": "https://www.163.com/dy/article/VBLOQF49J.html"
    },
    {
        "title": "武汉江岸幸福时代·大家K1首日开盘 成交突破3.28亿元",
        "docid": "IN4VASD20519D45U",
        "url": "https://www.163.com/dy/article/IN4VASD20519D45U.html"
    },
    {
        "title": "以前上海房价总是涨多跌少，为什么这次上海房价跌那么多？",
        "docid": "IN4R8JSH0535JMSP",
        "url": "https://www.163.com/dy/article/IN4R8JSH0535JMSP.html"
    },
    {
        "title": "开间7.4米，进深11米的小户型别墅，小巧精美又实惠",
        "docid": "IN4OEVDA0535KYBM",
        "url": "https://www.163.com/dy/article/IN4OEVDA0535KYBM.html"
    },
    {
        "title": "日本东京超高层建筑相继落成 或存在写字楼供应过剩的风险",
        "docid": "IN4PP0G20530QRMB",
        "url": "https://www.163.com/dy/article/IN4PP0G20530QRMB.html"
    },
    {
        "title": "数家 房地产 机构被召集开会 了解京沪新政落地后市场情况",
        "docid": "IN4S45CE0539AP40",
        "url": "https://www.163.com/dy/article/IN4S45CE0539AP40.html"
    },
    {
        "title": "拆迁全面停止？2024年起，20年以上的老房子又将成为“抢手货”",
        "docid": "VSM71R70A",
        "url": "https://www.163.com/dy/article/VSM71R70A.html"
    },
    {
        "title": "城里人爆改乡村别墅 村民进城坐收5位数房租！",
        "docid": "VTLVJ3OIS",
        "url": "https://www.163.com/dy/article/VTLVJ3OIS.html"
    },
    {
        "title": "卖房的人哭了，买房的人笑了",
        "docid": "VCLLUHVIL",
        "url": "https://www.163.com/dy/article/VCLLUHVIL.html"
    },
    {
        "title": "工资下跌，股市下跌，房价为什么不能下跌，有些专家简直在放屁",
        "docid": "VGLP2DF58",
        "url": "https://www.163.com/dy/article/VGLP2DF58.html"
    },
    {
        "title": "武汉：全年累计公开招拍挂成交各类用地241宗 成交金额882.84亿元",
        "docid": "IN513BFJ0519D45U",
        "url": "https://www.163.com/dy/article/IN513BFJ0519D45U.html"
    },
    {
        "title": "谁才是房子的继承人？第一和第二继承顺序不要弄错！",
        "docid": "IN4RU7MV0553TB8M",
        "url": "https://www.163.com/dy/article/IN4RU7MV0553TB8M.html"
    },
    {
        "title": "2024年北京、上海新房房价估计又要创新高了",
        "docid": "IN4U1R2T0535JMSP",
        "url": "https://www.163.com/dy/article/IN4U1R2T0535JMSP.html"
    },
    {
        "title": "太火爆！200米路开15家金店！有金店老板为快速回笼资金，卖了两套房囤黄金",
        "docid": "IMNLBKGD0512B07B",
        "url": "https://www.163.com/dy/article/IMNLBKGD0512B07B.html"
    },
    {
        "title": "中海物业终止与中国建筑兴业关联交易",
        "docid": "IN51NR120519D45U",
        "url": "https://www.163.com/dy/article/IN51NR120519D45U.html"
    },
    {
        "title": "房子卖了 700 万，能躺平吗",
        "docid": "IN4BAIR90556607X",
        "url": "https://www.163.com/dy/article/IN4BAIR90556607X.html"
    },
    {
        "title": "房价跌了那么久，和信贷收紧也有关系",
        "docid": "IN4R8K3C0535JMSP",
        "url": "https://www.163.com/dy/article/IN4R8K3C0535JMSP.html"
    },
    {
        "title": "数家房地产机构高层应邀探讨京沪新政实施后的市场效应",
        "docid": "IN4T1MV30519D45U",
        "url": "https://www.163.com/dy/article/IN4T1MV30519D45U.html"
    },
    {
        "title": "旅居了四年我最有可能定居的城市是哪里",
        "docid": "VWM2RA1U8",
        "url": "https://www.163.com/dy/article/VWM2RA1U8.html"
    },
    {
        "title": "韩国的楼市调查数据让中国人破防了，我们才是真正的hard模式？",
        "docid": "IMQ6B3EJ05563TCH",
        "url": "https://www.163.com/dy/article/IMQ6B3EJ05563TCH.html"
    },
    {
        "title": "愚蠢还是明智？卖掉房子的抉择，“内行人”一语道破",
        "docid": "IN4SSNLN0553TB8M",
        "url": "https://www.163.com/dy/article/IN4SSNLN0553TB8M.html"
    },
    {
        "title": "品质需求提升34%，“新出租”时代迎来租住新需求",
        "docid": "IN4PL5P30552ADWT",
        "url": "https://www.163.com/dy/article/IN4PL5P30552ADWT.html"
    },
    {
        "title": "存量房贷款将再次下调利率，1月1日起重新定价！",
        "docid": "IN529B51055658CJ",
        "url": "https://www.163.com/dy/article/IN529B51055658CJ.html"
    },
    {
        "title": "建发的「卷」，都藏在这一席东方迭新墅里！",
        "docid": "IN4SCSIJ05523LQD",
        "url": "https://www.163.com/dy/article/IN4SCSIJ05523LQD.html"
    },
    {
        "title": "小区物业费究竟该怎么收才合理？",
        "docid": "IMM6R52705562O3H",
        "url": "https://www.163.com/dy/article/IMM6R52705562O3H.html"
    },
    {
        "title": "新“房改”来了，刚需还要买房吗？| 请回答，2024",
        "docid": "IN50C1TT05199DKK",
        "url": "https://www.163.com/dy/article/IN50C1TT05199DKK.html"
    },
    {
        "title": "滨江集团董事长戚金兴：2024年省外拿地主要目标是上海",
        "docid": "IN0BR9F20512B07B",
        "url": "https://www.163.com/dy/article/IN0BR9F20512B07B.html"
    },
    {
        "title": "早买房吃亏，还是晚买房吃亏？楼市政策松动说明了一切，越晚越好",
        "docid": "VBM2NSTFA",
        "url": "https://www.163.com/dy/article/VBM2NSTFA.html"
    },
    {
        "title": "返乡建房不可错过7款二层新中式别墅，造价低经典实用二层自建房",
        "docid": "IMSBELPH0520BKDJ",
        "url": "https://www.163.com/dy/article/IMSBELPH0520BKDJ.html"
    },
    {
        "title": "188平米优秀户型：可能是艺术家的钟爱！",
        "docid": "IMO27NI60552QWCE",
        "url": "https://www.163.com/dy/article/IMO27NI60552QWCE.html"
    },
    {
        "title": "湖北武汉拟于1月19日出让一宗仓储用地 起始价1.15亿元",
        "docid": "IN53ICT30519D45U",
        "url": "https://www.163.com/dy/article/IN53ICT30519D45U.html"
    },
    {
        "title": "躺平隐居没钱了怎么办？我的方法很简单",
        "docid": "IN53F3OQ0535KYBM",
        "url": "https://www.163.com/dy/article/IN53F3OQ0535KYBM.html"
    },
    {
        "title": "环比涨幅TOP10以弱二线及三四线城市为主，常德涨幅领跑百城",
        "docid": "IN4O4B40051590L9",
        "url": "https://www.163.com/dy/article/IN4O4B40051590L9.html"
    },
    {
        "title": "出险房企高管的苦恼:“限高”后有人坐绿皮火车15小时回家,有人长途开车往返",
        "docid": "IN53Q4950535L78U",
        "url": "https://www.163.com/dy/article/IN53Q4950535L78U.html"
    },
    {
        "title": "高新发展(000628.SZ)联合体签订老旧小区改造及配套建设项目设计-施工总承包合同",
        "docid": "IN54VUOF05198UNI",
        "url": "https://www.163.com/dy/article/IN54VUOF05198UNI.html"
    },
    {
        "title": "英国房价12个月内下跌1.8% 2024年有望止跌企稳",
        "docid": "IN522PD905198UNI",
        "url": "https://www.163.com/dy/article/IN522PD905198UNI.html"
    },
    {
        "title": "炒房教父被打？出来混，还是要还的",
        "docid": "IMO2B1860553QMR9",
        "url": "https://www.163.com/dy/article/IMO2B1860553QMR9.html"
    },
    {
        "title": "惨！600万房子跌至270万，银行拍卖后，还欠银行120万！",
        "docid": "IN53UEU80545PEDS",
        "url": "https://www.163.com/dy/article/IN53UEU80545PEDS.html"
    },
    {
        "title": "2023年10大专家房地产言论，开发商抓紧盖房，未来房价上涨压力大",
        "docid": "IN51M9H005158I5P",
        "url": "https://www.163.com/dy/article/IN51M9H005158I5P.html"
    },
    {
        "title": "马来西亚第二家园政策全新升级",
        "docid": "IN4T7B8405565IRM",
        "url": "https://www.163.com/dy/article/IN4T7B8405565IRM.html"
    },
    {
        "title": "上海房价跌了那么久，上海徐汇滨江改善房会跌多少？",
        "docid": "IN4R8IRD0535JMSP",
        "url": "https://www.163.com/dy/article/IN4R8IRD0535JMSP.html"
    },
    {
        "title": "中国楼市2023：焦虑与希望交织",
        "docid": "IN4A47J305352LE9",
        "url": "https://www.163.com/dy/article/IN4A47J305352LE9.html"
    },
    {
        "title": "王兴尧等：未赶上利率新政，购房者该怎么办？",
        "docid": "IN4QOB0O0519C6T9",
        "url": "https://www.163.com/dy/article/IN4QOB0O0519C6T9.html"
    },
    {
        "title": "房地产经济，到底有没有泡沫？",
        "docid": "VZLMG440O",
        "url": "https://www.163.com/dy/article/VZLMG440O.html"
    },
    {
        "title": "11月份各城房价统计出炉，无一例外下跌，买房别再考虑炒作和升值",
        "docid": "VCLVQGI4I",
        "url": "https://www.163.com/dy/article/VCLVQGI4I.html"
    },
    {
        "title": "房子白菜价了？10万块买两套房，最低还不到500元一平！",
        "docid": "VZM53H54F",
        "url": "https://www.163.com/dy/article/VZM53H54F.html"
    },
    {
        "title": "12月买房合适还是年底？",
        "docid": "IN560OHT0545PEDS",
        "url": "https://www.163.com/dy/article/IN560OHT0545PEDS.html"
    },
    {
        "title": "胆大，月薪5千居然一时冲动买了191万的房子",
        "docid": "IN52L81T0553TB8M",
        "url": "https://www.163.com/dy/article/IN52L81T0553TB8M.html"
    },
    {
        "title": "【移闻快讯】希腊延长黄金签证项目涨价区域房产过户期限",
        "docid": "IN4S6NH605537S6M",
        "url": "https://www.163.com/dy/article/IN4S6NH605537S6M.html"
    },
    {
        "title": "美国买房必看：六大城市黑帮地图",
        "docid": "IN4T1V8105566G1I",
        "url": "https://www.163.com/dy/article/IN4T1V8105566G1I.html"
    },
    {
        "title": "丽尚国潮(600738.SH)：未能竞拍获得杭州市上城区相关地块使用权",
        "docid": "IN55KCG805198ETO",
        "url": "https://www.163.com/dy/article/IN55KCG805198ETO.html"
    },
    {
        "title": "城市有房的也想建30套一层农村自建房别墅，养老休闲好去处自建房",
        "docid": "IMNQLRSK0520BKDJ",
        "url": "https://www.163.com/dy/article/IMNQLRSK0520BKDJ.html"
    },
    {
        "title": "“银发海啸”将席卷美国！华尔街分析师：供应大增将令房价下跌",
        "docid": "IN4S4A7605198CJN",
        "url": "https://www.163.com/dy/article/IN4S4A7605198CJN.html"
    },
    {
        "title": "全国9亿人月收入不足2000，为什么房价还那么高？",
        "docid": "IN4S8OSO0535JMSP",
        "url": "https://www.163.com/dy/article/IN4S8OSO0535JMSP.html"
    },
    {
        "title": "1分钟看完！你可能不知道的华润",
        "docid": "IN50CA3N05523LQD",
        "url": "https://www.163.com/dy/article/IN50CA3N05523LQD.html"
    },
    {
        "title": "原来这是188平米的塔尖户型！",
        "docid": "IMO2DBMQ0552QWCE",
        "url": "https://www.163.com/dy/article/IMO2DBMQ0552QWCE.html"
    },
    {
        "title": "一家8口要在一天1000块的酒店住一辈子这波操作让人摸不着头脑",
        "docid": "IN596ABB0552BJNO",
        "url": "https://www.163.com/dy/article/IN596ABB0552BJNO.html"
    },
    {
        "title": "2024年元旦放假和年终结转工作通知",
        "docid": "IN59ATVJ0545PEDS",
        "url": "https://www.163.com/dy/article/IN59ATVJ0545PEDS.html"
    },
    {
        "title": "主卧带厕所的房子，为什么越来越不受欢迎？只因这5个缺点太致命",
        "docid": "IN537TRR054057BR",
        "url": "https://www.163.com/dy/article/IN537TRR054057BR.html"
    },
    {
        "title": "二十年公租房制度一朝终结，福州保租房须由市属国企经营降低租金",
        "docid": "IN58VT010552QWCE",
        "url": "https://www.163.com/dy/article/IN58VT010552QWCE.html"
    },
    {
        "title": "曾经活跃在天涯里的KK神预言",
        "docid": "IN5732L40553TDVP",
        "url": "https://www.163.com/dy/article/IN5732L40553TDVP.html"
    },
    {
        "title": "各城市地价数据(2003-2022)",
        "docid": "IMO1NL6G05566EYT",
        "url": "https://www.163.com/dy/article/IMO1NL6G05566EYT.html"
    },
    {
        "title": "A股龙虎榜 | 金刚光伏呼家楼，五方光电上塘路——12.28 星期四",
        "docid": "VCM6DI732",
        "url": "https://www.163.com/dy/article/VCM6DI732.html"
    },
    {
        "title": "国家“出手”了，楼市前景大好？业内人士：普通人做好两方面准备",
        "docid": "VCM72DDO1",
        "url": "https://www.163.com/dy/article/VCM72DDO1.html"
    },
    {
        "title": "买带装修的二手房一定一定一定要注意以下这几点？",
        "docid": "IN50HTC70549RI77",
        "url": "https://www.163.com/dy/article/IN50HTC70549RI77.html"
    },
    {
        "title": "四开间朝南叠加所有房间全明，这款千万豪宅户型，着实漂亮",
        "docid": "IN4FSMDD0515U60S",
        "url": "https://www.163.com/dy/article/IN4FSMDD0515U60S.html"
    },
    {
        "title": "中国最值得投资房地产的城市都在这里了！",
        "docid": "IN52U2CJ0553CGI3",
        "url": "https://www.163.com/dy/article/IN52U2CJ0553CGI3.html"
    },
    {
        "title": "2024年房价“是涨是跌”，看看这“三大变化”，答案已一目了然！",
        "docid": "IMIVK3100540A6F8",
        "url": "https://www.163.com/dy/article/IMIVK3100540A6F8.html"
    },
    {
        "title": "年内最大物业并购案告吹！中海物业9.5亿港元收购关联公司终止",
        "docid": "IN58JQF30512B07B",
        "url": "https://www.163.com/dy/article/IN58JQF30512B07B.html"
    },
    {
        "title": "我们需要怎样的城市更新？",
        "docid": "IMO6M7Q705508U92",
        "url": "https://www.163.com/dy/article/IMO6M7Q705508U92.html"
    },
    {
        "title": "为了200平的露台，买下了这套2楼的电梯房，房子是越看越喜欢",
        "docid": "VZM66IFB6",
        "url": "https://www.163.com/dy/article/VZM66IFB6.html"
    },
    {
        "title": "2023回顾系列：高价买房不算最糟糕，低价买房会越来越容易",
        "docid": "VCM33JIOM",
        "url": "https://www.163.com/dy/article/VCM33JIOM.html"
    },
    {
        "title": "房价最后会变成白菜价吗？",
        "docid": "VCM42DUTJ",
        "url": "https://www.163.com/dy/article/VCM42DUTJ.html"
    },
    {
        "title": "深圳布吉四季花城详情-实时更新-售楼处地址！",
        "docid": "IN2O5C8R05563HNR",
        "url": "https://www.163.com/dy/article/IN2O5C8R05563HNR.html"
    },
    {
        "title": "重大争议！专家建议国家拿出30万亿回购房产，网友分为两派激辩",
        "docid": "IN5C9UMR055616ZT",
        "url": "https://www.163.com/dy/article/IN5C9UMR055616ZT.html"
    },
    {
        "title": "风向标 || 链家贝壳全面提高二手房展示价格",
        "docid": "IN2P1OME053516F0",
        "url": "https://www.163.com/dy/article/IN2P1OME053516F0.html"
    },
    {
        "title": "新年大礼！2024年存量房贷利率再降10个基点，对购房者影响不小",
        "docid": "IN530R040556299F",
        "url": "https://www.163.com/dy/article/IN530R040556299F.html"
    },
    {
        "title": "传多家地产中介平台及机构被召集开会 了解新政落地效果",
        "docid": "IN5D7HJK0519D45U",
        "url": "https://www.163.com/dy/article/IN5D7HJK0519D45U.html"
    },
    {
        "title": "我们用8个关键词，回顾2023的成都",
        "docid": "IN55NOKM05524XKD",
        "url": "https://www.163.com/dy/article/IN55NOKM05524XKD.html"
    },
    {
        "title": "接受一些生活历练，让强者生命煜煜生辉，金地环湾城",
        "docid": "IMO7OA10055667WV",
        "url": "https://www.163.com/dy/article/IMO7OA10055667WV.html"
    },
    {
        "title": "一镜到底，大家看看这个阳台还可以吧！",
        "docid": "VPLMOQ4JJ",
        "url": "https://www.163.com/dy/article/VPLMOQ4JJ.html"
    },
    {
        "title": "高下立判！面对房地产争议，赖清德死不认错，侯友宜家人积极处理",
        "docid": "VBM6QPB1J",
        "url": "https://www.163.com/dy/article/VBM6QPB1J.html"
    },
    {
        "title": "未取得全部地块致项目延缓？官方回复富力尚悦居未启动原因",
        "docid": "IN2P2C9T0535A6CE",
        "url": "https://www.163.com/dy/article/IN2P2C9T0535A6CE.html"
    },
    {
        "title": "英国房价12个月跌1.8%超预期 房贷利率回落或暗示触底",
        "docid": "IN4THUUG0519D45U",
        "url": "https://www.163.com/dy/article/IN4THUUG0519D45U.html"
    },
    {
        "title": "24年房价会涨，还是会跌？",
        "docid": "VWM5LRQJ9",
        "url": "https://www.163.com/dy/article/VWM5LRQJ9.html"
    },
    {
        "title": "你记住啊卖房的人都要小心点了",
        "docid": "VCLMO774A",
        "url": "https://www.163.com/dy/article/VCLMO774A.html"
    },
    {
        "title": "大部分房子可能要锁在手里了",
        "docid": "VFM4HH18S",
        "url": "https://www.163.com/dy/article/VFM4HH18S.html"
    },
    {
        "title": "房价回撤最多的城市第一名竟然是它？",
        "docid": "VXM27RQVN",
        "url": "https://www.163.com/dy/article/VXM27RQVN.html"
    },
    {
        "title": "2023年11月石家庄长安裕华，二手房成交数据",
        "docid": "VCM2OR1P0",
        "url": "https://www.163.com/dy/article/VCM2OR1P0.html"
    },
    {
        "title": "房价跌得最惨的不是三四线小城市",
        "docid": "VGM571HVG",
        "url": "https://www.163.com/dy/article/VGM571HVG.html"
    },
    {
        "title": "600万买96平房子 现280万没人要，连续半年还不起月供了",
        "docid": "VBM7AJKU6",
        "url": "https://www.163.com/dy/article/VBM7AJKU6.html"
    },
    {
        "title": "09年创业在深圳城中村买楼，如今年收租30多万，惊呆了！",
        "docid": "IN2O3BOD05562KMK",
        "url": "https://www.163.com/dy/article/IN2O3BOD05562KMK.html"
    },
    {
        "title": "如果再换房子，一定不买2楼！我肠子都悔青了，比一楼还差劲！",
        "docid": "IN5EL2FR055616ZT",
        "url": "https://www.163.com/dy/article/IN5EL2FR055616ZT.html"
    },
    {
        "title": "央行释放2024年楼市走向新信号！若一定要买房，不妨看看3句忠告",
        "docid": "IN5D01BJ05359WBS",
        "url": "https://www.163.com/dy/article/IN5D01BJ05359WBS.html"
    },
    {
        "title": "美国豪宅“钢铁侠之家”，3000多平上下四层，与悬崖大海融为一体",
        "docid": "IMOEVPVG055650WJ",
        "url": "https://www.163.com/dy/article/IMOEVPVG055650WJ.html"
    },
    {
        "title": "2023年，请记住这几个楼市瞬间",
        "docid": "IN5975910515WLA7",
        "url": "https://www.163.com/dy/article/IN5975910515WLA7.html"
    },
    {
        "title": "男子因28万黄金兑换券付10万首付买191万房子，事后后悔要退房",
        "docid": "IMRA8AT40553HGMM",
        "url": "https://www.163.com/dy/article/IMRA8AT40553HGMM.html"
    },
    {
        "title": "【“‘码’上反映”回音壁】个税专项扣除开始确认啦，住房公积金贷款合同号怎么查？",
        "docid": "IN5B25A70553RRD3",
        "url": "https://www.163.com/dy/article/IN5B25A70553RRD3.html"
    },
    {
        "title": "让一部分人先富不是良策",
        "docid": "IN4NKGGI0553LJ9S",
        "url": "https://www.163.com/dy/article/IN4NKGGI0553LJ9S.html"
    },
    {
        "title": "新一轮保障住房启动，能否用保障住房的属性解决地产泡沫的问题？",
        "docid": "VPM200SE4",
        "url": "https://www.163.com/dy/article/VPM200SE4.html"
    },
    {
        "title": "一家8口住酒店，年消费36万，被曝资产几千万，网友：逻辑说不通",
        "docid": "IN5C5JAL055616C5",
        "url": "https://www.163.com/dy/article/IN5C5JAL055616C5.html"
    },
    {
        "title": "前方高能！一大批“新家”工程进度加载中......",
        "docid": "IN5HCT120512AHTN",
        "url": "https://www.163.com/dy/article/IN5HCT120512AHTN.html"
    },
    {
        "title": "美邦拟向雅戈尔出售上饶及南昌直营店物业 总计2.3亿元",
        "docid": "IN5FMI6N0519D45U",
        "url": "https://www.163.com/dy/article/IN5FMI6N0519D45U.html"
    },
    {
        "title": "2024年，关于楼市的5大预测，你赞同吗?",
        "docid": "IN5BAPNV0553TDVP",
        "url": "https://www.163.com/dy/article/IN5BAPNV0553TDVP.html"
    },
    {
        "title": "恒大地产截至11月末未能清偿债务3163.91亿 逾期商票2055.37亿",
        "docid": "IN5GAKK70519D45U",
        "url": "https://www.163.com/dy/article/IN5GAKK70519D45U.html"
    },
    {
        "title": "地产寒冬，为何还有房企可以提前交付？",
        "docid": "IN5DS39J05198035",
        "url": "https://www.163.com/dy/article/IN5DS39J05198035.html"
    },
    {
        "title": "即使世界偶尔薄凉，内心也要繁花似锦，金地环湾城",
        "docid": "IN517FK20556677U",
        "url": "https://www.163.com/dy/article/IN517FK20556677U.html"
    },
    {
        "title": "武汉楼测：小户型越来越少，来看这套50多平甚至可以做三房",
        "docid": "VCLQMSEAT",
        "url": "https://www.163.com/dy/article/VCLQMSEAT.html"
    },
    {
        "title": "深圳都市圈影响几何，中山与惠州哪个好，大亚湾房价低过县城？",
        "docid": "VWM6OEDMH",
        "url": "https://www.163.com/dy/article/VWM6OEDMH.html"
    },
    {
        "title": "美国种族差异凸显：2023年黑人家庭买房难度是白人的三倍",
        "docid": "IN52SLQ80514DPPR",
        "url": "https://www.163.com/dy/article/IN52SLQ80514DPPR.html"
    },
    {
        "title": "南京河西“豪宅天团”杀疯！我拿到绿城G55、中海G53核心信息",
        "docid": "IN5G9E5D0556123R",
        "url": "https://www.163.com/dy/article/IN5G9E5D0556123R.html"
    },
    {
        "title": "恒大地产：发行人涉及未能清偿的到期债务累计约人民币3163.91亿元",
        "docid": "IN5FPUPH0539AP40",
        "url": "https://www.163.com/dy/article/IN5FPUPH0539AP40.html"
    },
    {
        "title": "美特斯邦威：拟出售位于南昌的两宗物业 累计交易价2.3亿元",
        "docid": "IN50HC9I0519D45U",
        "url": "https://www.163.com/dy/article/IN50HC9I0519D45U.html"
    },
    {
        "title": "“神秘买家”中联基金 接盘了多少万达广场？",
        "docid": "IN5I55O70519D45U",
        "url": "https://www.163.com/dy/article/IN5I55O70519D45U.html"
    },
    {
        "title": "为什么会判断房价还会上涨",
        "docid": "VGM6NLS85",
        "url": "https://www.163.com/dy/article/VGM6NLS85.html"
    },
    {
        "title": "两亩占地大花园 东郊硅谷豪园600平独栋 十年房龄别墅",
        "docid": "VELVH531F",
        "url": "https://www.163.com/dy/article/VELVH531F.html"
    },
    {
        "title": "专家们说老破小不能买？真的不能买吗？#买房那些事",
        "docid": "VOM437314",
        "url": "https://www.163.com/dy/article/VOM437314.html"
    },
    {
        "title": "谁说小面宽不能建好房？只要规划好，面宽8米也能建豪宅 ",
        "docid": "VBM740SDM",
        "url": "https://www.163.com/dy/article/VBM740SDM.html"
    },
    {
        "title": "柬埔寨金边5层以上高楼共1777栋",
        "docid": "IN5L0H5T055616XS",
        "url": "https://www.163.com/dy/article/IN5L0H5T055616XS.html"
    },
    {
        "title": "2023年百强房企拿地总金额达13195亿元 同比微增1.7%",
        "docid": "IN5K98I905198CJN",
        "url": "https://www.163.com/dy/article/IN5K98I905198CJN.html"
    },
    {
        "title": "从「理想之地」，看未来城市商业的进阶玩法",
        "docid": "IN5KOGP605158BF0",
        "url": "https://www.163.com/dy/article/IN5KOGP605158BF0.html"
    },
    {
        "title": "2023年近九成房企市值缩水，千亿级仅剩4家   年度榜单①",
        "docid": "IN5CR2P70553YQBK",
        "url": "https://www.163.com/dy/article/IN5CR2P70553YQBK.html"
    },
    {
        "title": "住建部：1-11月全国新开工改造城镇老旧小区5.32万个",
        "docid": "IN593MDM0514R9KQ",
        "url": "https://www.163.com/dy/article/IN593MDM0514R9KQ.html"
    },
    {
        "title": "推进“党建+ 智慧+”双服务模式，这家物业企业的经验是……",
        "docid": "IN2IU8PL0535R281",
        "url": "https://www.163.com/dy/article/IN2IU8PL0535R281.html"
    },
    {
        "title": "长江金租被罚175万元",
        "docid": "IN5HKRE70519C6T9",
        "url": "https://www.163.com/dy/article/IN5HKRE70519C6T9.html"
    },
    {
        "title": "存款30万，就超过70%的家庭？",
        "docid": "VFM7602HA",
        "url": "https://www.163.com/dy/article/VFM7602HA.html"
    },
    {
        "title": "物业半夜醉酒催交物业费",
        "docid": "VWLMDSQS4",
        "url": "https://www.163.com/dy/article/VWLMDSQS4.html"
    },
    {
        "title": "【维•经济】大跳水！维也纳房价暴跌15%！",
        "docid": "IN5K70930514BTOD",
        "url": "https://www.163.com/dy/article/IN5K70930514BTOD.html"
    },
    {
        "title": "农民进城后房子会被收回吗？",
        "docid": "IN30I3GB0532Q69P",
        "url": "https://www.163.com/dy/article/IN30I3GB0532Q69P.html"
    },
    {
        "title": "越南年轻人正成为购房主力军",
        "docid": "IN5M95RN0534MHMX",
        "url": "https://www.163.com/dy/article/IN5M95RN0534MHMX.html"
    },
    {
        "title": "集体土地征收，胎儿未出生能获得补偿吗？",
        "docid": "IMOLVHNU0532Q69P",
        "url": "https://www.163.com/dy/article/IMOLVHNU0532Q69P.html"
    },
    {
        "title": "房子的坐向是如何判断的？怎么看坐向问题？",
        "docid": "IN2PL520055658BZ",
        "url": "https://www.163.com/dy/article/IN2PL520055658BZ.html"
    },
    {
        "title": "日租短租，规范安全不能短缺丨人民锐见",
        "docid": "IN4RBF4G0530MKMJ",
        "url": "https://www.163.com/dy/article/IN4RBF4G0530MKMJ.html"
    },
    {
        "title": "串串房，很多人没听说过",
        "docid": "VZLSBQB3M",
        "url": "https://www.163.com/dy/article/VZLSBQB3M.html"
    },
    {
        "title": "二层别墅这样建，100年不过时，有喜欢的吗",
        "docid": "VPLQNANQR",
        "url": "https://www.163.com/dy/article/VPLQNANQR.html"
    },
    {
        "title": "欢姐有别墅吗？很多人好奇，今天带大家走进我的生活",
        "docid": "VCLQAV4GM",
        "url": "https://www.163.com/dy/article/VCLQAV4GM.html"
    }
]