[
    {
        "title": "国家动真格了？刺激买房无效后，提到一个“新方案”，获网友支持",
        "docid": "IM6ODDLD05565BVN",
        "url": "https://www.163.com/dy/article/IM6ODDLD05565BVN.html"
    },
    {
        "title": "大名鼎鼎的新西敏监狱挂牌出售！比温西豪宅还便宜",
        "docid": "IM6QGO560542M5JD",
        "url": "https://www.163.com/dy/article/IM6QGO560542M5JD.html"
    },
    {
        "title": "北京上海松绑楼市 | 策略周报",
        "docid": "IM6QPKA8052587TF",
        "url": "https://www.163.com/dy/article/IM6QPKA8052587TF.html"
    },
    {
        "title": "专家怎么不鼓励富人多买几套房呢？",
        "docid": "ILN8UTLH05561J3G",
        "url": "https://www.163.com/dy/article/ILN8UTLH05561J3G.html"
    },
    {
        "title": "讲真，开发商砸钱又怎样？这户型我最多能打60分",
        "docid": "ILPP3AK70515U60S",
        "url": "https://www.163.com/dy/article/ILPP3AK70515U60S.html"
    },
    {
        "title": "武汉高性价比好房评测：钟家村福地华庭小区",
        "docid": "VZKS2AE3B",
        "url": "https://www.163.com/dy/article/VZKS2AE3B.html"
    },
    {
        "title": "买房坚决不建议，买中间楼层！价格高阳光差，视野只看别人家窗户",
        "docid": "VBL68QOC0",
        "url": "https://www.163.com/dy/article/VBL68QOC0.html"
    },
    {
        "title": "乍一看，好户型！仔细一看，4大缺点，总有人不能接受",
        "docid": "VBKPDHM9A",
        "url": "https://www.163.com/dy/article/VBKPDHM9A.html"
    },
    {
        "title": "小区停车费一年要从800元涨到2160元，您怎么看？（3）",
        "docid": "VFKRV9HLL",
        "url": "https://www.163.com/dy/article/VFKRV9HLL.html"
    },
    {
        "title": "山手线车站400米！东京台东区1DK投资公寓，上野商圈720米，售约113万！",
        "docid": "ILPH8FJ705359JWY",
        "url": "https://www.163.com/dy/article/ILPH8FJ705359JWY.html"
    },
    {
        "title": "所有盼着房价暴跌的人，你们就是盼着自己越来越穷。",
        "docid": "IM6OGV8P0553VNKO",
        "url": "https://www.163.com/dy/article/IM6OGV8P0553VNKO.html"
    },
    {
        "title": "吴明华：人类满级夫妇，入住月租88万的别墅，这么有钱咋不买房？",
        "docid": "IM6BH11N0535KYBM",
        "url": "https://www.163.com/dy/article/IM6BH11N0535KYBM.html"
    },
    {
        "title": "伍戈：房价降了，居民买吗？",
        "docid": "IM6R715P0519IGF7",
        "url": "https://www.163.com/dy/article/IM6R715P0519IGF7.html"
    },
    {
        "title": "一觉醒来｜世界发生了什么事？ 20231216",
        "docid": "IM6R2TRD055658CF",
        "url": "https://www.163.com/dy/article/IM6R2TRD055658CF.html"
    },
    {
        "title": "列治文5卧室独立屋以75万“白菜价”挂牌！背后的故事惊人",
        "docid": "IM6R2QSR0553RRD3",
        "url": "https://www.163.com/dy/article/IM6R2QSR0553RRD3.html"
    },
    {
        "title": "抵押房那些事，有什么风险",
        "docid": "VAL7KM2AN",
        "url": "https://www.163.com/dy/article/VAL7KM2AN.html"
    },
    {
        "title": "比房价下跌更可怕的事情",
        "docid": "VWL45KGFL",
        "url": "https://www.163.com/dy/article/VWL45KGFL.html"
    },
    {
        "title": "2层-26层，各楼层视野模拟大全！有了这样的参考，任谁都不会选错",
        "docid": "VBL6BIJ1V",
        "url": "https://www.163.com/dy/article/VBL6BIJ1V.html"
    },
    {
        "title": "你注意到了吗？楼市转型到现在，有一种感觉已经越来越强烈了",
        "docid": "IM6OIF2D0549RI77",
        "url": "https://www.163.com/dy/article/IM6OIF2D0549RI77.html"
    },
    {
        "title": "买100万的房子，总花费竟高达200万，超前消费多可怕？业主哭了",
        "docid": "IM6TF0070556123R",
        "url": "https://www.163.com/dy/article/IM6TF0070556123R.html"
    },
    {
        "title": "重磅！我国一二线城市居民自有住房，已按市场租金法核算虚拟租金",
        "docid": "IM6JTIPS0517BT3G",
        "url": "https://www.163.com/dy/article/IM6JTIPS0517BT3G.html"
    },
    {
        "title": "【重磅】32.8公顷！汉南区人民政府发布最新征地及补偿安置公告",
        "docid": "IM6UOCSH0545PEDS",
        "url": "https://www.163.com/dy/article/IM6UOCSH0545PEDS.html"
    },
    {
        "title": "买到房子后宁可空置闲着，也不愿对外出租，背后原因很现实！",
        "docid": "ILN54R9005529KBU",
        "url": "https://www.163.com/dy/article/ILN54R9005529KBU.html"
    },
    {
        "title": "一位买了20套房子的大哥，哭着说了3句话！说出了男人的心酸！",
        "docid": "VMKR986NR",
        "url": "https://www.163.com/dy/article/VMKR986NR.html"
    },
    {
        "title": "司马南谈房地产现状，一针见血字字珠玑，众大佬谈房地产",
        "docid": "VWL8TFIEQ",
        "url": "https://www.163.com/dy/article/VWL8TFIEQ.html"
    },
    {
        "title": "14一套，现房，万达两站地。有公园，有公交",
        "docid": "VZL91POCA",
        "url": "https://www.163.com/dy/article/VZL91POCA.html"
    },
    {
        "title": "归家即度假，香港置地启元交付（2023版）",
        "docid": "VRL9068ST",
        "url": "https://www.163.com/dy/article/VRL9068ST.html"
    },
    {
        "title": "开发商给大家传递信号了！",
        "docid": "VZL8QKSN9",
        "url": "https://www.163.com/dy/article/VZL8QKSN9.html"
    },
    {
        "title": "北漂小夫妻2年前买的郊区老破小，掏空全家积蓄，居然降价这么多",
        "docid": "VCL93ILNQ",
        "url": "https://www.163.com/dy/article/VCL93ILNQ.html"
    },
    {
        "title": "业主自降500万，只需700万就能拥有一线看江大花园临崖独栋别墅！",
        "docid": "VZL6F6RIB",
        "url": "https://www.163.com/dy/article/VZL6F6RIB.html"
    },
    {
        "title": "买的高楼层后悔的想扇自己，打算卖了换3层，说说高层的5大通病",
        "docid": "VCKS22ECP",
        "url": "https://www.163.com/dy/article/VCKS22ECP.html"
    },
    {
        "title": "假设房价一直暴跌失业率真的会增大吗？",
        "docid": "VZKRI1LA5",
        "url": "https://www.163.com/dy/article/VZKRI1LA5.html"
    },
    {
        "title": "2024年千万要小心，不能碰的三件事",
        "docid": "VFL5MFNH9",
        "url": "https://www.163.com/dy/article/VFL5MFNH9.html"
    },
    {
        "title": "购入新房的快乐和5年未住的的别墅院子大对比",
        "docid": "VCKRAANGV",
        "url": "https://www.163.com/dy/article/VCKRAANGV.html"
    },
    {
        "title": "2024年，成都的价格会多数破4吗？今天锦江地王重现，明年房价是涨是跌？",
        "docid": "VCL8JJV33",
        "url": "https://www.163.com/dy/article/VCL8JJV33.html"
    },
    {
        "title": "房产盲盒：土豪6.4万美元捡漏的法拍房，竟从中找到保险柜！",
        "docid": "VDKR4ST8J",
        "url": "https://www.163.com/dy/article/VDKR4ST8J.html"
    },
    {
        "title": "买哪个楼层好？你买的是几楼？",
        "docid": "IM72AM040553TEQM",
        "url": "https://www.163.com/dy/article/IM72AM040553TEQM.html"
    },
    {
        "title": "房租和房价都在跌，一线城市的房子还有投资价值吗？建议阅读",
        "docid": "IM3AEV8V0535PKJN",
        "url": "https://www.163.com/dy/article/IM3AEV8V0535PKJN.html"
    },
    {
        "title": "随着楼市发展，4种“二手房”可能被淘汰，很难再出手",
        "docid": "ILN9MCSD05258H6P",
        "url": "https://www.163.com/dy/article/ILN9MCSD05258H6P.html"
    },
    {
        "title": "要闻速递20231215",
        "docid": "IM70VCPD0553TATU",
        "url": "https://www.163.com/dy/article/IM70VCPD0553TATU.html"
    },
    {
        "title": "许家印被捉之后，更荒唐的一幕发生了，恒大物业把恒大集团给告了",
        "docid": "IM6JAH7F0553TDXU",
        "url": "https://www.163.com/dy/article/IM6JAH7F0553TDXU.html"
    },
    {
        "title": "房价是涨还是跌 五句话告诉你",
        "docid": "VGL931MP6",
        "url": "https://www.163.com/dy/article/VGL931MP6.html"
    },
    {
        "title": "20年前花了900万装修的房子，看过的人都说值",
        "docid": "VCL90D654",
        "url": "https://www.163.com/dy/article/VCL90D654.html"
    },
    {
        "title": "普通家庭能买到一套房很不容易。广东中山市坦洲镇的华丽豪庭，一栋手续齐全，验收合格的楼房，仅六年就变成",
        "docid": "VCL90GPDM",
        "url": "https://www.163.com/dy/article/VCL90GPDM.html"
    },
    {
        "title": "【重拳出击，家居市场常态化监管执法】",
        "docid": "VCKRQTMNU",
        "url": "https://www.163.com/dy/article/VCKRQTMNU.html"
    },
    {
        "title": "房产中介，告别造富时代之后",
        "docid": "ILPK5BFI0552NZ1P",
        "url": "https://www.163.com/dy/article/ILPK5BFI0552NZ1P.html"
    },
    {
        "title": "铁四院地产：显央企担当以稳健筑底 用高品质满足新需求",
        "docid": "IM0Q10II05346936",
        "url": "https://www.163.com/dy/article/IM0Q10II05346936.html"
    },
    {
        "title": "购房新举措，武汉开始了！",
        "docid": "IM33RORM0514R9OJ",
        "url": "https://www.163.com/dy/article/IM33RORM0514R9OJ.html"
    },
    {
        "title": "10亿！省科投拿下光谷宅地！",
        "docid": "IM10AMJP0545DG4X",
        "url": "https://www.163.com/dy/article/IM10AMJP0545DG4X.html"
    },
    {
        "title": "最新！武汉楼市“量价齐跌”",
        "docid": "IM1NTFBS0514BINQ",
        "url": "https://www.163.com/dy/article/IM1NTFBS0514BINQ.html"
    },
    {
        "title": "卓刀泉1宗住宅用地挂牌，起始楼面价11770元/平！",
        "docid": "IM1OCF5U0534SV3Y",
        "url": "https://www.163.com/dy/article/IM1OCF5U0534SV3Y.html"
    },
    {
        "title": "【时评】政府允许楼盘降价，“房闹”们要凉凉了",
        "docid": "IM3NHHTO0530T173",
        "url": "https://www.163.com/dy/article/IM3NHHTO0530T173.html"
    },
    {
        "title": "后湖沃尔玛山姆会员店土地挂牌！",
        "docid": "IM46LL140534SV3Y",
        "url": "https://www.163.com/dy/article/IM46LL140534SV3Y.html"
    },
    {
        "title": "汉阳 | 武汉新世界汉江·云赫商业项目2024年年中璀璨开街！",
        "docid": "IM6P3TJQ0534SV3Y",
        "url": "https://www.163.com/dy/article/IM6P3TJQ0534SV3Y.html"
    },
    {
        "title": "很多农村人后悔在县城买房，究竟啥原因？句句中肯",
        "docid": "ILQ5BEHL0553YH5Z",
        "url": "https://www.163.com/dy/article/ILQ5BEHL0553YH5Z.html"
    },
    {
        "title": "铁四院地产：显央企担当以稳健筑底 用高品质满足新需求",
        "docid": "IM0Q10II05346936",
        "url": "https://www.163.com/dy/article/IM0Q10II05346936.html"
    },
    {
        "title": "2023年11月份70个大中城市商品住宅销售价格变动情况",
        "docid": "IM732IIL0553TDVP",
        "url": "https://www.163.com/dy/article/IM732IIL0553TDVP.html"
    },
    {
        "title": "购房新举措，武汉开始了！",
        "docid": "IM33RORM0514R9OJ",
        "url": "https://www.163.com/dy/article/IM33RORM0514R9OJ.html"
    },
    {
        "title": "破防了！又一省会城市为刺激购房，在户口上“动刀”！",
        "docid": "IM0DV0BJ0536UOB3",
        "url": "https://www.163.com/dy/article/IM0DV0BJ0536UOB3.html"
    },
    {
        "title": "最新权威数据：武汉房价又跌了？",
        "docid": "IM1G088B0553RRD3",
        "url": "https://www.163.com/dy/article/IM1G088B0553RRD3.html"
    },
    {
        "title": "底价！“国资”！武汉6宗地成交30亿！",
        "docid": "IM72VGAN0553TDTY",
        "url": "https://www.163.com/dy/article/IM72VGAN0553TDTY.html"
    },
    {
        "title": "后湖沃尔玛山姆会员店土地挂牌！",
        "docid": "IM46LL140534SV3Y",
        "url": "https://www.163.com/dy/article/IM46LL140534SV3Y.html"
    },
    {
        "title": "汉阳 | 武汉新世界汉江·云赫商业项目2024年年中璀璨开街！",
        "docid": "IM6P3TJQ0534SV3Y",
        "url": "https://www.163.com/dy/article/IM6P3TJQ0534SV3Y.html"
    },
    {
        "title": "辉哥贷款30年买了61万的房子，朋友听了直呼亏大了，彻底后悔了！",
        "docid": "VCL92UBTD",
        "url": "https://www.163.com/dy/article/VCL92UBTD.html"
    },
    {
        "title": "都说这里寸土寸金，看到这栋房子我明白了，这么薄的房子你敢住吗",
        "docid": "VGL97JJDU",
        "url": "https://www.163.com/dy/article/VGL97JJDU.html"
    },
    {
        "title": "一个买了15套房单身女人",
        "docid": "VCL0TO245",
        "url": "https://www.163.com/dy/article/VCL0TO245.html"
    },
    {
        "title": "老破小出不了手，这种回购你要不要？",
        "docid": "VGL92QS54",
        "url": "https://www.163.com/dy/article/VGL92QS54.html"
    },
    {
        "title": "奥斯陆38平米独居公寓room tour｜浅聊挪威租房&买房价格",
        "docid": "VBKQLKP0Q",
        "url": "https://www.163.com/dy/article/VBKQLKP0Q.html"
    },
    {
        "title": "高房价终于逼出了年轻人断子绝孙的生活方式",
        "docid": "VZL93P5V9",
        "url": "https://www.163.com/dy/article/VZL93P5V9.html"
    },
    {
        "title": "320万买的房子跌到160万，我断供了！一家人走上了不归路",
        "docid": "VMKOK5AGR",
        "url": "https://www.163.com/dy/article/VMKOK5AGR.html"
    },
    {
        "title": "单价四万不限购新房大平层",
        "docid": "VZL645CLL",
        "url": "https://www.163.com/dy/article/VZL645CLL.html"
    },
    {
        "title": "贷款买房三大坑看你踩了几个？",
        "docid": "VQL5K6ENI",
        "url": "https://www.163.com/dy/article/VQL5K6ENI.html"
    },
    {
        "title": "766户公职人员被清退公租房，被腾房的一刻，他们的嘴脸暴露无遗",
        "docid": "IM6TC1TL0553TB9L",
        "url": "https://www.163.com/dy/article/IM6TC1TL0553TB9L.html"
    },
    {
        "title": "丁彦皓：北京、上海政策放松意味着八年一遇的房产行情彻底的来了",
        "docid": "IM6P56980553Q2PO",
        "url": "https://www.163.com/dy/article/IM6P56980553Q2PO.html"
    },
    {
        "title": "农村自建房我的失误之处，准备建房子的朋友要引以为戒！",
        "docid": "IM77COEN0535KYBM",
        "url": "https://www.163.com/dy/article/IM77COEN0535KYBM.html"
    },
    {
        "title": "风向真的变了！临近过年房地产又出现了新动向？早了解不会吃亏！",
        "docid": "IM6OPLOF055658CO",
        "url": "https://www.163.com/dy/article/IM6OPLOF055658CO.html"
    },
    {
        "title": "买到这样的楼层，就是大“冤种”！楼层高，价格高，阳光却更少了",
        "docid": "VBKUI27HV",
        "url": "https://www.163.com/dy/article/VBKUI27HV.html"
    },
    {
        "title": "全国850万人因还不起房贷断供，背后的原因究竟是什么？",
        "docid": "VQL63LHJF",
        "url": "https://www.163.com/dy/article/VQL63LHJF.html"
    },
    {
        "title": "你猜这栋别墅能卖多少钱？",
        "docid": "VWKSE84D1",
        "url": "https://www.163.com/dy/article/VWKSE84D1.html"
    },
    {
        "title": "老南转盘：一个城市的地标建筑，是一代人的回忆",
        "docid": "VGKQR9HB7",
        "url": "https://www.163.com/dy/article/VGKQR9HB7.html"
    },
    {
        "title": "拆迁的安置房，到底能不能买",
        "docid": "VFKRC1BSK",
        "url": "https://www.163.com/dy/article/VFKRC1BSK.html"
    },
    {
        "title": "澳洲移民数量创新高，租金将持续升高？澳洲住房贷款回来了，新州政府缩减经济适用房建筑配额！",
        "docid": "IM789IFG05199N88",
        "url": "https://www.163.com/dy/article/IM789IFG05199N88.html"
    },
    {
        "title": "商品房隔音效果越来越差如何破解",
        "docid": "IM73OCAT05561KA5",
        "url": "https://www.163.com/dy/article/IM73OCAT05561KA5.html"
    },
    {
        "title": "买房首选这7种房子，直接影响主人的运势和生活质量，越住越旺",
        "docid": "IM6QE2Q10520E3F7",
        "url": "https://www.163.com/dy/article/IM6QE2Q10520E3F7.html"
    },
    {
        "title": "还是没忍住诱惑，拿下了海南127平亲海别墅，带私家花园自由赶海",
        "docid": "VOKSB5Q5T",
        "url": "https://www.163.com/dy/article/VOKSB5Q5T.html"
    },
    {
        "title": "当下，卖房子比买房子更难，不要卖房子，不要卖房子",
        "docid": "VZL63L8BT",
        "url": "https://www.163.com/dy/article/VZL63L8BT.html"
    },
    {
        "title": "周海媚住的小区，MOMA万万树，总价2000左右，专业别墅欢迎咨询！",
        "docid": "VGL8VM297",
        "url": "https://www.163.com/dy/article/VGL8VM297.html"
    },
    {
        "title": "调控很精准，可以说组合拳。招招到核心",
        "docid": "VCL96GBVS",
        "url": "https://www.163.com/dy/article/VCL96GBVS.html"
    },
    {
        "title": "关中地区房价跌到无人问津，六千块钱一套两室一厅，来捡漏吧",
        "docid": "VGKQ6V2LU",
        "url": "https://www.163.com/dy/article/VGKQ6V2LU.html"
    },
    {
        "title": "以前都排队买房，现在都排队卖房",
        "docid": "VGKR36OGG",
        "url": "https://www.163.com/dy/article/VGKR36OGG.html"
    },
    {
        "title": "铁四院地产：显央企担当以稳健筑底 用高品质满足新需求",
        "docid": "IM0Q10II05346936",
        "url": "https://www.163.com/dy/article/IM0Q10II05346936.html"
    },
    {
        "title": "10亿！省科投拿下光谷宅地！",
        "docid": "IM10AMJP0545DG4X",
        "url": "https://www.163.com/dy/article/IM10AMJP0545DG4X.html"
    },
    {
        "title": "最新！武汉楼市“量价齐跌”",
        "docid": "IM1NTFBS0514BINQ",
        "url": "https://www.163.com/dy/article/IM1NTFBS0514BINQ.html"
    },
    {
        "title": "破防了！又一省会城市为刺激购房，在户口上“动刀”！",
        "docid": "IM0DV0BJ0536UOB3",
        "url": "https://www.163.com/dy/article/IM0DV0BJ0536UOB3.html"
    },
    {
        "title": "最新权威数据：武汉房价又跌了？",
        "docid": "IM1G088B0553RRD3",
        "url": "https://www.163.com/dy/article/IM1G088B0553RRD3.html"
    },
    {
        "title": "卓刀泉1宗住宅用地挂牌，起始楼面价11770元/平！",
        "docid": "IM1OCF5U0534SV3Y",
        "url": "https://www.163.com/dy/article/IM1OCF5U0534SV3Y.html"
    },
    {
        "title": "汉阳 | 武汉新世界汉江·云赫商业项目2024年年中璀璨开街！",
        "docid": "IM6P3TJQ0534SV3Y",
        "url": "https://www.163.com/dy/article/IM6P3TJQ0534SV3Y.html"
    },
    {
        "title": "京沪优化楼市政策 调降首付和交易成本",
        "docid": "IM0559SU053469RG",
        "url": "https://www.163.com/dy/article/IM0559SU053469RG.html"
    },
    {
        "title": "上海、北京楼市齐放大招，冲锋号已响，可以加杠杆“上车”了？",
        "docid": "IM4AGMP105566CMD",
        "url": "https://www.163.com/dy/article/IM4AGMP105566CMD.html"
    },
    {
        "title": "真相扎心，重点城市卖地收入，重庆拖后腿，排名倒数，别急着买房",
        "docid": "IM6LLUNB05566C1Z",
        "url": "https://www.163.com/dy/article/IM6LLUNB05566C1Z.html"
    },
    {
        "title": "铁四院地产：显央企担当以稳健筑底 用高品质满足新需求",
        "docid": "IM0Q10II05346936",
        "url": "https://www.163.com/dy/article/IM0Q10II05346936.html"
    },
    {
        "title": "手里没钱，选择了“中间户”，如今才明白“边户”是在交智商税！",
        "docid": "ILPEP0N00519GBC0",
        "url": "https://www.163.com/dy/article/ILPEP0N00519GBC0.html"
    },
    {
        "title": "10亿！省科投拿下光谷宅地！",
        "docid": "IM10AMJP0545DG4X",
        "url": "https://www.163.com/dy/article/IM10AMJP0545DG4X.html"
    },
    {
        "title": "最新！武汉楼市“量价齐跌”",
        "docid": "IM1NTFBS0514BINQ",
        "url": "https://www.163.com/dy/article/IM1NTFBS0514BINQ.html"
    },
    {
        "title": "最新权威数据：武汉房价又跌了？",
        "docid": "IM1G088B0553RRD3",
        "url": "https://www.163.com/dy/article/IM1G088B0553RRD3.html"
    },
    {
        "title": "卓刀泉1宗住宅用地挂牌，起始楼面价11770元/平！",
        "docid": "IM1OCF5U0534SV3Y",
        "url": "https://www.163.com/dy/article/IM1OCF5U0534SV3Y.html"
    },
    {
        "title": "后湖沃尔玛山姆会员店土地挂牌！",
        "docid": "IM46LL140534SV3Y",
        "url": "https://www.163.com/dy/article/IM46LL140534SV3Y.html"
    },
    {
        "title": "汉阳 | 武汉新世界汉江·云赫商业项目2024年年中璀璨开街！",
        "docid": "IM6P3TJQ0534SV3Y",
        "url": "https://www.163.com/dy/article/IM6P3TJQ0534SV3Y.html"
    },
    {
        "title": "铁四院地产：显央企担当以稳健筑底 用高品质满足新需求",
        "docid": "IM0Q10II05346936",
        "url": "https://www.163.com/dy/article/IM0Q10II05346936.html"
    },
    {
        "title": "10亿！省科投拿下光谷宅地！",
        "docid": "IM10AMJP0545DG4X",
        "url": "https://www.163.com/dy/article/IM10AMJP0545DG4X.html"
    },
    {
        "title": "最新！武汉楼市“量价齐跌”",
        "docid": "IM1NTFBS0514BINQ",
        "url": "https://www.163.com/dy/article/IM1NTFBS0514BINQ.html"
    },
    {
        "title": "破防了！又一省会城市为刺激购房，在户口上“动刀”！",
        "docid": "IM0DV0BJ0536UOB3",
        "url": "https://www.163.com/dy/article/IM0DV0BJ0536UOB3.html"
    },
    {
        "title": "最新权威数据：武汉房价又跌了？",
        "docid": "IM1G088B0553RRD3",
        "url": "https://www.163.com/dy/article/IM1G088B0553RRD3.html"
    },
    {
        "title": "【时评】政府允许楼盘降价，“房闹”们要凉凉了",
        "docid": "IM3NHHTO0530T173",
        "url": "https://www.163.com/dy/article/IM3NHHTO0530T173.html"
    },
    {
        "title": "后湖沃尔玛山姆会员店土地挂牌！",
        "docid": "IM46LL140534SV3Y",
        "url": "https://www.163.com/dy/article/IM46LL140534SV3Y.html"
    },
    {
        "title": "汉阳 | 武汉新世界汉江·云赫商业项目2024年年中璀璨开街！",
        "docid": "IM6P3TJQ0534SV3Y",
        "url": "https://www.163.com/dy/article/IM6P3TJQ0534SV3Y.html"
    },
    {
        "title": "拓展赛道促转型 三镇运营公司获全国“物业服务行业示范基地”称号",
        "docid": "IM27H9GU0553TEV3",
        "url": "https://www.163.com/dy/article/IM27H9GU0553TEV3.html"
    },
    {
        "title": "王石再预测中国未来几年房地产走向，若无意外，或大概率又是对的",
        "docid": "VUL2PUFT0",
        "url": "https://www.163.com/dy/article/VUL2PUFT0.html"
    },
    {
        "title": "计算机毕业设计二手房产交易平台毕设开选题报告项目小程序软件",
        "docid": "VFL9DCJSK",
        "url": "https://www.163.com/dy/article/VFL9DCJSK.html"
    },
    {
        "title": "全集｜90年代，日本房地产高位接盘的那些人，房价崩塌后，他们怎么样了",
        "docid": "VFKQJS9PF",
        "url": "https://www.163.com/dy/article/VFKQJS9PF.html"
    },
    {
        "title": "房价8位数的地段，真正的有价无市，白给我都不会要",
        "docid": "VAKPLA5UE",
        "url": "https://www.163.com/dy/article/VAKPLA5UE.html"
    },
    {
        "title": "我承认我慌了，贷款117万，30年月供7200，我扛不住了，尽力了",
        "docid": "VZKQEUH3H",
        "url": "https://www.163.com/dy/article/VZKQEUH3H.html"
    },
    {
        "title": "蓝谷法式别墅，大哥诚意出手！",
        "docid": "VWKRJHV81",
        "url": "https://www.163.com/dy/article/VWKRJHV81.html"
    },
    {
        "title": "【张捷财经】北上广深楼市成交回暖市场进一步分化",
        "docid": "VRKR99UUJ",
        "url": "https://www.163.com/dy/article/VRKR99UUJ.html"
    },
    {
        "title": "自住房涨跌无所谓？很多人被打脸了 纷纷开始割肉卖房 ",
        "docid": "VCL903A9M",
        "url": "https://www.163.com/dy/article/VCL903A9M.html"
    },
    {
        "title": "房主装修一半断供,200平联排别墅5000就卖,老崔拿着图纸心慌手抖",
        "docid": "VCL93Q40U",
        "url": "https://www.163.com/dy/article/VCL93Q40U.html"
    },
    {
        "title": "坚守“房住不炒”，德国却为何一样陷入房地产危机？",
        "docid": "ILET8U1P05199FJJ",
        "url": "https://www.163.com/dy/article/ILET8U1P05199FJJ.html"
    },
    {
        "title": "铁四院地产：显央企担当以稳健筑底 用高品质满足新需求",
        "docid": "IM0Q10II05346936",
        "url": "https://www.163.com/dy/article/IM0Q10II05346936.html"
    },
    {
        "title": "购房新举措，武汉开始了！",
        "docid": "IM33RORM0514R9OJ",
        "url": "https://www.163.com/dy/article/IM33RORM0514R9OJ.html"
    },
    {
        "title": "10亿！省科投拿下光谷宅地！",
        "docid": "IM10AMJP0545DG4X",
        "url": "https://www.163.com/dy/article/IM10AMJP0545DG4X.html"
    },
    {
        "title": "最新权威数据：武汉房价又跌了？",
        "docid": "IM1G088B0553RRD3",
        "url": "https://www.163.com/dy/article/IM1G088B0553RRD3.html"
    },
    {
        "title": "卓刀泉1宗住宅用地挂牌，起始楼面价11770元/平！",
        "docid": "IM1OCF5U0534SV3Y",
        "url": "https://www.163.com/dy/article/IM1OCF5U0534SV3Y.html"
    },
    {
        "title": "【时评】政府允许楼盘降价，“房闹”们要凉凉了",
        "docid": "IM3NHHTO0530T173",
        "url": "https://www.163.com/dy/article/IM3NHHTO0530T173.html"
    },
    {
        "title": "“中国二线城市”房产保值力排名！",
        "docid": "ILO84DVJ0553CGU5",
        "url": "https://www.163.com/dy/article/ILO84DVJ0553CGU5.html"
    },
    {
        "title": "汉阳 | 武汉新世界汉江·云赫商业项目2024年年中璀璨开街！",
        "docid": "IM6P3TJQ0534SV3Y",
        "url": "https://www.163.com/dy/article/IM6P3TJQ0534SV3Y.html"
    },
    {
        "title": "地铁时代·云上城 | 缔造TOD2.0“安心岛”",
        "docid": "IM7KSJ6D05159A0N",
        "url": "https://www.163.com/dy/article/IM7KSJ6D05159A0N.html"
    },
    {
        "title": "这个时候，房价还涨疯了？",
        "docid": "IM7KTSBK0552E4AS",
        "url": "https://www.163.com/dy/article/IM7KTSBK0552E4AS.html"
    },
    {
        "title": "上海二手房，非常有特色的老房子",
        "docid": "VLL6D8JAV",
        "url": "https://www.163.com/dy/article/VLL6D8JAV.html"
    },
    {
        "title": "一线城市二套房全面松绑，这是把割韭菜变成了薅羊毛",
        "docid": "VLL9DQ9U4",
        "url": "https://www.163.com/dy/article/VLL9DQ9U4.html"
    },
    {
        "title": "深度：只有房子才能拉动经济？",
        "docid": "VKL6ADJ9A",
        "url": "https://www.163.com/dy/article/VKL6ADJ9A.html"
    },
    {
        "title": "第一次这样刨析市场，真实现状会引人不适，能刷到的都是缘分，最后一次提醒！",
        "docid": "VZKS67VA5",
        "url": "https://www.163.com/dy/article/VZKS67VA5.html"
    },
    {
        "title": "武汉市华中地区第一高楼，由于限高差点成为中国第一世界第二高楼",
        "docid": "VML9MH2G1",
        "url": "https://www.163.com/dy/article/VML9MH2G1.html"
    },
    {
        "title": "现在一套房子被砍掉50万，是一种怎么样的体验？",
        "docid": "VWL9QG425",
        "url": "https://www.163.com/dy/article/VWL9QG425.html"
    },
    {
        "title": "坚持不买房的人，真是赢麻了！",
        "docid": "VWKRTVVBG",
        "url": "https://www.163.com/dy/article/VWKRTVVBG.html"
    },
    {
        "title": "房子终于卖出去了，本以为赚了仔细一算还亏了10万",
        "docid": "IM7FJPBI0535MP84",
        "url": "https://www.163.com/dy/article/IM7FJPBI0535MP84.html"
    },
    {
        "title": "京沪新政落地首个周末：有新房项目单日销售20套房源，到访量提升50%",
        "docid": "IM7N4O1B0539AP40",
        "url": "https://www.163.com/dy/article/IM7N4O1B0539AP40.html"
    },
    {
        "title": "外媒曝：扎克伯格在夏威夷州考爱岛建豪宅地堡，传言称能防轰炸",
        "docid": "IM7J31U60514R9OJ",
        "url": "https://www.163.com/dy/article/IM7J31U60514R9OJ.html"
    },
    {
        "title": "我们这18线小城，也开房交会了",
        "docid": "VSL9164B8",
        "url": "https://www.163.com/dy/article/VSL9164B8.html"
    },
    {
        "title": "产权面积99，实用面积200+！这是你们想要的",
        "docid": "VCL9MHMP5",
        "url": "https://www.163.com/dy/article/VCL9MHMP5.html"
    },
    {
        "title": "楠总回老家准备买新房，在东北县城顶级豪宅首付12万，月供1600！",
        "docid": "VCKRAC1I2",
        "url": "https://www.163.com/dy/article/VCKRAC1I2.html"
    },
    {
        "title": "房价下跌那么多，我不卖了行不行",
        "docid": "VWL9IOIMU",
        "url": "https://www.163.com/dy/article/VWL9IOIMU.html"
    },
    {
        "title": "长三角城市更新及既有建筑改造利用工程实践",
        "docid": "VNKPPDQ32",
        "url": "https://www.163.com/dy/article/VNKPPDQ32.html"
    },
    {
        "title": "第一次来农村，看到这栋小别墅，我心动了！",
        "docid": "VEL9BSMEE",
        "url": "https://www.163.com/dy/article/VEL9BSMEE.html"
    },
    {
        "title": "又一批地产人，找到新出路了",
        "docid": "IM7OHJ3R0545PEDS",
        "url": "https://www.163.com/dy/article/IM7OHJ3R0545PEDS.html"
    },
    {
        "title": "推动土地财政向公共资源财政的转型发展",
        "docid": "IM7L2R7G0512D71I",
        "url": "https://www.163.com/dy/article/IM7L2R7G0512D71I.html"
    },
    {
        "title": "比悲伤更悲伤的故事：楼市暴露3个问题，对普通购房者也是打击",
        "docid": "IM7ERO5M0535MP84",
        "url": "https://www.163.com/dy/article/IM7ERO5M0535MP84.html"
    },
    {
        "title": "不管一栋楼有多少层，这三层永远都是黄金楼层，懂行的争相购买！",
        "docid": "IM7FA9D80535KYBT",
        "url": "https://www.163.com/dy/article/IM7FA9D80535KYBT.html"
    },
    {
        "title": "新一轮救市启动了，作用多大",
        "docid": "IM7OG1EG05158B67",
        "url": "https://www.163.com/dy/article/IM7OG1EG05158B67.html"
    },
    {
        "title": "重磅会议过后，2024房地产将何去何从？",
        "docid": "IM7OH97N0552HI5G",
        "url": "https://www.163.com/dy/article/IM7OH97N0552HI5G.html"
    },
    {
        "title": "购房新举措，武汉开始了！",
        "docid": "IM33RORM0514R9OJ",
        "url": "https://www.163.com/dy/article/IM33RORM0514R9OJ.html"
    },
    {
        "title": "最新！武汉楼市“量价齐跌”",
        "docid": "IM1NTFBS0514BINQ",
        "url": "https://www.163.com/dy/article/IM1NTFBS0514BINQ.html"
    },
    {
        "title": "武汉光谷地产底价竞得东湖高新P（2023）106号地块",
        "docid": "IM09VAIE0550AAMM",
        "url": "https://www.163.com/dy/article/IM09VAIE0550AAMM.html"
    },
    {
        "title": "房租不能降价，人不能心软。我的这位租客得寸进尺，让人好生气",
        "docid": "ILQIAV6D0535LAX2",
        "url": "https://www.163.com/dy/article/ILQIAV6D0535LAX2.html"
    },
    {
        "title": "天天吵吵卖不动，卖不动就大降价啊，实际去一问，新楼盘那是那个便宜价格",
        "docid": "IM7ECOOT0535KYBT",
        "url": "https://www.163.com/dy/article/IM7ECOOT0535KYBT.html"
    },
    {
        "title": "可可托海六排房公寓式度假酒店，颠覆你对传统酒店的认知，打造真正意义上的雪友之家。 ",
        "docid": "VGL9RKOK3",
        "url": "https://www.163.com/dy/article/VGL9RKOK3.html"
    },
    {
        "title": "老公想卖房置换四居，花398万在北京买的房，时隔3年现在能卖多少",
        "docid": "VGL9K3ASV",
        "url": "https://www.163.com/dy/article/VGL9K3ASV.html"
    },
    {
        "title": "不要卖房子，不要卖房子，千万不要卖房子，看完你就明白了",
        "docid": "VWL9PSSUD",
        "url": "https://www.163.com/dy/article/VWL9PSSUD.html"
    },
    {
        "title": "一旦出现三大信号，立刻买房",
        "docid": "VWL9PQU97",
        "url": "https://www.163.com/dy/article/VWL9PQU97.html"
    },
    {
        "title": "楼顶被私自加盖，楼下业主忧心忡忡，相关部门：还没认定是违建",
        "docid": "VIL9D1FV6",
        "url": "https://www.163.com/dy/article/VIL9D1FV6.html"
    },
    {
        "title": "今天带新疆的刘姐跟爱人看了一天房子，最终还是选择了这个住宅",
        "docid": "VOKO1K5EV",
        "url": "https://www.163.com/dy/article/VOKO1K5EV.html"
    },
    {
        "title": "学区房，一场大变局，正在形成，中国房地产",
        "docid": "VEKOLQS1Q",
        "url": "https://www.163.com/dy/article/VEKOLQS1Q.html"
    },
    {
        "title": "比房产证，还“重要万分”的2个证件，可千万别弄丢了！",
        "docid": "ILP5H61A0512ES8F",
        "url": "https://www.163.com/dy/article/ILP5H61A0512ES8F.html"
    },
    {
        "title": "中信证券：地产复苏希望仍在，需要政策加码",
        "docid": "IM7PU2MO0534A4SC",
        "url": "https://www.163.com/dy/article/IM7PU2MO0534A4SC.html"
    },
    {
        "title": "购房新举措，武汉开始了！",
        "docid": "IM33RORM0514R9OJ",
        "url": "https://www.163.com/dy/article/IM33RORM0514R9OJ.html"
    },
    {
        "title": "10亿！省科投拿下光谷宅地！",
        "docid": "IM10AMJP0545DG4X",
        "url": "https://www.163.com/dy/article/IM10AMJP0545DG4X.html"
    },
    {
        "title": "最新！武汉楼市“量价齐跌”",
        "docid": "IM1NTFBS0514BINQ",
        "url": "https://www.163.com/dy/article/IM1NTFBS0514BINQ.html"
    },
    {
        "title": "破防了！又一省会城市为刺激购房，在户口上“动刀”！",
        "docid": "IM0DV0BJ0536UOB3",
        "url": "https://www.163.com/dy/article/IM0DV0BJ0536UOB3.html"
    },
    {
        "title": "最新权威数据：武汉房价又跌了？",
        "docid": "IM1G088B0553RRD3",
        "url": "https://www.163.com/dy/article/IM1G088B0553RRD3.html"
    },
    {
        "title": "卓刀泉1宗住宅用地挂牌，起始楼面价11770元/平！",
        "docid": "IM1OCF5U0534SV3Y",
        "url": "https://www.163.com/dy/article/IM1OCF5U0534SV3Y.html"
    },
    {
        "title": "【时评】政府允许楼盘降价，“房闹”们要凉凉了",
        "docid": "IM3NHHTO0530T173",
        "url": "https://www.163.com/dy/article/IM3NHHTO0530T173.html"
    },
    {
        "title": "大厂真正的杀手锏公积金额度有多高？男朋友公积金调整后没房贷了",
        "docid": "ILQI1V780552CPHG",
        "url": "https://www.163.com/dy/article/ILQI1V780552CPHG.html"
    },
    {
        "title": "东原集团：“建管服”一站式综合解决方案提供商 | 房企代建新探索系列访谈",
        "docid": "IM7KU09O05159A0N",
        "url": "https://www.163.com/dy/article/IM7KU09O05159A0N.html"
    },
    {
        "title": "现在有一种奇怪的现象，政府提倡啥，老百姓好像偏就不干啥？",
        "docid": "ILQIF94O0535MP84",
        "url": "https://www.163.com/dy/article/ILQIF94O0535MP84.html"
    },
    {
        "title": "未来十年，这一类房子将会大幅升值！早知道，先入手！",
        "docid": "VCL9QUGGR",
        "url": "https://www.163.com/dy/article/VCL9QUGGR.html"
    },
    {
        "title": "一万五一套房子能过户，带菜园子，带室内水井，可两套三套一起买",
        "docid": "VCKSKDDFP",
        "url": "https://www.163.com/dy/article/VCKSKDDFP.html"
    },
    {
        "title": "2023年楼市结束了，从期望到失望再到绝望！",
        "docid": "VGL9S9EF9",
        "url": "https://www.163.com/dy/article/VGL9S9EF9.html"
    },
    {
        "title": "最大省会市中心二手房9.8万一套，免费送停车位，一套都卖不掉",
        "docid": "VPLA25P38",
        "url": "https://www.163.com/dy/article/VPLA25P38.html"
    },
    {
        "title": "财富之门再开启 只缘楼市又重来",
        "docid": "VKL3TDB2T",
        "url": "https://www.163.com/dy/article/VKL3TDB2T.html"
    },
    {
        "title": "开发商降价狠起来六亲不认，周围楼盘只剩傻眼，10年前买房都赔钱",
        "docid": "VZKSPBNVV",
        "url": "https://www.163.com/dy/article/VZKSPBNVV.html"
    },
    {
        "title": "开源证券：京沪购房政策同步放松，防风险将为后续工作重点",
        "docid": "IM7V3IIV0553YQBK",
        "url": "https://www.163.com/dy/article/IM7V3IIV0553YQBK.html"
    },
    {
        "title": "信达证券：新房成交环比回升，北上购房政策松绑",
        "docid": "IM7TSS0L0553YQBK",
        "url": "https://www.163.com/dy/article/IM7TSS0L0553YQBK.html"
    },
    {
        "title": "68城房价跌回1年前，南京、郑州和吉林连跌8个月",
        "docid": "IM7TEP140530I1ON",
        "url": "https://www.163.com/dy/article/IM7TEP140530I1ON.html"
    },
    {
        "title": "开发商预言：再过十年，中国二三十层高层住宅，将面临3大麻烦事",
        "docid": "IM7SEL75055640VF",
        "url": "https://www.163.com/dy/article/IM7SEL75055640VF.html"
    },
    {
        "title": "房地产板块异动拉升 大龙地产5天3板",
        "docid": "IM7UVSRQ05198CJN",
        "url": "https://www.163.com/dy/article/IM7UVSRQ05198CJN.html"
    },
    {
        "title": "美国通胀降低的重要因素：房租",
        "docid": "IM7S15KM05198NMR",
        "url": "https://www.163.com/dy/article/IM7S15KM05198NMR.html"
    },
    {
        "title": "空置房统一“停收物业费”？新规下这样收，业主提前了解",
        "docid": "ILQVALDC055640VF",
        "url": "https://www.163.com/dy/article/ILQVALDC055640VF.html"
    },
    {
        "title": "利用电测探追踪蒲江-德阳断裂带通过成都市区的精确位置",
        "docid": "ILQIFPBM0535MP84",
        "url": "https://www.163.com/dy/article/ILQIFPBM0535MP84.html"
    },
    {
        "title": "5年后，买房的人和租房的人，生活差别多大？3个楼市趋势说明一切",
        "docid": "IM7SDCRL053312Y9",
        "url": "https://www.163.com/dy/article/IM7SDCRL053312Y9.html"
    },
    {
        "title": "祥顺课堂|房地产开发企业出租地下的人防车位要交房产税吗？",
        "docid": "ILQVNCL90519S9C9",
        "url": "https://www.163.com/dy/article/ILQVNCL90519S9C9.html"
    },
    {
        "title": "开源证券：上海新房环比领涨全国，二手房价下行压力仍存",
        "docid": "IM7UH3NS0553YQBK",
        "url": "https://www.163.com/dy/article/IM7UH3NS0553YQBK.html"
    },
    {
        "title": "扩散！助推房地产市场，如皋再出新招......",
        "docid": "IM808BPN0537B1S4",
        "url": "https://www.163.com/dy/article/IM808BPN0537B1S4.html"
    },
    {
        "title": "保租房目标完成近6成，市场租金平抑效应凸显",
        "docid": "IM7SOA2T0535A6CE",
        "url": "https://www.163.com/dy/article/IM7SOA2T0535A6CE.html"
    },
    {
        "title": "2024年中国房地产十大思考（独家）",
        "docid": "IM7UKF3F0553TDTY",
        "url": "https://www.163.com/dy/article/IM7UKF3F0553TDTY.html"
    },
    {
        "title": "年终大招，楼市新政3箭齐发！购房到底有何实惠？#买房那些事",
        "docid": "VOL53FR1G",
        "url": "https://www.163.com/dy/article/VOL53FR1G.html"
    },
    {
        "title": "1200万卖掉上海房子，在美国60万买别墅，刚买3个月就肠子悔青",
        "docid": "VBKSP5N32",
        "url": "https://www.163.com/dy/article/VBKSP5N32.html"
    },
    {
        "title": "这是中国县城房子的最终归宿！你还敢买吗？",
        "docid": "VZL9S0RS3",
        "url": "https://www.163.com/dy/article/VZL9S0RS3.html"
    },
    {
        "title": "买房最惨的一波人，很多房主撑不住了",
        "docid": "VZLA50G63",
        "url": "https://www.163.com/dy/article/VZLA50G63.html"
    },
    {
        "title": "中指院：上周楼市整体环比上升8.83% 同比下降11.99%",
        "docid": "IM7U9Q8P05198CJN",
        "url": "https://www.163.com/dy/article/IM7U9Q8P05198CJN.html"
    },
    {
        "title": "中银证券：京沪房地产信贷政策、普宅标准同步放松，市场信心有望提振带动成交复苏",
        "docid": "IM7TAHHV0553YQBK",
        "url": "https://www.163.com/dy/article/IM7TAHHV0553YQBK.html"
    },
    {
        "title": "物业费催缴培训课件（PPT）",
        "docid": "IM06VF7M0535R288",
        "url": "https://www.163.com/dy/article/IM06VF7M0535R288.html"
    },
    {
        "title": "22岁女大学生租房，房主免费让她住了3年，这个决定救了房主的命",
        "docid": "IM82CUSG0552QWCS",
        "url": "https://www.163.com/dy/article/IM82CUSG0552QWCS.html"
    },
    {
        "title": "年轻人都不买房，他们不在乎房价涨跌，楼市分化明显加剧",
        "docid": "VUL6GDK46",
        "url": "https://www.163.com/dy/article/VUL6GDK46.html"
    },
    {
        "title": "海外专家：中国经济是世界经济发展的重要推动力",
        "docid": "VKL89E51C",
        "url": "https://www.163.com/dy/article/VKL89E51C.html"
    },
    {
        "title": "若不是在工作在鼓楼，我一定会选择到金山买房，便宜又有品质",
        "docid": "VUL97152Q",
        "url": "https://www.163.com/dy/article/VUL97152Q.html"
    },
    {
        "title": "小伙花光所有积蓄买房，还没搬进去住就后悔了？听听小伙怎么说的",
        "docid": "VRKSUVCMM",
        "url": "https://www.163.com/dy/article/VRKSUVCMM.html"
    },
    {
        "title": "中国女首富：程丽华在北京的豪宅，14点28分发现怪现象，都看看吧",
        "docid": "VRKT0A24L",
        "url": "https://www.163.com/dy/article/VRKT0A24L.html"
    },
    {
        "title": "瓴寓国际成功组建首支长租房基金",
        "docid": "IM83NL1D05562SCF",
        "url": "https://www.163.com/dy/article/IM83NL1D05562SCF.html"
    },
    {
        "title": "买房的再等等！房地产市场变天，便宜房子要来了？",
        "docid": "IM0A6VPE05561BO9",
        "url": "https://www.163.com/dy/article/IM0A6VPE05561BO9.html"
    },
    {
        "title": "图书馆业态物业服务通用投标方案",
        "docid": "IM82HFKR0535R288",
        "url": "https://www.163.com/dy/article/IM82HFKR0535R288.html"
    },
    {
        "title": "别再被忽悠了！国家明确表示，房产中介这5种收费非法违规！",
        "docid": "IM09R9OP05561BO9",
        "url": "https://www.163.com/dy/article/IM09R9OP05561BO9.html"
    },
    {
        "title": "上银基金解读|超大特大城市意义",
        "docid": "IM828BPD051984TV",
        "url": "https://www.163.com/dy/article/IM828BPD051984TV.html"
    },
    {
        "title": "中指研究院：上周楼市整体环比上升8.83%，同比下降11.99%",
        "docid": "VDLA5146E",
        "url": "https://www.163.com/dy/article/VDLA5146E.html"
    },
    {
        "title": "花光两代人积蓄，在湖南衡阳买了一个小三居，大家觉得这房子咋样",
        "docid": "VCKSKQD67",
        "url": "https://www.163.com/dy/article/VCKSKQD67.html"
    },
    {
        "title": "小伙生意亏损想出手武汉的豪宅，刚交房还没住进去你们猜要亏多少",
        "docid": "VWKT06RHL",
        "url": "https://www.163.com/dy/article/VWKT06RHL.html"
    },
    {
        "title": "越来越多人买带落地窗的房子，我家也跟风，入住2年苦不堪言",
        "docid": "VGKSRJKBB",
        "url": "https://www.163.com/dy/article/VGKSRJKBB.html"
    },
    {
        "title": "中国12年前的房价你了解吗？",
        "docid": "ILR4M1VU0537MZNL",
        "url": "https://www.163.com/dy/article/ILR4M1VU0537MZNL.html"
    },
    {
        "title": "绿地：西北地区今年以来累计交付近2万户",
        "docid": "IM873UPR0519D45U",
        "url": "https://www.163.com/dy/article/IM873UPR0519D45U.html"
    },
    {
        "title": "实探京沪深楼市｜新政落地后市场反应如何？二手房带看量增加、中介忙得热火朝天……",
        "docid": "IM81R8P5053469RG",
        "url": "https://www.163.com/dy/article/IM81R8P5053469RG.html"
    },
    {
        "title": "开源证券：一线城市第二轮整体松绑，杠杆空间进一步放开",
        "docid": "IM7V3NVA0553YQCC",
        "url": "https://www.163.com/dy/article/IM7V3NVA0553YQCC.html"
    },
    {
        "title": "倒贴十来万也要卖这种房子不会再涨的",
        "docid": "VNKQNGJDU",
        "url": "https://www.163.com/dy/article/VNKQNGJDU.html"
    },
    {
        "title": "京沪新政落地首个周末 ",
        "docid": "VMLA4JLND",
        "url": "https://www.163.com/dy/article/VMLA4JLND.html"
    },
    {
        "title": "盖房子，大门的尺寸多少合适？",
        "docid": "VYL7P83GQ",
        "url": "https://www.163.com/dy/article/VYL7P83GQ.html"
    },
    {
        "title": "香蜜湖畔的财富密码香蜜新村探秘之旅，邂逅璀璨明珠共赏城市繁荣",
        "docid": "VXKSV8T0I",
        "url": "https://www.163.com/dy/article/VXKSV8T0I.html"
    },
    {
        "title": "房价下跌那么多，我不买行不行。",
        "docid": "VHL3H53K9",
        "url": "https://www.163.com/dy/article/VHL3H53K9.html"
    },
    {
        "title": "十年初心｜丁祖昱：走到今天，都是零度以上的风景",
        "docid": "IM7SO38J0515APA2",
        "url": "https://www.163.com/dy/article/IM7SO38J0515APA2.html"
    },
    {
        "title": "2024年，“预制板房”即将全面拆除，民众迎来新的安置计划",
        "docid": "IM09PLT305561BO9",
        "url": "https://www.163.com/dy/article/IM09PLT305561BO9.html"
    },
    {
        "title": "数说｜赛迪顾问：2023年第二季度国家中心城市工业用地成交呈持续下降趋势（2023年第95期（总第415期））",
        "docid": "IM7VN9A505118SRU",
        "url": "https://www.163.com/dy/article/IM7VN9A505118SRU.html"
    },
    {
        "title": "爆料｜现在房价降那么多！百级主播百万购房血亏：只能等等再出手！",
        "docid": "IM86IJCM0553TDVP",
        "url": "https://www.163.com/dy/article/IM86IJCM0553TDVP.html"
    },
    {
        "title": "当初鬼迷心窍，跑山东花200万买了套海景别墅，如今150万卖不出！",
        "docid": "VZKT17PRD",
        "url": "https://www.163.com/dy/article/VZKT17PRD.html"
    },
    {
        "title": "今年不买房，五年后哭晕还是笑醒",
        "docid": "VZLABD3QH",
        "url": "https://www.163.com/dy/article/VZLABD3QH.html"
    },
    {
        "title": "日本除了一户建，还有这样的高级公寓，这个价格你能接受吗",
        "docid": "VDLA9LU7S",
        "url": "https://www.163.com/dy/article/VDLA9LU7S.html"
    },
    {
        "title": "上万人弃城而去，遍地楼房没人住，最低690一平，依然无人问津！",
        "docid": "VGKT05TI1",
        "url": "https://www.163.com/dy/article/VGKT05TI1.html"
    },
    {
        "title": "从“世界工厂”到“桃色之都”，这么多年来，东莞到底经历了什么",
        "docid": "VMKQKNUJJ",
        "url": "https://www.163.com/dy/article/VMKQKNUJJ.html"
    },
    {
        "title": "信达公园里高层11月最新成交",
        "docid": "IM88TCU90553TEQM",
        "url": "https://www.163.com/dy/article/IM88TCU90553TEQM.html"
    },
    {
        "title": "房地产退潮后，刺激消费、增加居民收入的重任要寄托到股市上啦？",
        "docid": "IM899DMF05565OJR",
        "url": "https://www.163.com/dy/article/IM899DMF05565OJR.html"
    },
    {
        "title": "很多人都在出手旧房子，我却决定不卖旧房子了",
        "docid": "IM894NM505562BBD",
        "url": "https://www.163.com/dy/article/IM894NM505562BBD.html"
    },
    {
        "title": "朋友劝我别买低层，现在入住两个月，单单这1点就后悔死了",
        "docid": "ILQJB9LI0535KYBT",
        "url": "https://www.163.com/dy/article/ILQJB9LI0535KYBT.html"
    },
    {
        "title": "让我算一下：亚运村到底有多少投资客要出货？",
        "docid": "IM8922GS0553TDTY",
        "url": "https://www.163.com/dy/article/IM8922GS0553TDTY.html"
    },
    {
        "title": "房价崩盘了，一套房子五千块钱居然无人问津，难道还贵吗？",
        "docid": "VCL9MFEKT",
        "url": "https://www.163.com/dy/article/VCL9MFEKT.html"
    },
    {
        "title": "朋友买的34楼连廊房，交房后真是太吓人了，走在连廊腿都在发抖！",
        "docid": "VZL9NMO75",
        "url": "https://www.163.com/dy/article/VZL9NMO75.html"
    },
    {
        "title": "印度的房地产管理带给我们的思考",
        "docid": "VWKS49RIS",
        "url": "https://www.163.com/dy/article/VWKS49RIS.html"
    },
    {
        "title": "80平的房子加一个500平的大露台，居然只要60万出头，了不得",
        "docid": "VSKSO5KGL",
        "url": "https://www.163.com/dy/article/VSKSO5KGL.html"
    },
    {
        "title": "任泽平梁建章：孩子最值得投资，严重影响房地产，建议直接发钱",
        "docid": "IM890O4H05158I5P",
        "url": "https://www.163.com/dy/article/IM890O4H05158I5P.html"
    },
    {
        "title": "冯仑：关于房地产，四大重要变化，值得注意！",
        "docid": "IM84KI5H0519DHNF",
        "url": "https://www.163.com/dy/article/IM84KI5H0519DHNF.html"
    },
    {
        "title": "城中村改造箭在弦上！预计拉动近5.8万亿销售！房地产ETF华夏(515060)振幅超2.3%",
        "docid": "IM8AP45U051987V2",
        "url": "https://www.163.com/dy/article/IM8AP45U051987V2.html"
    },
    {
        "title": "户型和地段哪个更重要？",
        "docid": "IM8959S00549RI77",
        "url": "https://www.163.com/dy/article/IM8959S00549RI77.html"
    },
    {
        "title": "2024年即将到来，将出现以下五大趋势！尤其是楼市回暖",
        "docid": "IM88Q0G805562BBD",
        "url": "https://www.163.com/dy/article/IM88Q0G805562BBD.html"
    },
    {
        "title": "匈牙利将于 2024 年重新启动黄金签证计划",
        "docid": "IM87HENS0553CZVR",
        "url": "https://www.163.com/dy/article/IM87HENS0553CZVR.html"
    },
    {
        "title": "专家又发话了，你觉得他说的怎么样？",
        "docid": "VBL9U1ISA",
        "url": "https://www.163.com/dy/article/VBL9U1ISA.html"
    },
    {
        "title": "楼市经典 一两如何拨动千斤？",
        "docid": "VKL6CKJHA",
        "url": "https://www.163.com/dy/article/VKL6CKJHA.html"
    },
    {
        "title": "为什么不建议买主卧带卫生间的房子？内行人说出实情，幸亏没买错",
        "docid": "VGLA38TDP",
        "url": "https://www.163.com/dy/article/VGLA38TDP.html"
    },
    {
        "title": "确实是要减负了，老百姓消费的项目太多了，支出太高了！",
        "docid": "IM82B7ID0553TDTY",
        "url": "https://www.163.com/dy/article/IM82B7ID0553TDTY.html"
    },
    {
        "title": "武汉润府售楼处电话_武汉润府官网_武汉润府24小时电话",
        "docid": "IM8DMF9705566J9K",
        "url": "https://www.163.com/dy/article/IM8DMF9705566J9K.html"
    },
    {
        "title": "房多多及法定代表人CEO李建成遭限制消费",
        "docid": "IM89UEHG0523D6F0",
        "url": "https://www.163.com/dy/article/IM89UEHG0523D6F0.html"
    },
    {
        "title": "多少人买房时高估了自己的能力，如今寝食难安",
        "docid": "ILR6P7RR05562BBD",
        "url": "https://www.163.com/dy/article/ILR6P7RR05562BBD.html"
    },
    {
        "title": "幸福时代·大家K1新品发布会圆满落幕",
        "docid": "IM8DOVLR0545PEDS",
        "url": "https://www.163.com/dy/article/IM8DOVLR0545PEDS.html"
    },
    {
        "title": "武汉光谷中央公园-官网已认证-光谷中央公园售楼处电话-楼盘信息",
        "docid": "IM8DQO1U05566J9K",
        "url": "https://www.163.com/dy/article/IM8DQO1U05566J9K.html"
    },
    {
        "title": "中泰证券：新房销售同比下滑，京沪降低首付比例及按揭利率",
        "docid": "IM8E4RVF0553YQBK",
        "url": "https://www.163.com/dy/article/IM8E4RVF0553YQBK.html"
    },
    {
        "title": "不管房产如何调控，这五类群体都不希望房价下跌，专家全面分析",
        "docid": "VEKTV0IS0",
        "url": "https://www.163.com/dy/article/VEKTV0IS0.html"
    },
    {
        "title": "再等两个月，楼市就会有大事情发生！",
        "docid": "VWKSV3986",
        "url": "https://www.163.com/dy/article/VWKSV3986.html"
    },
    {
        "title": "信达公园里近期能成交的房源之一",
        "docid": "IM88HO7B0553TDVP",
        "url": "https://www.163.com/dy/article/IM88HO7B0553TDVP.html"
    },
    {
        "title": "太疯狂了，中国楼市将在明年进入市场",
        "docid": "IM826O8P0553BZHE",
        "url": "https://www.163.com/dy/article/IM826O8P0553BZHE.html"
    },
    {
        "title": "豪华的四层别墅，好看也好住，绝对大气",
        "docid": "IM88TOFU0552QWCS",
        "url": "https://www.163.com/dy/article/IM88TOFU0552QWCS.html"
    },
    {
        "title": "恭喜，永久产权来了！不用再纠结70年产权还是40年产权啦",
        "docid": "IM8DUOS60540SN7V",
        "url": "https://www.163.com/dy/article/IM8DUOS60540SN7V.html"
    },
    {
        "title": "加拿大明年将降息3次！多伦多房价或大反弹 上涨两位数风险",
        "docid": "IM8DO52I0545PEDS",
        "url": "https://www.163.com/dy/article/IM8DO52I0545PEDS.html"
    },
    {
        "title": "3个省钱小妙招，快试试吧",
        "docid": "IM8E74OB0519998O",
        "url": "https://www.163.com/dy/article/IM8E74OB0519998O.html"
    },
    {
        "title": "1630㎡的大平层你受得了吗？",
        "docid": "VJKQLOT3R",
        "url": "https://www.163.com/dy/article/VJKQLOT3R.html"
    },
    {
        "title": "京沪房地产新政出台首周末，售楼处热闹起来了，触底反弹的潜力大",
        "docid": "VWLA5ESEF",
        "url": "https://www.163.com/dy/article/VWLA5ESEF.html"
    },
    {
        "title": "炒房团的恶梦，100平100万的房子降到25万，该下手还是继续观望？",
        "docid": "VGLA8QJ2K",
        "url": "https://www.163.com/dy/article/VGLA8QJ2K.html"
    },
    {
        "title": "Redfin：2024年美国楼市将进入买方市场 购房者重占主导地位",
        "docid": "IM8FMGMV05198UNI",
        "url": "https://www.163.com/dy/article/IM8FMGMV05198UNI.html"
    },
    {
        "title": "你的房产证，是红本还是绿本？二者差别很大，90%的人都不懂",
        "docid": "ILR5JJQ30512ES8F",
        "url": "https://www.163.com/dy/article/ILR5JJQ30512ES8F.html"
    },
    {
        "title": "房地产迎来“新信号”，购房成本将会降低，基准利率首次回调",
        "docid": "IM8FF9OD0540KLAM",
        "url": "https://www.163.com/dy/article/IM8FF9OD0540KLAM.html"
    },
    {
        "title": "NOI 还是 EBITDA？如何估算租赁住房资产价值？| 投资视野",
        "docid": "ILR84JAM05530RXA",
        "url": "https://www.163.com/dy/article/ILR84JAM05530RXA.html"
    },
    {
        "title": "中泰证券：老龄化对住房需求影响有限，行业需求未被透支",
        "docid": "IM8FVFCM0553YQBK",
        "url": "https://www.163.com/dy/article/IM8FVFCM0553YQBK.html"
    },
    {
        "title": "楼市依然“差强人意”，未来购房如何抉择？",
        "docid": "IM8AAPM105159LUU",
        "url": "https://www.163.com/dy/article/IM8AAPM105159LUU.html"
    },
    {
        "title": "心塞！买房不会选楼层？1-33层优劣势全分析",
        "docid": "IM8GORE80540FQWZ",
        "url": "https://www.163.com/dy/article/IM8GORE80540FQWZ.html"
    },
    {
        "title": "买房一定不能告诉亲戚朋友",
        "docid": "VZKQSLT8O",
        "url": "https://www.163.com/dy/article/VZKQSLT8O.html"
    },
    {
        "title": "有些房东又开始飘了！竟然开始跳价了！出个货就那么难吗？",
        "docid": "VBLAM6KEK",
        "url": "https://www.163.com/dy/article/VBLAM6KEK.html"
    },
    {
        "title": "全军覆没，北京、上海、深圳城市降低首付，房价却又跌了大几十万",
        "docid": "IM8IB2170535JMSP",
        "url": "https://www.163.com/dy/article/IM8IB2170535JMSP.html"
    },
    {
        "title": "蓝城乐居与中州建设集团战略合作签约 涉及项目建设合作",
        "docid": "IM8FMH8O0519D45U",
        "url": "https://www.163.com/dy/article/IM8FMH8O0519D45U.html"
    },
    {
        "title": "现在二手房市场异常火爆，但是房东却不急着卖房了，什么情况？",
        "docid": "IM8E65L00540H6M7",
        "url": "https://www.163.com/dy/article/IM8E65L00540H6M7.html"
    },
    {
        "title": "全国首例！来沪买了11套房后跑路,骗子竟然这样骗取银行房贷！",
        "docid": "IM8HGLD70553TDTY",
        "url": "https://www.163.com/dy/article/IM8HGLD70553TDTY.html"
    },
    {
        "title": "中央财办有关负责人谈房地产：经过各方共同努力，防风险、稳市场的政策目标完全可以实现",
        "docid": "IM8C1APT05199NPP",
        "url": "https://www.163.com/dy/article/IM8C1APT05199NPP.html"
    },
    {
        "title": "全国房地产投资下降9.4%，空置房每年新增650万套！",
        "docid": "IM8FNB0C0535KAWB",
        "url": "https://www.163.com/dy/article/IM8FNB0C0535KAWB.html"
    },
    {
        "title": "国联证券：京沪优化购房政策，释放购房需求",
        "docid": "IM8FVFUI0553YQBK",
        "url": "https://www.163.com/dy/article/IM8FVFUI0553YQBK.html"
    },
    {
        "title": "咱们的人均住房面积还非常少",
        "docid": "VGLANH23Q",
        "url": "https://www.163.com/dy/article/VGLANH23Q.html"
    },
    {
        "title": "小七装修房子投入了十几万，大家看看值不值",
        "docid": "VCLAOJO4V",
        "url": "https://www.163.com/dy/article/VCLAOJO4V.html"
    },
    {
        "title": "派客国际：由于租金飙升，美国无家可归者人数达到最高水平",
        "docid": "IM8HMAE205565E7G",
        "url": "https://www.163.com/dy/article/IM8HMAE205565E7G.html"
    },
    {
        "title": "香港兴业国际·兴云间销售会馆启幕",
        "docid": "IM8KF3BU0514R9P4",
        "url": "https://www.163.com/dy/article/IM8KF3BU0514R9P4.html"
    },
    {
        "title": "万达上市对赌危机解除，万达未来何在？",
        "docid": "IM0A3V8D0519A56K",
        "url": "https://www.163.com/dy/article/IM0A3V8D0519A56K.html"
    },
    {
        "title": "1.5亿豪宅，当天清盘",
        "docid": "IM8BV5O005565B5C",
        "url": "https://www.163.com/dy/article/IM8BV5O005565B5C.html"
    },
    {
        "title": "都想在老家盖栋房留个根，看看这18款一层新款农村自建房别墅",
        "docid": "IM3H7JNI0520BKDJ",
        "url": "https://www.163.com/dy/article/IM3H7JNI0520BKDJ.html"
    },
    {
        "title": "悄然发生的这四大现象，我们或许成为最后一代，需要买房的人",
        "docid": "IM8KUIUV0552257Z",
        "url": "https://www.163.com/dy/article/IM8KUIUV0552257Z.html"
    },
    {
        "title": "你说尴尬不尴尬，越是刚需也不买",
        "docid": "VPLAMOHAS",
        "url": "https://www.163.com/dy/article/VPLAMOHAS.html"
    },
    {
        "title": "房价下跌最快的5个城市",
        "docid": "VFLAQ42BC",
        "url": "https://www.163.com/dy/article/VFLAQ42BC.html"
    },
    {
        "title": "你以为银行是为了你的利息吗？",
        "docid": "VFLAQ40NU",
        "url": "https://www.163.com/dy/article/VFLAQ40NU.html"
    },
    {
        "title": "富婆豪赌破产边缘, 吕丽君豪宅交易风波, 350万首付无情没收!",
        "docid": "IM8LG2P80553CPCS",
        "url": "https://www.163.com/dy/article/IM8LG2P80553CPCS.html"
    },
    {
        "title": "中介大佬施永青，被恒大拖到悬崖边",
        "docid": "IM8M38VH05560Z1S",
        "url": "https://www.163.com/dy/article/IM8M38VH05560Z1S.html"
    },
    {
        "title": "2024年的楼市，翻天覆地的变化",
        "docid": "VPKTP1GSU",
        "url": "https://www.163.com/dy/article/VPKTP1GSU.html"
    },
    {
        "title": "著名导演张艺谋的北京豪宅，一套房子价值1.5亿，大门口太霸气了",
        "docid": "VWKSRF59R",
        "url": "https://www.163.com/dy/article/VWKSRF59R.html"
    },
    {
        "title": "两间门店160平米，15万房租，贵还是便宜？预算10万装修够吗？",
        "docid": "VALAOM6RQ",
        "url": "https://www.163.com/dy/article/VALAOM6RQ.html"
    },
    {
        "title": "中国楼市未来10年，四大彻底改变",
        "docid": "VFLAQ41GV",
        "url": "https://www.163.com/dy/article/VFLAQ41GV.html"
    },
    {
        "title": "你的一个决定，关系着千家万户",
        "docid": "VPLAMOFQB",
        "url": "https://www.163.com/dy/article/VPLAMOFQB.html"
    },
    {
        "title": "报复性消费，买房，没有来",
        "docid": "VCKT0QKLF",
        "url": "https://www.163.com/dy/article/VCKT0QKLF.html"
    },
    {
        "title": "还得是美式田园风格最耐看！540万联排端户，银杏叶铺满后花园",
        "docid": "VGLAH9LCR",
        "url": "https://www.163.com/dy/article/VGLAH9LCR.html"
    },
    {
        "title": "实用！买房遇到纠纷怎么办？房观&amp;法德东恒保驾护航，前50名免咨询费！",
        "docid": "IM8NAHJ9053593RG",
        "url": "https://www.163.com/dy/article/IM8NAHJ9053593RG.html"
    },
    {
        "title": "为什么不少男主播都去俄罗斯买房啊？",
        "docid": "VALAKO3KI",
        "url": "https://www.163.com/dy/article/VALAKO3KI.html"
    },
    {
        "title": "一旦中国楼市崩盘，后果将不堪设想",
        "docid": "VGLALLDI4",
        "url": "https://www.163.com/dy/article/VGLALLDI4.html"
    },
    {
        "title": "环京房价下跌有多惨？7年时间340万赔了319万，买房一定要谨慎！",
        "docid": "VCLAQD2C6",
        "url": "https://www.163.com/dy/article/VCLAQD2C6.html"
    },
    {
        "title": "这个房子承载了一个男人奋斗的意义",
        "docid": "VCL9QU29A",
        "url": "https://www.163.com/dy/article/VCL9QU29A.html"
    },
    {
        "title": "房子降价房子烂尾风险都是老百姓承担？",
        "docid": "VYL8MFD2Q",
        "url": "https://www.163.com/dy/article/VYL8MFD2Q.html"
    },
    {
        "title": "校外租房的专硕生房租是学费的3倍，有人一年花1600元住公寓",
        "docid": "VKLADECHP",
        "url": "https://www.163.com/dy/article/VKLADECHP.html"
    },
    {
        "title": "房产中介也蒙圈了！十套房子九套卖不动，未来房子真要烂菜地了吗",
        "docid": "VSKRNGCL1",
        "url": "https://www.163.com/dy/article/VSKRNGCL1.html"
    },
    {
        "title": "难怪这房子会被开发商顶给我们，这卖那个爹去",
        "docid": "VWKSMDMBM",
        "url": "https://www.163.com/dy/article/VWKSMDMBM.html"
    },
    {
        "title": "什么住宅，可称为一个城市的人居地标",
        "docid": "IM8NH3820514BE2Q",
        "url": "https://www.163.com/dy/article/IM8NH3820514BE2Q.html"
    },
    {
        "title": "周一谈市场：成交有失水准 期待中的利好政策落地",
        "docid": "IM8KK0TA0519AFSG",
        "url": "https://www.163.com/dy/article/IM8KK0TA0519AFSG.html"
    },
    {
        "title": "太惨烈，时隔两年一套房子掉价50万，不要急着买房，房东心态崩了",
        "docid": "IM8OL2T705562DLL",
        "url": "https://www.163.com/dy/article/IM8OL2T705562DLL.html"
    },
    {
        "title": "什么是“串串房”？“串串房”的好坏处分别是什么？如何区别？",
        "docid": "IM8OEIGC0540A6F8",
        "url": "https://www.163.com/dy/article/IM8OEIGC0540A6F8.html"
    },
    {
        "title": "每天100秒读懂世界 - 2023年12月18日",
        "docid": "IM8HQ7T6055657AJ",
        "url": "https://www.163.com/dy/article/IM8HQ7T6055657AJ.html"
    },
    {
        "title": "希尔顿湖边，80平山海小合院太美了！",
        "docid": "VKL89RQA2",
        "url": "https://www.163.com/dy/article/VKL89RQA2.html"
    },
    {
        "title": "买错房子，为时代变革买单",
        "docid": "VFLAQ43T0",
        "url": "https://www.163.com/dy/article/VFLAQ43T0.html"
    },
    {
        "title": "羡慕她家158㎡海景房：水磨石、藤编门、莫兰迪蓝",
        "docid": "VSKT7HPGF",
        "url": "https://www.163.com/dy/article/VSKT7HPGF.html"
    },
    {
        "title": "不管在哪买房，千万不要乱问价",
        "docid": "VFLAQ4336",
        "url": "https://www.163.com/dy/article/VFLAQ4336.html"
    },
    {
        "title": "吴中顶流！苏州龙湖云河颂（商城大街188号）值得买吗？",
        "docid": "IM8Q2BJL0553TDTY",
        "url": "https://www.163.com/dy/article/IM8Q2BJL0553TDTY.html"
    },
    {
        "title": "新房打折销售，老业主该不该反对？",
        "docid": "IM8RG2VD0519E3CV",
        "url": "https://www.163.com/dy/article/IM8RG2VD0519E3CV.html"
    },
    {
        "title": "单位旧改房代建收“7%利润”，是违规的吗？",
        "docid": "IM8LR9C70515SM4P",
        "url": "https://www.163.com/dy/article/IM8LR9C70515SM4P.html"
    },
    {
        "title": "中原地产：明年初港府或全面撤辣 预计上半年香港楼价升5%",
        "docid": "IM8NKVMI05198UNI",
        "url": "https://www.163.com/dy/article/IM8NKVMI05198UNI.html"
    },
    {
        "title": "全球房价最高的城市排名！",
        "docid": "ILRR8BM90553CGT6",
        "url": "https://www.163.com/dy/article/ILRR8BM90553CGT6.html"
    },
    {
        "title": "安琪酵母(600298.SH)：公司部分地块房屋拟被征收",
        "docid": "IM8RSN1R05198ETO",
        "url": "https://www.163.com/dy/article/IM8RSN1R05198ETO.html"
    },
    {
        "title": "委托公证卖房必须委托亲属吗",
        "docid": "IM8QLV8R05566DWF",
        "url": "https://www.163.com/dy/article/IM8QLV8R05566DWF.html"
    },
    {
        "title": "前期最低2万，现17XXX任选？！正宗二环内、双地铁口！",
        "docid": "IM8RP9380549RI77",
        "url": "https://www.163.com/dy/article/IM8RP9380549RI77.html"
    },
    {
        "title": "最后一张底牌宅基地的大用处来了",
        "docid": "VWLAVF1NN",
        "url": "https://www.163.com/dy/article/VWLAVF1NN.html"
    },
    {
        "title": "专家建议：中央每年投资1万亿建保障房，你赞同吗？",
        "docid": "IM8SQUIT0552F71X",
        "url": "https://www.163.com/dy/article/IM8SQUIT0552F71X.html"
    },
    {
        "title": "不该心急买了这23层腰线层，1米高阳台墙也不敢拆，新房像小黑屋",
        "docid": "ILRT0BER054057BR",
        "url": "https://www.163.com/dy/article/ILRT0BER054057BR.html"
    },
    {
        "title": "投资200亿押注上海杨浦滨江！中信泰富逆势杀回房地产",
        "docid": "VTLAVKGEE",
        "url": "https://www.163.com/dy/article/VTLAVKGEE.html"
    },
    {
        "title": "洪腾高架主线高架计划于12月20日完工",
        "docid": "VZLAROMTM",
        "url": "https://www.163.com/dy/article/VZLAROMTM.html"
    },
    {
        "title": "中央定调明年经济！解读“稳”字，房价即将极速暴跌！",
        "docid": "VILA46QNM",
        "url": "https://www.163.com/dy/article/VILA46QNM.html"
    },
    {
        "title": "方圆十里，最好看的别墅",
        "docid": "VRLB0S99C",
        "url": "https://www.163.com/dy/article/VRLB0S99C.html"
    },
    {
        "title": "买房时大多数人都会陷入困境",
        "docid": "VPLAMOF23",
        "url": "https://www.163.com/dy/article/VPLAMOF23.html"
    },
    {
        "title": "房子已经过剩，为什么还不停的建，温铁军一语道破",
        "docid": "VMLAU8HJ7",
        "url": "https://www.163.com/dy/article/VMLAU8HJ7.html"
    },
    {
        "title": "平安都腰斩了，你确定还不降价",
        "docid": "VOL9NIH6Q",
        "url": "https://www.163.com/dy/article/VOL9NIH6Q.html"
    },
    {
        "title": "翠湖天地们不是豪宅了？",
        "docid": "IM8R7TRN0549RI77",
        "url": "https://www.163.com/dy/article/IM8R7TRN0549RI77.html"
    },
    {
        "title": "刺激楼市无果后，房产专家提出“终极”解决方案，引起多人共鸣！",
        "docid": "IM8O76TE0540A6F8",
        "url": "https://www.163.com/dy/article/IM8O76TE0540A6F8.html"
    },
    {
        "title": "十年前我咬牙买下两套房，却被亲戚嘲笑！翻了十倍后，他想原价买",
        "docid": "IM8U0O93055616ZT",
        "url": "https://www.163.com/dy/article/IM8U0O93055616ZT.html"
    },
    {
        "title": "环南台岛滨江休闲路项目（城门、螺洲段）项目选择安置期房选房通知",
        "docid": "IM8U6UHB0545PEDS",
        "url": "https://www.163.com/dy/article/IM8U6UHB0545PEDS.html"
    },
    {
        "title": "美联储计划2024年降息三次，美国房地产市场或迎来黄金购房时期",
        "docid": "IM8I9LJK0514DPPR",
        "url": "https://www.163.com/dy/article/IM8I9LJK0514DPPR.html"
    },
    {
        "title": "今年物业管理行业营收规模将达1.69万亿元 机构预测：2024年行业将进入低速增长时代",
        "docid": "IM8LQ9P70512B07B",
        "url": "https://www.163.com/dy/article/IM8LQ9P70512B07B.html"
    },
    {
        "title": "“预售制”不背烂尾的锅，全款购房的家庭，也绕不过开发商这些坑",
        "docid": "ILROJPC80540SN7V",
        "url": "https://www.163.com/dy/article/ILROJPC80540SN7V.html"
    },
    {
        "title": "金地商置续签多份关连交易 如续聘金地集团提供物业开发及技术服务",
        "docid": "IM8SGKR70519D45U",
        "url": "https://www.163.com/dy/article/IM8SGKR70519D45U.html"
    },
    {
        "title": "容居前滩官方发布@容居前滩公寓信息@容居前滩官网优惠@百度百科",
        "docid": "ILRO87CH05566CEF",
        "url": "https://www.163.com/dy/article/ILRO87CH05566CEF.html"
    },
    {
        "title": "两天卖出31亿、成交量翻倍上涨 新政落地首周末京沪楼市明显升温",
        "docid": "IM8V8JDD05198CJN",
        "url": "https://www.163.com/dy/article/IM8V8JDD05198CJN.html"
    },
    {
        "title": "武汉房东大意失荆州，武汉房价三连跌，武汉楼市12月分析",
        "docid": "IM8NNG5P0535JMSP",
        "url": "https://www.163.com/dy/article/IM8NNG5P0535JMSP.html"
    },
    {
        "title": "约6万方商业！后湖城铁站商住地块挂牌",
        "docid": "IM8U208N0534M7IC",
        "url": "https://www.163.com/dy/article/IM8U208N0534M7IC.html"
    },
    {
        "title": "国浩集团(00053.HK)附属成立合资公司以发展新加坡物业",
        "docid": "IM8SGQI505198ETO",
        "url": "https://www.163.com/dy/article/IM8SGQI505198ETO.html"
    },
    {
        "title": "新一轮拆迁潮要来了？住建部：这3类房子将拆除重建！",
        "docid": "VTLB3HNOE",
        "url": "https://www.163.com/dy/article/VTLB3HNOE.html"
    },
    {
        "title": "嘉兴老城区这家医院二期项目顺利结顶了",
        "docid": "VGLB2T77S",
        "url": "https://www.163.com/dy/article/VGLB2T77S.html"
    },
    {
        "title": "房地产企业利润最大化：四位一体的全面解决方案",
        "docid": "VUKR90KF5",
        "url": "https://www.163.com/dy/article/VUKR90KF5.html"
    },
    {
        "title": "房价的底在哪里？是租售比吗？是大炒房客割肉吗？还是大家的认知",
        "docid": "VZKU293D6",
        "url": "https://www.163.com/dy/article/VZKU293D6.html"
    },
    {
        "title": "一线城市优化楼市政策，宁愿得罪开发商，也要告诉你一个真相",
        "docid": "VVLAL5A6I",
        "url": "https://www.163.com/dy/article/VVLAL5A6I.html"
    },
    {
        "title": "中银证券：70城二手房房价下行压力加大，一线城市二手房市场“以价换量”态势明显",
        "docid": "IM8UETH90553YQBK",
        "url": "https://www.163.com/dy/article/IM8UETH90553YQBK.html"
    },
    {
        "title": "朗诗地产发工资都困难了",
        "docid": "IM90MC860552F71X",
        "url": "https://www.163.com/dy/article/IM90MC860552F71X.html"
    },
    {
        "title": "到了2024年，房产的“贬值情况”将越发严重，专家：早做准备吧！",
        "docid": "ILPCTJO4053312Y9",
        "url": "https://www.163.com/dy/article/ILPCTJO4053312Y9.html"
    },
    {
        "title": "2024年，通胀怎么看？丨南财号联播",
        "docid": "IM90OCDA05199NPP",
        "url": "https://www.163.com/dy/article/IM90OCDA05199NPP.html"
    },
    {
        "title": "租房肉偿、房东甩卖：现在女大学生以性代租，给所有的人上了一课",
        "docid": "ILRN93DC05561C0L",
        "url": "https://www.163.com/dy/article/ILRN93DC05561C0L.html"
    },
    {
        "title": "从购房到验收，如何保证房屋符合标准？",
        "docid": "VCLB5DO2V",
        "url": "https://www.163.com/dy/article/VCLB5DO2V.html"
    },
    {
        "title": "楼市回暖！楼市明牌出现了，终于不用卖房了！此时此刻，先别卖房",
        "docid": "VFLB3BCPE",
        "url": "https://www.163.com/dy/article/VFLB3BCPE.html"
    },
    {
        "title": "土耳其高端楼盘推荐：湖畔花苑",
        "docid": "VAKRF9PLM",
        "url": "https://www.163.com/dy/article/VAKRF9PLM.html"
    },
    {
        "title": "房价跌最厉害的三座城市",
        "docid": "VGLB2AOG7",
        "url": "https://www.163.com/dy/article/VGLB2AOG7.html"
    },
    {
        "title": "曾经的「老破小」你爱理不理，改造后的它却高攀不起！",
        "docid": "IM8R1DRO0520CVG8",
        "url": "https://www.163.com/dy/article/IM8R1DRO0520CVG8.html"
    },
    {
        "title": "难度全面升级！移民进入“黑铁时代”",
        "docid": "IM918VL705359JWY",
        "url": "https://www.163.com/dy/article/IM918VL705359JWY.html"
    },
    {
        "title": "天津成交11宗涉宅地块 总成交价46.671亿元",
        "docid": "IM8ORJ0O0519D45U",
        "url": "https://www.163.com/dy/article/IM8ORJ0O0519D45U.html"
    },
    {
        "title": "现在的房子贵吗？其实房价贵不贵只取决于3个字",
        "docid": "VWLB5QHIU",
        "url": "https://www.163.com/dy/article/VWLB5QHIU.html"
    },
    {
        "title": "买房和卖房时机就是理性的选择",
        "docid": "VGKU2V050",
        "url": "https://www.163.com/dy/article/VGKU2V050.html"
    },
    {
        "title": "又是一栋未能入内参观的四合院，不过就这外观也能供大家欣赏一下",
        "docid": "VSKU8C4J8",
        "url": "https://www.163.com/dy/article/VSKU8C4J8.html"
    },
    {
        "title": "选房不会选？这份避坑指南，抢先知晓！",
        "docid": "VGLB63DB8",
        "url": "https://www.163.com/dy/article/VGLB63DB8.html"
    },
    {
        "title": "买房容易选房难，一拍脑门交了钱后悔也没招，了解这些知识再选房",
        "docid": "VZLB5EM7E",
        "url": "https://www.163.com/dy/article/VZLB5EM7E.html"
    },
    {
        "title": "收藏起来吧！10年选房攻略经验总结一文读懂",
        "docid": "VWLB5CQ8K",
        "url": "https://www.163.com/dy/article/VWLB5CQ8K.html"
    },
    {
        "title": "瑞尔特最新公告：签署国有建设用地使用权出让合同",
        "docid": "IM94BLLR051984TV",
        "url": "https://www.163.com/dy/article/IM94BLLR051984TV.html"
    },
    {
        "title": "买房要注意：这才是真正的“黄金楼层”，住着舒服还容易升值",
        "docid": "VCLB5E1BQ",
        "url": "https://www.163.com/dy/article/VCLB5E1BQ.html"
    },
    {
        "title": "“碧万保中”时代落幕，“中保建华”新格局崛起",
        "docid": "VUL8P3SCM",
        "url": "https://www.163.com/dy/article/VUL8P3SCM.html"
    },
    {
        "title": "预算150万，和00后男朋友去看房，只有最后一个小区觉得还行",
        "docid": "VWKTDIMG7",
        "url": "https://www.163.com/dy/article/VWKTDIMG7.html"
    },
    {
        "title": "2023没买房的六大好消息！",
        "docid": "VZLAUNHQS",
        "url": "https://www.163.com/dy/article/VZLAUNHQS.html"
    },
    {
        "title": "小县城的房价，为什么还不跌",
        "docid": "VFKU12DO7",
        "url": "https://www.163.com/dy/article/VFKU12DO7.html"
    },
    {
        "title": "五年后80万的存款，80万的房产，哪个更保值？",
        "docid": "VWLASTOOK",
        "url": "https://www.163.com/dy/article/VWLASTOOK.html"
    },
    {
        "title": "今明两年买房，是“吃亏”还是“捡漏”？房产趋势给出“答案”",
        "docid": "VZLB5C6UH",
        "url": "https://www.163.com/dy/article/VZLB5C6UH.html"
    },
    {
        "title": " ：建议中央每年投资1万亿建保障房，即便发国债也能还得上",
        "docid": "VTLB2EF8B",
        "url": "https://www.163.com/dy/article/VTLB2EF8B.html"
    },
    {
        "title": "今明两年打算买房的家庭，不用研究“房价”，记住这三条忠告",
        "docid": "IM8PHT7M0553TEQM",
        "url": "https://www.163.com/dy/article/IM8PHT7M0553TEQM.html"
    },
    {
        "title": "城中村改造箭在弦上，预计拉动近5.8万亿销售，房地产ETF华夏(515060)振幅超2.3%",
        "docid": "IM8B6P000534A4SC",
        "url": "https://www.163.com/dy/article/IM8B6P000534A4SC.html"
    },
    {
        "title": "大侠看房 | 探访：北京、上海楼市新政出台后两日 市场活跃度提升",
        "docid": "IM89790S0534JESX",
        "url": "https://www.163.com/dy/article/IM89790S0534JESX.html"
    },
    {
        "title": "购房新举措，武汉开始了！",
        "docid": "IM33RORM0514R9OJ",
        "url": "https://www.163.com/dy/article/IM33RORM0514R9OJ.html"
    },
    {
        "title": "许家印被捉之后，更荒唐的一幕发生了，恒大物业把恒大集团给告了",
        "docid": "IM7EBACL0545PEDS",
        "url": "https://www.163.com/dy/article/IM7EBACL0545PEDS.html"
    },
    {
        "title": "一线城市瞄准购房“降成本” 楼市等待量升价稳积极信号",
        "docid": "IM8H29EL0539AP40",
        "url": "https://www.163.com/dy/article/IM8H29EL0539AP40.html"
    },
    {
        "title": "智库丨推动土地财政向公共资源财政的转型发展",
        "docid": "IM8FB3350512D71I",
        "url": "https://www.163.com/dy/article/IM8FB3350512D71I.html"
    },
    {
        "title": "首付门槛降了，但居民还愿意加杠杆吗？",
        "docid": "IM8THB4K0515APM9",
        "url": "https://www.163.com/dy/article/IM8THB4K0515APM9.html"
    },
    {
        "title": "最新！武汉楼市“量价齐跌”",
        "docid": "IM1NTFBS0514BINQ",
        "url": "https://www.163.com/dy/article/IM1NTFBS0514BINQ.html"
    },
    {
        "title": "白沙洲三环外武金堤修建开始征地公示！",
        "docid": "IM97MMK005524ETU",
        "url": "https://www.163.com/dy/article/IM97MMK005524ETU.html"
    },
    {
        "title": "东京新宿区2016年建一栋电梯楼，早稻田站160米，土地面积142㎡，早稻田大学旁！",
        "docid": "ILS5JJB005359JWY",
        "url": "https://www.163.com/dy/article/ILS5JJB005359JWY.html"
    },
    {
        "title": "北上楼市新政后首个周末：新房成交量提升 北京单日成交364套",
        "docid": "IM980HHE055284JB",
        "url": "https://www.163.com/dy/article/IM980HHE055284JB.html"
    },
    {
        "title": "住在770平大豪宅里，三颗银杏树花费十几万，有钱人的生活有多豪",
        "docid": "VCLB5NP3S",
        "url": "https://www.163.com/dy/article/VCLB5NP3S.html"
    },
    {
        "title": "为什么那么多人，希望房价下跌",
        "docid": "VFKRBP3L7",
        "url": "https://www.163.com/dy/article/VFKRBP3L7.html"
    },
    {
        "title": "四大选房技巧，小白买房必看，不怕踩坑！",
        "docid": "VGLB5E870",
        "url": "https://www.163.com/dy/article/VGLB5E870.html"
    },
    {
        "title": "【公积金在线】签约上线 “商贷提取”全程网办 ",
        "docid": "VGLAT8LE3",
        "url": "https://www.163.com/dy/article/VGLAT8LE3.html"
    },
    {
        "title": "二手房又成香饽饽了？房地产 二手房 上海二手房 一个敢说真话的房产人",
        "docid": "VGLBD4ETI",
        "url": "https://www.163.com/dy/article/VGLBD4ETI.html"
    },
    {
        "title": "某些楼层真的“糟糕透”了！上接不到阳气，下接不到地气，全窗洞",
        "docid": "VBL8PQ9IC",
        "url": "https://www.163.com/dy/article/VBL8PQ9IC.html"
    },
    {
        "title": "农村盖房有风险！4类房子要被严查",
        "docid": "ILPIGDE10552GJZ0",
        "url": "https://www.163.com/dy/article/ILPIGDE10552GJZ0.html"
    },
    {
        "title": "选房时，你真的需要避开这种“糟糕透”的位置，北风卷地阳光匮乏",
        "docid": "VBL8PCD8N",
        "url": "https://www.163.com/dy/article/VBL8PCD8N.html"
    },
    {
        "title": "比起市中心的房子，我更愿意去金山买房，对地段的要求真不高",
        "docid": "VUL7L1GEV",
        "url": "https://www.163.com/dy/article/VUL7L1GEV.html"
    },
    {
        "title": "这6个楼层打死都不要买",
        "docid": "VWLBF5GNN",
        "url": "https://www.163.com/dy/article/VWLBF5GNN.html"
    },
    {
        "title": "退林还耕是谁提出来的？到底有这项政策吗？",
        "docid": "VDLB4DCJO",
        "url": "https://www.163.com/dy/article/VDLB4DCJO.html"
    },
    {
        "title": "想买房却不知道从何下手，不妨听听这几个建议，很实用",
        "docid": "VCLB5D4HR",
        "url": "https://www.163.com/dy/article/VCLB5D4HR.html"
    },
    {
        "title": "上海老陈说负债：什么是市场？买定离手，涨跌自由",
        "docid": "VVL8R39RL",
        "url": "https://www.163.com/dy/article/VVL8R39RL.html"
    },
    {
        "title": "【睡前消息685】买房有冷静期 生娃得晋升权",
        "docid": "VFL909EVS",
        "url": "https://www.163.com/dy/article/VFL909EVS.html"
    },
    {
        "title": "今天的大雪，揭开了多少房企的遮羞布？",
        "docid": "VCLBFEQRA",
        "url": "https://www.163.com/dy/article/VCLBFEQRA.html"
    },
    {
        "title": "在高层住了6年，我搬回了老破小，有些话不吐不快，太真实了",
        "docid": "IM9AFFV0055629TA",
        "url": "https://www.163.com/dy/article/IM9AFFV0055629TA.html"
    },
    {
        "title": "当初吵着要给老小区装电梯的人，现在是否后悔了? 4个原因太现实",
        "docid": "IM9BPFU50552QWCE",
        "url": "https://www.163.com/dy/article/IM9BPFU50552QWCE.html"
    },
    {
        "title": "拆迁红线是什么？房子划入后多久会被拆？",
        "docid": "ILPQF3660532Q69P",
        "url": "https://www.163.com/dy/article/ILPQF3660532Q69P.html"
    },
    {
        "title": "以后买卖房不需要交税了？",
        "docid": "VWLBF0SSG",
        "url": "https://www.163.com/dy/article/VWLBF0SSG.html"
    },
    {
        "title": "经济太萧条了，曾经人山人海的汽配城，如今全部倒闭关门了",
        "docid": "VWLBI8P4A",
        "url": "https://www.163.com/dy/article/VWLBI8P4A.html"
    },
    {
        "title": "300万的房子客户直接砍价到100万",
        "docid": "VCLBEJ0S6",
        "url": "https://www.163.com/dy/article/VCLBEJ0S6.html"
    },
    {
        "title": "五小布普法   【不交物业费就断水断电？物业不能如此催交！】外出半年多，回家后发现家里又没水又没电。",
        "docid": "VPKU6SVEB",
        "url": "https://www.163.com/dy/article/VPKU6SVEB.html"
    },
    {
        "title": "现阶段适合买房吗？到底什么时候买房才最合适？",
        "docid": "VGLB60IJR",
        "url": "https://www.163.com/dy/article/VGLB60IJR.html"
    },
    {
        "title": "龙虎榜丨新瀚新材今日涨停，营业部席位合计净买入521.93万元",
        "docid": "VDLAT3BP9",
        "url": "https://www.163.com/dy/article/VDLAT3BP9.html"
    }
]