[
    {
        "title": "“新一轮”房改来了？2024年起，中央部门定调，有3类人群或受益",
        "docid": "IL2QA9OJ0519GBC0",
        "url": "https://www.163.com/dy/article/IL2QA9OJ0519GBC0.html"
    },
    {
        "title": "武汉房价四连跌，三万炒房客被套武汉楼市，武汉楼市12月分析",
        "docid": "IL2QV0L00535JMSP",
        "url": "https://www.163.com/dy/article/IL2QV0L00535JMSP.html"
    },
    {
        "title": "4个公租房小区查出766户公职人员？我理解专家了：不该有独立厕所",
        "docid": "IL2MU1NN0542M5JD",
        "url": "https://www.163.com/dy/article/IL2MU1NN0542M5JD.html"
    },
    {
        "title": "我在建筑领域工作了15年，我总结出房地产甲方是最没人情味的单位",
        "docid": "IL2Q6JUJ05561MSN",
        "url": "https://www.163.com/dy/article/IL2Q6JUJ05561MSN.html"
    },
    {
        "title": "有人要倒霉了！明年开始，“持有2套房产的人”需做3个准备",
        "docid": "IL2N7SQD0553TEV3",
        "url": "https://www.163.com/dy/article/IL2N7SQD0553TEV3.html"
    },
    {
        "title": "116亿，武汉出让9宗地块的国有建设用地使用权。",
        "docid": "IKTN7HTI0534SV3Y",
        "url": "https://www.163.com/dy/article/IKTN7HTI0534SV3Y.html"
    },
    {
        "title": "2023年武汉楼市：第一套房买错，就会步步错！",
        "docid": "IKQTP6LP05560R20",
        "url": "https://www.163.com/dy/article/IKQTP6LP05560R20.html"
    },
    {
        "title": "武汉11月29日公示6个预售证，1盘连拿3证，武昌1纯新盘即将首开",
        "docid": "IL0M7T9C0553TB9L",
        "url": "https://www.163.com/dy/article/IL0M7T9C0553TB9L.html"
    },
    {
        "title": "对标“武汉天地”的知名“红盘”交付，品质怎么样？",
        "docid": "IL0A6TJM0553TB9L",
        "url": "https://www.163.com/dy/article/IL0A6TJM0553TB9L.html"
    },
    {
        "title": "116亿，武汉出让9宗地块的国有建设用地使用权。",
        "docid": "IKTN7HTI0534SV3Y",
        "url": "https://www.163.com/dy/article/IKTN7HTI0534SV3Y.html"
    },
    {
        "title": "武汉楼市：买房一定要考虑投资属性！",
        "docid": "IKQTOBPE05560R20",
        "url": "https://www.163.com/dy/article/IKQTOBPE05560R20.html"
    },
    {
        "title": "武汉11月29日公示6个预售证，1盘连拿3证，武昌1纯新盘即将首开",
        "docid": "IL0M7T9C0553TB9L",
        "url": "https://www.163.com/dy/article/IL0M7T9C0553TB9L.html"
    },
    {
        "title": "武汉新一批优质住宅用地集中入市",
        "docid": "IKS50739053469LG",
        "url": "https://www.163.com/dy/article/IKS50739053469LG.html"
    },
    {
        "title": "炒房客都不敢碰的3个楼层，刚需买房要知晓，这次内行人说清楚了",
        "docid": "IL2NUN560545PEDS",
        "url": "https://www.163.com/dy/article/IL2NUN560545PEDS.html"
    },
    {
        "title": "青山区1宗住宅用地挂牌，起始楼面价8136元/平！",
        "docid": "IL2IPPGD0534SV3Y",
        "url": "https://www.163.com/dy/article/IL2IPPGD0534SV3Y.html"
    },
    {
        "title": "武汉房产系列：年底和明年买房（学区房）的趋势分析及10条建议",
        "docid": "IKV1UKNK05526P7B",
        "url": "https://www.163.com/dy/article/IKV1UKNK05526P7B.html"
    },
    {
        "title": "新南湖已拆迁区域和正在拆迁的区域",
        "docid": "IKT03DS60553TEQM",
        "url": "https://www.163.com/dy/article/IKT03DS60553TEQM.html"
    },
    {
        "title": "农民进城后，村集体宅基地上的房屋是否还会保留呢？",
        "docid": "IKLMAC3T0532AYDR",
        "url": "https://www.163.com/dy/article/IKLMAC3T0532AYDR.html"
    },
    {
        "title": "是该全面取消楼市限购了",
        "docid": "IL2RHMEC0519NINF",
        "url": "https://www.163.com/dy/article/IL2RHMEC0519NINF.html"
    },
    {
        "title": "我们收到了物业的通知，让我们选择地下停车场的车位。",
        "docid": "IL2U511K0532D0CK",
        "url": "https://www.163.com/dy/article/IL2U511K0532D0CK.html"
    },
    {
        "title": "一个物体，标明为1kg，实际称重也是1kg，这是科学",
        "docid": "IL2U6ID50532D0CK",
        "url": "https://www.163.com/dy/article/IL2U6ID50532D0CK.html"
    },
    {
        "title": "武汉楼市：买房一定要考虑投资属性！",
        "docid": "IKQTOBPE05560R20",
        "url": "https://www.163.com/dy/article/IKQTOBPE05560R20.html"
    },
    {
        "title": "2023年武汉楼市：第一套房买错，就会步步错！",
        "docid": "IKQTP6LP05560R20",
        "url": "https://www.163.com/dy/article/IKQTP6LP05560R20.html"
    },
    {
        "title": "东西湖 | 将军路附近土地再挂牌，价格约有下调，起始楼面价6106元/平！",
        "docid": "IL04K41S0534SV3Y",
        "url": "https://www.163.com/dy/article/IL04K41S0534SV3Y.html"
    },
    {
        "title": "武汉：摸清全市住房需求 进一步完善房开企业白名单",
        "docid": "IKSEJCTV0519D45U",
        "url": "https://www.163.com/dy/article/IKSEJCTV0519D45U.html"
    },
    {
        "title": "武汉4宗地成交总价34.4亿元 洪山区国资关联公司摘得青菱3宗地",
        "docid": "IKSA9ICE0550AAMM",
        "url": "https://www.163.com/dy/article/IKSA9ICE0550AAMM.html"
    },
    {
        "title": "2023年11月武汉新房日成交数据出炉! 5802套! 同比去年11月多1套",
        "docid": "IL1S9T7S0553FMO2",
        "url": "https://www.163.com/dy/article/IL1S9T7S0553FMO2.html"
    },
    {
        "title": "武汉11月29日公示6个预售证，1盘连拿3证，武昌1纯新盘即将首开",
        "docid": "IL0M7T9C0553TB9L",
        "url": "https://www.163.com/dy/article/IL0M7T9C0553TB9L.html"
    },
    {
        "title": "东西湖 | 将军路附近土地再挂牌，价格约有下调，起始楼面价6106元/平！",
        "docid": "IL04K41S0534SV3Y",
        "url": "https://www.163.com/dy/article/IL04K41S0534SV3Y.html"
    },
    {
        "title": "武汉光交城市底价拿光谷核心区090号地块",
        "docid": "IKS76H4O0550AAMM",
        "url": "https://www.163.com/dy/article/IKS76H4O0550AAMM.html"
    },
    {
        "title": "武汉：摸清全市住房需求 进一步完善房开企业白名单",
        "docid": "IKSEJCTV0519D45U",
        "url": "https://www.163.com/dy/article/IKSEJCTV0519D45U.html"
    },
    {
        "title": "安居到乐居，武汉这个小区一年内旧貌换新颜",
        "docid": "IKSSPUDU053469LG",
        "url": "https://www.163.com/dy/article/IKSSPUDU053469LG.html"
    },
    {
        "title": "武汉新一批优质住宅用地集中入市",
        "docid": "IKS50739053469LG",
        "url": "https://www.163.com/dy/article/IKS50739053469LG.html"
    },
    {
        "title": "商业用地！白沙洲C1、C2、C4规划",
        "docid": "IKV7N77H0553TDVP",
        "url": "https://www.163.com/dy/article/IKV7N77H0553TDVP.html"
    },
    {
        "title": "新南湖已拆迁区域和正在拆迁的区域",
        "docid": "IKT03DS60553TEQM",
        "url": "https://www.163.com/dy/article/IKT03DS60553TEQM.html"
    },
    {
        "title": "又一家房企暴雷！宝龙地产：已竭尽全力，仍无法履行债务！",
        "docid": "IL1PAHQP0535KAWB",
        "url": "https://www.163.com/dy/article/IL1PAHQP0535KAWB.html"
    },
    {
        "title": "公摊面积与住房体验有何关系？",
        "docid": "IKM0R6L5055627OU",
        "url": "https://www.163.com/dy/article/IKM0R6L5055627OU.html"
    },
    {
        "title": "梅林一村，方厅大阳台，616万❗低于指导价148万❗",
        "docid": "IL30OARL0545PEDS",
        "url": "https://www.163.com/dy/article/IL30OARL0545PEDS.html"
    },
    {
        "title": "房价再不降都快没后人了，小公司就有三四个30岁以上的未婚同事",
        "docid": "IL2PMEEP05563TCH",
        "url": "https://www.163.com/dy/article/IL2PMEEP05563TCH.html"
    },
    {
        "title": "2023年武汉楼市：第一套房买错，就会步步错！",
        "docid": "IKQTP6LP05560R20",
        "url": "https://www.163.com/dy/article/IKQTP6LP05560R20.html"
    },
    {
        "title": "东西湖 | 将军路附近土地再挂牌，价格约有下调，起始楼面价6106元/平！",
        "docid": "IL04K41S0534SV3Y",
        "url": "https://www.163.com/dy/article/IL04K41S0534SV3Y.html"
    },
    {
        "title": "对标“武汉天地”的知名“红盘”交付，品质怎么样？",
        "docid": "IL0A6TJM0553TB9L",
        "url": "https://www.163.com/dy/article/IL0A6TJM0553TB9L.html"
    },
    {
        "title": "武汉：摸清全市住房需求 进一步完善房开企业白名单",
        "docid": "IKSEJCTV0519D45U",
        "url": "https://www.163.com/dy/article/IKSEJCTV0519D45U.html"
    },
    {
        "title": "武汉4宗地成交总价34.4亿元 洪山区国资关联公司摘得青菱3宗地",
        "docid": "IKSA9ICE0550AAMM",
        "url": "https://www.163.com/dy/article/IKSA9ICE0550AAMM.html"
    },
    {
        "title": "2023年11月武汉新房日成交数据出炉! 5802套! 同比去年11月多1套",
        "docid": "IL1S9T7S0553FMO2",
        "url": "https://www.163.com/dy/article/IL1S9T7S0553FMO2.html"
    },
    {
        "title": "谁发明的公摊面积制度，真的让人咬牙切齿",
        "docid": "IL31BNMH05561J3R",
        "url": "https://www.163.com/dy/article/IL31BNMH05561J3R.html"
    },
    {
        "title": "大家发现没？比房子卖不动更糟糕的3件事，已悄悄在各大城市蔓延",
        "docid": "IKRP8MLG0535MP84",
        "url": "https://www.163.com/dy/article/IKRP8MLG0535MP84.html"
    },
    {
        "title": "武汉楼市：买房一定要考虑投资属性！",
        "docid": "IKQTOBPE05560R20",
        "url": "https://www.163.com/dy/article/IKQTOBPE05560R20.html"
    },
    {
        "title": "2023年武汉楼市：第一套房买错，就会步步错！",
        "docid": "IKQTP6LP05560R20",
        "url": "https://www.163.com/dy/article/IKQTP6LP05560R20.html"
    },
    {
        "title": "武汉11月29日公示6个预售证，1盘连拿3证，武昌1纯新盘即将首开",
        "docid": "IL0M7T9C0553TB9L",
        "url": "https://www.163.com/dy/article/IL0M7T9C0553TB9L.html"
    },
    {
        "title": "世界三大评级机构相继对中国房地产未来做出判断，结论完全相反",
        "docid": "IL2Q0NDI05563TCH",
        "url": "https://www.163.com/dy/article/IL2Q0NDI05563TCH.html"
    },
    {
        "title": "东西湖 | 将军路附近土地再挂牌，价格约有下调，起始楼面价6106元/平！",
        "docid": "IL04K41S0534SV3Y",
        "url": "https://www.163.com/dy/article/IL04K41S0534SV3Y.html"
    },
    {
        "title": "对标“武汉天地”的知名“红盘”交付，品质怎么样？",
        "docid": "IL0A6TJM0553TB9L",
        "url": "https://www.163.com/dy/article/IL0A6TJM0553TB9L.html"
    },
    {
        "title": "武汉：摸清全市住房需求 进一步完善房开企业白名单",
        "docid": "IKSEJCTV0519D45U",
        "url": "https://www.163.com/dy/article/IKSEJCTV0519D45U.html"
    },
    {
        "title": "高层楼贫民区说法不完全正确，你觉得呢？",
        "docid": "IKM0JL4J0532D0CK",
        "url": "https://www.163.com/dy/article/IKM0JL4J0532D0CK.html"
    },
    {
        "title": "【创卫在行动】我县老旧小区维修改造扎实推进",
        "docid": "IL35LGMM0553TDVP",
        "url": "https://www.163.com/dy/article/IL35LGMM0553TDVP.html"
    },
    {
        "title": "武汉楼市：主城区新兴板块买房潜力大！",
        "docid": "IL35A90F0553TB8M",
        "url": "https://www.163.com/dy/article/IL35A90F0553TB8M.html"
    },
    {
        "title": "37家酒店11月拍卖，全部流拍！",
        "docid": "IL35FAGL0553TDXU",
        "url": "https://www.163.com/dy/article/IL35FAGL0553TDXU.html"
    },
    {
        "title": "金融城怎么看？是画饼吗？",
        "docid": "VBK2DB1SB",
        "url": "https://www.163.com/dy/article/VBK2DB1SB.html"
    },
    {
        "title": "这一个最好的楼层，价格还不贵",
        "docid": "VPJMRRJE7",
        "url": "https://www.163.com/dy/article/VPJMRRJE7.html"
    },
    {
        "title": "买新房好，还是二手房好",
        "docid": "VFJNBTGOM",
        "url": "https://www.163.com/dy/article/VFJNBTGOM.html"
    },
    {
        "title": "买不买房无所谓，关毕竟很多人已经混到了第五圈层",
        "docid": "VJJNUQ3OK",
        "url": "https://www.163.com/dy/article/VJJNUQ3OK.html"
    },
    {
        "title": "这哪里是自建房啊，这是我的梦想啊！ ",
        "docid": "VSJO5TNUG",
        "url": "https://www.163.com/dy/article/VSJO5TNUG.html"
    },
    {
        "title": "高人预测：未来5年，这四类房子或将面临被淘汰的命运！",
        "docid": "IL33P5260553TEQM",
        "url": "https://www.163.com/dy/article/IL33P5260553TEQM.html"
    },
    {
        "title": "房子越多的人，越是忧国忧民，越是心系苍生",
        "docid": "IL36MU410556123R",
        "url": "https://www.163.com/dy/article/IL36MU410556123R.html"
    },
    {
        "title": "武汉光交城市底价拿光谷核心区090号地块",
        "docid": "IKS76H4O0550AAMM",
        "url": "https://www.163.com/dy/article/IKS76H4O0550AAMM.html"
    },
    {
        "title": "武汉：摸清全市住房需求 进一步完善房开企业白名单",
        "docid": "IKSEJCTV0519D45U",
        "url": "https://www.163.com/dy/article/IKSEJCTV0519D45U.html"
    },
    {
        "title": "武汉新一批优质住宅用地集中入市",
        "docid": "IKS50739053469LG",
        "url": "https://www.163.com/dy/article/IKS50739053469LG.html"
    },
    {
        "title": "商业用地！白沙洲C1、C2、C4规划",
        "docid": "IKV7N77H0553TDVP",
        "url": "https://www.163.com/dy/article/IKV7N77H0553TDVP.html"
    },
    {
        "title": "炒房客都不敢碰的3个楼层，刚需买房要知晓，这次内行人说清楚了",
        "docid": "IL2NUN560545PEDS",
        "url": "https://www.163.com/dy/article/IL2NUN560545PEDS.html"
    },
    {
        "title": "中国房价涨跌的底层逻辑，读懂这篇，就明白中国房价何时再次起飞",
        "docid": "IL3134HD0534M7IC",
        "url": "https://www.163.com/dy/article/IL3134HD0534M7IC.html"
    },
    {
        "title": "白沙新城正在进行前期策划的项目汇总",
        "docid": "IL1FH2E90556123R",
        "url": "https://www.163.com/dy/article/IL1FH2E90556123R.html"
    },
    {
        "title": "武汉楼市：买房一定要考虑投资属性！",
        "docid": "IKQTOBPE05560R20",
        "url": "https://www.163.com/dy/article/IKQTOBPE05560R20.html"
    },
    {
        "title": "武汉11月29日公示6个预售证，1盘连拿3证，武昌1纯新盘即将首开",
        "docid": "IL0M7T9C0553TB9L",
        "url": "https://www.163.com/dy/article/IL0M7T9C0553TB9L.html"
    },
    {
        "title": "武汉光交城市底价拿光谷核心区090号地块",
        "docid": "IKS76H4O0550AAMM",
        "url": "https://www.163.com/dy/article/IKS76H4O0550AAMM.html"
    },
    {
        "title": "对标“武汉天地”的知名“红盘”交付，品质怎么样？",
        "docid": "IL0A6TJM0553TB9L",
        "url": "https://www.163.com/dy/article/IL0A6TJM0553TB9L.html"
    },
    {
        "title": "武汉：进一步完善房企“白名单”管理制度，扩大有效投资",
        "docid": "IKSOCG9V0514R9P4",
        "url": "https://www.163.com/dy/article/IKSOCG9V0514R9P4.html"
    },
    {
        "title": "安居到乐居，武汉这个小区一年内旧貌换新颜",
        "docid": "IKSSPUDU053469LG",
        "url": "https://www.163.com/dy/article/IKSSPUDU053469LG.html"
    },
    {
        "title": "2023年11月武汉新房日成交数据出炉! 5802套! 同比去年11月多1套",
        "docid": "IL1S9T7S0553FMO2",
        "url": "https://www.163.com/dy/article/IL1S9T7S0553FMO2.html"
    },
    {
        "title": "炒房客都不敢碰的3个楼层，刚需买房要知晓，这次内行人说清楚了",
        "docid": "IL2NUN560545PEDS",
        "url": "https://www.163.com/dy/article/IL2NUN560545PEDS.html"
    },
    {
        "title": "青山区1宗住宅用地挂牌，起始楼面价8136元/平！",
        "docid": "IL2IPPGD0534SV3Y",
        "url": "https://www.163.com/dy/article/IL2IPPGD0534SV3Y.html"
    },
    {
        "title": "如何查询公积金账户余额？",
        "docid": "IL3A5M920553TDTY",
        "url": "https://www.163.com/dy/article/IL3A5M920553TDTY.html"
    },
    {
        "title": "南财快评：房地产行业正在转型过程中寻求新平衡",
        "docid": "IL388K1D0553RRD3",
        "url": "https://www.163.com/dy/article/IL388K1D0553RRD3.html"
    },
    {
        "title": "2023年武汉楼市：第一套房买错，就会步步错！",
        "docid": "IKQTP6LP05560R20",
        "url": "https://www.163.com/dy/article/IKQTP6LP05560R20.html"
    },
    {
        "title": "东西湖 | 将军路附近土地再挂牌，价格约有下调，起始楼面价6106元/平！",
        "docid": "IL04K41S0534SV3Y",
        "url": "https://www.163.com/dy/article/IL04K41S0534SV3Y.html"
    },
    {
        "title": "武汉新一批优质住宅用地集中入市",
        "docid": "IKS50739053469LG",
        "url": "https://www.163.com/dy/article/IKS50739053469LG.html"
    },
    {
        "title": "2023年11月武汉新房日成交数据出炉! 5802套! 同比去年11月多1套",
        "docid": "IL1S9T7S0553FMO2",
        "url": "https://www.163.com/dy/article/IL1S9T7S0553FMO2.html"
    },
    {
        "title": "新南湖已拆迁区域和正在拆迁的区域",
        "docid": "IKT03DS60553TEQM",
        "url": "https://www.163.com/dy/article/IKT03DS60553TEQM.html"
    },
    {
        "title": "武汉12月预计32盘将开！",
        "docid": "IL37UOP80553TDXU",
        "url": "https://www.163.com/dy/article/IL37UOP80553TDXU.html"
    },
    {
        "title": "首席核心观点集（2023年11月27日 –12月3日）",
        "docid": "IL2LIV5M0519IGF7",
        "url": "https://www.163.com/dy/article/IL2LIV5M0519IGF7.html"
    },
    {
        "title": "70平米果蔬店，三年赚了一套房，绝对是新冠疫情期间的大赢家！",
        "docid": "IL39BDTK0552QWCE",
        "url": "https://www.163.com/dy/article/IL39BDTK0552QWCE.html"
    },
    {
        "title": "116亿，武汉出让9宗地块的国有建设用地使用权。",
        "docid": "IKTN7HTI0534SV3Y",
        "url": "https://www.163.com/dy/article/IKTN7HTI0534SV3Y.html"
    },
    {
        "title": "东西湖 | 将军路附近土地再挂牌，价格约有下调，起始楼面价6106元/平！",
        "docid": "IL04K41S0534SV3Y",
        "url": "https://www.163.com/dy/article/IL04K41S0534SV3Y.html"
    },
    {
        "title": "武汉光交城市底价拿光谷核心区090号地块",
        "docid": "IKS76H4O0550AAMM",
        "url": "https://www.163.com/dy/article/IKS76H4O0550AAMM.html"
    },
    {
        "title": "武汉：摸清全市住房需求 进一步完善房开企业白名单",
        "docid": "IKSEJCTV0519D45U",
        "url": "https://www.163.com/dy/article/IKSEJCTV0519D45U.html"
    },
    {
        "title": "安居到乐居，武汉这个小区一年内旧貌换新颜",
        "docid": "IKSSPUDU053469LG",
        "url": "https://www.163.com/dy/article/IKSSPUDU053469LG.html"
    },
    {
        "title": "2023年11月武汉新房日成交数据出炉! 5802套! 同比去年11月多1套",
        "docid": "IL1S9T7S0553FMO2",
        "url": "https://www.163.com/dy/article/IL1S9T7S0553FMO2.html"
    },
    {
        "title": "炒房客都不敢碰的3个楼层，刚需买房要知晓，这次内行人说清楚了",
        "docid": "IL2NUN560545PEDS",
        "url": "https://www.163.com/dy/article/IL2NUN560545PEDS.html"
    },
    {
        "title": "武汉房产系列：年底和明年买房（学区房）的趋势分析及10条建议",
        "docid": "IKV1UKNK05526P7B",
        "url": "https://www.163.com/dy/article/IKV1UKNK05526P7B.html"
    },
    {
        "title": "116亿，武汉出让9宗地块的国有建设用地使用权。",
        "docid": "IKTN7HTI0534SV3Y",
        "url": "https://www.163.com/dy/article/IKTN7HTI0534SV3Y.html"
    },
    {
        "title": "武汉11月29日公示6个预售证，1盘连拿3证，武昌1纯新盘即将首开",
        "docid": "IL0M7T9C0553TB9L",
        "url": "https://www.163.com/dy/article/IL0M7T9C0553TB9L.html"
    },
    {
        "title": "东西湖 | 将军路附近土地再挂牌，价格约有下调，起始楼面价6106元/平！",
        "docid": "IL04K41S0534SV3Y",
        "url": "https://www.163.com/dy/article/IL04K41S0534SV3Y.html"
    },
    {
        "title": "武汉光交城市底价拿光谷核心区090号地块",
        "docid": "IKS76H4O0550AAMM",
        "url": "https://www.163.com/dy/article/IKS76H4O0550AAMM.html"
    },
    {
        "title": "武汉出台25条措施推动经济恢复向好，换购住房政策延长至明年年底",
        "docid": "IKT6M8DE053469LG",
        "url": "https://www.163.com/dy/article/IKT6M8DE053469LG.html"
    },
    {
        "title": "武汉楼市：分化加剧，这些区域购买力强！",
        "docid": "IKVP7PEE05560R20",
        "url": "https://www.163.com/dy/article/IKVP7PEE05560R20.html"
    },
    {
        "title": "土地热线 | 武汉116亿挂牌9宗 西安推出1093亩、成都526.5亩",
        "docid": "IKTOOCQB0519D45U",
        "url": "https://www.163.com/dy/article/IKTOOCQB0519D45U.html"
    },
    {
        "title": "武汉市的二手房怎么了？",
        "docid": "IKNNON360535MP84",
        "url": "https://www.163.com/dy/article/IKNNON360535MP84.html"
    },
    {
        "title": "百强房企11月份销售额环比下降0.6% 本月进入年度业绩冲刺期",
        "docid": "IL3DT9970539AP40",
        "url": "https://www.163.com/dy/article/IL3DT9970539AP40.html"
    },
    {
        "title": "武汉11月29日公示6个预售证，1盘连拿3证，武昌1纯新盘即将首开",
        "docid": "IL0M7T9C0553TB9L",
        "url": "https://www.163.com/dy/article/IL0M7T9C0553TB9L.html"
    },
    {
        "title": "青山区1宗住宅用地挂牌，起始楼面价8136元/平！",
        "docid": "IL2IPPGD0534SV3Y",
        "url": "https://www.163.com/dy/article/IL2IPPGD0534SV3Y.html"
    },
    {
        "title": "武汉房产系列：年底和明年买房（学区房）的趋势分析及10条建议",
        "docid": "IKV1UKNK05526P7B",
        "url": "https://www.163.com/dy/article/IKV1UKNK05526P7B.html"
    },
    {
        "title": "白沙新城正在进行前期策划的项目汇总",
        "docid": "IL1FH2E90556123R",
        "url": "https://www.163.com/dy/article/IL1FH2E90556123R.html"
    },
    {
        "title": "武汉116亿挂牌9宗房地产用地 将于12月21日至26日期间举行拍卖",
        "docid": "IKSA9D7N0519D45U",
        "url": "https://www.163.com/dy/article/IKSA9D7N0519D45U.html"
    },
    {
        "title": "武汉：支持居民换购住房政策延长至2024年12月31日",
        "docid": "IKSEJC750519D45U",
        "url": "https://www.163.com/dy/article/IKSEJC750519D45U.html"
    },
    {
        "title": "武汉楼市：分化加剧，这些区域购买力强！",
        "docid": "IKVP7PEE05560R20",
        "url": "https://www.163.com/dy/article/IKVP7PEE05560R20.html"
    },
    {
        "title": "出乎预料？为了卖房，开发商又玩出了1个“新花样”",
        "docid": "IL1DA1A90535MR82",
        "url": "https://www.163.com/dy/article/IL1DA1A90535MR82.html"
    },
    {
        "title": "物业安全标准化管理培训（PPT）",
        "docid": "IL18R9C30535R288",
        "url": "https://www.163.com/dy/article/IL18R9C30535R288.html"
    },
    {
        "title": "武汉楼市：买房一定要考虑投资属性！",
        "docid": "IKQTOBPE05560R20",
        "url": "https://www.163.com/dy/article/IKQTOBPE05560R20.html"
    },
    {
        "title": "2023年武汉楼市：第一套房买错，就会步步错！",
        "docid": "IKQTP6LP05560R20",
        "url": "https://www.163.com/dy/article/IKQTP6LP05560R20.html"
    },
    {
        "title": "东西湖 | 将军路附近土地再挂牌，价格约有下调，起始楼面价6106元/平！",
        "docid": "IL04K41S0534SV3Y",
        "url": "https://www.163.com/dy/article/IL04K41S0534SV3Y.html"
    },
    {
        "title": "武汉光交城市底价拿光谷核心区090号地块",
        "docid": "IKS76H4O0550AAMM",
        "url": "https://www.163.com/dy/article/IKS76H4O0550AAMM.html"
    },
    {
        "title": "武汉新一批优质住宅用地集中入市",
        "docid": "IKS50739053469LG",
        "url": "https://www.163.com/dy/article/IKS50739053469LG.html"
    },
    {
        "title": "武汉房产系列：年底和明年买房（学区房）的趋势分析及10条建议",
        "docid": "IKV1UKNK05526P7B",
        "url": "https://www.163.com/dy/article/IKV1UKNK05526P7B.html"
    },
    {
        "title": "房产办理公证委托书怎么办理",
        "docid": "IKLEJB0S055668AT",
        "url": "https://www.163.com/dy/article/IKLEJB0S055668AT.html"
    },
    {
        "title": "出乎预料？为了卖房，开发商又玩出了1个“新花样”",
        "docid": "IL1DA1A90535MR82",
        "url": "https://www.163.com/dy/article/IL1DA1A90535MR82.html"
    },
    {
        "title": "武汉这里投资120亿！成都万华在此打造世界一流“威尼斯水镇”！",
        "docid": "IL0BV7LD0553TDTY",
        "url": "https://www.163.com/dy/article/IL0BV7LD0553TDTY.html"
    },
    {
        "title": "央行：为三大工程提供低成本资金支持，推动构建房地产发展新模式",
        "docid": "IL1NFSSQ05562DLL",
        "url": "https://www.163.com/dy/article/IL1NFSSQ05562DLL.html"
    },
    {
        "title": "520元就能买套房屋，成交后卖家却不认账，拍卖过程是否有猫腻？",
        "docid": "VLK5MP0P9",
        "url": "https://www.163.com/dy/article/VLK5MP0P9.html"
    },
    {
        "title": "买房靠近这三个地方，房子越值钱",
        "docid": "VFJPU0I87",
        "url": "https://www.163.com/dy/article/VFJPU0I87.html"
    },
    {
        "title": "为什么丁盛说他到生产建设兵团住39平方米房子？事实是这样的",
        "docid": "VSK5LHQT1",
        "url": "https://www.163.com/dy/article/VSK5LHQT1.html"
    },
    {
        "title": "土地改革已敲定，将实施一户一地",
        "docid": "VFK5DP17C",
        "url": "https://www.163.com/dy/article/VFK5DP17C.html"
    },
    {
        "title": "这是什么场面，售楼处爆满了",
        "docid": "VZK5N3PMN",
        "url": "https://www.163.com/dy/article/VZK5N3PMN.html"
    },
    {
        "title": "这4种行为不能再干了，农民的土地农民自己说了算！",
        "docid": "VFK5FCRLB",
        "url": "https://www.163.com/dy/article/VFK5FCRLB.html"
    },
    {
        "title": "5年后，“电梯房”和“步梯房”谁更值钱？新规下，答案已显现",
        "docid": "VOJUHPVS5",
        "url": "https://www.163.com/dy/article/VOJUHPVS5.html"
    },
    {
        "title": "6.6亿栋房子 谁都有房子",
        "docid": "VWK5O4DFQ",
        "url": "https://www.163.com/dy/article/VWK5O4DFQ.html"
    },
    {
        "title": "230平米的高颜值优雅户型",
        "docid": "IL3DFR640535MP84",
        "url": "https://www.163.com/dy/article/IL3DFR640535MP84.html"
    },
    {
        "title": "真正理想的房子要配置五个房间，这款户型相当惊艳！",
        "docid": "IL3EO8460535KYBT",
        "url": "https://www.163.com/dy/article/IL3EO8460535KYBT.html"
    },
    {
        "title": "房产证上轻易不要写这两人的名字，以前不懂，现在知道也不晚",
        "docid": "IL3EKLGC0552CPHG",
        "url": "https://www.163.com/dy/article/IL3EKLGC0552CPHG.html"
    },
    {
        "title": "这是一款幸福的户型，实用性确实太强了",
        "docid": "IL3EM0QU0535KYBT",
        "url": "https://www.163.com/dy/article/IL3EM0QU0535KYBT.html"
    },
    {
        "title": "从旧小区加装电梯终于知道为什么古人说：嘴大吃四方",
        "docid": "IL3DRPS40552CPHG",
        "url": "https://www.163.com/dy/article/IL3DRPS40552CPHG.html"
    },
    {
        "title": "头部房企做城中村改造，太惊艳了",
        "docid": "IL3LGTEO05158B67",
        "url": "https://www.163.com/dy/article/IL3LGTEO05158B67.html"
    },
    {
        "title": "年末热点城市密集招拍挂土地 房企拿地积极性有所提升",
        "docid": "IL3L2G7H05198CJN",
        "url": "https://www.163.com/dy/article/IL3L2G7H05198CJN.html"
    },
    {
        "title": "地产行业，一个微妙的变化",
        "docid": "IL3LGCN705158B67",
        "url": "https://www.163.com/dy/article/IL3LGCN705158B67.html"
    },
    {
        "title": "今天听中介的建议，在市场价的基础上降了20万，房子卖出去了。",
        "docid": "IL3E347I0535MP84",
        "url": "https://www.163.com/dy/article/IL3E347I0535MP84.html"
    },
    {
        "title": "买房别选凸阳台，地产商恨不得白送，入住才知是大坑",
        "docid": "IL3FN2S30535KYBT",
        "url": "https://www.163.com/dy/article/IL3FN2S30535KYBT.html"
    },
    {
        "title": "太庆幸了，亏本卖了房，想不到因祸得福！",
        "docid": "IKMG6HTS0535MP84",
        "url": "https://www.163.com/dy/article/IKMG6HTS0535MP84.html"
    },
    {
        "title": "住建部发文，我国城镇化还处于高速发展期，房价是不是又要涨？",
        "docid": "IKUAB2G80535KYBT",
        "url": "https://www.163.com/dy/article/IKUAB2G80535KYBT.html"
    },
    {
        "title": "有一种遗憾，叫做选择了“一梯两户”",
        "docid": "IKJHK4CB05561J3R",
        "url": "https://www.163.com/dy/article/IKJHK4CB05561J3R.html"
    },
    {
        "title": "楼市大局已定，无论房价涨还是跌，未来都会面临3大现实买房问题",
        "docid": "IL3EIN860535MP84",
        "url": "https://www.163.com/dy/article/IL3EIN860535MP84.html"
    },
    {
        "title": "国泰君安：地产政策继续加码 需求仍待修复",
        "docid": "IL3MJRHU05198UNI",
        "url": "https://www.163.com/dy/article/IL3MJRHU05198UNI.html"
    },
    {
        "title": "满足合理需求聚焦“三大工程”，金融支持房地产力度加大",
        "docid": "IL3JUC5M0512B07B",
        "url": "https://www.163.com/dy/article/IL3JUC5M0512B07B.html"
    },
    {
        "title": "以资产缩水绑架民意，鼓吹房价的声音越来越小了",
        "docid": "IL3EMI4K0535MP84",
        "url": "https://www.163.com/dy/article/IL3EMI4K0535MP84.html"
    },
    {
        "title": "中国楼市的“拯救计划”出炉",
        "docid": "IKMH80560552CPHG",
        "url": "https://www.163.com/dy/article/IKMH80560552CPHG.html"
    },
    {
        "title": "实体店倒闭了，有些房东却很高兴，他们可以得到什么好处？",
        "docid": "IKMH8QTU0535KYBT",
        "url": "https://www.163.com/dy/article/IKMH8QTU0535KYBT.html"
    },
    {
        "title": "奢华户型：四个卧室全部自带卫生间",
        "docid": "IKMGHAUG0552CPHG",
        "url": "https://www.163.com/dy/article/IKMGHAUG0552CPHG.html"
    },
    {
        "title": "2023年武汉楼市：第一套房买错，就会步步错！",
        "docid": "IKQTP6LP05560R20",
        "url": "https://www.163.com/dy/article/IKQTP6LP05560R20.html"
    },
    {
        "title": "对标“武汉天地”的知名“红盘”交付，品质怎么样？",
        "docid": "IL0A6TJM0553TB9L",
        "url": "https://www.163.com/dy/article/IL0A6TJM0553TB9L.html"
    },
    {
        "title": "国泰君安：11月房企销售端继续呈现弱化趋势，关注各地政策跟进",
        "docid": "IL3NGJDN0534A4SC",
        "url": "https://www.163.com/dy/article/IL3NGJDN0534A4SC.html"
    },
    {
        "title": "武汉：进一步完善房企“白名单”管理制度，扩大有效投资",
        "docid": "IKSOCG9V0514R9P4",
        "url": "https://www.163.com/dy/article/IKSOCG9V0514R9P4.html"
    },
    {
        "title": "安居到乐居，武汉这个小区一年内旧貌换新颜",
        "docid": "IKSSPUDU053469LG",
        "url": "https://www.163.com/dy/article/IKSSPUDU053469LG.html"
    },
    {
        "title": "炒房客都不敢碰的3个楼层，刚需买房要知晓，这次内行人说清楚了",
        "docid": "IL2NUN560545PEDS",
        "url": "https://www.163.com/dy/article/IL2NUN560545PEDS.html"
    },
    {
        "title": "白沙新城正在进行前期策划的项目汇总",
        "docid": "IL1FH2E90556123R",
        "url": "https://www.163.com/dy/article/IL1FH2E90556123R.html"
    },
    {
        "title": "“抛售潮”还没出现，断供的人却“成批”增加，这意味着什么？",
        "docid": "IKMK8NTB0535KYBT",
        "url": "https://www.163.com/dy/article/IKMK8NTB0535KYBT.html"
    },
    {
        "title": "年底啦，来查查你的公积金账户攒了多少钱",
        "docid": "IL3P89090530X1P1",
        "url": "https://www.163.com/dy/article/IL3P89090530X1P1.html"
    },
    {
        "title": "这款边厅豪宅把大空间做到了极致",
        "docid": "IKMK61UC0535MP84",
        "url": "https://www.163.com/dy/article/IKMK61UC0535MP84.html"
    },
    {
        "title": "恒大债权团支持维持运营，不支持破产",
        "docid": "IL3NOEHJ05561KR8",
        "url": "https://www.163.com/dy/article/IL3NOEHJ05561KR8.html"
    },
    {
        "title": "吴先生在武汉硚口一高 档小区买了一套精 装房，总共花了600万元，办理手续过后一直没舍得住",
        "docid": "IKMJTAQP0535KYBT",
        "url": "https://www.163.com/dy/article/IKMJTAQP0535KYBT.html"
    },
    {
        "title": "此户型设计不错，入户三分离的路线相当罕见",
        "docid": "IKMIMOS80535MP84",
        "url": "https://www.163.com/dy/article/IKMIMOS80535MP84.html"
    },
    {
        "title": "在房价问题上，国家已经选择，我们却没看懂",
        "docid": "IKMK2JF30535MP84",
        "url": "https://www.163.com/dy/article/IKMK2JF30535MP84.html"
    },
    {
        "title": "提前还房贷，你会有什么好处？",
        "docid": "VYK5PUF26",
        "url": "https://www.163.com/dy/article/VYK5PUF26.html"
    },
    {
        "title": "家庭事业两兼顾的洋房你觉得可以嘛？",
        "docid": "VJK40GL0H",
        "url": "https://www.163.com/dy/article/VJK40GL0H.html"
    },
    {
        "title": "2023年中国房地产业大亨命运对比：恒大、万达、碧桂园",
        "docid": "IL3QQ6LO0552O6SX",
        "url": "https://www.163.com/dy/article/IL3QQ6LO0552O6SX.html"
    },
    {
        "title": "宅基地房屋转让后遭拆迁，补偿利益该怎么分？",
        "docid": "IKMSLMUB0535W7UR",
        "url": "https://www.163.com/dy/article/IKMSLMUB0535W7UR.html"
    },
    {
        "title": "我是月薪8万的飞行员，在北京买房，疫情时，穷得连汉堡都吃不起",
        "docid": "IL3QP51A055616ZT",
        "url": "https://www.163.com/dy/article/IL3QP51A055616ZT.html"
    },
    {
        "title": "这个户型面积不大，但格调相当高",
        "docid": "IKMJLSA30535LAX2",
        "url": "https://www.163.com/dy/article/IKMJLSA30535LAX2.html"
    },
    {
        "title": "法国经济部希望放宽房贷发放条件 以便利法国家庭买房",
        "docid": "IL3QLO7H0514R9L4",
        "url": "https://www.163.com/dy/article/IL3QLO7H0514R9L4.html"
    },
    {
        "title": "两栋荒废的小洋房，两兄弟建好后就带全家去了加拿大捞金就没回来",
        "docid": "VDJO8FTKQ",
        "url": "https://www.163.com/dy/article/VDJO8FTKQ.html"
    },
    {
        "title": "房地产为什么低迷，首先要保障底层人的居住权！",
        "docid": "VSJO59K4L",
        "url": "https://www.163.com/dy/article/VSJO59K4L.html"
    },
    {
        "title": "恒大现在又火了资本的丑恶嘴脸",
        "docid": "VYK3PFG85",
        "url": "https://www.163.com/dy/article/VYK3PFG85.html"
    },
    {
        "title": "七八平的房间挤十几个妹子，而在上海，这样的超级合租房比比皆是",
        "docid": "VDJO92V3M",
        "url": "https://www.163.com/dy/article/VDJO92V3M.html"
    },
    {
        "title": "公职人员退出公租房，这事就完了吗？",
        "docid": "IL3D7P7S055658L4",
        "url": "https://www.163.com/dy/article/IL3D7P7S055658L4.html"
    },
    {
        "title": "三兄弟一起建房，父亲情愿出多20w也要分开建，为了面子？",
        "docid": "VDJP3TD61",
        "url": "https://www.163.com/dy/article/VDJP3TD61.html"
    },
    {
        "title": "第一集：只需16万，十平米陋室逆天变身两室一厅迷你别墅",
        "docid": "VYK5VNEQB",
        "url": "https://www.163.com/dy/article/VYK5VNEQB.html"
    },
    {
        "title": "赤裸裸的真相看完你还敢要吗？",
        "docid": "VGK5QNTK5",
        "url": "https://www.163.com/dy/article/VGK5QNTK5.html"
    },
    {
        "title": "重磅消息，房地产终极大招来了",
        "docid": "VZK3TBLDF",
        "url": "https://www.163.com/dy/article/VZK3TBLDF.html"
    },
    {
        "title": "64万的房子捡漏40万搞定，没想到中了开发商的奸计！肠子都悔青了",
        "docid": "VCK5Q7VQA",
        "url": "https://www.163.com/dy/article/VCK5Q7VQA.html"
    },
    {
        "title": "不要钱也不同意，加装电梯的秘密，背后到底动了谁的利益？",
        "docid": "VSJP2P3G7",
        "url": "https://www.163.com/dy/article/VSJP2P3G7.html"
    },
    {
        "title": "许家印在全国到底有多少豪宅",
        "docid": "VYK3H8E2T",
        "url": "https://www.163.com/dy/article/VYK3H8E2T.html"
    },
    {
        "title": "农村建房别攀比，这款经济实用二层小别墅设计就不错",
        "docid": "VDK58JU5N",
        "url": "https://www.163.com/dy/article/VDK58JU5N.html"
    }
]