[
    {
        "title": "土拍预告丨12月19日19城95宗地块挂牌截止，其中涉宅用地56宗",
        "docid": "IM9DQ37C0545PEDS",
        "url": "https://www.163.com/dy/article/IM9DQ37C0545PEDS.html"
    },
    {
        "title": "购房新举措，武汉开始了！",
        "docid": "IM33RORM0514R9OJ",
        "url": "https://www.163.com/dy/article/IM33RORM0514R9OJ.html"
    },
    {
        "title": "又一批地产人，找到新出路了",
        "docid": "IM7OFBNL05158B67",
        "url": "https://www.163.com/dy/article/IM7OFBNL05158B67.html"
    },
    {
        "title": "十年初心｜丁祖昱：走到今天，都是零度以上的风景",
        "docid": "IM8GLUSU0556123R",
        "url": "https://www.163.com/dy/article/IM8GLUSU0556123R.html"
    },
    {
        "title": "碧桂园深夜再发紧急公告！许家印之后，碧桂园该如何自救？",
        "docid": "IM6L6C8005560Z1S",
        "url": "https://www.163.com/dy/article/IM6L6C8005560Z1S.html"
    },
    {
        "title": "中原地产： 2024年一手成交量可达1.5万宗 上半年香港楼价有望升5%",
        "docid": "IM8RA06V0519D45U",
        "url": "https://www.163.com/dy/article/IM8RA06V0519D45U.html"
    },
    {
        "title": "武汉润府售楼处电话_武汉润府官网_武汉润府24小时电话",
        "docid": "IM8DMF9705566J9K",
        "url": "https://www.163.com/dy/article/IM8DMF9705566J9K.html"
    },
    {
        "title": "底价！“国资”！武汉6宗地成交30亿！",
        "docid": "IM72VGAN0553TDTY",
        "url": "https://www.163.com/dy/article/IM72VGAN0553TDTY.html"
    },
    {
        "title": "卓刀泉1宗住宅用地挂牌，起始楼面价11770元/平！",
        "docid": "IM1OCF5U0534SV3Y",
        "url": "https://www.163.com/dy/article/IM1OCF5U0534SV3Y.html"
    },
    {
        "title": "车位买与不买，算个账就明白了",
        "docid": "IM9FKOFV0552QWCL",
        "url": "https://www.163.com/dy/article/IM9FKOFV0552QWCL.html"
    },
    {
        "title": "专家预言：到 2025年，房价将会是现在的四到五倍！分享看法和经验",
        "docid": "IM9ESLA70545PEDS",
        "url": "https://www.163.com/dy/article/IM9ESLA70545PEDS.html"
    },
    {
        "title": "如何申请住房公积金直付房租",
        "docid": "IM9E35TQ0549RI77",
        "url": "https://www.163.com/dy/article/IM9E35TQ0549RI77.html"
    },
    {
        "title": "全国百城房价下跌！辉煌不在的房地产！暴跌吧！万恶的房价！",
        "docid": "VZLBK9ABO",
        "url": "https://www.163.com/dy/article/VZLBK9ABO.html"
    },
    {
        "title": "你们真的以为房地产是市场供需决定吗？房地产背后真相迷晕所有人",
        "docid": "VWLBDAMCN",
        "url": "https://www.163.com/dy/article/VWLBDAMCN.html"
    },
    {
        "title": "铁心桥伟星降价啦！是怕保利新盘低开？",
        "docid": "VWLBL1VAC",
        "url": "https://www.163.com/dy/article/VWLBL1VAC.html"
    },
    {
        "title": "这花园是真大！450 万 3+2 联排端户，其实地下室才是最亮眼的",
        "docid": "VCLBI4N22",
        "url": "https://www.163.com/dy/article/VCLBI4N22.html"
    },
    {
        "title": "以后在一线城市，有钱也买不到房子！",
        "docid": "VCKULN114",
        "url": "https://www.163.com/dy/article/VCKULN114.html"
    },
    {
        "title": "无不良导向，请理性讨论，欢迎点赞转发扩散",
        "docid": "VGKS0KK6E",
        "url": "https://www.163.com/dy/article/VGKS0KK6E.html"
    },
    {
        "title": "迪拜房产｜明年房价或将继续上涨，并将吸引更多中国投资者",
        "docid": "IM9D4CQ40552F71X",
        "url": "https://www.163.com/dy/article/IM9D4CQ40552F71X.html"
    },
    {
        "title": "房地产带不动，国家比开发商还急！专家：终于放开宅基地赚钱通道",
        "docid": "VCLBJMA26",
        "url": "https://www.163.com/dy/article/VCLBJMA26.html"
    },
    {
        "title": "买房的时候千万留意前房东",
        "docid": "VZLBKU8FQ",
        "url": "https://www.163.com/dy/article/VZLBKU8FQ.html"
    },
    {
        "title": "为什么没有人能够准确预测房地产的未来？",
        "docid": "VOKRELRPV",
        "url": "https://www.163.com/dy/article/VOKRELRPV.html"
    },
    {
        "title": "公开透明是解决所有社会问题的唯一选择，万万不能走回头路",
        "docid": "VYLBJHQ7H",
        "url": "https://www.163.com/dy/article/VYLBJHQ7H.html"
    },
    {
        "title": "房东300万的房子，被买家砍价到100万",
        "docid": "VZKUN18JB",
        "url": "https://www.163.com/dy/article/VZKUN18JB.html"
    },
    {
        "title": "韩国婆婆想买一幢三层小洋楼，全家人都反对！到底是为什么？",
        "docid": "VDLB8SF6R",
        "url": "https://www.163.com/dy/article/VDLB8SF6R.html"
    },
    {
        "title": "“优质客户”买房后消失，涉6000万，职业骗贷和职业背债问题凸显",
        "docid": "VPLBIAGAV",
        "url": "https://www.163.com/dy/article/VPLBIAGAV.html"
    },
    {
        "title": "这种房子最坑人，打死也别买",
        "docid": "VZKUMMVNN",
        "url": "https://www.163.com/dy/article/VZKUMMVNN.html"
    },
    {
        "title": "精装房销售：公主请入住；精装房验收：大婶别破防",
        "docid": "IM9B63870520B5DI",
        "url": "https://www.163.com/dy/article/IM9B63870520B5DI.html"
    },
    {
        "title": "【荷兰】荷兰乌特勒支禁止投资者置业的措施有效",
        "docid": "IM9I2J9F0514DCDB",
        "url": "https://www.163.com/dy/article/IM9I2J9F0514DCDB.html"
    },
    {
        "title": "房产中介这份工作，为什么会有这么多无底薪从业者？",
        "docid": "IM9ENP840535L9FE",
        "url": "https://www.163.com/dy/article/IM9ENP840535L9FE.html"
    },
    {
        "title": "这样户型，早该被淘汰了！但浙江地区大量用，存在就有他的合理性",
        "docid": "VBKRQEM63",
        "url": "https://www.163.com/dy/article/VBKRQEM63.html"
    },
    {
        "title": "中国最好看的房子，在老家建栋这样的房子，邻居羡慕你，全家人有面子，有全套图纸",
        "docid": "VPKUM46MF",
        "url": "https://www.163.com/dy/article/VPKUM46MF.html"
    },
    {
        "title": "什么是洗房？警惕被洗房",
        "docid": "VWKULJREK",
        "url": "https://www.163.com/dy/article/VWKULJREK.html"
    },
    {
        "title": "骇人听闻4个公租房小区竟然排查出766户公职人员！评论区炸了",
        "docid": "VNKROJMT5",
        "url": "https://www.163.com/dy/article/VNKROJMT5.html"
    },
    {
        "title": "吓人！阿福入住秋天妈妈附近房子，租赁一个月，究竟想做什么？",
        "docid": "VDLBLGVJO",
        "url": "https://www.163.com/dy/article/VDLBLGVJO.html"
    },
    {
        "title": "被李嘉诚拖垮的上海副中心，如今转型成功了吗？——真如板块探秘",
        "docid": "VTLBLB6BB",
        "url": "https://www.163.com/dy/article/VTLBLB6BB.html"
    },
    {
        "title": "东京涩谷区3LDK新装修公寓，山手线代代木站480米，明治神宫、新宿高岛屋旁！",
        "docid": "IM1AALN005359JWY",
        "url": "https://www.163.com/dy/article/IM1AALN005359JWY.html"
    },
    {
        "title": "同一栋楼，为何西户已被抢光，东户还剩很多？内行回答“4点”",
        "docid": "IM9JJTHP0534M7IC",
        "url": "https://www.163.com/dy/article/IM9JJTHP0534M7IC.html"
    },
    {
        "title": "新一轮救市启动了，作用多大",
        "docid": "IM7OI6UC0534M7IC",
        "url": "https://www.163.com/dy/article/IM7OI6UC0534M7IC.html"
    },
    {
        "title": "购房新举措，武汉开始了！",
        "docid": "IM33RORM0514R9OJ",
        "url": "https://www.163.com/dy/article/IM33RORM0514R9OJ.html"
    },
    {
        "title": "武汉润府售楼处电话_武汉润府官网_武汉润府24小时电话",
        "docid": "IM8DMF9705566J9K",
        "url": "https://www.163.com/dy/article/IM8DMF9705566J9K.html"
    },
    {
        "title": "底价！“国资”！武汉6宗地成交30亿！",
        "docid": "IM72VGAN0553TDTY",
        "url": "https://www.163.com/dy/article/IM72VGAN0553TDTY.html"
    },
    {
        "title": "【时评】政府允许楼盘降价，“房闹”们要凉凉了",
        "docid": "IM3NHHTO0530T173",
        "url": "https://www.163.com/dy/article/IM3NHHTO0530T173.html"
    },
    {
        "title": "后湖沃尔玛山姆会员店土地挂牌！",
        "docid": "IM46LL140534SV3Y",
        "url": "https://www.163.com/dy/article/IM46LL140534SV3Y.html"
    },
    {
        "title": "汉阳 | 武汉新世界汉江·云赫商业项目2024年年中璀璨开街！",
        "docid": "IM6P3TJQ0534SV3Y",
        "url": "https://www.163.com/dy/article/IM6P3TJQ0534SV3Y.html"
    },
    {
        "title": "在日本什么样的二手房最受欢迎？这一点和国内竟恰恰相反！",
        "docid": "ILPVO3RO0553ND8Q",
        "url": "https://www.163.com/dy/article/ILPVO3RO0553ND8Q.html"
    },
    {
        "title": "购房新举措，武汉开始了！",
        "docid": "IM33RORM0514R9OJ",
        "url": "https://www.163.com/dy/article/IM33RORM0514R9OJ.html"
    },
    {
        "title": "财联社12月18日电，美国12月NAHB房产市场指数为37，预期36，前值34。",
        "docid": "IM9BGEUJ05198CJN",
        "url": "https://www.163.com/dy/article/IM9BGEUJ05198CJN.html"
    },
    {
        "title": "武汉润府售楼处电话_武汉润府官网_武汉润府24小时电话",
        "docid": "IM8DMF9705566J9K",
        "url": "https://www.163.com/dy/article/IM8DMF9705566J9K.html"
    },
    {
        "title": "底价！“国资”！武汉6宗地成交30亿！",
        "docid": "IM72VGAN0553TDTY",
        "url": "https://www.163.com/dy/article/IM72VGAN0553TDTY.html"
    },
    {
        "title": "太燃，中指研究院：上周楼市整体环比上升8.83%，同比下降11.99%",
        "docid": "IM8BOP5705562DLL",
        "url": "https://www.163.com/dy/article/IM8BOP5705562DLL.html"
    },
    {
        "title": "【时评】政府允许楼盘降价，“房闹”们要凉凉了",
        "docid": "IM3NHHTO0530T173",
        "url": "https://www.163.com/dy/article/IM3NHHTO0530T173.html"
    },
    {
        "title": "后湖沃尔玛山姆会员店土地挂牌！",
        "docid": "IM46LL140534SV3Y",
        "url": "https://www.163.com/dy/article/IM46LL140534SV3Y.html"
    },
    {
        "title": "汉阳 | 武汉新世界汉江·云赫商业项目2024年年中璀璨开街！",
        "docid": "IM6P3TJQ0534SV3Y",
        "url": "https://www.163.com/dy/article/IM6P3TJQ0534SV3Y.html"
    },
    {
        "title": "什么样的家庭算是中产家庭？中国又到底有多少中产阶级？",
        "docid": "VJKUJIJ77",
        "url": "https://www.163.com/dy/article/VJKUJIJ77.html"
    },
    {
        "title": "价格直到伤心处，业主是天天哭泣17000到4000，这价格您会买吗？",
        "docid": "VGKUS50JH",
        "url": "https://www.163.com/dy/article/VGKUS50JH.html"
    },
    {
        "title": "全新装修的房子一天都没有住就要卖掉，全屋现代简约原木风。",
        "docid": "VZKRNSVGJ",
        "url": "https://www.163.com/dy/article/VZKRNSVGJ.html"
    },
    {
        "title": "真正的四水归堂，步步高升户型！",
        "docid": "VPLBRN6A3",
        "url": "https://www.163.com/dy/article/VPLBRN6A3.html"
    },
    {
        "title": "房价暴跌也没人买，捂紧钱袋子是关键",
        "docid": "VGLBUK25K",
        "url": "https://www.163.com/dy/article/VGLBUK25K.html"
    },
    {
        "title": "外媒：扎克伯格在建“美国历史最大住宅之一”，“设有神秘地堡”",
        "docid": "VVLBKEAIT",
        "url": "https://www.163.com/dy/article/VVLBKEAIT.html"
    },
    {
        "title": "生态城179平叠墅，带100平阁楼高2.5米可以吗",
        "docid": "VWKU0USNL",
        "url": "https://www.163.com/dy/article/VWKU0USNL.html"
    },
    {
        "title": "为什么说，今年没买房的人最亏了",
        "docid": "VGLB4TK0N",
        "url": "https://www.163.com/dy/article/VGLB4TK0N.html"
    },
    {
        "title": "解除限购，真能迎来报复性买房吗",
        "docid": "VBKQNQNTS",
        "url": "https://www.163.com/dy/article/VBKQNQNTS.html"
    },
    {
        "title": "房价跌到什么位置才能反弹？",
        "docid": "ILPI5N4D0553GD76",
        "url": "https://www.163.com/dy/article/ILPI5N4D0553GD76.html"
    },
    {
        "title": "购房新举措，武汉开始了！",
        "docid": "IM33RORM0514R9OJ",
        "url": "https://www.163.com/dy/article/IM33RORM0514R9OJ.html"
    },
    {
        "title": "武汉润府售楼处电话_武汉润府官网_武汉润府24小时电话",
        "docid": "IM8DMF9705566J9K",
        "url": "https://www.163.com/dy/article/IM8DMF9705566J9K.html"
    },
    {
        "title": "底价！“国资”！武汉6宗地成交30亿！",
        "docid": "IM72VGAN0553TDTY",
        "url": "https://www.163.com/dy/article/IM72VGAN0553TDTY.html"
    },
    {
        "title": "【时评】政府允许楼盘降价，“房闹”们要凉凉了",
        "docid": "IM3NHHTO0530T173",
        "url": "https://www.163.com/dy/article/IM3NHHTO0530T173.html"
    },
    {
        "title": "后湖沃尔玛山姆会员店土地挂牌！",
        "docid": "IM46LL140534SV3Y",
        "url": "https://www.163.com/dy/article/IM46LL140534SV3Y.html"
    },
    {
        "title": "汉阳 | 武汉新世界汉江·云赫商业项目2024年年中璀璨开街！",
        "docid": "IM6P3TJQ0534SV3Y",
        "url": "https://www.163.com/dy/article/IM6P3TJQ0534SV3Y.html"
    },
    {
        "title": "白沙洲楼盘爆发！又一地块规划来了！",
        "docid": "IM3U861S0553TDXU",
        "url": "https://www.163.com/dy/article/IM3U861S0553TDXU.html"
    },
    {
        "title": "拓展赛道促转型 三镇运营公司获全国“物业服务行业示范基地”称号",
        "docid": "IM27H9GU0553TEV3",
        "url": "https://www.163.com/dy/article/IM27H9GU0553TEV3.html"
    },
    {
        "title": "2023亚洲十大超级豪宅，国内六家上榜，榜一还是安蒂拉",
        "docid": "IM9Q645J0553TB8M",
        "url": "https://www.163.com/dy/article/IM9Q645J0553TB8M.html"
    },
    {
        "title": "为什么年轻人都不愿意买房了",
        "docid": "VZLBREVPM",
        "url": "https://www.163.com/dy/article/VZLBREVPM.html"
    },
    {
        "title": "存款8万就敢买地建房，57平地皮只能用一半？设计师开挂“偷塔”",
        "docid": "VCKUMPC2I",
        "url": "https://www.163.com/dy/article/VCKUMPC2I.html"
    },
    {
        "title": "钢筋混凝土啥时候见底？1_2",
        "docid": "VMKUPV5UC",
        "url": "https://www.163.com/dy/article/VMKUPV5UC.html"
    },
    {
        "title": "这是一家住在风景里的酒店，历时8年耗资1个多亿建成",
        "docid": "VJKUQRTJ5",
        "url": "https://www.163.com/dy/article/VJKUQRTJ5.html"
    },
    {
        "title": "不能把房价搞那么高！讲大实话的专家 ",
        "docid": "VZLC0B41Q",
        "url": "https://www.163.com/dy/article/VZLC0B41Q.html"
    },
    {
        "title": "华润啤酒总部大厦主体结构封顶，预计2026年建成投用",
        "docid": "VYLC0D6GH",
        "url": "https://www.163.com/dy/article/VYLC0D6GH.html"
    },
    {
        "title": "房价就算涨了你还是亏钱？魔幻的金融游戏！这笔帐你算明白了吗？",
        "docid": "VWKUNO1D2",
        "url": "https://www.163.com/dy/article/VWKUNO1D2.html"
    },
    {
        "title": "李沧万达旁边，全凭买得早 ",
        "docid": "VZKU2V2GS",
        "url": "https://www.163.com/dy/article/VZKU2V2GS.html"
    },
    {
        "title": "史诗级利好！经济学家：地产调整已经接近尾声，不要再等房价暴跌",
        "docid": "IM8RH34405566C1Z",
        "url": "https://www.163.com/dy/article/IM8RH34405566C1Z.html"
    },
    {
        "title": "武汉73岁老人，在海南买了3套房，现在为什么后悔了？",
        "docid": "VMLAPDKVG",
        "url": "https://www.163.com/dy/article/VMLAPDKVG.html"
    },
    {
        "title": "你知道武汉的房子跌了多少了吗？心酸的房奴！我们5年前买的房子，现在亏了30万…不知道未来会怎样 ",
        "docid": "VCLC2O1HN",
        "url": "https://www.163.com/dy/article/VCLC2O1HN.html"
    },
    {
        "title": "7万5一套！这个地方老粉丝都不陌生了吧，甩货了！ ",
        "docid": "VZLC11L8O",
        "url": "https://www.163.com/dy/article/VZLC11L8O.html"
    },
    {
        "title": "为什么很多人都在落户上海？这个情况值得所有人思考",
        "docid": "VOLC1QD46",
        "url": "https://www.163.com/dy/article/VOLC1QD46.html"
    },
    {
        "title": "一共6层多层电梯洋房在市区真绝版了，您喜欢吗？",
        "docid": "VBKV2Q8PA",
        "url": "https://www.163.com/dy/article/VBKV2Q8PA.html"
    },
    {
        "title": "许家印建了一辈子房子，最后搬进集体宿舍！",
        "docid": "VPKQIKVGG",
        "url": "https://www.163.com/dy/article/VPKQIKVGG.html"
    },
    {
        "title": "云南富豪的别墅，多少人梦寐以求的家，住在这里的感觉一定很棒",
        "docid": "VGKUTL4BU",
        "url": "https://www.163.com/dy/article/VGKUTL4BU.html"
    },
    {
        "title": "终于决定不救了！中央经济工作会议，定调2024年楼市！",
        "docid": "VILC07UDQ",
        "url": "https://www.163.com/dy/article/VILC07UDQ.html"
    },
    {
        "title": "购房新举措，武汉开始了！",
        "docid": "IM33RORM0514R9OJ",
        "url": "https://www.163.com/dy/article/IM33RORM0514R9OJ.html"
    },
    {
        "title": "武汉润府售楼处电话_武汉润府官网_武汉润府24小时电话",
        "docid": "IM8DMF9705566J9K",
        "url": "https://www.163.com/dy/article/IM8DMF9705566J9K.html"
    },
    {
        "title": "太疯狂，千万不要急着买房，最高跌幅达到21.62%，房东都扛不住了",
        "docid": "IM8Q2IV005566C1Z",
        "url": "https://www.163.com/dy/article/IM8Q2IV005566C1Z.html"
    },
    {
        "title": "底价！“国资”！武汉6宗地成交30亿！",
        "docid": "IM72VGAN0553TDTY",
        "url": "https://www.163.com/dy/article/IM72VGAN0553TDTY.html"
    },
    {
        "title": "快意电梯拟2887万买17套房 3年前曾将该地产项目卖给开发商",
        "docid": "IM9CTVV70512B07B",
        "url": "https://www.163.com/dy/article/IM9CTVV70512B07B.html"
    },
    {
        "title": "【时评】政府允许楼盘降价，“房闹”们要凉凉了",
        "docid": "IM3NHHTO0530T173",
        "url": "https://www.163.com/dy/article/IM3NHHTO0530T173.html"
    },
    {
        "title": "后湖沃尔玛山姆会员店土地挂牌！",
        "docid": "IM46LL140534SV3Y",
        "url": "https://www.163.com/dy/article/IM46LL140534SV3Y.html"
    },
    {
        "title": "汉阳 | 武汉新世界汉江·云赫商业项目2024年年中璀璨开街！",
        "docid": "IM6P3TJQ0534SV3Y",
        "url": "https://www.163.com/dy/article/IM6P3TJQ0534SV3Y.html"
    },
    {
        "title": "京沪楼市新政首个周末：售楼处热闹起来，新房、二手房成交量上涨",
        "docid": "IM8P5A790534A4SC",
        "url": "https://www.163.com/dy/article/IM8P5A790534A4SC.html"
    },
    {
        "title": "购房新举措，武汉开始了！",
        "docid": "IM33RORM0514R9OJ",
        "url": "https://www.163.com/dy/article/IM33RORM0514R9OJ.html"
    },
    {
        "title": "异地办理房产委托公证模板",
        "docid": "ILROFM8K05566DWF",
        "url": "https://www.163.com/dy/article/ILROFM8K05566DWF.html"
    },
    {
        "title": "武汉润府售楼处电话_武汉润府官网_武汉润府24小时电话",
        "docid": "IM8DMF9705566J9K",
        "url": "https://www.163.com/dy/article/IM8DMF9705566J9K.html"
    },
    {
        "title": "底价！“国资”！武汉6宗地成交30亿！",
        "docid": "IM72VGAN0553TDTY",
        "url": "https://www.163.com/dy/article/IM72VGAN0553TDTY.html"
    },
    {
        "title": "【时评】政府允许楼盘降价，“房闹”们要凉凉了",
        "docid": "IM3NHHTO0530T173",
        "url": "https://www.163.com/dy/article/IM3NHHTO0530T173.html"
    },
    {
        "title": "后湖沃尔玛山姆会员店土地挂牌！",
        "docid": "IM46LL140534SV3Y",
        "url": "https://www.163.com/dy/article/IM46LL140534SV3Y.html"
    },
    {
        "title": "汉阳 | 武汉新世界汉江·云赫商业项目2024年年中璀璨开街！",
        "docid": "IM6P3TJQ0534SV3Y",
        "url": "https://www.163.com/dy/article/IM6P3TJQ0534SV3Y.html"
    },
    {
        "title": "白沙洲楼盘爆发！又一地块规划来了！",
        "docid": "IM3U861S0553TDXU",
        "url": "https://www.163.com/dy/article/IM3U861S0553TDXU.html"
    },
    {
        "title": "统计局：1-11月全国房地产开发投资同比下降9.4%",
        "docid": "IM6LPLI10535A6CE",
        "url": "https://www.163.com/dy/article/IM6LPLI10535A6CE.html"
    },
    {
        "title": "性价比之王？卡尔加里成世界TOP3好找工作的城市",
        "docid": "IM9U1TJP05562JRG",
        "url": "https://www.163.com/dy/article/IM9U1TJP05562JRG.html"
    },
    {
        "title": "趋势已成！切记别倒在黎明之前！",
        "docid": "IMA140L10524K8JC",
        "url": "https://www.163.com/dy/article/IMA140L10524K8JC.html"
    },
    {
        "title": "物业要被取消了，你敢相信吗？",
        "docid": "VRLC874K9",
        "url": "https://www.163.com/dy/article/VRLC874K9.html"
    },
    {
        "title": "你们小区物业有“人情味”吗？",
        "docid": "VDLC2P2HJ",
        "url": "https://www.163.com/dy/article/VDLC2P2HJ.html"
    },
    {
        "title": "不出意外元旦开始，这几样东西要大降价，建议大家不要着急去买",
        "docid": "VCLC5HRQ4",
        "url": "https://www.163.com/dy/article/VCLC5HRQ4.html"
    },
    {
        "title": "能有一个大露台，你们会在上面种什么？",
        "docid": "VUKQVTFE5",
        "url": "https://www.163.com/dy/article/VUKQVTFE5.html"
    },
    {
        "title": "看楼选楼|户型指导:鲤城【水墨·江澜】",
        "docid": "VXKT952D2",
        "url": "https://www.163.com/dy/article/VXKT952D2.html"
    },
    {
        "title": "业主卖房，一定要带上速效救心丸",
        "docid": "VCKUHQ1LT",
        "url": "https://www.163.com/dy/article/VCKUHQ1LT.html"
    },
    {
        "title": "拥有120亩私家果园的独栋别墅，背山面湖",
        "docid": "VZKTICU29",
        "url": "https://www.163.com/dy/article/VZKTICU29.html"
    },
    {
        "title": "星河丹堤装修最好的别墅开麦了",
        "docid": "IMA3ABRU0553TB9L",
        "url": "https://www.163.com/dy/article/IMA3ABRU0553TB9L.html"
    },
    {
        "title": "女子存款4万看中上海230万房，地段好连夜借钱拿下，3年惊喜升值",
        "docid": "VGKUJVC63",
        "url": "https://www.163.com/dy/article/VGKUJVC63.html"
    },
    {
        "title": "房子卖了900w，光靠吃利息能过日子吗",
        "docid": "VGLC5GGVD",
        "url": "https://www.163.com/dy/article/VGLC5GGVD.html"
    },
    {
        "title": "老房子要拆迁了，给了两个选择，第一拆迁费80万，第二拆迁费给一半，再送套100平的房子",
        "docid": "VSLC9OB9O",
        "url": "https://www.163.com/dy/article/VSLC9OB9O.html"
    },
    {
        "title": "在上海有一套房子，可以以房养老吗？",
        "docid": "VLLC7LCQU",
        "url": "https://www.163.com/dy/article/VLLC7LCQU.html"
    },
    {
        "title": "农村实用小平房，造价不到13万，人人可拥有！",
        "docid": "VCKT1NG9E",
        "url": "https://www.163.com/dy/article/VCKT1NG9E.html"
    },
    {
        "title": "广西深山无人别墅群，因选错位置，一套都没卖出去",
        "docid": "VCKT8GORG",
        "url": "https://www.163.com/dy/article/VCKT8GORG.html"
    },
    {
        "title": "大姐含泪哭诉:220万买的房子6年赔了176万，赔钱也卖不掉",
        "docid": "VMKR8TVIA",
        "url": "https://www.163.com/dy/article/VMKR8TVIA.html"
    },
    {
        "title": "农村最实用二层别墅，室内布局合理，外观大气耐看，有全套图纸，欢迎建房参考",
        "docid": "VRKUKS7SQ",
        "url": "https://www.163.com/dy/article/VRKUKS7SQ.html"
    },
    {
        "title": "美国房屋建筑商信心因利率放松而增强",
        "docid": "IMA43GON0519QIKK",
        "url": "https://www.163.com/dy/article/IMA43GON0519QIKK.html"
    },
    {
        "title": "购房新举措，武汉开始了！",
        "docid": "IM33RORM0514R9OJ",
        "url": "https://www.163.com/dy/article/IM33RORM0514R9OJ.html"
    },
    {
        "title": "武汉润府售楼处电话_武汉润府官网_武汉润府24小时电话",
        "docid": "IM8DMF9705566J9K",
        "url": "https://www.163.com/dy/article/IM8DMF9705566J9K.html"
    },
    {
        "title": "底价！“国资”！武汉6宗地成交30亿！",
        "docid": "IM72VGAN0553TDTY",
        "url": "https://www.163.com/dy/article/IM72VGAN0553TDTY.html"
    },
    {
        "title": "【时评】政府允许楼盘降价，“房闹”们要凉凉了",
        "docid": "IM3NHHTO0530T173",
        "url": "https://www.163.com/dy/article/IM3NHHTO0530T173.html"
    },
    {
        "title": "后湖沃尔玛山姆会员店土地挂牌！",
        "docid": "IM46LL140534SV3Y",
        "url": "https://www.163.com/dy/article/IM46LL140534SV3Y.html"
    },
    {
        "title": "汉阳 | 武汉新世界汉江·云赫商业项目2024年年中璀璨开街！",
        "docid": "IM6P3TJQ0534SV3Y",
        "url": "https://www.163.com/dy/article/IM6P3TJQ0534SV3Y.html"
    },
    {
        "title": "白沙洲楼盘爆发！又一地块规划来了！",
        "docid": "IM3U861S0553TDXU",
        "url": "https://www.163.com/dy/article/IM3U861S0553TDXU.html"
    },
    {
        "title": "北京、上海楼市新政：首付、利率双降，引爆市场热议",
        "docid": "IM4ASC5805566CM1",
        "url": "https://www.163.com/dy/article/IM4ASC5805566CM1.html"
    },
    {
        "title": "万万没想到，比房价下跌还可怕的事情在各城市上演，让人欲哭无泪",
        "docid": "VCLCCGL0R",
        "url": "https://www.163.com/dy/article/VCLCCGL0R.html"
    },
    {
        "title": "房地产，还会有史诗级救市吗？",
        "docid": "VGLCA5MQ0",
        "url": "https://www.163.com/dy/article/VGLCA5MQ0.html"
    },
    {
        "title": "房价下一个十年房价走势如何？其实更多的人不懂，房价只是表象…",
        "docid": "VJL8CQ680",
        "url": "https://www.163.com/dy/article/VJL8CQ680.html"
    },
    {
        "title": "为什么社区和物业会穿一条裤子",
        "docid": "VFL334IA9",
        "url": "https://www.163.com/dy/article/VFL334IA9.html"
    },
    {
        "title": "阿胜坦言房产归属，阿拉想要的比房贵！离开阿胜，阿拉又能走多远",
        "docid": "VGKU5N4RR",
        "url": "https://www.163.com/dy/article/VGKU5N4RR.html"
    },
    {
        "title": "小区最差位置，伤害力不小，侮辱性更大！同小区内差别居然这么大",
        "docid": "VBKRTIADM",
        "url": "https://www.163.com/dy/article/VBKRTIADM.html"
    },
    {
        "title": "为了一个露台买了三楼的电梯房，如今后悔了！一起来看看怎么回事",
        "docid": "VRLC6BV74",
        "url": "https://www.163.com/dy/article/VRLC6BV74.html"
    },
    {
        "title": "最大的炒房集团浮出水面了",
        "docid": "VNLC2NS7J",
        "url": "https://www.163.com/dy/article/VNLC2NS7J.html"
    },
    {
        "title": "房地产最大的谎言已被击穿！",
        "docid": "VZL8JKOAT",
        "url": "https://www.163.com/dy/article/VZL8JKOAT.html"
    },
    {
        "title": "2023年房地产行业并购特征：房企出售项目回笼资金，AMC与险资积极参与",
        "docid": "IMA7FI2U05159A0N",
        "url": "https://www.163.com/dy/article/IMA7FI2U05159A0N.html"
    },
    {
        "title": "今年卖房，太难了！二手房价格大跳水！全国的房东都彻底急疯了！",
        "docid": "IMA74PI10525A5GL",
        "url": "https://www.163.com/dy/article/IMA74PI10525A5GL.html"
    },
    {
        "title": "绿都地产：长期主义稳健向好，让置业更安心",
        "docid": "IMA7FI5P05159A0N",
        "url": "https://www.163.com/dy/article/IMA7FI5P05159A0N.html"
    },
    {
        "title": "几个月卖不出一套，为什么房价依旧“又刚又硬”？",
        "docid": "IMA1V71K0535KYBT",
        "url": "https://www.163.com/dy/article/IMA1V71K0535KYBT.html"
    },
    {
        "title": "重磅！权威部门为明年住建领域主要工作“划重点”！",
        "docid": "IMA7L1L10553RRD3",
        "url": "https://www.163.com/dy/article/IMA7L1L10553RRD3.html"
    },
    {
        "title": "楼市早报| 楼市整体环比上升8.83%，一线城市涨幅最大",
        "docid": "IMA8C0EE0556123R",
        "url": "https://www.163.com/dy/article/IMA8C0EE0556123R.html"
    },
    {
        "title": "智商真是个好东西，本来房价已经暴跌烂大街了，却非要再扔里几万",
        "docid": "VWLC8UNVS",
        "url": "https://www.163.com/dy/article/VWLC8UNVS.html"
    },
    {
        "title": "房地产是收割财富最锋利的一把尖刀",
        "docid": "VYKU4M1AA",
        "url": "https://www.163.com/dy/article/VYKU4M1AA.html"
    },
    {
        "title": "全国80%的房子，处于有价无市的阶段",
        "docid": "VWLCDNGOG",
        "url": "https://www.163.com/dy/article/VWLCDNGOG.html"
    },
    {
        "title": "此款户型不允许你找缺点",
        "docid": "IMA0CN0R0535KYBT",
        "url": "https://www.163.com/dy/article/IMA0CN0R0535KYBT.html"
    },
    {
        "title": "上新！白沙洲P(2023)129号地块规划",
        "docid": "IMAA757H0552F71X",
        "url": "https://www.163.com/dy/article/IMAA757H0552F71X.html"
    },
    {
        "title": "一个开发商做的六款极品户型，到底美在哪里？",
        "docid": "IMA0MLLQ0535MP84",
        "url": "https://www.163.com/dy/article/IMA0MLLQ0535MP84.html"
    },
    {
        "title": "地产工程年后跳槽，可以去哪里",
        "docid": "IMA98UH205158B67",
        "url": "https://www.163.com/dy/article/IMA98UH205158B67.html"
    },
    {
        "title": "房价根本救不起来，从一开始就注定了结局",
        "docid": "IMA1GTUK0535KYBT",
        "url": "https://www.163.com/dy/article/IMA1GTUK0535KYBT.html"
    },
    {
        "title": "房价3.9万降至1.4万，多年的积蓄打水漂！",
        "docid": "VCLCB0JPO",
        "url": "https://www.163.com/dy/article/VCLCB0JPO.html"
    },
    {
        "title": "上海和北京，一个天上 一个地下，一对比两个城市我惊呆了",
        "docid": "VCLCB64IK",
        "url": "https://www.163.com/dy/article/VCLCB64IK.html"
    },
    {
        "title": "房价从22000跌到8000，多年积蓄化作一场空，刚需真不该跟风炒房",
        "docid": "VWLC8Q3C7",
        "url": "https://www.163.com/dy/article/VWLC8Q3C7.html"
    },
    {
        "title": "几万块买房子真的能躺平吗？那是根本不可能的",
        "docid": "VWLCDGEPQ",
        "url": "https://www.163.com/dy/article/VWLCDGEPQ.html"
    },
    {
        "title": "这么多地产大佬的造车梦，碎了",
        "docid": "ILTDMJOT0553BHR8",
        "url": "https://www.163.com/dy/article/ILTDMJOT0553BHR8.html"
    },
    {
        "title": "中工网评丨落户做“减法”，“留人”更显诚意",
        "docid": "IMACNUVL0550TYQ0",
        "url": "https://www.163.com/dy/article/IMACNUVL0550TYQ0.html"
    },
    {
        "title": "在未来40%的家庭将会面临低价出售房产，刚需房需求者会怎么选择",
        "docid": "VZKVDT857",
        "url": "https://www.163.com/dy/article/VZKVDT857.html"
    },
    {
        "title": "好消息：恒大烂尾楼开始动工了！",
        "docid": "VWL8649RS",
        "url": "https://www.163.com/dy/article/VWL8649RS.html"
    },
    {
        "title": "假如你的房子是第一排，一定要注意这五点",
        "docid": "VHLAR0D6H",
        "url": "https://www.163.com/dy/article/VHLAR0D6H.html"
    },
    {
        "title": "当初昏了头，在武汉与咸宁交界荒无人烟的地方买别墅，小陈好后悔",
        "docid": "VSLC6FJTO",
        "url": "https://www.163.com/dy/article/VSLC6FJTO.html"
    },
    {
        "title": "这种连廊入户的新房，不知道坑了多少人，你被坑了吗？",
        "docid": "VCLCHFF6N",
        "url": "https://www.163.com/dy/article/VCLCHFF6N.html"
    },
    {
        "title": "在惠州超过90%的买房人，根本不是抄底，而是抄家",
        "docid": "VCLCEM5L8",
        "url": "https://www.163.com/dy/article/VCLCEM5L8.html"
    },
    {
        "title": "狮子座的婚姻幸福指数：齐家网打造美满家庭让生活更愉悦",
        "docid": "VUKUH5J62",
        "url": "https://www.163.com/dy/article/VUKUH5J62.html"
    },
    {
        "title": "这轮房价下跌，将颠覆大家的认知",
        "docid": "IM9ATBAC05563TCH",
        "url": "https://www.163.com/dy/article/IM9ATBAC05563TCH.html"
    },
    {
        "title": "世茂集团以优质产品服务践行承诺 守护业主美好生活",
        "docid": "IMAC1FJR0530VI8E",
        "url": "https://www.163.com/dy/article/IMAC1FJR0530VI8E.html"
    },
    {
        "title": "中信证券：住宅租金低位运行或将持续 住宅供给多轨制推动房地产行业向好发展",
        "docid": "IMACF56V05198UNI",
        "url": "https://www.163.com/dy/article/IMACF56V05198UNI.html"
    },
    {
        "title": "做好楼市“潮水退却”准备! 2024年起, 城镇家庭可能遇到2个问题",
        "docid": "IMAETETC05534H43",
        "url": "https://www.163.com/dy/article/IMAETETC05534H43.html"
    },
    {
        "title": "买公寓的底层逻辑：资产3大属性，都是什么？",
        "docid": "ILTLLLEF0535WDMF",
        "url": "https://www.163.com/dy/article/ILTLLLEF0535WDMF.html"
    },
    {
        "title": "中信证券：预计后续的放松措施继续加大对房地产的支持力度",
        "docid": "VDLCJA8UJ",
        "url": "https://www.163.com/dy/article/VDLCJA8UJ.html"
    },
    {
        "title": "佛山刀哥：家长超出能力买好学校旁的房子？真的值得吗？我反对！",
        "docid": "VGLCKTRCI",
        "url": "https://www.163.com/dy/article/VGLCKTRCI.html"
    },
    {
        "title": "林园称年轻人买股票比买房好",
        "docid": "VHLA26BUT",
        "url": "https://www.163.com/dy/article/VHLA26BUT.html"
    },
    {
        "title": "对炒房客的惩罚开始了，刺激只为救新房，谁管你二手房 ",
        "docid": "VZKVH8DMA",
        "url": "https://www.163.com/dy/article/VZKVH8DMA.html"
    },
    {
        "title": "万科不能失败！万科倒了，世界就崩塌了",
        "docid": "IMADE4JF0553BZHE",
        "url": "https://www.163.com/dy/article/IMADE4JF0553BZHE.html"
    },
    {
        "title": "房产早参 | 明年房地产工作明确；京沪新政后成交大增",
        "docid": "IMAC23340512B07B",
        "url": "https://www.163.com/dy/article/IMAC23340512B07B.html"
    },
    {
        "title": "地产磨底行情何时结束？关注这六大信号",
        "docid": "IMAG5UV20534A4SC",
        "url": "https://www.163.com/dy/article/IMAG5UV20534A4SC.html"
    },
    {
        "title": "为什么只要你买房就一定会亏钱！",
        "docid": "VOLCLNQ8T",
        "url": "https://www.163.com/dy/article/VOLCLNQ8T.html"
    },
    {
        "title": "越南，刚刚过了几年好日子，就遭遇了三重暴击",
        "docid": "VZLCLOOSH",
        "url": "https://www.163.com/dy/article/VZLCLOOSH.html"
    },
    {
        "title": "陪朋友去看看1500w的大豪宅，争取有生之年给高速也置办一个",
        "docid": "VWLCA1F04",
        "url": "https://www.163.com/dy/article/VWLCA1F04.html"
    },
    {
        "title": "养老来这里，电梯房6万一套，水果蔬菜也便宜，生活成本非常低！",
        "docid": "VGKVHDUNE",
        "url": "https://www.163.com/dy/article/VGKVHDUNE.html"
    },
    {
        "title": "老旧小区加装电梯后，6楼住户却肠子悔青，花钱买了三个大麻烦",
        "docid": "VBKVGC0IF",
        "url": "https://www.163.com/dy/article/VBKVGC0IF.html"
    },
    {
        "title": "白岩松预测中国楼市：放开生三胎谁还买房？一针见血聊年轻人困惑",
        "docid": "VCLB03110",
        "url": "https://www.163.com/dy/article/VCLB03110.html"
    },
    {
        "title": "不要再拿供需关系看经济，不好使了",
        "docid": "VHLCNHBN7",
        "url": "https://www.163.com/dy/article/VHLCNHBN7.html"
    },
    {
        "title": "50万的房子700块钱卖了！",
        "docid": "VWLCH4UER",
        "url": "https://www.163.com/dy/article/VWLCH4UER.html"
    },
    {
        "title": "任泽平梁建章：人口减少严重影响房地产，建议直接发钱生娃",
        "docid": "VALCMJJII",
        "url": "https://www.163.com/dy/article/VALCMJJII.html"
    },
    {
        "title": "外媒曝扎克伯格在夏威夷建豪宅，地堡超400平米，传言能防轰炸",
        "docid": "VCLCNRRK1",
        "url": "https://www.163.com/dy/article/VCLCNRRK1.html"
    },
    {
        "title": "物业这次玩大了，再见物业费",
        "docid": "VRLCHAT8G",
        "url": "https://www.163.com/dy/article/VRLCHAT8G.html"
    },
    {
        "title": "实在扛不住了终于把房子卖掉了，再也不用还房贷了，无债一身轻！",
        "docid": "VWLCA3OAU",
        "url": "https://www.163.com/dy/article/VWLCA3OAU.html"
    },
    {
        "title": "马云又预言了，明年有存款的家庭，切记“3不要”！",
        "docid": "VZLCODDPA",
        "url": "https://www.163.com/dy/article/VZLCODDPA.html"
    },
    {
        "title": "太难了……！各位同行你们还能坚持嘛？ ",
        "docid": "VCKSV4H9I",
        "url": "https://www.163.com/dy/article/VCKSV4H9I.html"
    },
    {
        "title": "男子买二手房不到一周，女友上厕所感觉不对劲，敲开墙壁后愣住了",
        "docid": "VXKS9EK4E",
        "url": "https://www.163.com/dy/article/VXKS9EK4E.html"
    },
    {
        "title": "轻松竞得心仪房产，捡漏法拍房必看！",
        "docid": "IMAFUJO70530OLSK",
        "url": "https://www.163.com/dy/article/IMAFUJO70530OLSK.html"
    },
    {
        "title": "凰家速地|武船1宗地再度延期 楼面价20481.02元/平",
        "docid": "IMAJ64NQ0556123R",
        "url": "https://www.163.com/dy/article/IMAJ64NQ0556123R.html"
    },
    {
        "title": "中信证券：预计后续的放松措施继续加大对房地产的支持力度",
        "docid": "IMACGANC0534A4SC",
        "url": "https://www.163.com/dy/article/IMACGANC0534A4SC.html"
    },
    {
        "title": "5年前195万买的房子，你猜猜如今还能值多少钱？简直不敢相信",
        "docid": "VZKVHB6O5",
        "url": "https://www.163.com/dy/article/VZKVHB6O5.html"
    },
    {
        "title": "刺激房地产无果后，经济学家任泽平出手了：救房地产，只需三招！",
        "docid": "VGLCO9T4A",
        "url": "https://www.163.com/dy/article/VGLCO9T4A.html"
    },
    {
        "title": "政府收购商品房改作保障房可行吗？ 孟晓苏：怪论！ ",
        "docid": "VALCHAB0N",
        "url": "https://www.163.com/dy/article/VALCHAB0N.html"
    },
    {
        "title": "房子西边设厨房，整体来看布局如何？",
        "docid": "VSKVM6ESB",
        "url": "https://www.163.com/dy/article/VSKVM6ESB.html"
    },
    {
        "title": "户型隔档较多，采光受限给你分析",
        "docid": "VSLCITP1M",
        "url": "https://www.163.com/dy/article/VSLCITP1M.html"
    },
    {
        "title": "100万的房子降价到8万，还是没人愿意要，我真的坚持不下去了！",
        "docid": "VWLCEDLTJ",
        "url": "https://www.163.com/dy/article/VWLCEDLTJ.html"
    },
    {
        "title": "需求端持续发力，地方楼市新政催化不断，房地产ETF华夏(515060)跌近1%",
        "docid": "IMAK0GRT0534A4SC",
        "url": "https://www.163.com/dy/article/IMAK0GRT0534A4SC.html"
    },
    {
        "title": "物业最难的10道题，答对一个算你牛",
        "docid": "IMAI52R70535R288",
        "url": "https://www.163.com/dy/article/IMAI52R70535R288.html"
    },
    {
        "title": "8.4×12米三层小户型别墅，大方实用布局，湖北农村建房主体30万",
        "docid": "IMAL8T1U0535LAX2",
        "url": "https://www.163.com/dy/article/IMAL8T1U0535LAX2.html"
    },
    {
        "title": "前11月东北地区商品房销售面积同降3.4%",
        "docid": "IMAK4FQF05524HCU",
        "url": "https://www.163.com/dy/article/IMAK4FQF05524HCU.html"
    },
    {
        "title": "女子花40万买55平房子，看到赠送的45平2楼卧室，网友直呼太羡慕",
        "docid": "VZLCKMNME",
        "url": "https://www.163.com/dy/article/VZLCKMNME.html"
    },
    {
        "title": "鑫江置业：实景现房，所见即所得，质臻家境，当然值得。",
        "docid": "VKLA9A16L",
        "url": "https://www.163.com/dy/article/VKLA9A16L.html"
    },
    {
        "title": "今天来看套观山湖的大平层，打开窗帘就能看湖，距离湖面10米，在家里就能跑步，快来观赏一下",
        "docid": "VCLCD9HMH",
        "url": "https://www.163.com/dy/article/VCLCD9HMH.html"
    },
    {
        "title": "广西锐翔新型材料有限公司负氧离子黄晶板整装将人与空间融为一体",
        "docid": "VWLA8V67V",
        "url": "https://www.163.com/dy/article/VWLA8V67V.html"
    },
    {
        "title": "央行今日开展1840亿元7天期逆回购操作",
        "docid": "VDLA357JJ",
        "url": "https://www.163.com/dy/article/VDLA357JJ.html"
    },
    {
        "title": "中央财办：积极稳妥化解房地产风险；北京调整优化购房政策后首个周末，有新盘当晚成交七八套",
        "docid": "IMAKK0EP05352LE9",
        "url": "https://www.163.com/dy/article/IMAKK0EP05352LE9.html"
    },
    {
        "title": "诸葛日报：12月18日新房成交663套、二手房575套；涨价房源162套",
        "docid": "IMALAO1T051590L9",
        "url": "https://www.163.com/dy/article/IMALAO1T051590L9.html"
    },
    {
        "title": "蝉联周度网签销冠! 深度解析香山樾如何重新定义隐奢？",
        "docid": "IMAMTN0A0515RNS7",
        "url": "https://www.163.com/dy/article/IMAMTN0A0515RNS7.html"
    },
    {
        "title": "2023全国商圈商业力排行榜!",
        "docid": "IMANEPV60553CBSX",
        "url": "https://www.163.com/dy/article/IMANEPV60553CBSX.html"
    },
    {
        "title": "要结婚了岳父给的房子，看看怎么样？",
        "docid": "VKKUVE629",
        "url": "https://www.163.com/dy/article/VKKUVE629.html"
    },
    {
        "title": "到底当农民有什么好？U城天街有两个机会",
        "docid": "VWKVPBVBA",
        "url": "https://www.163.com/dy/article/VWKVPBVBA.html"
    },
    {
        "title": "美女住24平老破房，每天都要经历N场小地震？",
        "docid": "VCKVPL7VL",
        "url": "https://www.163.com/dy/article/VCKVPL7VL.html"
    },
    {
        "title": "现在的地毯都这么好看吗？",
        "docid": "VHKTCMN0N",
        "url": "https://www.163.com/dy/article/VHKTCMN0N.html"
    },
    {
        "title": "5万一套的房子，三室一厅100多平，竟然还卖不出去，真让人无奈",
        "docid": "VCKVIKT6O",
        "url": "https://www.163.com/dy/article/VCKVIKT6O.html"
    },
    {
        "title": "京沪楼市，罕见一幕出现",
        "docid": "IMAKQKIB0556123R",
        "url": "https://www.163.com/dy/article/IMAKQKIB0556123R.html"
    },
    {
        "title": "为什么装修不能提取使用公积金？解答来了",
        "docid": "IMAL8R5B0534M7IC",
        "url": "https://www.163.com/dy/article/IMAL8R5B0534M7IC.html"
    },
    {
        "title": "什么！17万跌到11万，业主依然卖不掉……",
        "docid": "IMAPH1F30515UN97",
        "url": "https://www.163.com/dy/article/IMAPH1F30515UN97.html"
    },
    {
        "title": "房价暴跌80万，业主怒砸售楼部",
        "docid": "VLLCVBRSL",
        "url": "https://www.163.com/dy/article/VLLCVBRSL.html"
    },
    {
        "title": "全国楼间距最窄的小区，在寸土寸金的广东，不住下水道就不错了",
        "docid": "VSLCUM2UB",
        "url": "https://www.163.com/dy/article/VSLCUM2UB.html"
    },
    {
        "title": "融创房地产等新增被执行人信息，执行标的逾20亿元",
        "docid": "VDLCP47EU",
        "url": "https://www.163.com/dy/article/VDLCP47EU.html"
    },
    {
        "title": "艺术范十足的洛杉矶贝弗利山豪宅",
        "docid": "VWLA7S0ER",
        "url": "https://www.163.com/dy/article/VWLA7S0ER.html"
    },
    {
        "title": "中式花园+欧式装修？别墅还能这么玩？！",
        "docid": "VWKU2OSHH",
        "url": "https://www.163.com/dy/article/VWKU2OSHH.html"
    },
    {
        "title": "卖房的人哭了，买房的人笑了",
        "docid": "VZKVMJAP7",
        "url": "https://www.163.com/dy/article/VZKVMJAP7.html"
    },
    {
        "title": "买房时，你交的是“订金”还是“定金”? 一个全退，一个不退",
        "docid": "IM8HU2840540FQWZ",
        "url": "https://www.163.com/dy/article/IM8HU2840540FQWZ.html"
    },
    {
        "title": "为什么越来越多的年轻人不买房了？网友：900块租120平精装不香吗",
        "docid": "IM96JFS605561LHW",
        "url": "https://www.163.com/dy/article/IM96JFS605561LHW.html"
    },
    {
        "title": "11月70城房价出炉！上海楼市新政：有千万级二手房当晚签约",
        "docid": "IMAKBSLR05352LE9",
        "url": "https://www.163.com/dy/article/IMAKBSLR05352LE9.html"
    },
    {
        "title": "统计局：前11月全国分省市房地产投资数据出炉",
        "docid": "IMAFF8900514AHGG",
        "url": "https://www.163.com/dy/article/IMAFF8900514AHGG.html"
    },
    {
        "title": "上新！白沙洲P(2023)129号地块规划",
        "docid": "IMAA757H0552F71X",
        "url": "https://www.163.com/dy/article/IMAA757H0552F71X.html"
    },
    {
        "title": "武汉润府售楼处电话_武汉润府官网_武汉润府24小时电话",
        "docid": "IM8DMF9705566J9K",
        "url": "https://www.163.com/dy/article/IM8DMF9705566J9K.html"
    },
    {
        "title": "底价！“国资”！武汉6宗地成交30亿！",
        "docid": "IM72VGAN0553TDTY",
        "url": "https://www.163.com/dy/article/IM72VGAN0553TDTY.html"
    },
    {
        "title": "【时评】政府允许楼盘降价，“房闹”们要凉凉了",
        "docid": "IM3NHHTO0530T173",
        "url": "https://www.163.com/dy/article/IM3NHHTO0530T173.html"
    },
    {
        "title": "后湖沃尔玛山姆会员店土地挂牌！",
        "docid": "IM46LL140534SV3Y",
        "url": "https://www.163.com/dy/article/IM46LL140534SV3Y.html"
    },
    {
        "title": "专访中国区域科学协会副理事长冯奎：房地产的时代过去了，时代的房地产尚在成长丨中央经济工作会议深解读",
        "docid": "IMAQN1K505199NPP",
        "url": "https://www.163.com/dy/article/IMAQN1K505199NPP.html"
    },
    {
        "title": "2024年的救市，终点一定不是楼市！",
        "docid": "IMAPGNJ10515UN97",
        "url": "https://www.163.com/dy/article/IMAPGNJ10515UN97.html"
    },
    {
        "title": "中国房地产业协会将编制并定期公布长租房发展指数",
        "docid": "IMAJNB0S0534A4SC",
        "url": "https://www.163.com/dy/article/IMAJNB0S0534A4SC.html"
    },
    {
        "title": "远离身边有毒的“好人”，他们才是真正的坏蛋",
        "docid": "ILTR34SL0535FFBB",
        "url": "https://www.163.com/dy/article/ILTR34SL0535FFBB.html"
    },
    {
        "title": "38万，老供销社，26间房大院子，800平方米，附近有水库",
        "docid": "VGKVVUUQC",
        "url": "https://www.163.com/dy/article/VGKVVUUQC.html"
    },
    {
        "title": "卖不掉的二手房由城投来收",
        "docid": "VNKTF8J6F",
        "url": "https://www.163.com/dy/article/VNKTF8J6F.html"
    },
    {
        "title": "十年不买房两人差距千倍万倍",
        "docid": "VNKTALA0V",
        "url": "https://www.163.com/dy/article/VNKTALA0V.html"
    },
    {
        "title": "一个敢说真话的房产人 关注我每天坚持分享知识 同城房产",
        "docid": "VGLD1GBV6",
        "url": "https://www.163.com/dy/article/VGLD1GBV6.html"
    },
    {
        "title": "农村老家还有宅基地的朋友，注意了。",
        "docid": "VJLA3MLO9",
        "url": "https://www.163.com/dy/article/VJLA3MLO9.html"
    },
    {
        "title": "武汉30天无理由退房：救市还是自救？",
        "docid": "IM3ERV7G055643M3",
        "url": "https://www.163.com/dy/article/IM3ERV7G055643M3.html"
    },
    {
        "title": "信号满天飞，楼市还在跌!",
        "docid": "VJLD099VV",
        "url": "https://www.163.com/dy/article/VJLD099VV.html"
    },
    {
        "title": "西班牙50万欧元阳光购房移民服务：马德里六大重点区域介绍（上）",
        "docid": "VVLCT2O6J",
        "url": "https://www.163.com/dy/article/VVLCT2O6J.html"
    },
    {
        "title": "（3/3） 为何越来越多人，纷纷从高层搬到低层住宅中，聪明人早就行动了",
        "docid": "VMLAFRP34",
        "url": "https://www.163.com/dy/article/VMLAFRP34.html"
    },
    {
        "title": "比房价下跌更可怕的4件事，正在全国各大城市蔓延，该提高警惕了",
        "docid": "VGLD08PR4",
        "url": "https://www.163.com/dy/article/VGLD08PR4.html"
    },
    {
        "title": "（1/3）为何越来越多人，纷纷从高层搬到低层住宅中，聪明人早就行动了",
        "docid": "VMLAFRNVF",
        "url": "https://www.163.com/dy/article/VMLAFRNVF.html"
    },
    {
        "title": "申请保障住房你能满足吗",
        "docid": "VEKRGUKF7",
        "url": "https://www.163.com/dy/article/VEKRGUKF7.html"
    },
    {
        "title": "回村建房，首选现代风别墅！",
        "docid": "VBKT2NR1R",
        "url": "https://www.163.com/dy/article/VBKT2NR1R.html"
    },
    {
        "title": "曾经的烂尾楼三沙源，如今变成什么样子了？",
        "docid": "VZL4Q0TH5",
        "url": "https://www.163.com/dy/article/VZL4Q0TH5.html"
    },
    {
        "title": "城中村改造怎么搞？--以一线城市为例",
        "docid": "IMAS6RSL0552BZ8U",
        "url": "https://www.163.com/dy/article/IMAS6RSL0552BZ8U.html"
    },
    {
        "title": "在规定高度内，盖一栋带阁楼的小别墅，这个设计实用性很高",
        "docid": "IMATSAHR0535KYBM",
        "url": "https://www.163.com/dy/article/IMATSAHR0535KYBM.html"
    },
    {
        "title": "2024年起，这3类房子将变成“黄金屋”？懂行人早已悄悄买入",
        "docid": "IMAJ5JKQ0549RI77",
        "url": "https://www.163.com/dy/article/IMAJ5JKQ0549RI77.html"
    },
    {
        "title": "中泰证券：房地产年均需求中枢将维持10.8亿平方米 行业整体规模仍旧稳固",
        "docid": "IMAAM15N0519D45U",
        "url": "https://www.163.com/dy/article/IMAAM15N0519D45U.html"
    },
    {
        "title": "上新！白沙洲P(2023)129号地块规划",
        "docid": "IMAA757H0552F71X",
        "url": "https://www.163.com/dy/article/IMAA757H0552F71X.html"
    },
    {
        "title": "武汉润府售楼处电话_武汉润府官网_武汉润府24小时电话",
        "docid": "IM8DMF9705566J9K",
        "url": "https://www.163.com/dy/article/IM8DMF9705566J9K.html"
    },
    {
        "title": "底价！“国资”！武汉6宗地成交30亿！",
        "docid": "IM72VGAN0553TDTY",
        "url": "https://www.163.com/dy/article/IM72VGAN0553TDTY.html"
    },
    {
        "title": "【时评】政府允许楼盘降价，“房闹”们要凉凉了",
        "docid": "IM3NHHTO0530T173",
        "url": "https://www.163.com/dy/article/IM3NHHTO0530T173.html"
    },
    {
        "title": "后湖沃尔玛山姆会员店土地挂牌！",
        "docid": "IM46LL140534SV3Y",
        "url": "https://www.163.com/dy/article/IM46LL140534SV3Y.html"
    },
    {
        "title": "3年还了60万，房贷只少了十多万！等额本金、等额本息怎么选？",
        "docid": "IMATV8710553YHXE",
        "url": "https://www.163.com/dy/article/IMATV8710553YHXE.html"
    },
    {
        "title": "海南白菜价一线海景房，84平三房，还带14米阳台看海，太享受了",
        "docid": "VCL02F46J",
        "url": "https://www.163.com/dy/article/VCL02F46J.html"
    },
    {
        "title": "为什么房子封顶了还会烂尾？",
        "docid": "VPLD5UQ7C",
        "url": "https://www.163.com/dy/article/VPLD5UQ7C.html"
    },
    {
        "title": "你凑钱的买的房子，未来将会一文不值",
        "docid": "VPL02T90U",
        "url": "https://www.163.com/dy/article/VPL02T90U.html"
    },
    {
        "title": "给海归富婆安排一套占地3亩的中式大宅，看到大门就直呼漂亮",
        "docid": "VCLCVOP56",
        "url": "https://www.163.com/dy/article/VCLCVOP56.html"
    },
    {
        "title": "买房子是东户好还是西户好？",
        "docid": "VGLD5NQBC",
        "url": "https://www.163.com/dy/article/VGLD5NQBC.html"
    },
    {
        "title": "神秘人买家H5219买下天津丽思卡尔顿",
        "docid": "VPLD50496",
        "url": "https://www.163.com/dy/article/VPLD50496.html"
    },
    {
        "title": "中信证券：采取多轨供给的方式可能是房地产市场发展的趋势",
        "docid": "VDLCJ5R8N",
        "url": "https://www.163.com/dy/article/VDLCJ5R8N.html"
    },
    {
        "title": "白鹭纷飞一线临湖别墅，扔根线可以钓鱼的地方，580 万湖畔独栋",
        "docid": "VGL7Q56PF",
        "url": "https://www.163.com/dy/article/VGL7Q56PF.html"
    },
    {
        "title": "作为遗产的房子，存在的问题更棘手，这几类或成“无主户”",
        "docid": "ILU3B08O0540SN7V",
        "url": "https://www.163.com/dy/article/ILU3B08O0540SN7V.html"
    },
    {
        "title": "宅男财经｜罗志恒：房地产市场或在明年四五月企稳",
        "docid": "IMB2J2BD0519C6T9",
        "url": "https://www.163.com/dy/article/IMB2J2BD0519C6T9.html"
    },
    {
        "title": "恒大地产新增被执行人信息，执行标的逾9.6亿元，恒大地产被执行总金额已超500亿元",
        "docid": "IMATAC6P0512B07B",
        "url": "https://www.163.com/dy/article/IMATAC6P0512B07B.html"
    },
    {
        "title": "没下限！房东称可以肉偿租房：精装卧室，每月同床两次房租全免",
        "docid": "IMB1S2IH05561A23",
        "url": "https://www.163.com/dy/article/IMB1S2IH05561A23.html"
    },
    {
        "title": "武汉润府售楼处电话_武汉润府官网_武汉润府24小时电话",
        "docid": "IM8DMF9705566J9K",
        "url": "https://www.163.com/dy/article/IM8DMF9705566J9K.html"
    },
    {
        "title": "上新！白沙洲P(2023)129号地块规划",
        "docid": "IMAA757H0552F71X",
        "url": "https://www.163.com/dy/article/IMAA757H0552F71X.html"
    },
    {
        "title": "底价！“国资”！武汉6宗地成交30亿！",
        "docid": "IM72VGAN0553TDTY",
        "url": "https://www.163.com/dy/article/IM72VGAN0553TDTY.html"
    },
    {
        "title": "【时评】政府允许楼盘降价，“房闹”们要凉凉了",
        "docid": "IM3NHHTO0530T173",
        "url": "https://www.163.com/dy/article/IM3NHHTO0530T173.html"
    },
    {
        "title": "后湖沃尔玛山姆会员店土地挂牌！",
        "docid": "IM46LL140534SV3Y",
        "url": "https://www.163.com/dy/article/IM46LL140534SV3Y.html"
    },
    {
        "title": "奉劝大家！如果能在城市里买房，就不要在老家盖房子了！",
        "docid": "ILU56SRP05562BBD",
        "url": "https://www.163.com/dy/article/ILU56SRP05562BBD.html"
    },
    {
        "title": "买一楼的人都眼瞎？售楼经理解答：有钱人都爱买一楼",
        "docid": "IMB31ANA0540H6M7",
        "url": "https://www.163.com/dy/article/IMB31ANA0540H6M7.html"
    },
    {
        "title": "小别墅造型精美，室外带露台，门厅漂亮，村里面谁看了不夸一句",
        "docid": "IMATT2JM0552QWCS",
        "url": "https://www.163.com/dy/article/IMATT2JM0552QWCS.html"
    },
    {
        "title": "多套房家庭的新苦恼，百万资产却生活拮据，这些人在远离楼市",
        "docid": "ILU45PTE0540SN7V",
        "url": "https://www.163.com/dy/article/ILU45PTE0540SN7V.html"
    },
    {
        "title": "楼市迎来“救市潮”，是馅饼还是“陷阱”？无房者该如何选择？",
        "docid": "ILU3SFD00540SN7V",
        "url": "https://www.163.com/dy/article/ILU3SFD00540SN7V.html"
    },
    {
        "title": "能够帮这位业主把房子卖掉，是一件值得开心的事",
        "docid": "VULAKCTCF",
        "url": "https://www.163.com/dy/article/VULAKCTCF.html"
    },
    {
        "title": "碧桂园地产：“22碧桂园MTN002”拟于12月26日付息",
        "docid": "VDLD8PFKD",
        "url": "https://www.163.com/dy/article/VDLD8PFKD.html"
    },
    {
        "title": "荣盛健康谷：可自住 、可换住 、可托管的酒店式公寓",
        "docid": "VKLAML4S2",
        "url": "https://www.163.com/dy/article/VKLAML4S2.html"
    },
    {
        "title": "网上不买房不结婚忽悠人，现实中恋爱结婚扎堆，人生需要爱与被爱",
        "docid": "VAL04AQLF",
        "url": "https://www.163.com/dy/article/VAL04AQLF.html"
    },
    {
        "title": "途家：2023年新房东数量同比2019年增77%",
        "docid": "IMB54C6F0539AP40",
        "url": "https://www.163.com/dy/article/IMB54C6F0539AP40.html"
    },
    {
        "title": "破解楼市“围城”现象，三四线仍是农民首选，五年后三类人受益",
        "docid": "ILU3784F0540SN7V",
        "url": "https://www.163.com/dy/article/ILU3784F0540SN7V.html"
    },
    {
        "title": "精简！租房用品直接一步到位",
        "docid": "IMB4AH560552QWCE",
        "url": "https://www.163.com/dy/article/IMB4AH560552QWCE.html"
    },
    {
        "title": "同样是住房空置率高，为何日本免费送房给年轻人，而我们却不送？",
        "docid": "IMB40B3O0540SN7V",
        "url": "https://www.163.com/dy/article/IMB40B3O0540SN7V.html"
    },
    {
        "title": "2023年(第十九届)《中国10大超级豪宅》排行榜揭晓",
        "docid": "IMB4U3FH0550E728",
        "url": "https://www.163.com/dy/article/IMB4U3FH0550E728.html"
    },
    {
        "title": "如果公摊面积取消了，二手房市场会有哪些变化？这三点太真实",
        "docid": "IMB4FHVM0540KLAM",
        "url": "https://www.163.com/dy/article/IMB4FHVM0540KLAM.html"
    },
    {
        "title": "物业费包含电梯费吗？物业费怎么算的？",
        "docid": "IMB5D6EI0535R28F",
        "url": "https://www.163.com/dy/article/IMB5D6EI0535R28F.html"
    },
    {
        "title": "楼房会不会降价到老百姓能买得起，高铁大哥说：大概会炸了吧",
        "docid": "IMB5CUT40553TDXU",
        "url": "https://www.163.com/dy/article/IMB5CUT40553TDXU.html"
    },
    {
        "title": "马光远：房地产根本不用救！",
        "docid": "VFLD8FJ3E",
        "url": "https://www.163.com/dy/article/VFLD8FJ3E.html"
    },
    {
        "title": "招商蛇口：匠心打造“居者优其屋”的璀璨新品",
        "docid": "IMB6QUUF0530KP1K",
        "url": "https://www.163.com/dy/article/IMB6QUUF0530KP1K.html"
    },
    {
        "title": "公租房被“鸠占鹊巢”!穷人的“福音”怎成了富人的“奶酪”",
        "docid": "IMB7A6A00553J4DY",
        "url": "https://www.163.com/dy/article/IMB7A6A00553J4DY.html"
    },
    {
        "title": "如何把自己的房子快速卖出去？",
        "docid": "VGL08S8T9",
        "url": "https://www.163.com/dy/article/VGL08S8T9.html"
    },
    {
        "title": "路人偶然发现一栋“纸片楼，网友： 竟然想试试住在里面是啥感觉？",
        "docid": "VMLDEK43S",
        "url": "https://www.163.com/dy/article/VMLDEK43S.html"
    },
    {
        "title": "不用帮儿子带孩了，到海南定下82平合院别墅，花园里还有温泉泡池",
        "docid": "VOLAB3BBD",
        "url": "https://www.163.com/dy/article/VOLAB3BBD.html"
    },
    {
        "title": "有钱人的私家小院，接下来这一幕，恕我直言这辈子从未有过的羡慕",
        "docid": "VSKVTM6FM",
        "url": "https://www.163.com/dy/article/VSKVTM6FM.html"
    },
    {
        "title": "房价下降了，刚需应不应该买房？",
        "docid": "VGL0BDT74",
        "url": "https://www.163.com/dy/article/VGL0BDT74.html"
    },
    {
        "title": "降价就像病毒一样，蔓延的真快 ",
        "docid": "VWLD6QP3T",
        "url": "https://www.163.com/dy/article/VWLD6QP3T.html"
    },
    {
        "title": "68城房价跌回1年前，全国房价最高的100座城市，你的城市上榜没？",
        "docid": "VQLAN96CS",
        "url": "https://www.163.com/dy/article/VQLAN96CS.html"
    },
    {
        "title": "21日12宗地挂牌出让 起拍总价超过191亿元",
        "docid": "IMB9ANJ50550AAMM",
        "url": "https://www.163.com/dy/article/IMB9ANJ50550AAMM.html"
    },
    {
        "title": "四连问！万科只是重复强调：守护公司安全",
        "docid": "IMB8T03M05562SCF",
        "url": "https://www.163.com/dy/article/IMB8T03M05562SCF.html"
    },
    {
        "title": "财信证券：城市化进程不断推进 物业管理行业需求持续增长",
        "docid": "IMB947G105198UNI",
        "url": "https://www.163.com/dy/article/IMB947G105198UNI.html"
    },
    {
        "title": "若是房产坚持不降价，而买房者也坚决不购买，最后结果会如何？",
        "docid": "IMB6KC3B0512ES8F",
        "url": "https://www.163.com/dy/article/IMB6KC3B0512ES8F.html"
    },
    {
        "title": "二七滨江奢装准现大平层，礼献千万人物",
        "docid": "IM87MRVD020998HG",
        "url": "https://www.163.com/dy/article/IM87MRVD020998HG.html"
    },
    {
        "title": "房企加速回笼资金，行业内频现大宗资产交易",
        "docid": "IMB9Q9ED0519DDQ2",
        "url": "https://www.163.com/dy/article/IMB9Q9ED0519DDQ2.html"
    },
    {
        "title": "合租屋带对象过夜影响真的很不好吗？",
        "docid": "ILU9M08505566CMQ",
        "url": "https://www.163.com/dy/article/ILU9M08505566CMQ.html"
    },
    {
        "title": "信息量大！住建部谈房地产，释放3大信号，标志存量时代将来临",
        "docid": "IMB946440540A6F8",
        "url": "https://www.163.com/dy/article/IMB946440540A6F8.html"
    },
    {
        "title": "美国私人财富管理协会｜借名买房存在什么法律风险？",
        "docid": "VALANCLAN",
        "url": "https://www.163.com/dy/article/VALANCLAN.html"
    },
    {
        "title": "郭极中:地下停车场入口位于住宅前方有什么不好",
        "docid": "IMBA94IR055629IE",
        "url": "https://www.163.com/dy/article/IMBA94IR055629IE.html"
    },
    {
        "title": "买多层住宅，不能选4楼? 其实大家都搞错了，这2层才要慎选!",
        "docid": "IMBBI6NU0553RRD3",
        "url": "https://www.163.com/dy/article/IMBBI6NU0553RRD3.html"
    },
    {
        "title": "春兰股份(600854.SH)：在售楼盘存量金额约1.3亿元",
        "docid": "IMB4NK5105198ETO",
        "url": "https://www.163.com/dy/article/IMB4NK5105198ETO.html"
    },
    {
        "title": "伯明翰房产魅力无限，5.30%回报率领先曼彻斯特！",
        "docid": "IMBAP8K30514DPPR",
        "url": "https://www.163.com/dy/article/IMBAP8K30514DPPR.html"
    },
    {
        "title": "二七滨江奢装准现大平层，礼献千万人物",
        "docid": "IM87MRVD020998HG",
        "url": "https://www.163.com/dy/article/IM87MRVD020998HG.html"
    },
    {
        "title": "为什么，还不离开房地产？",
        "docid": "IMBBO2QA05525O8Q",
        "url": "https://www.163.com/dy/article/IMBBO2QA05525O8Q.html"
    },
    {
        "title": "房子不要了，如何退房退定金",
        "docid": "VAKTAPGLP",
        "url": "https://www.163.com/dy/article/VAKTAPGLP.html"
    },
    {
        "title": "房地产信号陆续出炉，检验中国经济体系韧性？",
        "docid": "VDLD9VMB7",
        "url": "https://www.163.com/dy/article/VDLD9VMB7.html"
    },
    {
        "title": "来看看有没有你喜欢的那一套！森茂好房！",
        "docid": "VWLDFKHBE",
        "url": "https://www.163.com/dy/article/VWLDFKHBE.html"
    },
    {
        "title": "一代年轻人，被我们的房地产模式毁了",
        "docid": "IMBAI51Q05563TCH",
        "url": "https://www.163.com/dy/article/IMBAI51Q05563TCH.html"
    },
    {
        "title": "武汉经开区纱帽街多个老旧小区改造升级，居民安居更乐居",
        "docid": "IMBDR88D053469LG",
        "url": "https://www.163.com/dy/article/IMBDR88D053469LG.html"
    },
    {
        "title": "一大批轨交国企，都开始认真干地产了！",
        "docid": "IMBD7NIA055211ZC",
        "url": "https://www.163.com/dy/article/IMBD7NIA055211ZC.html"
    },
    {
        "title": "普通人坐等房子再降价，内行人称：再降下去，你或许没买的机会",
        "docid": "IM54TTV10552ZPBY",
        "url": "https://www.163.com/dy/article/IM54TTV10552ZPBY.html"
    },
    {
        "title": "二七滨江奢装准现大平层，礼献千万人物",
        "docid": "IM87MRVD020998HG",
        "url": "https://www.163.com/dy/article/IM87MRVD020998HG.html"
    },
    {
        "title": "拓店热情高 | 2023年12月住房租赁发展报告",
        "docid": "IMBDD73I0552QWCE",
        "url": "https://www.163.com/dy/article/IMBDD73I0552QWCE.html"
    },
    {
        "title": "不要急着买房，房东都扛不住了，“腰斩”也难出手，买房人注意了",
        "docid": "IMB2HMHG05562DLL",
        "url": "https://www.163.com/dy/article/IMB2HMHG05562DLL.html"
    },
    {
        "title": "王石再次预测中国房地产将来走向！前两次都准！这次可能又是对的",
        "docid": "VZLDBJ427",
        "url": "https://www.163.com/dy/article/VZLDBJ427.html"
    },
    {
        "title": "丨户型改造丨81㎡三居室.....丐版...变...顶配？！......c168",
        "docid": "VYLDFRCV6",
        "url": "https://www.163.com/dy/article/VYLDFRCV6.html"
    },
    {
        "title": "市值120万的房子，亲弟愿意花130万买，我却50万卖给了大堂哥",
        "docid": "IMBDH54K0542M5JD",
        "url": "https://www.163.com/dy/article/IMBDH54K0542M5JD.html"
    },
    {
        "title": "30带架空层的别墅,农村建房首选,打造你的梦想家园!农村自建房",
        "docid": "ILOBK4NM0520BKDJ",
        "url": "https://www.163.com/dy/article/ILOBK4NM0520BKDJ.html"
    },
    {
        "title": "2023年不买房，未来10年房价会涨吗？机构预测：一线翻3倍二线4倍",
        "docid": "IMBEV00M0553TDTY",
        "url": "https://www.163.com/dy/article/IMBEV00M0553TDTY.html"
    },
    {
        "title": "房地产专家讲得非常有道理",
        "docid": "VQL0L5IGM",
        "url": "https://www.163.com/dy/article/VQL0L5IGM.html"
    },
    {
        "title": "二七滨江奢装准现大平层，礼献千万人物",
        "docid": "IM87MRVD020998HG",
        "url": "https://www.163.com/dy/article/IM87MRVD020998HG.html"
    },
    {
        "title": "怎么样才能买到不降价的房",
        "docid": "VEKU2MAAD",
        "url": "https://www.163.com/dy/article/VEKU2MAAD.html"
    },
    {
        "title": "一线城市取消限购宜早不宜迟",
        "docid": "VGLB1A1SP",
        "url": "https://www.163.com/dy/article/VGLB1A1SP.html"
    },
    {
        "title": "炒房急团末日已到！房产泛滥暴跌无疑！当心年底骗子活跃！",
        "docid": "VZLDFUFSM",
        "url": "https://www.163.com/dy/article/VZLDFUFSM.html"
    },
    {
        "title": "房子烂尾后，一招告诉你怎么解决",
        "docid": "VELDJ5CDL",
        "url": "https://www.163.com/dy/article/VELDJ5CDL.html"
    },
    {
        "title": "不交物业费，被物业起诉了怎么办？别慌，我来告诉你",
        "docid": "VRL0MN61N",
        "url": "https://www.163.com/dy/article/VRL0MN61N.html"
    },
    {
        "title": "县城的房子为什么没有暴跌",
        "docid": "VEKU2MB3N",
        "url": "https://www.163.com/dy/article/VEKU2MB3N.html"
    },
    {
        "title": "4个强烈信号，2024年的房地产，一个市场暴涨趋势明显",
        "docid": "VVLBIL1B3",
        "url": "https://www.163.com/dy/article/VVLBIL1B3.html"
    },
    {
        "title": "房地产开始了“耍流氓”的新套路，购房者要谨慎，千万不要上当！",
        "docid": "VMLDKQ6RT",
        "url": "https://www.163.com/dy/article/VMLDKQ6RT.html"
    },
    {
        "title": "二七滨江奢装准现大平层，礼献千万人物",
        "docid": "IM87MRVD020998HG",
        "url": "https://www.163.com/dy/article/IM87MRVD020998HG.html"
    },
    {
        "title": "实际看了两套房子，楼层都可以，一大一小",
        "docid": "VCLDEM0G0",
        "url": "https://www.163.com/dy/article/VCLDEM0G0.html"
    },
    {
        "title": "五年以后100存款和100万的房子哪个更保值",
        "docid": "VHLAR64UN",
        "url": "https://www.163.com/dy/article/VHLAR64UN.html"
    },
    {
        "title": "我把房子从4层换到14层，有些话不说\n不痛快，太真实了！",
        "docid": "VMLAU2O8H",
        "url": "https://www.163.com/dy/article/VMLAU2O8H.html"
    },
    {
        "title": "以绿色空间为窗：期待2024成都世园会之美",
        "docid": "VRLDILSV8",
        "url": "https://www.163.com/dy/article/VRLDILSV8.html"
    },
    {
        "title": "房价｜紫金公馆、香溢世纪花城、淮海花园、兴业金色家园、东盛阳光新城",
        "docid": "IMBGK7RH0534EYKX",
        "url": "https://www.163.com/dy/article/IMBGK7RH0534EYKX.html"
    },
    {
        "title": "5年前掏空家底145万买房，如今75万卖掉，亏了可全家人如释重负",
        "docid": "IM8UPGK105566CMW",
        "url": "https://www.163.com/dy/article/IM8UPGK105566CMW.html"
    },
    {
        "title": "汇聚科技(01729)附属汇聚昆山订立昆山物业租赁协议",
        "docid": "IMBF8ERJ05198UNI",
        "url": "https://www.163.com/dy/article/IMBF8ERJ05198UNI.html"
    },
    {
        "title": "天地数码最新公告：维森智能成功竞得芜湖三山经济开发区(三)2320号地块的国有建设用地使用权",
        "docid": "IMBC9HV9051984TV",
        "url": "https://www.163.com/dy/article/IMBC9HV9051984TV.html"
    },
    {
        "title": "二七滨江奢装准现大平层，礼献千万人物",
        "docid": "IM87MRVD020998HG",
        "url": "https://www.163.com/dy/article/IM87MRVD020998HG.html"
    },
    {
        "title": "国家开发银行发放全国首笔配售型保障性住房开发贷款",
        "docid": "IMBGMOEH05346RC6",
        "url": "https://www.163.com/dy/article/IMBGMOEH05346RC6.html"
    },
    {
        "title": "汉口二七滨江旁！新房单套总价180万起！",
        "docid": "IMB307790553RRD3",
        "url": "https://www.163.com/dy/article/IMB307790553RRD3.html"
    },
    {
        "title": "武汉经开区纱帽街多个老旧小区改造升级，居民安居更乐居",
        "docid": "IMBDR88D053469LG",
        "url": "https://www.163.com/dy/article/IMBDR88D053469LG.html"
    },
    {
        "title": "21日12宗地挂牌出让 起拍总价超过191亿元",
        "docid": "IMB9ANJ50550AAMM",
        "url": "https://www.163.com/dy/article/IMB9ANJ50550AAMM.html"
    },
    {
        "title": "别傻了！带院子的一楼和顶楼，这样选才不会踩坑",
        "docid": "ILTR3NOO0520D4OQ",
        "url": "https://www.163.com/dy/article/ILTR3NOO0520D4OQ.html"
    },
    {
        "title": "盘龙城，这些空闲的地块，都准备干嘛",
        "docid": "IMBJ1DDI0545ACCK",
        "url": "https://www.163.com/dy/article/IMBJ1DDI0545ACCK.html"
    },
    {
        "title": "中国城市宜居榜单火了！前20名几乎都是南方城市，第一毫无悬念",
        "docid": "IMBFLDVD0553A9YO",
        "url": "https://www.163.com/dy/article/IMBFLDVD0553A9YO.html"
    },
    {
        "title": "2023年最后两周，约22个华东购物中心赶上末班车！",
        "docid": "IMBIPUB405158CUP",
        "url": "https://www.163.com/dy/article/IMBIPUB405158CUP.html"
    },
    {
        "title": "二七滨江奢装准现大平层，礼献千万人物",
        "docid": "IM87MRVD020998HG",
        "url": "https://www.163.com/dy/article/IM87MRVD020998HG.html"
    },
    {
        "title": "万达集团前总裁丁本锡“失联”，曾为王建林身边二号人物",
        "docid": "IMB30S630534A4SC",
        "url": "https://www.163.com/dy/article/IMB30S630534A4SC.html"
    },
    {
        "title": "十年以后这三种小区将会被淘汰",
        "docid": "VFL0G3MEI",
        "url": "https://www.163.com/dy/article/VFL0G3MEI.html"
    },
    {
        "title": "恒大上海北外滩豪宅项目卖了！光大信托6.63亿元接盘",
        "docid": "VTLA6T67S",
        "url": "https://www.163.com/dy/article/VTLA6T67S.html"
    },
    {
        "title": "班尼戈董事总经理朱红松谈活水系统",
        "docid": "VVLB42LI0",
        "url": "https://www.163.com/dy/article/VVLB42LI0.html"
    },
    {
        "title": "小区共有资金归业主所有，“糊涂账”必须算清！",
        "docid": "IMBL0AGO0535LAX2",
        "url": "https://www.163.com/dy/article/IMBL0AGO0535LAX2.html"
    },
    {
        "title": "阿里员工公积金惹众议：账户余额62万，每月入账9288，只是蚊子肉",
        "docid": "IM8HBTJM05561BO9",
        "url": "https://www.163.com/dy/article/IM8HBTJM05561BO9.html"
    },
    {
        "title": "万达上岸，“碧桂园们”下船",
        "docid": "IM6H2FRC0550U0A7",
        "url": "https://www.163.com/dy/article/IM6H2FRC0550U0A7.html"
    },
    {
        "title": "缦云热销定律屡屡上演 合生创展站稳高端行列",
        "docid": "IM920GPN0556025L",
        "url": "https://www.163.com/dy/article/IM920GPN0556025L.html"
    },
    {
        "title": "二七滨江奢装准现大平层，礼献千万人物",
        "docid": "IM87MRVD020998HG",
        "url": "https://www.163.com/dy/article/IM87MRVD020998HG.html"
    },
    {
        "title": "这个大落地窗真是太爱了！窗外中庭映入室内，200多万花园洋房",
        "docid": "VWLDQC992",
        "url": "https://www.163.com/dy/article/VWLDQC992.html"
    },
    {
        "title": "买二手房到底应该是先交钱还是先过户？",
        "docid": "VFL5M9FRU",
        "url": "https://www.163.com/dy/article/VFL5M9FRU.html"
    },
    {
        "title": "房企暴雷最正确的姿势是什么？",
        "docid": "VXLAENPIP",
        "url": "https://www.163.com/dy/article/VXLAENPIP.html"
    },
    {
        "title": "2024年楼市未提房住不炒，给楼市传递出暖意，房价下跌还能实现吗",
        "docid": "VFLDNF47B",
        "url": "https://www.163.com/dy/article/VFLDNF47B.html"
    },
    {
        "title": "房产市场仍处于调整阶段 将加快构建新发展模式",
        "docid": "IMBNVNKI0553TB8M",
        "url": "https://www.163.com/dy/article/IMBNVNKI0553TB8M.html"
    },
    {
        "title": "豪车云集的公租房都是谁在住？",
        "docid": "IMBMDJOL051789DB",
        "url": "https://www.163.com/dy/article/IMBMDJOL051789DB.html"
    },
    {
        "title": "和融物业：八城联动，防范于未“燃”",
        "docid": "IM94NRN50535R281",
        "url": "https://www.163.com/dy/article/IM94NRN50535R281.html"
    },
    {
        "title": "房地产企业成本费用的结构与比例",
        "docid": "IMBNV8IQ0553TB8M",
        "url": "https://www.163.com/dy/article/IMBNV8IQ0553TB8M.html"
    },
    {
        "title": "二七滨江奢装准现大平层，礼献千万人物",
        "docid": "IM87MRVD020998HG",
        "url": "https://www.163.com/dy/article/IM87MRVD020998HG.html"
    },
    {
        "title": "“炒房教父”欧神被打，刷爆朋友圈！今年或亏1800万",
        "docid": "IMBKO9L90519CB4E",
        "url": "https://www.163.com/dy/article/IMBKO9L90519CB4E.html"
    },
    {
        "title": "楼王1-17层，哪层看小区景观最好？各楼层视野模拟告诉你，别选错",
        "docid": "VBLBB026E",
        "url": "https://www.163.com/dy/article/VBLBB026E.html"
    },
    {
        "title": "房价至少还要跌50%？2024年降价潮会持续吗",
        "docid": "VCLDOUTMO",
        "url": "https://www.163.com/dy/article/VCLDOUTMO.html"
    },
    {
        "title": "四个月的时间终于有了第一个家，造价低人人都能建",
        "docid": "VDLDQ89HI",
        "url": "https://www.163.com/dy/article/VDLDQ89HI.html"
    },
    {
        "title": "周海媚被曝拖欠房租16万，租房失火反向房东索赔，被嘲“租霸”",
        "docid": "IM8U8N5K055619C3",
        "url": "https://www.163.com/dy/article/IM8U8N5K055619C3.html"
    },
    {
        "title": "中国为什么禁止使用红砖盖房？",
        "docid": "IM94838L0552QWNH",
        "url": "https://www.163.com/dy/article/IM94838L0552QWNH.html"
    },
    {
        "title": "如果你从现在起决定攒钱买，说明你活通透了",
        "docid": "IM917D2805562BBD",
        "url": "https://www.163.com/dy/article/IM917D2805562BBD.html"
    },
    {
        "title": "有人预测：明年若房价持续降低，未来免不了出现3个“悲惨景象”",
        "docid": "IM8SQ2PK055658C6",
        "url": "https://www.163.com/dy/article/IM8SQ2PK055658C6.html"
    },
    {
        "title": "二七滨江奢装准现大平层，礼献千万人物",
        "docid": "IM87MRVD020998HG",
        "url": "https://www.163.com/dy/article/IM87MRVD020998HG.html"
    },
    {
        "title": "金融街物业市值缩至8亿港元,毛利率三连降至18%,扩张加速如何做大估值?",
        "docid": "IMBKHQMM0535L78U",
        "url": "https://www.163.com/dy/article/IMBKHQMM0535L78U.html"
    },
    {
        "title": "入境计划获准投资非住宅地产 中原地产：变相提振豪宅市场",
        "docid": "IMBKO7RJ05198UNI",
        "url": "https://www.163.com/dy/article/IMBKO7RJ05198UNI.html"
    },
    {
        "title": "楼市大洗牌后，还有房企在逆流激进，斥资拿地？",
        "docid": "VULAQ4GJ1",
        "url": "https://www.163.com/dy/article/VULAQ4GJ1.html"
    },
    {
        "title": "南开、河东两宗城市更新地块成交！",
        "docid": "VPLAPT9K8",
        "url": "https://www.163.com/dy/article/VPLAPT9K8.html"
    },
    {
        "title": "最新数据！北京新政的首个周末",
        "docid": "IM8R3LTP05564SJ9",
        "url": "https://www.163.com/dy/article/IM8R3LTP05564SJ9.html"
    },
    {
        "title": "一百万的房子五十都卖不出去是真的吗",
        "docid": "VWLE0TS92",
        "url": "https://www.163.com/dy/article/VWLE0TS92.html"
    },
    {
        "title": "今年不买房，三年后房价是涨还是跌",
        "docid": "VCLDVQ233",
        "url": "https://www.163.com/dy/article/VCLDVQ233.html"
    },
    {
        "title": "中国第一批满70年的房子要到期了",
        "docid": "VCL842VGU",
        "url": "https://www.163.com/dy/article/VCL842VGU.html"
    },
    {
        "title": "二七滨江奢装准现大平层，礼献千万人物",
        "docid": "IM87MRVD020998HG",
        "url": "https://www.163.com/dy/article/IM87MRVD020998HG.html"
    },
    {
        "title": "陪叔和阿姨看淮南3楼的房子，房东说买来7万，现在急出手",
        "docid": "VZLDK6PPC",
        "url": "https://www.163.com/dy/article/VZLDK6PPC.html"
    },
    {
        "title": "全款6万低楼层，一个人住还是挺好的",
        "docid": "VCLE0J21O",
        "url": "https://www.163.com/dy/article/VCLE0J21O.html"
    },
    {
        "title": "以后说楼市和经济要慎重",
        "docid": "VGLDHE5MJ",
        "url": "https://www.163.com/dy/article/VGLDHE5MJ.html"
    },
    {
        "title": "土地还有这些补偿，农民朋友们别忘了领",
        "docid": "VRLCFM2GE",
        "url": "https://www.163.com/dy/article/VRLCFM2GE.html"
    },
    {
        "title": "沌口一职工商品房法拍仅35万",
        "docid": "IMBQRDRM05149MGC",
        "url": "https://www.163.com/dy/article/IMBQRDRM05149MGC.html"
    },
    {
        "title": "棚户区改造，也得先补偿！",
        "docid": "ILS9V84U0532Q69P",
        "url": "https://www.163.com/dy/article/ILS9V84U0532Q69P.html"
    },
    {
        "title": "变废为宝，两千多一平买来的烂尾房，转手就能卖9000一平",
        "docid": "VZLE13GAF",
        "url": "https://www.163.com/dy/article/VZLE13GAF.html"
    },
    {
        "title": "普通人买房千万别学我，不要买太大了，不然就会和我下场一样。累",
        "docid": "VCL0TNC0R",
        "url": "https://www.163.com/dy/article/VCL0TNC0R.html"
    },
    {
        "title": "二七滨江奢装准现大平层，礼献千万人物",
        "docid": "IM87MRVD020998HG",
        "url": "https://www.163.com/dy/article/IM87MRVD020998HG.html"
    },
    {
        "title": "史诗级别墅无人接盘？上海顶级豪宅檀宫有别墅降到4.8亿",
        "docid": "VTKU9BV4J",
        "url": "https://www.163.com/dy/article/VTKU9BV4J.html"
    },
    {
        "title": "2023住宅成交量超过2022，企稳功臣是TA！",
        "docid": "VOLB87FBC",
        "url": "https://www.163.com/dy/article/VOLB87FBC.html"
    },
    {
        "title": "京沪新政首周末，真暖还是一现昙花？ ",
        "docid": "VLLDJVLJB",
        "url": "https://www.163.com/dy/article/VLLDJVLJB.html"
    },
    {
        "title": "2023年尾声，中国楼市出现两个耐人寻味的新动向，怎么看？",
        "docid": "VCLDFOSRL",
        "url": "https://www.163.com/dy/article/VCLDFOSRL.html"
    },
    {
        "title": "2024年，全市将改造110个老旧小区……",
        "docid": "IM9CQDVC05565ANP",
        "url": "https://www.163.com/dy/article/IM9CQDVC05565ANP.html"
    },
    {
        "title": "生命大于一切，预制板老楼抗震几级？某些想加装电梯业主快醒醒吧",
        "docid": "IMBO0A5B0535KYBM",
        "url": "https://www.163.com/dy/article/IMBO0A5B0535KYBM.html"
    },
    {
        "title": "新增两家！“商转公”贷款业务合作银行范围再扩大",
        "docid": "IMBVIVBV0553RRD3",
        "url": "https://www.163.com/dy/article/IMBVIVBV0553RRD3.html"
    },
    {
        "title": "土地周报 | 年末土拍迎来成交高峰，市场热度仍冷热分化（12.11-12.17）",
        "docid": "IM9B03B5055244D0",
        "url": "https://www.163.com/dy/article/IM9B03B5055244D0.html"
    },
    {
        "title": "二七滨江奢装准现大平层，礼献千万人物",
        "docid": "IM87MRVD020998HG",
        "url": "https://www.163.com/dy/article/IM87MRVD020998HG.html"
    },
    {
        "title": "允许新房降价 老业主们崩溃了",
        "docid": "IMBJHEH30549RI77",
        "url": "https://www.163.com/dy/article/IMBJHEH30549RI77.html"
    },
    {
        "title": "许家印终于“立大功了”！家族出资410亿港元，烂尾楼有救了！",
        "docid": "VYLDK1NDJ",
        "url": "https://www.163.com/dy/article/VYLDK1NDJ.html"
    },
    {
        "title": "新生代的年轻人到底要不要买房？",
        "docid": "VWLE39UOV",
        "url": "https://www.163.com/dy/article/VWLE39UOV.html"
    },
    {
        "title": "不是所有大佬都学许老板，有大佬再难也要把房子盖完",
        "docid": "VTLDVTBRE",
        "url": "https://www.163.com/dy/article/VTLDVTBRE.html"
    }
]