[
    {
        "title": "甲有5套房，不上班，收房租；乙有1套房，上班赚工资；丙无房，租房子…",
        "docid": "IOD0R5H80552QWCL",
        "url": "https://www.163.com/dy/article/IOD0R5H80552QWCL.html"
    },
    {
        "title": "看完央媒的表态，我更加坚信明年中国楼市的2个预测，别再误判了",
        "docid": "IODIGBQG0553TB9L",
        "url": "https://www.163.com/dy/article/IODIGBQG0553TB9L.html"
    },
    {
        "title": "相当华丽的168.8平米户型是什么格局?",
        "docid": "IOIHACNU0535KYBM",
        "url": "https://www.163.com/dy/article/IOIHACNU0535KYBM.html"
    },
    {
        "title": "房子现在确实不好卖了，虽然没降价，但真的是有价无市！",
        "docid": "IOKK868205564Z4P",
        "url": "https://www.163.com/dy/article/IOKK868205564Z4P.html"
    },
    {
        "title": "手握100万，今明两年应该买房还是存钱？孙宏斌“五句话”说透了",
        "docid": "IOEPQPDO0535BC2F",
        "url": "https://www.163.com/dy/article/IOEPQPDO0535BC2F.html"
    },
    {
        "title": "30套二层农村10*10二层的小洋房，15-20万左右二层农村自建房别墅",
        "docid": "IOE3SKCC0520BKDJ",
        "url": "https://www.163.com/dy/article/IOE3SKCC0520BKDJ.html"
    },
    {
        "title": "这是一款让人叹为观止的218平米户型！",
        "docid": "IOIT6J5I0552QWCL",
        "url": "https://www.163.com/dy/article/IOIT6J5I0552QWCL.html"
    },
    {
        "title": "中国经济打响收官之战：印钞救市、旧城改造、房票安置、租售并涨",
        "docid": "IOEVG7FJ05563TCH",
        "url": "https://www.163.com/dy/article/IOEVG7FJ05563TCH.html"
    },
    {
        "title": "前脚被人追着打，后脚带队重庆扫货！“炒房天王”咸鱼大翻身？",
        "docid": "IOINV5E90535L5KD",
        "url": "https://www.163.com/dy/article/IOINV5E90535L5KD.html"
    },
    {
        "title": "同一栋楼，为何西户早卖光了，东户却无人问津？内行人总结了原因",
        "docid": "IOFU1CKP0553SQD3",
        "url": "https://www.163.com/dy/article/IOFU1CKP0553SQD3.html"
    },
    {
        "title": "房地产见底！成都、重庆，首当其冲",
        "docid": "IOFUKAJ30553U0MP",
        "url": "https://www.163.com/dy/article/IOFUKAJ30553U0MP.html"
    },
    {
        "title": "全国热点城市“卖地榜”出炉，杭州第二，厦门楼面价全国第三",
        "docid": "IOGUN27J0553TEV3",
        "url": "https://www.163.com/dy/article/IOGUN27J0553TEV3.html"
    },
    {
        "title": "相当低调的269平米大户型！",
        "docid": "IOIEB19R0552QWCS",
        "url": "https://www.163.com/dy/article/IOIEB19R0552QWCS.html"
    },
    {
        "title": "房价下跌都有“前兆”！一旦楼市有“这3种”情况，建议保住“现金”！",
        "docid": "IOADE33N0535KYBT",
        "url": "https://www.163.com/dy/article/IOADE33N0535KYBT.html"
    },
    {
        "title": "白沙洲一小区停车场入口交房一年不开放？原因...",
        "docid": "IOK2BADG0535KYBM",
        "url": "https://www.163.com/dy/article/IOK2BADG0535KYBM.html"
    },
    {
        "title": "许家印！荒唐奢靡生活堪称奇葩！14项要求，骚规定，让人望尘莫及",
        "docid": "IOKNBV6P0535L5VU",
        "url": "https://www.163.com/dy/article/IOKNBV6P0535L5VU.html"
    },
    {
        "title": "国家统计局：2023年全国房地产开发投资比上年下降9.6%",
        "docid": "IOL7NVUB0512D3VJ",
        "url": "https://www.163.com/dy/article/IOL7NVUB0512D3VJ.html"
    },
    {
        "title": "津门普法 | 婚前父母参与出资购房，离婚后房产如何分配？",
        "docid": "IOIO67CL0553TDVP",
        "url": "https://www.163.com/dy/article/IOIO67CL0553TDVP.html"
    },
    {
        "title": "武汉推介22宗优质地块 总面积约1382.55亩",
        "docid": "IOLPR8D705129QAF",
        "url": "https://www.163.com/dy/article/IOLPR8D705129QAF.html"
    },
    {
        "title": "2023重庆楼市，二手房成交10强",
        "docid": "IOHH8VPT0515AP70",
        "url": "https://www.163.com/dy/article/IOHH8VPT0515AP70.html"
    },
    {
        "title": "王石“预言”成真？我国40%以上的城镇家庭，在未来会面临什么",
        "docid": "IOCUQF360535MP84",
        "url": "https://www.163.com/dy/article/IOCUQF360535MP84.html"
    },
    {
        "title": "30万人受影响！再不申请新加坡PR就晚了！避开5大雷区提高获批率",
        "docid": "IOJJO5B205371E5Q",
        "url": "https://www.163.com/dy/article/IOJJO5B205371E5Q.html"
    },
    {
        "title": "新岁有新禧！国企大师级美学筑作，礼献大武昌",
        "docid": "IO8CB8GC020998HG",
        "url": "https://www.163.com/dy/article/IO8CB8GC020998HG.html"
    },
    {
        "title": "直管公房什么意思？2024直管公房拆迁有哪些补偿？",
        "docid": "IOLA32EC0553TB9L",
        "url": "https://www.163.com/dy/article/IOLA32EC0553TB9L.html"
    },
    {
        "title": "这次房价下跌让我想起了2008年，只要我不卖房，我就不会亏",
        "docid": "IO8S3SCF05563TCH",
        "url": "https://www.163.com/dy/article/IO8S3SCF05563TCH.html"
    },
    {
        "title": "二手房大逆转！卖房人，终于熬出头了？",
        "docid": "IOL3N89T05563TCH",
        "url": "https://www.163.com/dy/article/IOL3N89T05563TCH.html"
    },
    {
        "title": "多数人的房子不会涨的，你放心",
        "docid": "IOD0TJ1I0535MP84",
        "url": "https://www.163.com/dy/article/IOD0TJ1I0535MP84.html"
    },
    {
        "title": "原来我们国人都这么富有，600万资产的家庭都这么多！",
        "docid": "IOLO5SF30553RLII",
        "url": "https://www.163.com/dy/article/IOLO5SF30553RLII.html"
    },
    {
        "title": "糊涂啊！南方小土豆在东北旅游3天后买了套房，40平12万！",
        "docid": "IOK86L100553TDTY",
        "url": "https://www.163.com/dy/article/IOK86L100553TDTY.html"
    },
    {
        "title": "250多平米的洋房户型，配置大露台！",
        "docid": "IOLCP4CI0535LAX2",
        "url": "https://www.163.com/dy/article/IOLCP4CI0535LAX2.html"
    },
    {
        "title": "普通人都在等房价下跌，内行人：再跌下去，你可能也买不起房",
        "docid": "IOGASGLL053312Y9",
        "url": "https://www.163.com/dy/article/IOGASGLL053312Y9.html"
    },
    {
        "title": "新岁有新禧！国企大师级美学筑作，礼献大武昌",
        "docid": "IO8CB8GC020998HG",
        "url": "https://www.163.com/dy/article/IO8CB8GC020998HG.html"
    },
    {
        "title": "从2.5万跌到8千，依旧卖不掉！业主直言不知该何去何从",
        "docid": "IOGJILN80540KLAM",
        "url": "https://www.163.com/dy/article/IOGJILN80540KLAM.html"
    },
    {
        "title": "便捷解约体验：自如专业化流程满足租客需求",
        "docid": "IO5RF40K0553KBRQ",
        "url": "https://www.163.com/dy/article/IO5RF40K0553KBRQ.html"
    },
    {
        "title": "在价格倒挂的区域 买二手房纯粹是做善事，入坑了！",
        "docid": "IO7R8UR60535KYBT",
        "url": "https://www.163.com/dy/article/IO7R8UR60535KYBT.html"
    },
    {
        "title": "松岗最便宜2房175万，松兴大厦精装修房价",
        "docid": "IO5OO9U705566PSM",
        "url": "https://www.163.com/dy/article/IO5OO9U705566PSM.html"
    },
    {
        "title": "160多平米的经典房子可以给多少分呢?",
        "docid": "IOGTQTMV0535KYBM",
        "url": "https://www.163.com/dy/article/IOGTQTMV0535KYBM.html"
    },
    {
        "title": "国内最大炒房团浮出水面？手握几百万套房源，难怪房价降不下来",
        "docid": "IOADAUMF0535KYBT",
        "url": "https://www.163.com/dy/article/IOADAUMF0535KYBT.html"
    },
    {
        "title": "买房是头等大事，如果碰到这8种户型，再便宜也不要买！",
        "docid": "IO8FLISC054057BR",
        "url": "https://www.163.com/dy/article/IO8FLISC054057BR.html"
    },
    {
        "title": "继承权规则变了？4种情况，子女不能继承父母的房产",
        "docid": "IOL3ILLL055640VF",
        "url": "https://www.163.com/dy/article/IOL3ILLL055640VF.html"
    },
    {
        "title": "新岁有新禧！国企大师级美学筑作，礼献大武昌",
        "docid": "IO8CB8GC020998HG",
        "url": "https://www.163.com/dy/article/IO8CB8GC020998HG.html"
    },
    {
        "title": "光明大第别墅，600平使用率，光明大第别墅房价",
        "docid": "IO5NMEOS05566PSM",
        "url": "https://www.163.com/dy/article/IO5NMEOS05566PSM.html"
    },
    {
        "title": "每月快5000的房贷，还要供20年，压的喘不过气了！真想把房子卖了",
        "docid": "IOKLIU8B05561MSN",
        "url": "https://www.163.com/dy/article/IOKLIU8B05561MSN.html"
    },
    {
        "title": "比房产证还重要的“4个证件”，丢失后无法补办！还请慎重保管！",
        "docid": "IOJL1ILQ0545PEDS",
        "url": "https://www.163.com/dy/article/IOJL1ILQ0545PEDS.html"
    },
    {
        "title": "2024刚过几天，大批澳洲房产买家回归！想在澳洲买房年收入必须达到30万澳元？",
        "docid": "IOHV7UB705199N88",
        "url": "https://www.163.com/dy/article/IOHV7UB705199N88.html"
    },
    {
        "title": "143平米能做出什么花样？这两个户型给你一个标准示范",
        "docid": "IOKLPFK90552QWCS",
        "url": "https://www.163.com/dy/article/IOKLPFK90552QWCS.html"
    },
    {
        "title": "澳洲购房者的热情比降息更早出现",
        "docid": "IOLUBKBB053661TJ",
        "url": "https://www.163.com/dy/article/IOLUBKBB053661TJ.html"
    },
    {
        "title": "12月房价降幅扩大，楼市底部已现？",
        "docid": "IOLT24LG051481US",
        "url": "https://www.163.com/dy/article/IOLT24LG051481US.html"
    },
    {
        "title": "孟晓苏惊人言论引发热议：房价不涨，老百姓不敢买房！",
        "docid": "IOJ4T8VS0540A6F8",
        "url": "https://www.163.com/dy/article/IOJ4T8VS0540A6F8.html"
    },
    {
        "title": "新岁有新禧！国企大师级美学筑作，礼献大武昌",
        "docid": "IO8CB8GC020998HG",
        "url": "https://www.163.com/dy/article/IO8CB8GC020998HG.html"
    },
    {
        "title": "王健林曾谈到：“一套房子政府挣50％，开发商挣15％...”",
        "docid": "IOHHDAVH0534M7IC",
        "url": "https://www.163.com/dy/article/IOHHDAVH0534M7IC.html"
    },
    {
        "title": "不住的房屋，你那么傻全部交物业费吗，闲置是可以减免收取的。",
        "docid": "IOGCL5J10552QWCS",
        "url": "https://www.163.com/dy/article/IOGCL5J10552QWCS.html"
    },
    {
        "title": "讲真，这是我见过的最方正的户型，没有之一",
        "docid": "IOIPIIE40515U60S",
        "url": "https://www.163.com/dy/article/IOIPIIE40515U60S.html"
    },
    {
        "title": "24省物价下降！超50城推出房票安置政策！降准预期落空！",
        "docid": "IOIGKID905398MH9",
        "url": "https://www.163.com/dy/article/IOIGKID905398MH9.html"
    },
    {
        "title": "这是一款雅致的399平米豪华户型！",
        "docid": "IOBM1P490535LAX2",
        "url": "https://www.163.com/dy/article/IOBM1P490535LAX2.html"
    },
    {
        "title": "湖北观察丨武汉2023年四季度优质办公楼去化趋缓，空置率环比微升至40.3%",
        "docid": "IOM0LDKE05199NPP",
        "url": "https://www.163.com/dy/article/IOM0LDKE05199NPP.html"
    },
    {
        "title": "20年房龄老房子又“吃香”了! 拆迁还将继续! 住建部发声定调",
        "docid": "IOLK6FAE055326PN",
        "url": "https://www.163.com/dy/article/IOLK6FAE055326PN.html"
    },
    {
        "title": "注意了？2024年起，关于中国楼市，或将面临2个问题",
        "docid": "IOG8ME2R055616ZT",
        "url": "https://www.163.com/dy/article/IOG8ME2R055616ZT.html"
    },
    {
        "title": "新岁有新禧！国企大师级美学筑作，礼献大武昌",
        "docid": "IO8CB8GC020998HG",
        "url": "https://www.163.com/dy/article/IO8CB8GC020998HG.html"
    },
    {
        "title": "农村人在城市买房的6个原因，你属于哪个？",
        "docid": "INV9758R0525D145",
        "url": "https://www.163.com/dy/article/INV9758R0525D145.html"
    },
    {
        "title": "1000亿，仅仅是个开始，中国楼市启动第二轮去库存运动！！",
        "docid": "IOIC0FON055614NP",
        "url": "https://www.163.com/dy/article/IOIC0FON055614NP.html"
    },
    {
        "title": "澳洲住房危机严峻，“帐篷城”占领公园！市议会出动，清场引不满",
        "docid": "IOEE0PAN0553T94S",
        "url": "https://www.163.com/dy/article/IOEE0PAN0553T94S.html"
    },
    {
        "title": "12月70个大中城市房价数据出炉：二手住宅房价指数无一上涨",
        "docid": "IOLAJPSI0519AFSG",
        "url": "https://www.163.com/dy/article/IOLAJPSI0519AFSG.html"
    },
    {
        "title": "碧桂园称今年保交楼是底线，交付量超48万套，挑战或比想像更严峻",
        "docid": "IOJN9PB90553TDXU",
        "url": "https://www.163.com/dy/article/IOJN9PB90553TDXU.html"
    },
    {
        "title": "名单定了！金华入选全国43个低效用地再开发试点",
        "docid": "IOIMDITJ0553TDTY",
        "url": "https://www.163.com/dy/article/IOIMDITJ0553TDTY.html"
    },
    {
        "title": "是谁还在唱衰房地产？央行发文定调，关于未来房价走向，不必再争",
        "docid": "IOH7UPH40545PEDS",
        "url": "https://www.163.com/dy/article/IOH7UPH40545PEDS.html"
    },
    {
        "title": "中国经济不靠房地产还能靠什么？",
        "docid": "IOM02V2B0535PKJN",
        "url": "https://www.163.com/dy/article/IOM02V2B0535PKJN.html"
    },
    {
        "title": "新岁有新禧！国企大师级美学筑作，礼献大武昌",
        "docid": "IO8CB8GC020998HG",
        "url": "https://www.163.com/dy/article/IO8CB8GC020998HG.html"
    },
    {
        "title": "房子跌了，老百姓买房子了吗",
        "docid": "IO82JHHJ055614NP",
        "url": "https://www.163.com/dy/article/IO82JHHJ055614NP.html"
    },
    {
        "title": "优秀的五卧室大平层户型，功能齐全！",
        "docid": "IO76PT7F0552QWCE",
        "url": "https://www.163.com/dy/article/IO76PT7F0552QWCE.html"
    },
    {
        "title": "买房“以旧换新”是福利还是套路？看看20年前是如何操作的",
        "docid": "IOL09ERU0535FFBB",
        "url": "https://www.163.com/dy/article/IOL09ERU0535FFBB.html"
    },
    {
        "title": "208.8平米居家户型，可满足极致生活需求",
        "docid": "IOJU3PFR0535LAX2",
        "url": "https://www.163.com/dy/article/IOJU3PFR0535LAX2.html"
    },
    {
        "title": "2024：产品做得好，才是真本事！",
        "docid": "IOM2TOMA053571DT",
        "url": "https://www.163.com/dy/article/IOM2TOMA053571DT.html"
    },
    {
        "title": "当初加装电梯，为何现在却后悔了？这些原因，都很“现实”",
        "docid": "IOD9P00C0552ZPCC",
        "url": "https://www.163.com/dy/article/IOD9P00C0552ZPCC.html"
    },
    {
        "title": "谁的公积金这么多？比俺的工资还多呀！",
        "docid": "IODVI9RB05561MSN",
        "url": "https://www.163.com/dy/article/IODVI9RB05561MSN.html"
    },
    {
        "title": "业内人预言：到2025年，房价将会是现在的三到五倍！真的假的？",
        "docid": "IOJBN2T80536UOB3",
        "url": "https://www.163.com/dy/article/IOJBN2T80536UOB3.html"
    },
    {
        "title": "新岁有新禧！国企大师级美学筑作，礼献大武昌",
        "docid": "IO8CB8GC020998HG",
        "url": "https://www.163.com/dy/article/IO8CB8GC020998HG.html"
    },
    {
        "title": "2024年澳洲房地产市场强劲开局！大批房产买家强势回归！",
        "docid": "IOLU27EQ053661TJ",
        "url": "https://www.163.com/dy/article/IOLU27EQ053661TJ.html"
    },
    {
        "title": "今年楼市，还会有金三银四吗？",
        "docid": "IOLM62U90553QD2F",
        "url": "https://www.163.com/dy/article/IOLM62U90553QD2F.html"
    },
    {
        "title": "警告，墨尔本穷人太惨，租房将面临危机！澳洲首次买房者暴增20%！ 澳洲人口迅速增长推动对商场交易需求！",
        "docid": "IOKJQAE905199N88",
        "url": "https://www.163.com/dy/article/IOKJQAE905199N88.html"
    },
    {
        "title": "房地产或迎来大震动？央行：加强对房地产市场运行情况的监测分析",
        "docid": "IOL7JF690552257Z",
        "url": "https://www.163.com/dy/article/IOL7JF690552257Z.html"
    },
    {
        "title": "相当理想的143.8平米洋房户型！",
        "docid": "IOM0TB8N0552QWCS",
        "url": "https://www.163.com/dy/article/IOM0TB8N0552QWCS.html"
    },
    {
        "title": "房产最大的失败就是年轻人不和你玩了，炸掉都不降价，资本的罪恶",
        "docid": "IOK3ENQ805563TCH",
        "url": "https://www.163.com/dy/article/IOK3ENQ805563TCH.html"
    },
    {
        "title": "住建部再放“大招”！“2字”首出现，真急了",
        "docid": "IOEGR6T305359WBS",
        "url": "https://www.163.com/dy/article/IOEGR6T305359WBS.html"
    },
    {
        "title": "跳楼价！从18万降至7.29万，真正的 “ 价格屠夫 ” ！",
        "docid": "IOGNOG1N0549RI77",
        "url": "https://www.163.com/dy/article/IOGNOG1N0549RI77.html"
    },
    {
        "title": "新岁有新禧！国企大师级美学筑作，礼献大武昌",
        "docid": "IO8CB8GC020998HG",
        "url": "https://www.163.com/dy/article/IO8CB8GC020998HG.html"
    },
    {
        "title": "婚前个人房产婚后出租，所得租金是否属于夫妻共同财产？",
        "docid": "IOL6ULDQ0552QWCE",
        "url": "https://www.163.com/dy/article/IOL6ULDQ0552QWCE.html"
    },
    {
        "title": "好来物业|全员奋战，清理积雪，为业主安全出行保驾护航！",
        "docid": "IOL865K30552QWCS",
        "url": "https://www.163.com/dy/article/IOL865K30552QWCS.html"
    },
    {
        "title": "289平米极致花园大平层户型！",
        "docid": "IOL9J1V60552QWCE",
        "url": "https://www.163.com/dy/article/IOL9J1V60552QWCE.html"
    },
    {
        "title": "我家住一楼，从来不使用电梯，为什么物业还要求我们均摊电梯费？",
        "docid": "IOJ8CEV4054057BR",
        "url": "https://www.163.com/dy/article/IOJ8CEV4054057BR.html"
    },
    {
        "title": "房龄50年以上的危房有福了，国家明确：2024年3类房子拆迁成定局",
        "docid": "IOM0I3N10540B07R",
        "url": "https://www.163.com/dy/article/IOM0I3N10540B07R.html"
    },
    {
        "title": "为何不能让房价下跌？因为有65万亿元的贷款要还!中韩房价谁更高?",
        "docid": "IOHDKSJM0553TB8M",
        "url": "https://www.163.com/dy/article/IOHDKSJM0553TB8M.html"
    },
    {
        "title": "小土豆在东北旅游时直接12万买房，网友:执行力太强了",
        "docid": "IOM78CL20553TDVP",
        "url": "https://www.163.com/dy/article/IOM78CL20553TDVP.html"
    },
    {
        "title": "终于！中国房地产又回到了“双11”时代",
        "docid": "IOLBAFJ505536P04",
        "url": "https://www.163.com/dy/article/IOLBAFJ505536P04.html"
    },
    {
        "title": "新岁有新禧！国企大师级美学筑作，礼献大武昌",
        "docid": "IO8CB8GC020998HG",
        "url": "https://www.163.com/dy/article/IO8CB8GC020998HG.html"
    },
    {
        "title": "这是中规中矩的160多平米户型吗?",
        "docid": "IOEFK1MJ0553TEV3",
        "url": "https://www.163.com/dy/article/IOEFK1MJ0553TEV3.html"
    },
    {
        "title": "选套好房：114㎡三室两卫，大横厅户型最是让人眼红",
        "docid": "IO4CA5R50515U60S",
        "url": "https://www.163.com/dy/article/IO4CA5R50515U60S.html"
    },
    {
        "title": "2023年全国商品房销售面积为11.2亿平米，同比下降8.5% | 开发经营数据解读",
        "docid": "IOLOJKHK05159A0N",
        "url": "https://www.163.com/dy/article/IOLOJKHK05159A0N.html"
    },
    {
        "title": "3栋480户！四新再迎楼盘交付！",
        "docid": "IOFC5JDB0549RI77",
        "url": "https://www.163.com/dy/article/IOFC5JDB0549RI77.html"
    },
    {
        "title": "中国将迎来大变局，手握两套房的家庭，未来会面临着什么呢？",
        "docid": "IOKO443Q0535MP84",
        "url": "https://www.163.com/dy/article/IOKO443Q0535MP84.html"
    },
    {
        "title": "宁愿把房子空着也不租出去？房东的一番话，揭开租房行业真相",
        "docid": "IOM08VFL0535PKJN",
        "url": "https://www.163.com/dy/article/IOM08VFL0535PKJN.html"
    },
    {
        "title": "不是坚持不买房，是因为买不起房。",
        "docid": "IOEJ8IEC0553K5ZV",
        "url": "https://www.163.com/dy/article/IOEJ8IEC0553K5ZV.html"
    },
    {
        "title": "你还在烦恼选精装房还是毛坯房？这里有答案！",
        "docid": "IO6FP7660540H6M7",
        "url": "https://www.163.com/dy/article/IO6FP7660540H6M7.html"
    },
    {
        "title": "新岁有新禧！国企大师级美学筑作，礼献大武昌",
        "docid": "IO8CB8GC020998HG",
        "url": "https://www.163.com/dy/article/IO8CB8GC020998HG.html"
    },
    {
        "title": "这两个户型都有六个卧室，该怎么选择呢？",
        "docid": "IOI4I3U40535LAX2",
        "url": "https://www.163.com/dy/article/IOI4I3U40535LAX2.html"
    },
    {
        "title": "三天内国家密集喊话楼市, 房价下跌“踩刹车”! 内行, 信心不足",
        "docid": "IOLK7ULB055325IO",
        "url": "https://www.163.com/dy/article/IOLK7ULB055325IO.html"
    },
    {
        "title": "玺苑重钢别墅：赏心悦目的新型建筑",
        "docid": "IOIJFDNS05566LD8",
        "url": "https://www.163.com/dy/article/IOIJFDNS05566LD8.html"
    },
    {
        "title": "附近有保障房、公租房的小区，为什么不能买？3大理由太现实！",
        "docid": "IJVR41620535WDMF",
        "url": "https://www.163.com/dy/article/IJVR41620535WDMF.html"
    },
    {
        "title": "国内“最牛”二线城市, 经济发展一般, 房价却远超“新一线城市”",
        "docid": "IOLVB8OA05534KYX",
        "url": "https://www.163.com/dy/article/IOLVB8OA05534KYX.html"
    },
    {
        "title": "9月“降价潮”来临？楼市2信号，开发商更难了！恭喜刚需买房人",
        "docid": "IOGJC6KO0540KLAM",
        "url": "https://www.163.com/dy/article/IOGJC6KO0540KLAM.html"
    },
    {
        "title": "南方金土豆来了？广东女孩东北旅游3天 竟花12万买房定居",
        "docid": "IOM4LDO30552628X",
        "url": "https://www.163.com/dy/article/IOM4LDO30552628X.html"
    },
    {
        "title": "两个买房真事，写尽了无知和心酸！",
        "docid": "IOI3QUGI0535KYBT",
        "url": "https://www.163.com/dy/article/IOI3QUGI0535KYBT.html"
    },
    {
        "title": "新岁有新禧！国企大师级美学筑作，礼献大武昌",
        "docid": "IO8CB8GC020998HG",
        "url": "https://www.163.com/dy/article/IO8CB8GC020998HG.html"
    },
    {
        "title": "2023年澳大利亚首府城市租金激增13%，每周达600澳元",
        "docid": "IOIV475U0514DPPR",
        "url": "https://www.163.com/dy/article/IOIV475U0514DPPR.html"
    },
    {
        "title": "由虚入实创造“生活方式”：旅居大盘非标商业的破题战略 | 复盘&amp;远见",
        "docid": "IO61V9H205158K7T",
        "url": "https://www.163.com/dy/article/IO61V9H205158K7T.html"
    },
    {
        "title": "建信与外资组建基金3.7亿接盘虹口烂尾楼",
        "docid": "IOLU6F7J0519D45U",
        "url": "https://www.163.com/dy/article/IOLU6F7J0519D45U.html"
    },
    {
        "title": "土地周报 | 成交规模量升价跌，市场热度仍维持低位（1.8-1.14）",
        "docid": "IOHGQE8P0535A6CE",
        "url": "https://www.163.com/dy/article/IOHGQE8P0535A6CE.html"
    },
    {
        "title": "澳洲首次买房刚需激增，悉尼租房市场空置率开始上升！布里斯班成全澳房价第3高城市！",
        "docid": "IOFD17DH05199N88",
        "url": "https://www.163.com/dy/article/IOFD17DH05199N88.html"
    },
    {
        "title": "这次，一线城市二手房价也没挺住：北京、上海、广州、深圳全跌了！",
        "docid": "IOM5DA9F0512B07B",
        "url": "https://www.163.com/dy/article/IOM5DA9F0512B07B.html"
    },
    {
        "title": "武汉市政协委员郑明：建议及时出台老旧小区加装电梯维保规定",
        "docid": "IOMC4VD8053469LG",
        "url": "https://www.163.com/dy/article/IOMC4VD8053469LG.html"
    },
    {
        "title": "10年后，这样大面积的房子“最受欢迎”？不仅住得舒服还容易出手",
        "docid": "IOJCJSIT0535BC2F",
        "url": "https://www.163.com/dy/article/IOJCJSIT0535BC2F.html"
    },
    {
        "title": "新岁有新禧！国企大师级美学筑作，礼献大武昌",
        "docid": "IO8CB8GC020998HG",
        "url": "https://www.163.com/dy/article/IO8CB8GC020998HG.html"
    },
    {
        "title": "美债清仓进行时！中国买家不买了？美国楼市大萧条，联储无可奈何",
        "docid": "IOL687UJ055634Y1",
        "url": "https://www.163.com/dy/article/IOL687UJ055634Y1.html"
    },
    {
        "title": "买房必知：如何辨别真假飘窗，避免被开发商忽悠！",
        "docid": "IOGNBQU80540FQWZ",
        "url": "https://www.163.com/dy/article/IOGNBQU80540FQWZ.html"
    },
    {
        "title": "专家提出“终极”解决方案，获得老百姓一致赞同",
        "docid": "IOFV9LLD055640VF",
        "url": "https://www.163.com/dy/article/IOFV9LLD055640VF.html"
    },
    {
        "title": "泰国公寓市场依旧火热！中国和俄罗斯买家遥遥领先！",
        "docid": "IOJL7GL505566H94",
        "url": "https://www.163.com/dy/article/IOJL7GL505566H94.html"
    },
    {
        "title": "这是一款美妙的第四代空中花园大户型",
        "docid": "IOMB1O860535KYBM",
        "url": "https://www.163.com/dy/article/IOMB1O860535KYBM.html"
    },
    {
        "title": "适合名门望族居住的华丽住宅是什么样子?",
        "docid": "IO79QUCU0553TEQM",
        "url": "https://www.163.com/dy/article/IO79QUCU0553TEQM.html"
    },
    {
        "title": "这是一款有诗意的189.8平米户型！",
        "docid": "IOBPPSC70552QWCS",
        "url": "https://www.163.com/dy/article/IOBPPSC70552QWCS.html"
    },
    {
        "title": "签订租房合同时，房东要求租户承担屋内设施的维修义务，合理吗？",
        "docid": "IOJQLINM0552QWCL",
        "url": "https://www.163.com/dy/article/IOJQLINM0552QWCL.html"
    },
    {
        "title": "新岁有新禧！国企大师级美学筑作，礼献大武昌",
        "docid": "IO8CB8GC020998HG",
        "url": "https://www.163.com/dy/article/IO8CB8GC020998HG.html"
    },
    {
        "title": "一起欣赏8款186平米的豪华户型",
        "docid": "IOI4VI0O0535KYC0",
        "url": "https://www.163.com/dy/article/IOI4VI0O0535KYC0.html"
    },
    {
        "title": "正在还贷期间的房子，可以卖掉吗？",
        "docid": "IOETU9P205562O3H",
        "url": "https://www.163.com/dy/article/IOETU9P205562O3H.html"
    },
    {
        "title": "历史的尘埃——都1022年了，东京的房价到头了吗？",
        "docid": "IOJ5T0UN0553TEQM",
        "url": "https://www.163.com/dy/article/IOJ5T0UN0553TEQM.html"
    },
    {
        "title": "楼市又现一意外信号？打响降价无幅度限制第一枪！住建局：同意",
        "docid": "IOJ4J6CE0540A6F8",
        "url": "https://www.163.com/dy/article/IOJ4J6CE0540A6F8.html"
    },
    {
        "title": "有高人预测：手中有老旧小区的注意了，未来5年很可能让你翻身！",
        "docid": "IOMAG07R05566FQ1",
        "url": "https://www.163.com/dy/article/IOMAG07R05566FQ1.html"
    },
    {
        "title": "从4万跌至1.8万，房子依然卖不掉！老业主：没想过房价会跌这么多",
        "docid": "IOJN4D7M0553TEQM",
        "url": "https://www.163.com/dy/article/IOJN4D7M0553TEQM.html"
    },
    {
        "title": "某房企接下来还要裁员50%！",
        "docid": "IOJTB0TR0552CAGB",
        "url": "https://www.163.com/dy/article/IOJTB0TR0552CAGB.html"
    },
    {
        "title": "买房前必知：这 4 种户型可能导致面积严重缩水，我家的深刻教训",
        "docid": "IO3CF0J20540FQWZ",
        "url": "https://www.163.com/dy/article/IO3CF0J20540FQWZ.html"
    },
    {
        "title": "新岁有新禧！国企大师级美学筑作，礼献大武昌",
        "docid": "IO8CB8GC020998HG",
        "url": "https://www.163.com/dy/article/IO8CB8GC020998HG.html"
    },
    {
        "title": "69城房价回到1年前，南京、厦门和郑州等城市跌幅居前",
        "docid": "IOLP7B7A0530I1ON",
        "url": "https://www.163.com/dy/article/IOLP7B7A0530I1ON.html"
    },
    {
        "title": "三原恒大｜昼夜奋战，施工不停歇",
        "docid": "IOKKA04M0552F71X",
        "url": "https://www.163.com/dy/article/IOKKA04M0552F71X.html"
    },
    {
        "title": "克拉玛依人均GTP超过上海，房价却低于上海",
        "docid": "IOCAAHI40514AJD6",
        "url": "https://www.163.com/dy/article/IOCAAHI40514AJD6.html"
    },
    {
        "title": "时代赋新南北共荣 双城联动共鉴未来",
        "docid": "IO6VPS860556648A",
        "url": "https://www.163.com/dy/article/IO6VPS860556648A.html"
    },
    {
        "title": "为啥很多人卖掉别墅搬回高层？过来人：3个原因，让人们憧憬破灭",
        "docid": "IOH4IJNH0553TEV3",
        "url": "https://www.163.com/dy/article/IOH4IJNH0553TEV3.html"
    },
    {
        "title": "炒房客懵了，比房子卖不掉更可怕的事情是，房子送都送不出去了",
        "docid": "IO5KN7BI05562BBD",
        "url": "https://www.163.com/dy/article/IO5KN7BI05562BBD.html"
    },
    {
        "title": "集信名城187平复式7房，带楼顶150平花园，卖950万朝向南",
        "docid": "IO5TPREI05566PSM",
        "url": "https://www.163.com/dy/article/IO5TPREI05566PSM.html"
    },
    {
        "title": "这世上本没有那么多的房子",
        "docid": "IOE03OER0535FFBB",
        "url": "https://www.163.com/dy/article/IOE03OER0535FFBB.html"
    },
    {
        "title": "新岁有新禧！国企大师级美学筑作，礼献大武昌",
        "docid": "IO8CB8GC020998HG",
        "url": "https://www.163.com/dy/article/IO8CB8GC020998HG.html"
    },
    {
        "title": "晴天霹雳！难以接受，房子，要断供了！",
        "docid": "IO7PU4I60535KYBT",
        "url": "https://www.163.com/dy/article/IO7PU4I60535KYBT.html"
    },
    {
        "title": "首尔公寓实际成交价指数连续两个月下跌",
        "docid": "IOJOLUO905377PO6",
        "url": "https://www.163.com/dy/article/IOJOLUO905377PO6.html"
    },
    {
        "title": "什么是定金和订金？看完涨知识了，受益匪浅！",
        "docid": "IOGKJ8ON0549RI77",
        "url": "https://www.163.com/dy/article/IOGKJ8ON0549RI77.html"
    },
    {
        "title": "王小鲁：土地财政的四大负面影响",
        "docid": "IOLTAV7J05562BOT",
        "url": "https://www.163.com/dy/article/IOLTAV7J05562BOT.html"
    },
    {
        "title": "太疯狂了，溢价率高达36%，2024年楼市有好戏看了，买房注意了！",
        "docid": "IOJPLNKC05562DLL",
        "url": "https://www.163.com/dy/article/IOJPLNKC05562DLL.html"
    },
    {
        "title": "拆迁大潮退去，旧改接棒，城中村改造成为新热点",
        "docid": "IOGASVVU05562SWQ",
        "url": "https://www.163.com/dy/article/IOGASVVU05562SWQ.html"
    },
    {
        "title": "24×14米二层双拼别墅，带堂屋，有车库，兄弟合建成本省一半",
        "docid": "IOMC1VOK0535KYBM",
        "url": "https://www.163.com/dy/article/IOMC1VOK0535KYBM.html"
    },
    {
        "title": "展望未来：2024年全球房地产投资回暖",
        "docid": "IOL9AN1E0552Q0MM",
        "url": "https://www.163.com/dy/article/IOL9AN1E0552Q0MM.html"
    },
    {
        "title": "新岁有新禧！国企大师级美学筑作，礼献大武昌",
        "docid": "IO8CB8GC020998HG",
        "url": "https://www.163.com/dy/article/IO8CB8GC020998HG.html"
    },
    {
        "title": "占地面积126，主体预算30来万，这栋别墅被誉为自建房界模范",
        "docid": "IOJVSK290552QWCE",
        "url": "https://www.163.com/dy/article/IOJVSK290552QWCE.html"
    },
    {
        "title": "这是一款相当有个性的212.8平米房子！",
        "docid": "IOJHREHN0552QWCL",
        "url": "https://www.163.com/dy/article/IOJHREHN0552QWCL.html"
    },
    {
        "title": "一周楼市：上周楼市成交整体环比上升，广州涨幅明显",
        "docid": "IOGU954G0556123R",
        "url": "https://www.163.com/dy/article/IOGU954G0556123R.html"
    },
    {
        "title": "粤系爆雷房企境外债重组新进展：奥园重组成功，龙光同意率51%，“债转股”成化债主流",
        "docid": "IOHA3NDM0531SC48",
        "url": "https://www.163.com/dy/article/IOHA3NDM0531SC48.html"
    }
]