[
    {
        "title": "190平米殿堂级的大平层户型，细节值得品鉴",
        "docid": "J3ITBPEK0552F71X",
        "url": "https://www.163.com/dy/article/J3ITBPEK0552F71X.html"
    },
    {
        "title": "武汉洪山区：买新建商办房屋300平米以上的，可享受与住宅同等教育养老等服务",
        "docid": "J3I7G7LG0514R9P4",
        "url": "https://www.163.com/dy/article/J3I7G7LG0514R9P4.html"
    },
    {
        "title": "王炸！武汉白沙洲又新增两处地块规划",
        "docid": "J3H9SJ2L0556124M",
        "url": "https://www.163.com/dy/article/J3H9SJ2L0556124M.html"
    },
    {
        "title": "武汉：鼓励全面开展商品房预告登记，从源头防范“一房二卖”“先卖后抵”等风险",
        "docid": "J3I2BE8E0514R9P4",
        "url": "https://www.163.com/dy/article/J3I2BE8E0514R9P4.html"
    },
    {
        "title": "武汉绿城·梧桐里产品发布圆满落幕",
        "docid": "J3JM6RTJ05567SKQ",
        "url": "https://www.163.com/dy/article/J3JM6RTJ05567SKQ.html"
    },
    {
        "title": "武汉城建绍兴里1921项目首开收金2.16亿",
        "docid": "J3HVOFMV0519D45U",
        "url": "https://www.163.com/dy/article/J3HVOFMV0519D45U.html"
    },
    {
        "title": "武汉经开区联合贝壳找房推进房地产以旧换新",
        "docid": "J3MQLLO3053469LG",
        "url": "https://www.163.com/dy/article/J3MQLLO3053469LG.html"
    },
    {
        "title": "易闻天下丨汉阳第三批补助名单公布，上海发布新政",
        "docid": "J393JSH305567SKQ",
        "url": "https://www.163.com/dy/article/J393JSH305567SKQ.html"
    },
    {
        "title": "13.58万方，武汉杉杉奥特莱斯购物中心设计方案",
        "docid": "J3IB9N990534SV3Y",
        "url": "https://www.163.com/dy/article/J3IB9N990534SV3Y.html"
    },
    {
        "title": "听到一些消息，越来越多的迹象表明，楼市十年一遇的机会来了",
        "docid": "J377DRMK0535JMSP",
        "url": "https://www.163.com/dy/article/J377DRMK0535JMSP.html"
    },
    {
        "title": "何为“气球贷”？梦幻前景还是债务地狱？银行贷款产品真相曝光",
        "docid": "J3MKEA6A05563VQW",
        "url": "https://www.163.com/dy/article/J3MKEA6A05563VQW.html"
    },
    {
        "title": "低价商改住精装公寓背后是否暗藏猫腻？",
        "docid": "J3NGP30J0553TDXU",
        "url": "https://www.163.com/dy/article/J3NGP30J0553TDXU.html"
    },
    {
        "title": "小区物业离去，带来的隐患和影响！",
        "docid": "J3ABDP5G0532D0CK",
        "url": "https://www.163.com/dy/article/J3ABDP5G0532D0CK.html"
    },
    {
        "title": "全国房屋总数6亿栋，54万亿房贷，这就是我们负重前行的拦路虎",
        "docid": "J3NFF4QT05349XQY",
        "url": "https://www.163.com/dy/article/J3NFF4QT05349XQY.html"
    },
    {
        "title": "1w预算内，三室两卫超赞房源，地下一楼还有小仓库！",
        "docid": "VF2CH1SB8",
        "url": "https://www.163.com/dy/article/VF2CH1SB8.html"
    },
    {
        "title": "苏州（包括昆山太仓）房产16条新政来了！条条牛！买房直接落户！",
        "docid": "VI2PFOEJ1",
        "url": "https://www.163.com/dy/article/VI2PFOEJ1.html"
    },
    {
        "title": "聊聊越南经济是不是像网上说的崩盘了，是不是房价一直往下滑",
        "docid": "VF2CFAPBG",
        "url": "https://www.163.com/dy/article/VF2CFAPBG.html"
    },
    {
        "title": "父母全款给买的房子，最后却不能入住！",
        "docid": "VN2CKR5MK",
        "url": "https://www.163.com/dy/article/VN2CKR5MK.html"
    },
    {
        "title": "美国生活梦想：泳池、好书包、湖景，一个都不能少",
        "docid": "VN2PC1DR4",
        "url": "https://www.163.com/dy/article/VN2PC1DR4.html"
    },
    {
        "title": "高考房市场监管局突击检查，酒店是否涉嫌坐地起价？",
        "docid": "VL2PFMT8H",
        "url": "https://www.163.com/dy/article/VL2PFMT8H.html"
    },
    {
        "title": "业委会做什么工作？受社区的领导吗？",
        "docid": "J3CIR80D055638FO",
        "url": "https://www.163.com/dy/article/J3CIR80D055638FO.html"
    },
    {
        "title": "武汉洪山区：买新建商办房屋300平米以上的，可享受与住宅同等教育养老等服务",
        "docid": "J3I7G7LG0514R9P4",
        "url": "https://www.163.com/dy/article/J3I7G7LG0514R9P4.html"
    },
    {
        "title": "王炸！武汉白沙洲又新增两处地块规划",
        "docid": "J3H9SJ2L0556124M",
        "url": "https://www.163.com/dy/article/J3H9SJ2L0556124M.html"
    },
    {
        "title": "武汉：鼓励全面开展商品房预告登记，从源头防范“一房二卖”“先卖后抵”等风险",
        "docid": "J3I2BE8E0514R9P4",
        "url": "https://www.163.com/dy/article/J3I2BE8E0514R9P4.html"
    },
    {
        "title": "关于落实深化集体林权制度改革要求规范高效做好林权类不动产登记工作的通知",
        "docid": "J3NFHMBJ0532GL5H",
        "url": "https://www.163.com/dy/article/J3NFHMBJ0532GL5H.html"
    },
    {
        "title": "武汉绿城·梧桐里产品发布圆满落幕",
        "docid": "J3JM6RTJ05567SKQ",
        "url": "https://www.163.com/dy/article/J3JM6RTJ05567SKQ.html"
    },
    {
        "title": "武汉城建绍兴里1921项目首开收金2.16亿",
        "docid": "J3HVOFMV0519D45U",
        "url": "https://www.163.com/dy/article/J3HVOFMV0519D45U.html"
    },
    {
        "title": "武汉经开区联合贝壳找房推进房地产以旧换新",
        "docid": "J3MQLLO3053469LG",
        "url": "https://www.163.com/dy/article/J3MQLLO3053469LG.html"
    },
    {
        "title": "易闻天下丨汉阳第三批补助名单公布，上海发布新政",
        "docid": "J393JSH305567SKQ",
        "url": "https://www.163.com/dy/article/J393JSH305567SKQ.html"
    },
    {
        "title": "13.58万方，武汉杉杉奥特莱斯购物中心设计方案",
        "docid": "J3IB9N990534SV3Y",
        "url": "https://www.163.com/dy/article/J3IB9N990534SV3Y.html"
    },
    {
        "title": "234平米的大平层竟然引起了一些争议，优点和缺点并存",
        "docid": "J3LE7CE20553TEV3",
        "url": "https://www.163.com/dy/article/J3LE7CE20553TEV3.html"
    },
    {
        "title": "炸裂！这一夜，地产人将无眠！",
        "docid": "J3JHDPC905536P04",
        "url": "https://www.163.com/dy/article/J3JHDPC905536P04.html"
    },
    {
        "title": "武汉洪山区：买新建商办房屋300平米以上的，可享受与住宅同等教育养老等服务",
        "docid": "J3I7G7LG0514R9P4",
        "url": "https://www.163.com/dy/article/J3I7G7LG0514R9P4.html"
    },
    {
        "title": "王炸！武汉白沙洲又新增两处地块规划",
        "docid": "J3H9SJ2L0556124M",
        "url": "https://www.163.com/dy/article/J3H9SJ2L0556124M.html"
    },
    {
        "title": "武汉：鼓励全面开展商品房预告登记，从源头防范“一房二卖”“先卖后抵”等风险",
        "docid": "J3I2BE8E0514R9P4",
        "url": "https://www.163.com/dy/article/J3I2BE8E0514R9P4.html"
    },
    {
        "title": "武汉绿城·梧桐里产品发布圆满落幕",
        "docid": "J3JM6RTJ05567SKQ",
        "url": "https://www.163.com/dy/article/J3JM6RTJ05567SKQ.html"
    },
    {
        "title": "武汉城建绍兴里1921项目首开收金2.16亿",
        "docid": "J3HVOFMV0519D45U",
        "url": "https://www.163.com/dy/article/J3HVOFMV0519D45U.html"
    },
    {
        "title": "武汉经开区联合贝壳找房推进房地产以旧换新",
        "docid": "J3MQLLO3053469LG",
        "url": "https://www.163.com/dy/article/J3MQLLO3053469LG.html"
    },
    {
        "title": "易闻天下丨汉阳第三批补助名单公布，上海发布新政",
        "docid": "J393JSH305567SKQ",
        "url": "https://www.163.com/dy/article/J393JSH305567SKQ.html"
    },
    {
        "title": "13.58万方，武汉杉杉奥特莱斯购物中心设计方案",
        "docid": "J3IB9N990534SV3Y",
        "url": "https://www.163.com/dy/article/J3IB9N990534SV3Y.html"
    },
    {
        "title": "从26楼换到了5楼后才知道：原来楼层高低的居住差距这么大",
        "docid": "J3NKU2J90556124M",
        "url": "https://www.163.com/dy/article/J3NKU2J90556124M.html"
    },
    {
        "title": "苏州：不再审核购房资格 取消首套房和二套房贷款利率下限",
        "docid": "VN2PISLF8",
        "url": "https://www.163.com/dy/article/VN2PISLF8.html"
    },
    {
        "title": "房价高低，房屋买卖之道",
        "docid": "VF2CMNU63",
        "url": "https://www.163.com/dy/article/VF2CMNU63.html"
    },
    {
        "title": "12米×10米，中式小院别墅设计，布局合理",
        "docid": "VS2CMOBVN",
        "url": "https://www.163.com/dy/article/VS2CMOBVN.html"
    },
    {
        "title": "我与高新区的故事——泰锦睿 张军",
        "docid": "VZ29HCTHN",
        "url": "https://www.163.com/dy/article/VZ29HCTHN.html"
    },
    {
        "title": "为什么成都停止南拓了？",
        "docid": "VS2POB97B",
        "url": "https://www.163.com/dy/article/VS2POB97B.html"
    },
    {
        "title": "救房地产后，谁才是背后真正的最大赢家？",
        "docid": "VQ2BVU8J6",
        "url": "https://www.163.com/dy/article/VQ2BVU8J6.html"
    },
    {
        "title": "决定房价高低的核心因素是什么？",
        "docid": "VG2BHLO35",
        "url": "https://www.163.com/dy/article/VG2BHLO35.html"
    },
    {
        "title": "揭秘房价软着陆四大路径：如何平衡房价与收入增长",
        "docid": "VF2BOLR7V",
        "url": "https://www.163.com/dy/article/VF2BOLR7V.html"
    },
    {
        "title": "武汉高楼电梯等死我，第一次进城遭遇",
        "docid": "VZ2C1Q8RL",
        "url": "https://www.163.com/dy/article/VZ2C1Q8RL.html"
    },
    {
        "title": "小城房价破万，好房难买！专家：不急，将来炒房客会哭着卖房",
        "docid": "J3LGOBHG0556124M",
        "url": "https://www.163.com/dy/article/J3LGOBHG0556124M.html"
    },
    {
        "title": "房地产当下的寒潮是因为居民陷入四不买陷阱",
        "docid": "J3LGHRMT0553TEV3",
        "url": "https://www.163.com/dy/article/J3LGHRMT0553TEV3.html"
    },
    {
        "title": "武汉洪山区：买新建商办房屋300平米以上的，可享受与住宅同等教育养老等服务",
        "docid": "J3I7G7LG0514R9P4",
        "url": "https://www.163.com/dy/article/J3I7G7LG0514R9P4.html"
    },
    {
        "title": "王炸！武汉白沙洲又新增两处地块规划",
        "docid": "J3H9SJ2L0556124M",
        "url": "https://www.163.com/dy/article/J3H9SJ2L0556124M.html"
    },
    {
        "title": "武汉：鼓励全面开展商品房预告登记，从源头防范“一房二卖”“先卖后抵”等风险",
        "docid": "J3I2BE8E0514R9P4",
        "url": "https://www.163.com/dy/article/J3I2BE8E0514R9P4.html"
    },
    {
        "title": "武汉绿城·梧桐里产品发布圆满落幕",
        "docid": "J3JM6RTJ05567SKQ",
        "url": "https://www.163.com/dy/article/J3JM6RTJ05567SKQ.html"
    },
    {
        "title": "武汉城建绍兴里1921项目首开收金2.16亿",
        "docid": "J3HVOFMV0519D45U",
        "url": "https://www.163.com/dy/article/J3HVOFMV0519D45U.html"
    },
    {
        "title": "武汉经开区联合贝壳找房推进房地产以旧换新",
        "docid": "J3MQLLO3053469LG",
        "url": "https://www.163.com/dy/article/J3MQLLO3053469LG.html"
    },
    {
        "title": "易闻天下丨汉阳第三批补助名单公布，上海发布新政",
        "docid": "J393JSH305567SKQ",
        "url": "https://www.163.com/dy/article/J393JSH305567SKQ.html"
    },
    {
        "title": "13.58万方，武汉杉杉奥特莱斯购物中心设计方案",
        "docid": "J3IB9N990534SV3Y",
        "url": "https://www.163.com/dy/article/J3IB9N990534SV3Y.html"
    },
    {
        "title": "好的户型图应满足这些指标，你选对了吗？",
        "docid": "J39U0OO00540B07R",
        "url": "https://www.163.com/dy/article/J39U0OO00540B07R.html"
    },
    {
        "title": "武汉洪山区：买新建商办房屋300平米以上的，可享受与住宅同等教育养老等服务",
        "docid": "J3I7G7LG0514R9P4",
        "url": "https://www.163.com/dy/article/J3I7G7LG0514R9P4.html"
    },
    {
        "title": "王炸！武汉白沙洲又新增两处地块规划",
        "docid": "J3H9SJ2L0556124M",
        "url": "https://www.163.com/dy/article/J3H9SJ2L0556124M.html"
    },
    {
        "title": "武汉：鼓励全面开展商品房预告登记，从源头防范“一房二卖”“先卖后抵”等风险",
        "docid": "J3I2BE8E0514R9P4",
        "url": "https://www.163.com/dy/article/J3I2BE8E0514R9P4.html"
    },
    {
        "title": "武汉绿城·梧桐里产品发布圆满落幕",
        "docid": "J3JM6RTJ05567SKQ",
        "url": "https://www.163.com/dy/article/J3JM6RTJ05567SKQ.html"
    },
    {
        "title": "武汉城建绍兴里1921项目首开收金2.16亿",
        "docid": "J3HVOFMV0519D45U",
        "url": "https://www.163.com/dy/article/J3HVOFMV0519D45U.html"
    },
    {
        "title": "武汉经开区联合贝壳找房推进房地产以旧换新",
        "docid": "J3MQLLO3053469LG",
        "url": "https://www.163.com/dy/article/J3MQLLO3053469LG.html"
    },
    {
        "title": "易闻天下丨汉阳第三批补助名单公布，上海发布新政",
        "docid": "J393JSH305567SKQ",
        "url": "https://www.163.com/dy/article/J393JSH305567SKQ.html"
    },
    {
        "title": "13.58万方，武汉杉杉奥特莱斯购物中心设计方案",
        "docid": "J3IB9N990534SV3Y",
        "url": "https://www.163.com/dy/article/J3IB9N990534SV3Y.html"
    },
    {
        "title": "新华鲜报｜助力“安居梦”！全国住房公积金发放个人住房贷款近1.5万亿元",
        "docid": "J3KCGIFA05346RC6",
        "url": "https://www.163.com/dy/article/J3KCGIFA05346RC6.html"
    },
    {
        "title": "楼市40年来最大招，为啥不救房价？",
        "docid": "VB2A0RC1D",
        "url": "https://www.163.com/dy/article/VB2A0RC1D.html"
    },
    {
        "title": "房贷还不上了不要断供，这样做后果很严重",
        "docid": "VE2B7Q9QN",
        "url": "https://www.163.com/dy/article/VE2B7Q9QN.html"
    },
    {
        "title": "农民翻建房屋被指违建，农田上的高楼却无人管理，双重标准惹争议",
        "docid": "VX2BSANFV",
        "url": "https://www.163.com/dy/article/VX2BSANFV.html"
    },
    {
        "title": "小巧精致新中庭院，步移景异才好庭院",
        "docid": "VR2POU1CK",
        "url": "https://www.163.com/dy/article/VR2POU1CK.html"
    },
    {
        "title": "新政后的第一个周末、央企楼盘既然带头降价",
        "docid": "VX2PSU3II",
        "url": "https://www.163.com/dy/article/VX2PSU3II.html"
    },
    {
        "title": "这样的户型，真的不建议买！双暗卫加餐厅，以后住着别提多难受了",
        "docid": "VB2CM1A5T",
        "url": "https://www.163.com/dy/article/VB2CM1A5T.html"
    },
    {
        "title": "房价再这么下去，很多人都要出问题了",
        "docid": "VP2CIG8PV",
        "url": "https://www.163.com/dy/article/VP2CIG8PV.html"
    },
    {
        "title": "“三箭齐发”，重磅出击之后，楼市走向又会如何？",
        "docid": "VU2N484LL",
        "url": "https://www.163.com/dy/article/VU2N484LL.html"
    },
    {
        "title": "天涯神贴：酒店员工惊魂记【三】",
        "docid": "VW2BPLD1U",
        "url": "https://www.163.com/dy/article/VW2BPLD1U.html"
    },
    {
        "title": "为何房地产成为某些人的永恒追逐？",
        "docid": "VW2PQ3VGE",
        "url": "https://www.163.com/dy/article/VW2PQ3VGE.html"
    },
    {
        "title": "都说买房不能买4楼？错了，这3个楼层才是真的有问题",
        "docid": "J3NEQICR0520E3F7",
        "url": "https://www.163.com/dy/article/J3NEQICR0520E3F7.html"
    },
    {
        "title": "城投带50万亿回归，意味着要大洗牌",
        "docid": "J3NH8R8D0552F71X",
        "url": "https://www.163.com/dy/article/J3NH8R8D0552F71X.html"
    },
    {
        "title": "秋叶原商圈400米！东京千代田区2002年电梯房，6线6站可利用，25㎡售约126万！",
        "docid": "J3A7N9KC05359JWY",
        "url": "https://www.163.com/dy/article/J3A7N9KC05359JWY.html"
    },
    {
        "title": "武汉洪山区：买新建商办房屋300平米以上的，可享受与住宅同等教育养老等服务",
        "docid": "J3I7G7LG0514R9P4",
        "url": "https://www.163.com/dy/article/J3I7G7LG0514R9P4.html"
    },
    {
        "title": "王炸！武汉白沙洲又新增两处地块规划",
        "docid": "J3H9SJ2L0556124M",
        "url": "https://www.163.com/dy/article/J3H9SJ2L0556124M.html"
    },
    {
        "title": "武汉：鼓励全面开展商品房预告登记，从源头防范“一房二卖”“先卖后抵”等风险",
        "docid": "J3I2BE8E0514R9P4",
        "url": "https://www.163.com/dy/article/J3I2BE8E0514R9P4.html"
    },
    {
        "title": "武汉绿城·梧桐里产品发布圆满落幕",
        "docid": "J3JM6RTJ05567SKQ",
        "url": "https://www.163.com/dy/article/J3JM6RTJ05567SKQ.html"
    },
    {
        "title": "武汉城建绍兴里1921项目首开收金2.16亿",
        "docid": "J3HVOFMV0519D45U",
        "url": "https://www.163.com/dy/article/J3HVOFMV0519D45U.html"
    },
    {
        "title": "武汉经开区联合贝壳找房推进房地产以旧换新",
        "docid": "J3MQLLO3053469LG",
        "url": "https://www.163.com/dy/article/J3MQLLO3053469LG.html"
    },
    {
        "title": "易闻天下丨汉阳第三批补助名单公布，上海发布新政",
        "docid": "J393JSH305567SKQ",
        "url": "https://www.163.com/dy/article/J393JSH305567SKQ.html"
    },
    {
        "title": "加州这3城市房价是全美最难以负担",
        "docid": "J3NSJVMI0514BT3D",
        "url": "https://www.163.com/dy/article/J3NSJVMI0514BT3D.html"
    },
    {
        "title": "武汉洪山区：买新建商办房屋300平米以上的，可享受与住宅同等教育养老等服务",
        "docid": "J3I7G7LG0514R9P4",
        "url": "https://www.163.com/dy/article/J3I7G7LG0514R9P4.html"
    },
    {
        "title": "王炸！武汉白沙洲又新增两处地块规划",
        "docid": "J3H9SJ2L0556124M",
        "url": "https://www.163.com/dy/article/J3H9SJ2L0556124M.html"
    },
    {
        "title": "武汉：鼓励全面开展商品房预告登记，从源头防范“一房二卖”“先卖后抵”等风险",
        "docid": "J3I2BE8E0514R9P4",
        "url": "https://www.163.com/dy/article/J3I2BE8E0514R9P4.html"
    },
    {
        "title": "武汉绿城·梧桐里产品发布圆满落幕",
        "docid": "J3JM6RTJ05567SKQ",
        "url": "https://www.163.com/dy/article/J3JM6RTJ05567SKQ.html"
    },
    {
        "title": "武汉城建绍兴里1921项目首开收金2.16亿",
        "docid": "J3HVOFMV0519D45U",
        "url": "https://www.163.com/dy/article/J3HVOFMV0519D45U.html"
    },
    {
        "title": "武汉经开区联合贝壳找房推进房地产以旧换新",
        "docid": "J3MQLLO3053469LG",
        "url": "https://www.163.com/dy/article/J3MQLLO3053469LG.html"
    },
    {
        "title": "易闻天下丨汉阳第三批补助名单公布，上海发布新政",
        "docid": "J393JSH305567SKQ",
        "url": "https://www.163.com/dy/article/J393JSH305567SKQ.html"
    },
    {
        "title": "13.58万方，武汉杉杉奥特莱斯购物中心设计方案",
        "docid": "J3IB9N990534SV3Y",
        "url": "https://www.163.com/dy/article/J3IB9N990534SV3Y.html"
    },
    {
        "title": "房企拿地节奏放缓 谨慎和聚焦仍是投资主旋律",
        "docid": "J3N3F7U1053469RG",
        "url": "https://www.163.com/dy/article/J3N3F7U1053469RG.html"
    },
    {
        "title": "武汉洪山区：买新建商办房屋300平米以上的，可享受与住宅同等教育养老等服务",
        "docid": "J3I7G7LG0514R9P4",
        "url": "https://www.163.com/dy/article/J3I7G7LG0514R9P4.html"
    },
    {
        "title": "王炸！武汉白沙洲又新增两处地块规划",
        "docid": "J3H9SJ2L0556124M",
        "url": "https://www.163.com/dy/article/J3H9SJ2L0556124M.html"
    },
    {
        "title": "武汉：鼓励全面开展商品房预告登记，从源头防范“一房二卖”“先卖后抵”等风险",
        "docid": "J3I2BE8E0514R9P4",
        "url": "https://www.163.com/dy/article/J3I2BE8E0514R9P4.html"
    },
    {
        "title": "武汉绿城·梧桐里产品发布圆满落幕",
        "docid": "J3JM6RTJ05567SKQ",
        "url": "https://www.163.com/dy/article/J3JM6RTJ05567SKQ.html"
    },
    {
        "title": "武汉城建绍兴里1921项目首开收金2.16亿",
        "docid": "J3HVOFMV0519D45U",
        "url": "https://www.163.com/dy/article/J3HVOFMV0519D45U.html"
    },
    {
        "title": "武汉经开区联合贝壳找房推进房地产以旧换新",
        "docid": "J3MQLLO3053469LG",
        "url": "https://www.163.com/dy/article/J3MQLLO3053469LG.html"
    },
    {
        "title": "易闻天下丨汉阳第三批补助名单公布，上海发布新政",
        "docid": "J393JSH305567SKQ",
        "url": "https://www.163.com/dy/article/J393JSH305567SKQ.html"
    },
    {
        "title": "13.58万方，武汉杉杉奥特莱斯购物中心设计方案",
        "docid": "J3IB9N990534SV3Y",
        "url": "https://www.163.com/dy/article/J3IB9N990534SV3Y.html"
    },
    {
        "title": "武汉5月新建住房成交环比上涨，6月多个新盘上市",
        "docid": "J3MDDVA3053469LG",
        "url": "https://www.163.com/dy/article/J3MDDVA3053469LG.html"
    },
    {
        "title": "易闻天下丨武昌发布“昌七条”，全国首付比例进入15%时代",
        "docid": "J3E894B205567SKQ",
        "url": "https://www.163.com/dy/article/J3E894B205567SKQ.html"
    },
    {
        "title": "澳洲内城区多地房价下跌！跌幅高达三成，澳洲近80%借款人大幅减少开支",
        "docid": "J3O0G0BF05199N88",
        "url": "https://www.163.com/dy/article/J3O0G0BF05199N88.html"
    },
    {
        "title": "武汉洪山区：买新建商办房屋300平米以上的，可享受与住宅同等教育养老等服务",
        "docid": "J3I7G7LG0514R9P4",
        "url": "https://www.163.com/dy/article/J3I7G7LG0514R9P4.html"
    },
    {
        "title": "王炸！武汉白沙洲又新增两处地块规划",
        "docid": "J3H9SJ2L0556124M",
        "url": "https://www.163.com/dy/article/J3H9SJ2L0556124M.html"
    },
    {
        "title": "武汉：鼓励全面开展商品房预告登记，从源头防范“一房二卖”“先卖后抵”等风险",
        "docid": "J3I2BE8E0514R9P4",
        "url": "https://www.163.com/dy/article/J3I2BE8E0514R9P4.html"
    },
    {
        "title": "武汉绿城·梧桐里产品发布圆满落幕",
        "docid": "J3JM6RTJ05567SKQ",
        "url": "https://www.163.com/dy/article/J3JM6RTJ05567SKQ.html"
    },
    {
        "title": "武汉城建绍兴里1921项目首开收金2.16亿",
        "docid": "J3HVOFMV0519D45U",
        "url": "https://www.163.com/dy/article/J3HVOFMV0519D45U.html"
    },
    {
        "title": "武汉经开区联合贝壳找房推进房地产以旧换新",
        "docid": "J3MQLLO3053469LG",
        "url": "https://www.163.com/dy/article/J3MQLLO3053469LG.html"
    },
    {
        "title": "易闻天下丨汉阳第三批补助名单公布，上海发布新政",
        "docid": "J393JSH305567SKQ",
        "url": "https://www.163.com/dy/article/J393JSH305567SKQ.html"
    },
    {
        "title": "13.58万方，武汉杉杉奥特莱斯购物中心设计方案",
        "docid": "J3IB9N990534SV3Y",
        "url": "https://www.163.com/dy/article/J3IB9N990534SV3Y.html"
    },
    {
        "title": "武汉5月新建住房成交环比上涨，6月多个新盘上市",
        "docid": "J3MDDVA3053469LG",
        "url": "https://www.163.com/dy/article/J3MDDVA3053469LG.html"
    },
    {
        "title": "武汉洪山区：买新建商办房屋300平米以上的，可享受与住宅同等教育养老等服务",
        "docid": "J3I7G7LG0514R9P4",
        "url": "https://www.163.com/dy/article/J3I7G7LG0514R9P4.html"
    },
    {
        "title": "王炸！武汉白沙洲又新增两处地块规划",
        "docid": "J3H9SJ2L0556124M",
        "url": "https://www.163.com/dy/article/J3H9SJ2L0556124M.html"
    },
    {
        "title": "武汉：鼓励全面开展商品房预告登记，从源头防范“一房二卖”“先卖后抵”等风险",
        "docid": "J3I2BE8E0514R9P4",
        "url": "https://www.163.com/dy/article/J3I2BE8E0514R9P4.html"
    },
    {
        "title": "武汉绿城·梧桐里产品发布圆满落幕",
        "docid": "J3JM6RTJ05567SKQ",
        "url": "https://www.163.com/dy/article/J3JM6RTJ05567SKQ.html"
    },
    {
        "title": "武汉城建绍兴里1921项目首开收金2.16亿",
        "docid": "J3HVOFMV0519D45U",
        "url": "https://www.163.com/dy/article/J3HVOFMV0519D45U.html"
    },
    {
        "title": "武汉经开区联合贝壳找房推进房地产以旧换新",
        "docid": "J3MQLLO3053469LG",
        "url": "https://www.163.com/dy/article/J3MQLLO3053469LG.html"
    },
    {
        "title": "易闻天下丨汉阳第三批补助名单公布，上海发布新政",
        "docid": "J393JSH305567SKQ",
        "url": "https://www.163.com/dy/article/J393JSH305567SKQ.html"
    },
    {
        "title": "13.58万方，武汉杉杉奥特莱斯购物中心设计方案",
        "docid": "J3IB9N990534SV3Y",
        "url": "https://www.163.com/dy/article/J3IB9N990534SV3Y.html"
    },
    {
        "title": "武汉5月新建住房成交环比上涨，6月多个新盘上市",
        "docid": "J3MDDVA3053469LG",
        "url": "https://www.163.com/dy/article/J3MDDVA3053469LG.html"
    },
    {
        "title": "易闻天下丨武昌发布“昌七条”，全国首付比例进入15%时代",
        "docid": "J3E894B205567SKQ",
        "url": "https://www.163.com/dy/article/J3E894B205567SKQ.html"
    },
    {
        "title": "怎么判断移民项目靠不靠谱？",
        "docid": "VW29LNP67",
        "url": "https://www.163.com/dy/article/VW29LNP67.html"
    },
    {
        "title": "在印度用一百万人民币，能买多大房子，当地回答让国人震惊",
        "docid": "VQ2C95929",
        "url": "https://www.163.com/dy/article/VQ2C95929.html"
    },
    {
        "title": "美国加息对想买房人的影响",
        "docid": "VI2D30E1O",
        "url": "https://www.163.com/dy/article/VI2D30E1O.html"
    },
    {
        "title": "装修省钱攻略，避坑指南",
        "docid": "VC2CH712D",
        "url": "https://www.163.com/dy/article/VC2CH712D.html"
    },
    {
        "title": "提着现金，买套一楼带院的市区豪宅！90后也开始准备养老问题了",
        "docid": "VI2D3AB9I",
        "url": "https://www.163.com/dy/article/VI2D3AB9I.html"
    },
    {
        "title": "埃舍尔的楼梯 一个“永无止境 无限循环的楼梯”",
        "docid": "VA2C0LHI2",
        "url": "https://www.163.com/dy/article/VA2C0LHI2.html"
    },
    {
        "title": "一千年后的房子会是怎么的？",
        "docid": "VI2CM8T7O",
        "url": "https://www.163.com/dy/article/VI2CM8T7O.html"
    },
    {
        "title": "别再看热闹！没有没房的看买了房的笑话，相当不合理",
        "docid": "VE2BQRHDU",
        "url": "https://www.163.com/dy/article/VE2BQRHDU.html"
    },
    {
        "title": "原来大陆人买房公司要缴一半住房公积金 医保还有户头能买药?",
        "docid": "VN2CK8QM3",
        "url": "https://www.163.com/dy/article/VN2CK8QM3.html"
    },
    {
        "title": "区区60平花园面积，也能停车和休闲",
        "docid": "VN2D8HN1P",
        "url": "https://www.163.com/dy/article/VN2D8HN1P.html"
    },
    {
        "title": "关注！首套房首进入15%时代，你还会考虑么？",
        "docid": "J3O67BTE05159CE4",
        "url": "https://www.163.com/dy/article/J3O67BTE05159CE4.html"
    },
    {
        "title": "武汉洪山区：买新建商办房屋300平米以上的，可享受与住宅同等教育养老等服务",
        "docid": "J3I7G7LG0514R9P4",
        "url": "https://www.163.com/dy/article/J3I7G7LG0514R9P4.html"
    },
    {
        "title": "王炸！武汉白沙洲又新增两处地块规划",
        "docid": "J3H9SJ2L0556124M",
        "url": "https://www.163.com/dy/article/J3H9SJ2L0556124M.html"
    },
    {
        "title": "武汉：鼓励全面开展商品房预告登记，从源头防范“一房二卖”“先卖后抵”等风险",
        "docid": "J3I2BE8E0514R9P4",
        "url": "https://www.163.com/dy/article/J3I2BE8E0514R9P4.html"
    },
    {
        "title": "武汉绿城·梧桐里产品发布圆满落幕",
        "docid": "J3JM6RTJ05567SKQ",
        "url": "https://www.163.com/dy/article/J3JM6RTJ05567SKQ.html"
    },
    {
        "title": "武汉城建绍兴里1921项目首开收金2.16亿",
        "docid": "J3HVOFMV0519D45U",
        "url": "https://www.163.com/dy/article/J3HVOFMV0519D45U.html"
    },
    {
        "title": "武汉经开区联合贝壳找房推进房地产以旧换新",
        "docid": "J3MQLLO3053469LG",
        "url": "https://www.163.com/dy/article/J3MQLLO3053469LG.html"
    },
    {
        "title": "易闻天下丨汉阳第三批补助名单公布，上海发布新政",
        "docid": "J393JSH305567SKQ",
        "url": "https://www.163.com/dy/article/J393JSH305567SKQ.html"
    },
    {
        "title": "13.58万方，武汉杉杉奥特莱斯购物中心设计方案",
        "docid": "J3IB9N990534SV3Y",
        "url": "https://www.163.com/dy/article/J3IB9N990534SV3Y.html"
    },
    {
        "title": "武汉5月新建住房成交环比上涨，6月多个新盘上市",
        "docid": "J3MDDVA3053469LG",
        "url": "https://www.163.com/dy/article/J3MDDVA3053469LG.html"
    },
    {
        "title": "马光远说，房价涨跌，不是评论区决定的，沪9条后忙不忙？",
        "docid": "J3O7CFBJ0539PXYN",
        "url": "https://www.163.com/dy/article/J3O7CFBJ0539PXYN.html"
    },
    {
        "title": "房贷利率再次下调，取消最低下限速度惊人",
        "docid": "VI2QDS3L4",
        "url": "https://www.163.com/dy/article/VI2QDS3L4.html"
    },
    {
        "title": "你也在赌吗？ 一个敢说真话的房产人",
        "docid": "VM2DAKI2M",
        "url": "https://www.163.com/dy/article/VM2DAKI2M.html"
    },
    {
        "title": "十年后有房和没房的区别",
        "docid": "VP2QETLDT",
        "url": "https://www.163.com/dy/article/VP2QETLDT.html"
    },
    {
        "title": "房子贷款没成功怎么办？ #北京律师朱瑞雷#房屋买卖#房产律师",
        "docid": "VZ2CC63QV",
        "url": "https://www.163.com/dy/article/VZ2CC63QV.html"
    },
    {
        "title": "买房放骨灰盒，比墓地便宜还保值，上海大爷直言不讳，说出心里话",
        "docid": "VZ2QD7DBR",
        "url": "https://www.163.com/dy/article/VZ2QD7DBR.html"
    },
    {
        "title": "房地产三大底线任务：方向没问题，预期有问题",
        "docid": "VL2QACIIP",
        "url": "https://www.163.com/dy/article/VL2QACIIP.html"
    },
    {
        "title": "揭露黑户贷款骗局，中融亚洲的警示！",
        "docid": "VF2D6FIG0",
        "url": "https://www.163.com/dy/article/VF2D6FIG0.html"
    },
    {
        "title": "气球贷的本质：“首付”变“尾付”！",
        "docid": "VH2QD9QAL",
        "url": "https://www.163.com/dy/article/VH2QD9QAL.html"
    },
    {
        "title": "农村自建房，为何选择危险地点？村长缺乏宅基地？",
        "docid": "VF2BGKC64",
        "url": "https://www.163.com/dy/article/VF2BGKC64.html"
    },
    {
        "title": "信号~这种房子，成交量必涨～",
        "docid": "J3O9BCOT055614NP",
        "url": "https://www.163.com/dy/article/J3O9BCOT055614NP.html"
    },
    {
        "title": "房价不能大规模大幅度下跌，因为有巨额的贷款要还，事实是什么？",
        "docid": "J3O8Q99405524QHN",
        "url": "https://www.163.com/dy/article/J3O8Q99405524QHN.html"
    },
    {
        "title": "户型鉴赏：381㎡墅级尺度，一户一层，3入户，3阳台，360°视野",
        "docid": "J3B4L82J0556124M",
        "url": "https://www.163.com/dy/article/J3B4L82J0556124M.html"
    },
    {
        "title": "楼市，迎来新的大变局？",
        "docid": "J3O99QAC05358KE1",
        "url": "https://www.163.com/dy/article/J3O99QAC05358KE1.html"
    },
    {
        "title": "现在的房子银行都不敢要了",
        "docid": "VI2D8C8PC",
        "url": "https://www.163.com/dy/article/VI2D8C8PC.html"
    },
    {
        "title": "揭秘“辽宁鬼城”：房子白给也不要?背后隐藏着什么秘密",
        "docid": "VF2BEGBPP",
        "url": "https://www.163.com/dy/article/VF2BEGBPP.html"
    },
    {
        "title": "一旦出现三大信号，立刻买房",
        "docid": "VF2CFIT74",
        "url": "https://www.163.com/dy/article/VF2CFIT74.html"
    },
    {
        "title": "有的小区为啥只盖到6楼",
        "docid": "VZ28UV5E0",
        "url": "https://www.163.com/dy/article/VZ28UV5E0.html"
    },
    {
        "title": "海信观澜实景样板间：餐厨客厅一体，尽享家庭欢聚与私密休憩",
        "docid": "VA29FCLR9",
        "url": "https://www.163.com/dy/article/VA29FCLR9.html"
    },
    {
        "title": "安徽农民造出折叠房，10分钟组装两室一厅，为打工人提供舒适住所",
        "docid": "VH1HISMVL",
        "url": "https://www.163.com/dy/article/VH1HISMVL.html"
    },
    {
        "title": "阵地丨部分核心城市开始回暖，预期二手房好于新房",
        "docid": "J3OB4L1T0553TDTY",
        "url": "https://www.163.com/dy/article/J3OB4L1T0553TDTY.html"
    },
    {
        "title": "房地产，最难的时候过去了",
        "docid": "J3OAR9IS05158B67",
        "url": "https://www.163.com/dy/article/J3OAR9IS05158B67.html"
    },
    {
        "title": "坑人的房贷，普通人的悲哀！",
        "docid": "J3N947IJ0553TDXU",
        "url": "https://www.163.com/dy/article/J3N947IJ0553TDXU.html"
    },
    {
        "title": "房子能抄底吗？高盛预测将跌到2027年！",
        "docid": "J3OC9GC40535PKJN",
        "url": "https://www.163.com/dy/article/J3OC9GC40535PKJN.html"
    },
    {
        "title": "欧佩克+同意延长减产协议；苏州全面取消住房限购丨盘前必读",
        "docid": "J3OC1PGM0519DDQ2",
        "url": "https://www.163.com/dy/article/J3OC1PGM0519DDQ2.html"
    },
    {
        "title": "玩得过卖家？母女没事去楼盘砍价玩，把自己玩到坑里后大闹售楼部",
        "docid": "J3OCDFR70553TDXU",
        "url": "https://www.163.com/dy/article/J3OCDFR70553TDXU.html"
    },
    {
        "title": "买商铺‼️你必问的“8个问题”～",
        "docid": "VF2QEPV8E",
        "url": "https://www.163.com/dy/article/VF2QEPV8E.html"
    },
    {
        "title": "北上广深成交继续下跌，数据再次打脸炒房客",
        "docid": "VV2QHVRGR",
        "url": "https://www.163.com/dy/article/VV2QHVRGR.html"
    },
    {
        "title": "房价下跌，负债最多的是这些人！",
        "docid": "VI2QICM2H",
        "url": "https://www.163.com/dy/article/VI2QICM2H.html"
    },
    {
        "title": "3400万确实贵的离谱！颜值爆表的游艇大宅，970m²湖畔独栋别墅",
        "docid": "VB2CLO4GG",
        "url": "https://www.163.com/dy/article/VB2CLO4GG.html"
    },
    {
        "title": "多地新房贷款利率下调后 存量房贷利率下调呼声再起",
        "docid": "J3OC4JRH0519AAFH",
        "url": "https://www.163.com/dy/article/J3OC4JRH0519AAFH.html"
    },
    {
        "title": "越来越多的人都开始撤离高层住宅的原因是什么？网友的回答真实",
        "docid": "J3BC5RG8055631P5",
        "url": "https://www.163.com/dy/article/J3BC5RG8055631P5.html"
    },
    {
        "title": "消费之变：从挥霍到极简，时代的震撼转型",
        "docid": "J3NC3N3805418GBJ",
        "url": "https://www.163.com/dy/article/J3NC3N3805418GBJ.html"
    },
    {
        "title": "笑不活了，6万元买两室一厅，我却笑死网友评论里",
        "docid": "J3N5C72D0553TEV3",
        "url": "https://www.163.com/dy/article/J3N5C72D0553TEV3.html"
    },
    {
        "title": "武汉洪山区：买新建商办房屋300平米以上的，可享受与住宅同等教育养老等服务",
        "docid": "J3I7G7LG0514R9P4",
        "url": "https://www.163.com/dy/article/J3I7G7LG0514R9P4.html"
    },
    {
        "title": "王炸！武汉白沙洲又新增两处地块规划",
        "docid": "J3H9SJ2L0556124M",
        "url": "https://www.163.com/dy/article/J3H9SJ2L0556124M.html"
    },
    {
        "title": "2023年住房公积金个人贷款达1.47万亿元，同比增长24.25%",
        "docid": "J3NTH2GL0553TB9L",
        "url": "https://www.163.com/dy/article/J3NTH2GL0553TB9L.html"
    },
    {
        "title": "单月环比增长，百强房企5月销售数据出炉！",
        "docid": "J3OCLA9T053469RG",
        "url": "https://www.163.com/dy/article/J3OCLA9T053469RG.html"
    },
    {
        "title": "武汉：鼓励全面开展商品房预告登记，从源头防范“一房二卖”“先卖后抵”等风险",
        "docid": "J3I2BE8E0514R9P4",
        "url": "https://www.163.com/dy/article/J3I2BE8E0514R9P4.html"
    },
    {
        "title": "武汉绿城·梧桐里产品发布圆满落幕",
        "docid": "J3JM6RTJ05567SKQ",
        "url": "https://www.163.com/dy/article/J3JM6RTJ05567SKQ.html"
    },
    {
        "title": "武汉名校遍地开分校，提醒你，别上头",
        "docid": "J3OFH82J0553TDVP",
        "url": "https://www.163.com/dy/article/J3OFH82J0553TDVP.html"
    },
    {
        "title": "盘前情报｜苏州全面取消限购，购房可落户；国内主要新能源车企公布5月交付数据，机构称全年销量有望保持高景气",
        "docid": "J3OE8U6K05199NPP",
        "url": "https://www.163.com/dy/article/J3OE8U6K05199NPP.html"
    },
    {
        "title": "按揭“气球贷”重出江湖，房贷会成为银行抢夺的下一个赛道吗？",
        "docid": "J3OEUUOC0519QIKK",
        "url": "https://www.163.com/dy/article/J3OEUUOC0519QIKK.html"
    },
    {
        "title": "社会十剩现象揭秘：新房空置，剩男剩女成灾",
        "docid": "VM2QKCQQ9",
        "url": "https://www.163.com/dy/article/VM2QKCQQ9.html"
    },
    {
        "title": "出租屋备案办理，学位被占？",
        "docid": "VG2DGVSMT",
        "url": "https://www.163.com/dy/article/VG2DGVSMT.html"
    },
    {
        "title": "内蒙离婚率翻三倍，原来是因为这事",
        "docid": "VB2QJOGCU",
        "url": "https://www.163.com/dy/article/VB2QJOGCU.html"
    },
    {
        "title": "住在高层，苦不堪言，崩溃到极点",
        "docid": "VV2QJA6BS",
        "url": "https://www.163.com/dy/article/VV2QJA6BS.html"
    },
    {
        "title": "小梁在珠海看房，99平四房改三房，客厅和景观是亮点",
        "docid": "VF2DIN58M",
        "url": "https://www.163.com/dy/article/VF2DIN58M.html"
    },
    {
        "title": "东北林区有个小院子，房子小，菜地少，离河近，关键是白菜价！",
        "docid": "VG2PAITMS",
        "url": "https://www.163.com/dy/article/VG2PAITMS.html"
    },
    {
        "title": "国家第四次动员买房，你跟吗",
        "docid": "VY2DJTPVL",
        "url": "https://www.163.com/dy/article/VY2DJTPVL.html"
    },
    {
        "title": "中国女留学生在澳洲蜗居7平米公寓，租金比CBD还高",
        "docid": "J3OF157D05560ZCW",
        "url": "https://www.163.com/dy/article/J3OF157D05560ZCW.html"
    },
    {
        "title": "武汉洪山区：买新建商办房屋300平米以上的，可享受与住宅同等教育养老等服务",
        "docid": "J3I7G7LG0514R9P4",
        "url": "https://www.163.com/dy/article/J3I7G7LG0514R9P4.html"
    },
    {
        "title": "王炸！武汉白沙洲又新增两处地块规划",
        "docid": "J3H9SJ2L0556124M",
        "url": "https://www.163.com/dy/article/J3H9SJ2L0556124M.html"
    },
    {
        "title": "Mysteel：5月房地产大事记",
        "docid": "J3OGCGPH0514AHGG",
        "url": "https://www.163.com/dy/article/J3OGCGPH0514AHGG.html"
    },
    {
        "title": "武汉名校遍地开分校，提醒你，别上头",
        "docid": "J3OFH82J0553TDVP",
        "url": "https://www.163.com/dy/article/J3OFH82J0553TDVP.html"
    },
    {
        "title": "武汉：鼓励全面开展商品房预告登记，从源头防范“一房二卖”“先卖后抵”等风险",
        "docid": "J3I2BE8E0514R9P4",
        "url": "https://www.163.com/dy/article/J3I2BE8E0514R9P4.html"
    },
    {
        "title": "武汉绿城·梧桐里产品发布圆满落幕",
        "docid": "J3JM6RTJ05567SKQ",
        "url": "https://www.163.com/dy/article/J3JM6RTJ05567SKQ.html"
    },
    {
        "title": "武汉城建绍兴里1921项目首开收金2.16亿",
        "docid": "J3HVOFMV0519D45U",
        "url": "https://www.163.com/dy/article/J3HVOFMV0519D45U.html"
    },
    {
        "title": "武汉经开区联合贝壳找房推进房地产以旧换新",
        "docid": "J3MQLLO3053469LG",
        "url": "https://www.163.com/dy/article/J3MQLLO3053469LG.html"
    },
    {
        "title": "易闻天下丨汉阳第三批补助名单公布，上海发布新政",
        "docid": "J393JSH305567SKQ",
        "url": "https://www.163.com/dy/article/J393JSH305567SKQ.html"
    },
    {
        "title": "易闻天下丨武汉两区楼市公告，甘露山雪世界新动态",
        "docid": "J3OGM2NV05567SKQ",
        "url": "https://www.163.com/dy/article/J3OGM2NV05567SKQ.html"
    },
    {
        "title": "地产周刊丨一线城市接力出招 购房者期待出台更多利好政策",
        "docid": "J3OIEQJK0512D71I",
        "url": "https://www.163.com/dy/article/J3OIEQJK0512D71I.html"
    },
    {
        "title": "2024年不买房，五年后房价会涨吗？内行人预言，一线3倍、二线4倍",
        "docid": "J3BHI7EN0540A6F8",
        "url": "https://www.163.com/dy/article/J3BHI7EN0540A6F8.html"
    },
    {
        "title": "“失业族”住房危机：男子失业被爸爸指责，一家人或将无家可归！",
        "docid": "J3BHVTTN05565GC7",
        "url": "https://www.163.com/dy/article/J3BHVTTN05565GC7.html"
    },
    {
        "title": "央行新政！首付比例降至15，买房不再难了，大福利！",
        "docid": "J3OHOP4605567F11",
        "url": "https://www.163.com/dy/article/J3OHOP4605567F11.html"
    },
    {
        "title": "房地产行业大事件汇总(2024.0603)",
        "docid": "J3OHA89N0515APM9",
        "url": "https://www.163.com/dy/article/J3OHA89N0515APM9.html"
    },
    {
        "title": "2012年神奇又魔幻的一年，这一年里你都做了什么事？",
        "docid": "J3OI6KKE0535FFBB",
        "url": "https://www.163.com/dy/article/J3OI6KKE0535FFBB.html"
    },
    {
        "title": "银行基层员工的工资单，公积金才是亮点。",
        "docid": "J3KJHPKO0553EANU",
        "url": "https://www.163.com/dy/article/J3KJHPKO0553EANU.html"
    },
    {
        "title": "地产周刊丨房地产商：保持好心态 等待市场火起来",
        "docid": "J3OIEIN10512D71I",
        "url": "https://www.163.com/dy/article/J3OIEIN10512D71I.html"
    },
    {
        "title": "尊华：全民租房时代的赚钱风口",
        "docid": "VZ2QMTVVE",
        "url": "https://www.163.com/dy/article/VZ2QMTVVE.html"
    },
    {
        "title": "澳大利亚最低工资将提高，部分内城区房价正在下跌",
        "docid": "J3OJIBCH05560ZCW",
        "url": "https://www.163.com/dy/article/J3OJIBCH05560ZCW.html"
    },
    {
        "title": "比房价下跌更令人担忧的问题已经出现？42%的家庭或将面对！",
        "docid": "J3BJB2UV05566DVL",
        "url": "https://www.163.com/dy/article/J3BJB2UV05566DVL.html"
    },
    {
        "title": "10年后，这类楼层将成“黄金楼层”？专家：有钱人已经悄悄下手了",
        "docid": "J3NCA6M60535BC2F",
        "url": "https://www.163.com/dy/article/J3NCA6M60535BC2F.html"
    },
    {
        "title": "婚前买的房归谁？一图告诉你，收藏备用，或许用得到呢",
        "docid": "J3OK0QOE055616WX",
        "url": "https://www.163.com/dy/article/J3OK0QOE055616WX.html"
    },
    {
        "title": "买房不是买菜！30w教训告诉你：多看、多比较、多思考真实需求！",
        "docid": "VF2QP7S9B",
        "url": "https://www.163.com/dy/article/VF2QP7S9B.html"
    },
    {
        "title": "母亲卖房款的去向，老七是否知情呢？",
        "docid": "VO2QNCNTL",
        "url": "https://www.163.com/dy/article/VO2QNCNTL.html"
    },
    {
        "title": "日本人竟统一了日本房屋租金差",
        "docid": "VU2BO40LC",
        "url": "https://www.163.com/dy/article/VU2BO40LC.html"
    },
    {
        "title": "关注我了解更多房产知识",
        "docid": "VE2QOFF7O",
        "url": "https://www.163.com/dy/article/VE2QOFF7O.html"
    },
    {
        "title": "房地产将退出市场！聪明人都在急于套现！",
        "docid": "VY2QOFJ37",
        "url": "https://www.163.com/dy/article/VY2QOFJ37.html"
    },
    {
        "title": "房价崩盘回忆录：日本高位接盘的人，30年后过得如何？",
        "docid": "VO1L1JM1I",
        "url": "https://www.163.com/dy/article/VO1L1JM1I.html"
    },
    {
        "title": "破题进行时，解放路商圈或迎新出路…",
        "docid": "J3OMEQS80534B4GY",
        "url": "https://www.163.com/dy/article/J3OMEQS80534B4GY.html"
    },
    {
        "title": "消息称PAG将以5.74亿美元收购丰树新加坡旗舰办公楼",
        "docid": "J3OLML640519D45U",
        "url": "https://www.163.com/dy/article/J3OLML640519D45U.html"
    },
    {
        "title": "市区洋房vs郊区别墅，谁才是改善之王？",
        "docid": "J36KTOKI0535WDMF",
        "url": "https://www.163.com/dy/article/J36KTOKI0535WDMF.html"
    },
    {
        "title": "“好像有一半地产人不会做项目了。”",
        "docid": "J3OLV7E00553TDVP",
        "url": "https://www.163.com/dy/article/J3OLV7E00553TDVP.html"
    },
    {
        "title": "澳洲拍卖房源增多拉低清盘率 春季挂牌房源或大幅增加",
        "docid": "J3OKUI3F05568B9T",
        "url": "https://www.163.com/dy/article/J3OKUI3F05568B9T.html"
    },
    {
        "title": "第22周周报 | 新房成交环比量价齐涨，杉杉商业集团入驻会展国际片区",
        "docid": "J3OLHBDS0515AR80",
        "url": "https://www.163.com/dy/article/J3OLHBDS0515AR80.html"
    },
    {
        "title": "近年来，贵港市的发展可谓日新月异",
        "docid": "VS2QI4GVS",
        "url": "https://www.163.com/dy/article/VS2QI4GVS.html"
    },
    {
        "title": "关注我了解更多房产知识",
        "docid": "VE2QOFH2U",
        "url": "https://www.163.com/dy/article/VE2QOFH2U.html"
    },
    {
        "title": "买房放骨灰盒，比墓地便宜还保值，上海大爷直言不讳，说出心里话",
        "docid": "VA2QM0MSA",
        "url": "https://www.163.com/dy/article/VA2QM0MSA.html"
    },
    {
        "title": "楼市利好政策下，老破小，还值得买吗？",
        "docid": "VZ2QNR0P5",
        "url": "https://www.163.com/dy/article/VZ2QNR0P5.html"
    },
    {
        "title": "“文旅”到底是不是创新商业的解药？",
        "docid": "J3ON0VNE0515DOKM",
        "url": "https://www.163.com/dy/article/J3ON0VNE0515DOKM.html"
    },
    {
        "title": "叠拼别墅，真的不配叫作“别墅”吗？",
        "docid": "J2Q6O5430535WDMF",
        "url": "https://www.163.com/dy/article/J2Q6O5430535WDMF.html"
    },
    {
        "title": "挖掘人店服务多样性，贝壳彭永东希望“拥抱更大的新的可能性”",
        "docid": "J3OMTA2C05199LET",
        "url": "https://www.163.com/dy/article/J3OMTA2C05199LET.html"
    },
    {
        "title": "购买法拍房能申请贷款吗？",
        "docid": "J3BM8L9L0556704Q",
        "url": "https://www.163.com/dy/article/J3BM8L9L0556704Q.html"
    },
    {
        "title": "家乡楼市崩了！完善的设施、优美的环境、白菜的价格！",
        "docid": "VZ2DMV8KV",
        "url": "https://www.163.com/dy/article/VZ2DMV8KV.html"
    },
    {
        "title": "串串房这种房子千万不要碰",
        "docid": "VS2QKGS31",
        "url": "https://www.163.com/dy/article/VS2QKGS31.html"
    },
    {
        "title": "关注我了解更多房产知识",
        "docid": "VE2QOFFQF",
        "url": "https://www.163.com/dy/article/VE2QOFFQF.html"
    },
    {
        "title": "欠房贷110万，顶楼跳下，买房是中年人过不去的坎！",
        "docid": "VV2QL0UKA",
        "url": "https://www.163.com/dy/article/VV2QL0UKA.html"
    },
    {
        "title": "比房价下跌更可怕的五件事情，其实已经发生，大家知道是什么吗？",
        "docid": "VS2DIIJRT",
        "url": "https://www.163.com/dy/article/VS2DIIJRT.html"
    },
    {
        "title": "房价从11000跌到3000多，房子成了心病，楼市给我开了个大玩笑",
        "docid": "VY2QLG0P5",
        "url": "https://www.163.com/dy/article/VY2QLG0P5.html"
    },
    {
        "title": "未来10年，有“3类”房子或将很难转手，别砸手里，应提前知晓",
        "docid": "J3NHV1CR0535BC2F",
        "url": "https://www.163.com/dy/article/J3NHV1CR0535BC2F.html"
    },
    {
        "title": "武汉周边已经快速实现鹤岗花，一套房全款7万",
        "docid": "VD2QUSHHD",
        "url": "https://www.163.com/dy/article/VD2QUSHHD.html"
    },
    {
        "title": "小房子要垫十万八千箱，网友直呼太惊人！",
        "docid": "VD2QH1BL3",
        "url": "https://www.163.com/dy/article/VD2QH1BL3.html"
    },
    {
        "title": "十年烂尾无人问，一招断供天下惊",
        "docid": "VF2QVIHBP",
        "url": "https://www.163.com/dy/article/VF2QVIHBP.html"
    },
    {
        "title": "房地产新玩法已经开启！",
        "docid": "VR2QUMK4H",
        "url": "https://www.163.com/dy/article/VR2QUMK4H.html"
    },
    {
        "title": "25年老楼加装电梯，高楼层低楼层全后悔了，花钱找罪受！",
        "docid": "VY2QTTNNL",
        "url": "https://www.163.com/dy/article/VY2QTTNNL.html"
    },
    {
        "title": "他像女人的脸，说变就变。省了多少呢？",
        "docid": "VQ2DT1M9K",
        "url": "https://www.163.com/dy/article/VQ2DT1M9K.html"
    },
    {
        "title": "东莞人不骗东莞人，请珍惜来之不易的房子，信心比黄金重要",
        "docid": "VE2PDPQMC",
        "url": "https://www.163.com/dy/article/VE2PDPQMC.html"
    },
    {
        "title": "现代生活新风尚，钢结构厂房成潮流引领者#钢结构 #钢结构厂房",
        "docid": "VG2B93SHT",
        "url": "https://www.163.com/dy/article/VG2B93SHT.html"
    },
    {
        "title": "五四北，天空之城小区，后悔买早了，二手房成交分析",
        "docid": "VU2PMBCGF",
        "url": "https://www.163.com/dy/article/VU2PMBCGF.html"
    },
    {
        "title": "雨虹桃花源，让生活更美好！",
        "docid": "J3BQ9U1V05199FB7",
        "url": "https://www.163.com/dy/article/J3BQ9U1V05199FB7.html"
    },
    {
        "title": "房价拐点来了吗？2024年将进入楼市疯狂救市期",
        "docid": "J3OHK4T30553TDVP",
        "url": "https://www.163.com/dy/article/J3OHK4T30553TDVP.html"
    },
    {
        "title": "一个真实的故事，表姐在大城市买房后的绝望",
        "docid": "J3BRBOJQ055616ZT",
        "url": "https://www.163.com/dy/article/J3BRBOJQ055616ZT.html"
    },
    {
        "title": "房地产的去化苏州走在了最前面",
        "docid": "J3OHOEC50553TDXU",
        "url": "https://www.163.com/dy/article/J3OHOEC50553TDXU.html"
    },
    {
        "title": "躺平已经不可能，靠吃利息会更行不通，响应号召买房才有出路",
        "docid": "VE2R0E980",
        "url": "https://www.163.com/dy/article/VE2R0E980.html"
    },
    {
        "title": "温铁军：房地产、医疗、教育城镇化，迫使农村农民迁移城市",
        "docid": "VG2R0E8OV",
        "url": "https://www.163.com/dy/article/VG2R0E8OV.html"
    },
    {
        "title": "天天骂房价的人基本上都和房子没关系",
        "docid": "VG2QUUO1J",
        "url": "https://www.163.com/dy/article/VG2QUUO1J.html"
    },
    {
        "title": "中国的房价到底该不该降",
        "docid": "VG2R0R8VS",
        "url": "https://www.163.com/dy/article/VG2R0R8VS.html"
    },
    {
        "title": "北京亦庄紫禁壹号院南院1号楼3单元101室155.92平844万7月05起拍",
        "docid": "VO2QNINMQ",
        "url": "https://www.163.com/dy/article/VO2QNINMQ.html"
    },
    {
        "title": "最终我们还是要靠房地产才能走出来！",
        "docid": "VA2QKM6H3",
        "url": "https://www.163.com/dy/article/VA2QKM6H3.html"
    },
    {
        "title": "房地产板块午后走弱 大名城跌停",
        "docid": "J3OSB3SC0539AP40",
        "url": "https://www.163.com/dy/article/J3OSB3SC0539AP40.html"
    },
    {
        "title": "贯彻长期主义的建发房产，发展跨上新台阶",
        "docid": "J3OS0O930552LN9H",
        "url": "https://www.163.com/dy/article/J3OS0O930552LN9H.html"
    },
    {
        "title": "2024，很多人在痛苦里共振着",
        "docid": "J3OS5TM205562NEZ",
        "url": "https://www.163.com/dy/article/J3OS5TM205562NEZ.html"
    },
    {
        "title": "你是“房贷大冤种”吗？",
        "docid": "J3OSFJLA0515APM9",
        "url": "https://www.163.com/dy/article/J3OSFJLA0515APM9.html"
    },
    {
        "title": "银行角度解析：房价下跌的真相",
        "docid": "VR2R2DKP9",
        "url": "https://www.163.com/dy/article/VR2R2DKP9.html"
    },
    {
        "title": "房地产板块继续走低，大名城跌停",
        "docid": "VD2R36BTM",
        "url": "https://www.163.com/dy/article/VD2R36BTM.html"
    },
    {
        "title": "实勘巴南区李家沱花溪御府（2024版）",
        "docid": "VR2OGKV5R",
        "url": "https://www.163.com/dy/article/VR2OGKV5R.html"
    },
    {
        "title": "大连住房以旧换新，首单成交，新房就在甘井子，为你解读详细流程",
        "docid": "VC2QIKIJO",
        "url": "https://www.163.com/dy/article/VC2QIKIJO.html"
    },
    {
        "title": "钱多钱少的区别2024抓紧搞钱吧",
        "docid": "VL2QUUMRC",
        "url": "https://www.163.com/dy/article/VL2QUUMRC.html"
    },
    {
        "title": "高铁票真涨价了，背后大有深意！",
        "docid": "VY2QQBJQ9",
        "url": "https://www.163.com/dy/article/VY2QQBJQ9.html"
    },
    {
        "title": "中国的土地，已经卖了50万亿了！土地卖完后，地方政府从哪里搞钱",
        "docid": "J3OQCBI20553TDXU",
        "url": "https://www.163.com/dy/article/J3OQCBI20553TDXU.html"
    },
    {
        "title": "王石再度预言中国房地产未来，前两次预测准确！这次可能还是对的",
        "docid": "J3OETB5V0540A6F8",
        "url": "https://www.163.com/dy/article/J3OETB5V0540A6F8.html"
    },
    {
        "title": "信号强烈！武汉楼市正在爆发",
        "docid": "J3OTLVPS05159OP0",
        "url": "https://www.163.com/dy/article/J3OTLVPS05159OP0.html"
    },
    {
        "title": "再定调2024年楼市！首提“17字”，这次是真急了",
        "docid": "J3OF7SCL05566MKM",
        "url": "https://www.163.com/dy/article/J3OF7SCL05566MKM.html"
    },
    {
        "title": "这6种房子将沦为“穷人房”，懂行的人都在悄悄“脱手”",
        "docid": "J3OF0ENR05566MKM",
        "url": "https://www.163.com/dy/article/J3OF0ENR05566MKM.html"
    },
    {
        "title": "武汉洪山区：买新建商办房屋300平米以上的，可享受与住宅同等教育养老等服务",
        "docid": "J3I7G7LG0514R9P4",
        "url": "https://www.163.com/dy/article/J3I7G7LG0514R9P4.html"
    },
    {
        "title": "王炸！武汉白沙洲又新增两处地块规划",
        "docid": "J3H9SJ2L0556124M",
        "url": "https://www.163.com/dy/article/J3H9SJ2L0556124M.html"
    },
    {
        "title": "易闻天下丨武汉两区楼市公告，甘露山雪世界新动态",
        "docid": "J3OGM2NV05567SKQ",
        "url": "https://www.163.com/dy/article/J3OGM2NV05567SKQ.html"
    },
    {
        "title": "武汉名校遍地开分校，提醒你，别上头",
        "docid": "J3OFH82J0553TDVP",
        "url": "https://www.163.com/dy/article/J3OFH82J0553TDVP.html"
    },
    {
        "title": "武汉：鼓励全面开展商品房预告登记，从源头防范“一房二卖”“先卖后抵”等风险",
        "docid": "J3I2BE8E0514R9P4",
        "url": "https://www.163.com/dy/article/J3I2BE8E0514R9P4.html"
    },
    {
        "title": "房主卖房，另辟蹊径，报价即底价，最后居然涨价成交！",
        "docid": "J3P0FGSJ05568CHS",
        "url": "https://www.163.com/dy/article/J3P0FGSJ05568CHS.html"
    },
    {
        "title": "环跌0.7%！5.27-6.2厦门二手住宅成交407套",
        "docid": "J3P0A0S005539N2F",
        "url": "https://www.163.com/dy/article/J3P0A0S005539N2F.html"
    },
    {
        "title": "这是一款精致的160多平米户型吗?",
        "docid": "J3M7EPOS0553TEV3",
        "url": "https://www.163.com/dy/article/J3M7EPOS0553TEV3.html"
    },
    {
        "title": "恒基地产(00012)李家诚：公司在洪水桥仍有约300万平方呎农地 对香港楼市有信心",
        "docid": "J3P0M7B405198UNI",
        "url": "https://www.163.com/dy/article/J3P0M7B405198UNI.html"
    },
    {
        "title": "陷进去就是一辈子，盘点那些法拍房大坑",
        "docid": "VC2BFBR7O",
        "url": "https://www.163.com/dy/article/VC2BFBR7O.html"
    },
    {
        "title": "楼市最可怕的一幕来了？越来越多人“弃房断供”，真让专家说中了",
        "docid": "VR2DL3AI2",
        "url": "https://www.163.com/dy/article/VR2DL3AI2.html"
    },
    {
        "title": "房产经纪人实话实说正能量",
        "docid": "VE2DTQQJT",
        "url": "https://www.163.com/dy/article/VE2DTQQJT.html"
    },
    {
        "title": "全国断供人数，远超你的想象",
        "docid": "VF2R38GB7",
        "url": "https://www.163.com/dy/article/VF2R38GB7.html"
    },
    {
        "title": "从31层搬到3层，简直太完美了，所有的付出都是值得的",
        "docid": "VV2QMS6JE",
        "url": "https://www.163.com/dy/article/VV2QMS6JE.html"
    },
    {
        "title": "北漂女生花光积蓄在燕郊买了一套loft公寓，如今肠子都悔青了！",
        "docid": "VR2DG11FQ",
        "url": "https://www.163.com/dy/article/VR2DG11FQ.html"
    },
    {
        "title": "恒基地产(00012.HK)：预期可就政府收回洪水桥地皮获补偿39亿港元",
        "docid": "J3P1SRK40519B04T",
        "url": "https://www.163.com/dy/article/J3P1SRK40519B04T.html"
    },
    {
        "title": "连总部都5折卖了，还有什么能拯救万科？",
        "docid": "J3P18OPA0519D3BI",
        "url": "https://www.163.com/dy/article/J3P18OPA0519D3BI.html"
    },
    {
        "title": "首映当燃 全城竞藏 | 武汉进入誉府时代",
        "docid": "J3OVQGRH05567SKQ",
        "url": "https://www.163.com/dy/article/J3OVQGRH05567SKQ.html"
    },
    {
        "title": "酒店升房不靠“玄学”，能行吗？",
        "docid": "J3C1R4NV0514R9KQ",
        "url": "https://www.163.com/dy/article/J3C1R4NV0514R9KQ.html"
    },
    {
        "title": "二手房是现在卖？还是等等再卖？",
        "docid": "J3BRPU1R05567IYR",
        "url": "https://www.163.com/dy/article/J3BRPU1R05567IYR.html"
    },
    {
        "title": "武汉洪山区：买新建商办房屋300平米以上的，可享受与住宅同等教育养老等服务",
        "docid": "J3I7G7LG0514R9P4",
        "url": "https://www.163.com/dy/article/J3I7G7LG0514R9P4.html"
    },
    {
        "title": "婚前买的房归谁？一图告诉你，收藏备用，或许用得到呢",
        "docid": "J3P0TJ400553TF9H",
        "url": "https://www.163.com/dy/article/J3P0TJ400553TF9H.html"
    },
    {
        "title": "易闻天下丨武汉两区楼市公告，甘露山雪世界新动态",
        "docid": "J3OGM2NV05567SKQ",
        "url": "https://www.163.com/dy/article/J3OGM2NV05567SKQ.html"
    },
    {
        "title": "武汉：鼓励全面开展商品房预告登记，从源头防范“一房二卖”“先卖后抵”等风险",
        "docid": "J3I2BE8E0514R9P4",
        "url": "https://www.163.com/dy/article/J3I2BE8E0514R9P4.html"
    },
    {
        "title": "武汉名校遍地开分校，提醒你，别上头",
        "docid": "J3OFH82J0553TDVP",
        "url": "https://www.163.com/dy/article/J3OFH82J0553TDVP.html"
    },
    {
        "title": "非常之幸运！一次摇中公租房，400 多住一室一厅，好友极为羡慕！",
        "docid": "J3P46UH40540FQWZ",
        "url": "https://www.163.com/dy/article/J3P46UH40540FQWZ.html"
    },
    {
        "title": "楼市和股市目前这个熊样还有救吗？我们为何一直保持乐观",
        "docid": "J3P4DIDK0553TEV3",
        "url": "https://www.163.com/dy/article/J3P4DIDK0553TEV3.html"
    },
    {
        "title": "买房绝对要避开此层，开发商急着送出去，入住才知后悔！",
        "docid": "J3P3EPB40540FQWZ",
        "url": "https://www.163.com/dy/article/J3P3EPB40540FQWZ.html"
    },
    {
        "title": "金科：1-5月累计交付房源超1.8万户 总面积达307万平方米",
        "docid": "J3P3N9V90519D45U",
        "url": "https://www.163.com/dy/article/J3P3N9V90519D45U.html"
    },
    {
        "title": "房价是一个城市的门票！",
        "docid": "VY2E2VL4H",
        "url": "https://www.163.com/dy/article/VY2E2VL4H.html"
    },
    {
        "title": "00后少女的上百套房产下跌，如今赔的心慌慌，生活发生巨变！",
        "docid": "VY2R78AKD",
        "url": "https://www.163.com/dy/article/VY2R78AKD.html"
    },
    {
        "title": "为什么很多工地明明烂尾了，唯独塔吊没有撤走？",
        "docid": "VW2DTNHSD",
        "url": "https://www.163.com/dy/article/VW2DTNHSD.html"
    },
    {
        "title": "女子花150万高位买房 如今房价跌到首付都没了",
        "docid": "VT2C8A5OL",
        "url": "https://www.163.com/dy/article/VT2C8A5OL.html"
    },
    {
        "title": "6年前花17000一平在郑州郊区买的房，如今赔了多少？一算吓一跳",
        "docid": "VP2C8FE7C",
        "url": "https://www.163.com/dy/article/VP2C8FE7C.html"
    },
    {
        "title": "中国房价必须上涨，因为下跌带来的后果和痛苦，普通人根本受不了",
        "docid": "VS2R7GFSU",
        "url": "https://www.163.com/dy/article/VS2R7GFSU.html"
    },
    {
        "title": "别给自己加戏了，你生不生孩子对房价一点影响也没有",
        "docid": "J3ONBBR3055368QG",
        "url": "https://www.163.com/dy/article/J3ONBBR3055368QG.html"
    },
    {
        "title": "为什么日本人口密度比中国大 他们却可以住独栋 而我们只能住楼房？",
        "docid": "J3P4CM410552F71X",
        "url": "https://www.163.com/dy/article/J3P4CM410552F71X.html"
    },
    {
        "title": "招商蛇口旗下招商伊敦公寓蝉联住房租赁企业综合实力TOP10",
        "docid": "J3P6H9U40552QJ47",
        "url": "https://www.163.com/dy/article/J3P6H9U40552QJ47.html"
    },
    {
        "title": "Aniko集团揭开新综合体面纱：黄金海岸上的20亿澳元杰作",
        "docid": "J3P61IIN053661TJ",
        "url": "https://www.163.com/dy/article/J3P61IIN053661TJ.html"
    },
    {
        "title": "北上广深，别只想着降首付和利率，什么时候把3%的契税降下来？",
        "docid": "J3P3B3SU0553XH85",
        "url": "https://www.163.com/dy/article/J3P3B3SU0553XH85.html"
    },
    {
        "title": "有钱人买房为何钟情这几层？揭秘越住越健康的原因，可惜没早知道",
        "docid": "J3P0AC100540H6M7",
        "url": "https://www.163.com/dy/article/J3P0AC100540H6M7.html"
    },
    {
        "title": "香港购房人，集体北上“抢”房子",
        "docid": "J3P673PH05198R91",
        "url": "https://www.163.com/dy/article/J3P673PH05198R91.html"
    },
    {
        "title": "一梯两户和两梯四户的区别何在？众多人买错，入住才知懊悔！",
        "docid": "J3P4IQFN0540FQWZ",
        "url": "https://www.163.com/dy/article/J3P4IQFN0540FQWZ.html"
    },
    {
        "title": "有钱人买房子为啥抢着要一楼？售楼小姐说穿，懊悔知道得晚了！",
        "docid": "J3P1FKEP0540H6M7",
        "url": "https://www.163.com/dy/article/J3P1FKEP0540H6M7.html"
    },
    {
        "title": "终于理解女生对房子为啥“这么执着”！网友的分享，令无数人泪目",
        "docid": "J3OT9EIT0553RLHQ",
        "url": "https://www.163.com/dy/article/J3OT9EIT0553RLHQ.html"
    },
    {
        "title": "这100家房企，今年前5月花了超3100亿拿地",
        "docid": "J3P6U42J05129QAF",
        "url": "https://www.163.com/dy/article/J3P6U42J05129QAF.html"
    },
    {
        "title": "城楼财经|5月房企经营业绩解读 TOP100房企销售16184.5亿元",
        "docid": "J3P6KR7R051598SA",
        "url": "https://www.163.com/dy/article/J3P6KR7R051598SA.html"
    },
    {
        "title": "新加坡买房，额外买方印花税政策",
        "docid": "J3OL9BNQ05567SL9",
        "url": "https://www.163.com/dy/article/J3OL9BNQ05567SL9.html"
    },
    {
        "title": "热度是起来了，可数据却打了脸！",
        "docid": "J3OMMD4E0536UOB3",
        "url": "https://www.163.com/dy/article/J3OMMD4E0536UOB3.html"
    },
    {
        "title": "我们这一代人就是房奴多，车奴多，光棍多，离婚多，负债的更多，",
        "docid": "VZ2RC0ATB",
        "url": "https://www.163.com/dy/article/VZ2RC0ATB.html"
    },
    {
        "title": "买房当然要使用按揭，除非你家里有矿",
        "docid": "VG2JLJMGQ",
        "url": "https://www.163.com/dy/article/VG2JLJMGQ.html"
    },
    {
        "title": "买的低楼层后悔的想锤自己，打算卖了换18层，说说低层的5大通病",
        "docid": "VR2DPP4B6",
        "url": "https://www.163.com/dy/article/VR2DPP4B6.html"
    },
    {
        "title": "老外热议中国昆山金字塔公寓，油管网友：看起来非常的神奇",
        "docid": "VD2CVO9NK",
        "url": "https://www.163.com/dy/article/VD2CVO9NK.html"
    },
    {
        "title": "人生中的第一套房应该怎么买？",
        "docid": "VG2E21EQ8",
        "url": "https://www.163.com/dy/article/VG2E21EQ8.html"
    },
    {
        "title": "不愧是韩国人的首都，豪宅旁边就是贫民区，这可是首尔啊",
        "docid": "VF2C4G0EI",
        "url": "https://www.163.com/dy/article/VF2C4G0EI.html"
    },
    {
        "title": "住在几楼很讲究！买房选楼层有四个要点",
        "docid": "J3C9GGHS0540SN7V",
        "url": "https://www.163.com/dy/article/J3C9GGHS0540SN7V.html"
    },
    {
        "title": "很多人在买房观望情绪浓厚，如果出台这十大政策，你还观望吗？",
        "docid": "J3P38UTF05565QPS",
        "url": "https://www.163.com/dy/article/J3P38UTF05565QPS.html"
    },
    {
        "title": "上周重点城市新房成交环比上升 上海二手房成交环比领涨",
        "docid": "J3P8FTO30512D3VJ",
        "url": "https://www.163.com/dy/article/J3P8FTO30512D3VJ.html"
    },
    {
        "title": "投资房产一定要慎重，这5个方面不要轻易触碰，否则很容易吃亏",
        "docid": "J3C7FH3V0532D0CK",
        "url": "https://www.163.com/dy/article/J3C7FH3V0532D0CK.html"
    },
    {
        "title": "首单住房租赁持有型不动产ABS已取得上交所无异议函",
        "docid": "J3P8UPFQ0514R9P4",
        "url": "https://www.163.com/dy/article/J3P8UPFQ0514R9P4.html"
    },
    {
        "title": "买房选这四个楼层，能招财带福气",
        "docid": "J3C9AT0O0540SN7V",
        "url": "https://www.163.com/dy/article/J3C9AT0O0540SN7V.html"
    },
    {
        "title": "若是房价“硬扛不降”，或许会出现四个明显的麻烦，每一个都棘手",
        "docid": "J3OF46QF0540A6F8",
        "url": "https://www.163.com/dy/article/J3OF46QF0540A6F8.html"
    },
    {
        "title": "建信住房租赁持有型不动产ABS已获上交所通过",
        "docid": "VD2RG03PH",
        "url": "https://www.163.com/dy/article/VD2RG03PH.html"
    },
    {
        "title": "房住不炒！房子不是金融品！#房住不炒#金融#投资#住房",
        "docid": "VO2RC7710",
        "url": "https://www.163.com/dy/article/VO2RC7710.html"
    },
    {
        "title": "公园脚下的电梯房，下楼梯是公园入口",
        "docid": "VU2DVB62E",
        "url": "https://www.163.com/dy/article/VU2DVB62E.html"
    },
    {
        "title": "恒大暴雷前夜，恒大文化循环到了体外",
        "docid": "J3PAS83K0553YQBK",
        "url": "https://www.163.com/dy/article/J3PAS83K0553YQBK.html"
    },
    {
        "title": "海开、琼海南阳瑞华 两家报名 海淀永丰南地块明日竞拍",
        "docid": "J3PADHPG05527T1J",
        "url": "https://www.163.com/dy/article/J3PADHPG05527T1J.html"
    },
    {
        "title": "仲量联行出席第九届中国国际物业管理高峰论坛并连续两年参展",
        "docid": "J3PA2RFR05159OAM",
        "url": "https://www.163.com/dy/article/J3PA2RFR05159OAM.html"
    },
    {
        "title": "买电梯房，选“楼层”很重要，别买了才开始后悔",
        "docid": "J3C9C6G10540SN7V",
        "url": "https://www.163.com/dy/article/J3C9C6G10540SN7V.html"
    },
    {
        "title": "喜讯：二手房，拐点来了！",
        "docid": "J3PADIB70553TEV3",
        "url": "https://www.163.com/dy/article/J3PADIB70553TEV3.html"
    },
    {
        "title": "原来住宅是有讲究的，涨知识了，收藏看看（仅供参考）",
        "docid": "J3CACLIG055616WX",
        "url": "https://www.163.com/dy/article/J3CACLIG055616WX.html"
    },
    {
        "title": "万达商管退出合肥万达广场 苏州联商壹号商业管理接手",
        "docid": "J3PAAL2J0519QIKK",
        "url": "https://www.163.com/dy/article/J3PAAL2J0519QIKK.html"
    },
    {
        "title": "不猜涨跌，相信趋势就可以了。 更多精彩内容来老严直播间！",
        "docid": "VK2BSDFI7",
        "url": "https://www.163.com/dy/article/VK2BSDFI7.html"
    },
    {
        "title": "住了三年的房子，价格从130万跌到50万，房子赔钱也卖不出去",
        "docid": "VP2EBLFJ6",
        "url": "https://www.163.com/dy/article/VP2EBLFJ6.html"
    },
    {
        "title": "房地产泡沫来了？我们的危和机在哪里？",
        "docid": "VY2RFAHKU",
        "url": "https://www.163.com/dy/article/VY2RFAHKU.html"
    },
    {
        "title": "美的置业：前五月合同销售金额约169.4亿元",
        "docid": "J3PBISG40519D45U",
        "url": "https://www.163.com/dy/article/J3PBISG40519D45U.html"
    },
    {
        "title": "经济观察丨多个一线城市跟进新政，楼市活跃度提升",
        "docid": "J3OAN38U0550TYQ0",
        "url": "https://www.163.com/dy/article/J3OAN38U0550TYQ0.html"
    },
    {
        "title": "海立股份：公司不动产被征收 补偿款2989.39万元",
        "docid": "J3P442GB055284JB",
        "url": "https://www.163.com/dy/article/J3P442GB055284JB.html"
    },
    {
        "title": "武汉洪山区：买新建商办房屋300平米以上的，可享受与住宅同等教育养老等服务",
        "docid": "J3I7G7LG0514R9P4",
        "url": "https://www.163.com/dy/article/J3I7G7LG0514R9P4.html"
    },
    {
        "title": "『官方』上海虹口虹口源717售楼处发布：低总价享高品质生活!",
        "docid": "J3P36R12055663IX",
        "url": "https://www.163.com/dy/article/J3P36R12055663IX.html"
    },
    {
        "title": "易闻天下丨武汉两区楼市公告，甘露山雪世界新动态",
        "docid": "J3OGM2NV05567SKQ",
        "url": "https://www.163.com/dy/article/J3OGM2NV05567SKQ.html"
    },
    {
        "title": "平安银行上线“气球贷”引发争议，专家称可放大老百姓还款压力",
        "docid": "J3PB5AAB0539O03W",
        "url": "https://www.163.com/dy/article/J3PB5AAB0539O03W.html"
    },
    {
        "title": "武汉名校遍地开分校，提醒你，别上头",
        "docid": "J3OFH82J0553TDVP",
        "url": "https://www.163.com/dy/article/J3OFH82J0553TDVP.html"
    },
    {
        "title": "武汉：鼓励全面开展商品房预告登记，从源头防范“一房二卖”“先卖后抵”等风险",
        "docid": "J3I2BE8E0514R9P4",
        "url": "https://www.163.com/dy/article/J3I2BE8E0514R9P4.html"
    },
    {
        "title": "武汉绿城·梧桐里产品发布圆满落幕",
        "docid": "J3JM6RTJ05567SKQ",
        "url": "https://www.163.com/dy/article/J3JM6RTJ05567SKQ.html"
    },
    {
        "title": "浙系民企中的“战斗机”，也跌落神坛了？",
        "docid": "J3PD4NVH0553TEV3",
        "url": "https://www.163.com/dy/article/J3PD4NVH0553TEV3.html"
    },
    {
        "title": "全国最低的公积金，晒一下图。",
        "docid": "J3PED0M90553EANU",
        "url": "https://www.163.com/dy/article/J3PED0M90553EANU.html"
    },
    {
        "title": "金科股份1-5月份累计交付房源约1.8万套",
        "docid": "J3PDB19E0512D3VJ",
        "url": "https://www.163.com/dy/article/J3PDB19E0512D3VJ.html"
    },
    {
        "title": "6 万元买两室一厅，市房价现“白菜价”",
        "docid": "VS2RIRG03",
        "url": "https://www.163.com/dy/article/VS2RIRG03.html"
    },
    {
        "title": "投资13亿工业园成“僵尸园区”，100多座楼烂尾逾期8年未竣工，公司濒临破产",
        "docid": "VC2EKBMIU",
        "url": "https://www.163.com/dy/article/VC2EKBMIU.html"
    },
    {
        "title": "中国人均居住面积还远远没有达到国际水平 ",
        "docid": "VR2RHSPJR",
        "url": "https://www.163.com/dy/article/VR2RHSPJR.html"
    },
    {
        "title": "5年前花18000在武汉三环买的60层，如今卖掉要赔多少？一算吓一跳",
        "docid": "VY2RILSGD",
        "url": "https://www.163.com/dy/article/VY2RILSGD.html"
    },
    {
        "title": "6万就能买到两室一厅！河北张家口成下一个“鹤岗”？",
        "docid": "VT2RJM19J",
        "url": "https://www.163.com/dy/article/VT2RJM19J.html"
    },
    {
        "title": "终于在海边发现了一套户型好，院子超大的3室花园洋房，好喜欢！",
        "docid": "VR2PHET4B",
        "url": "https://www.163.com/dy/article/VR2PHET4B.html"
    },
    {
        "title": "房价下跌对普通人的影响，我说的是大实话",
        "docid": "VN2RCP0MU",
        "url": "https://www.163.com/dy/article/VN2RCP0MU.html"
    },
    {
        "title": "伯明翰房产租赁市场洞察，透视各区域租金走势与回报分析",
        "docid": "J3CE4RS00514DPPR",
        "url": "https://www.163.com/dy/article/J3CE4RS00514DPPR.html"
    },
    {
        "title": "武汉洪山区：买新建商办房屋300平米以上的，可享受与住宅同等教育养老等服务",
        "docid": "J3I7G7LG0514R9P4",
        "url": "https://www.163.com/dy/article/J3I7G7LG0514R9P4.html"
    },
    {
        "title": "“好像有一半地产人不会做项目了。”",
        "docid": "J3PELEPS0515I4G5",
        "url": "https://www.163.com/dy/article/J3PELEPS0515I4G5.html"
    },
    {
        "title": "易闻天下丨武汉两区楼市公告，甘露山雪世界新动态",
        "docid": "J3OGM2NV05567SKQ",
        "url": "https://www.163.com/dy/article/J3OGM2NV05567SKQ.html"
    },
    {
        "title": "按揭“气球贷”重出江湖，房贷会成为银行抢夺的下一个赛道吗？",
        "docid": "J3PE0U180550WHYR",
        "url": "https://www.163.com/dy/article/J3PE0U180550WHYR.html"
    },
    {
        "title": "武汉：鼓励全面开展商品房预告登记，从源头防范“一房二卖”“先卖后抵”等风险",
        "docid": "J3I2BE8E0514R9P4",
        "url": "https://www.163.com/dy/article/J3I2BE8E0514R9P4.html"
    },
    {
        "title": "武汉名校遍地开分校，提醒你，别上头",
        "docid": "J3OFH82J0553TDVP",
        "url": "https://www.163.com/dy/article/J3OFH82J0553TDVP.html"
    },
    {
        "title": "武汉绿城·梧桐里产品发布圆满落幕",
        "docid": "J3JM6RTJ05567SKQ",
        "url": "https://www.163.com/dy/article/J3JM6RTJ05567SKQ.html"
    },
    {
        "title": "建信住房租赁持有型不动产ABS已获上交所通过",
        "docid": "J3P9IUVO0534A4SC",
        "url": "https://www.163.com/dy/article/J3P9IUVO0534A4SC.html"
    },
    {
        "title": "武汉城建绍兴里1921项目首开收金2.16亿",
        "docid": "J3HVOFMV0519D45U",
        "url": "https://www.163.com/dy/article/J3HVOFMV0519D45U.html"
    },
    {
        "title": "下调首付，取消利率下限...吉安终于跟进，楼市...",
        "docid": "J3PGQ9Q00535J1AM",
        "url": "https://www.163.com/dy/article/J3PGQ9Q00535J1AM.html"
    },
    {
        "title": "武汉东西湖区：人才买首套新房最高补助200万元，支持企业给人才筹集购房首付款",
        "docid": "J3PHH99Q0514R9P4",
        "url": "https://www.163.com/dy/article/J3PHH99Q0514R9P4.html"
    },
    {
        "title": "5月楼市数据出炉，小幅上涨未达预期",
        "docid": "J3PHMSPC055629OM",
        "url": "https://www.163.com/dy/article/J3PHMSPC055629OM.html"
    },
    {
        "title": "不要再误判2024年楼市！专家：有购房计划的家庭，4条建议",
        "docid": "J3P4MMOU05536P04",
        "url": "https://www.163.com/dy/article/J3P4MMOU05536P04.html"
    },
    {
        "title": "美联楼价指数周环比跌0.57% 连跌4星期",
        "docid": "J3PH3V3105198UNI",
        "url": "https://www.163.com/dy/article/J3PH3V3105198UNI.html"
    },
    {
        "title": "潮观凤起云座（官方网站）潮观凤起云座（官方预约通道）楼盘详情",
        "docid": "J3CGK5C405567TPX",
        "url": "https://www.163.com/dy/article/J3CGK5C405567TPX.html"
    },
    {
        "title": "2024年房地产市场走势明朗！专家观点：立刻卖房，你可能会亏大了",
        "docid": "J3CDLKU805536P04",
        "url": "https://www.163.com/dy/article/J3CDLKU805536P04.html"
    },
    {
        "title": "大伙提前做好准备，6月开始，不出意外的话，或将呈现5个趋势",
        "docid": "J3ON6O6Q05536P04",
        "url": "https://www.163.com/dy/article/J3ON6O6Q05536P04.html"
    },
    {
        "title": "万科A：5月实现合同销售金额233.3亿元",
        "docid": "J3PHS5L20534A4SC",
        "url": "https://www.163.com/dy/article/J3PHS5L20534A4SC.html"
    },
    {
        "title": "日本一户建适合投资吗？决定一户建价值的因素有哪些？",
        "docid": "J3PHDJR90517BACO",
        "url": "https://www.163.com/dy/article/J3PHDJR90517BACO.html"
    },
    {
        "title": "配售型保障性住房申购意向调查",
        "docid": "J3PIS71A0552ADWT",
        "url": "https://www.163.com/dy/article/J3PIS71A0552ADWT.html"
    },
    {
        "title": "银行行长透露：房子、车子都会贬值，未来手握“两样”东西不慌",
        "docid": "J3ONDVQB05536P04",
        "url": "https://www.163.com/dy/article/J3ONDVQB05536P04.html"
    },
    {
        "title": "恒地预期获利31亿，股价大升",
        "docid": "J3PIUJMG0519B04T",
        "url": "https://www.163.com/dy/article/J3PIUJMG0519B04T.html"
    },
    {
        "title": "“一揽子”政策加紧去库存，国企收购未售新房成重点方向",
        "docid": "J3PH3N0J05199NPP",
        "url": "https://www.163.com/dy/article/J3PH3N0J05199NPP.html"
    },
    {
        "title": "广汇物流：与敦煌市政府等签订投资合作框架协议",
        "docid": "VD2RK0EQQ",
        "url": "https://www.163.com/dy/article/VD2RK0EQQ.html"
    },
    {
        "title": "有院子有花的一层自建房",
        "docid": "VG2EEH2EI",
        "url": "https://www.163.com/dy/article/VG2EEH2EI.html"
    },
    {
        "title": "放松楼市限购大潮来袭，一线城市为何还扭扭捏捏？",
        "docid": "VG2RMPIFG",
        "url": "https://www.163.com/dy/article/VG2RMPIFG.html"
    },
    {
        "title": "陈淮：一半存量住房 20年内可能需拆了重建",
        "docid": "VU2EKKATB",
        "url": "https://www.163.com/dy/article/VU2EKKATB.html"
    },
    {
        "title": "武汉这里要拆迁了，又要造就一大批千万富翁，你们羡慕吗",
        "docid": "VJ2C3STQB",
        "url": "https://www.163.com/dy/article/VJ2C3STQB.html"
    },
    {
        "title": "这楼房还能住人吗？随时都有可能坍塌啊！",
        "docid": "VF2C1DMSM",
        "url": "https://www.163.com/dy/article/VF2C1DMSM.html"
    },
    {
        "title": "万科A现4笔平价大宗交易，共计成交2.43亿元",
        "docid": "J3PLCR7N0534A4SC",
        "url": "https://www.163.com/dy/article/J3PLCR7N0534A4SC.html"
    },
    {
        "title": "新政效力初显：5月楼市成交稳中有升",
        "docid": "J3PLBB1H05199NPP",
        "url": "https://www.163.com/dy/article/J3PLBB1H05199NPP.html"
    },
    {
        "title": "房地产市场两个难题，出生人口低和房产库存高，两大矛盾如何化解",
        "docid": "VA2EAAJA3",
        "url": "https://www.163.com/dy/article/VA2EAAJA3.html"
    },
    {
        "title": "房地产新政密集落地  多地楼市活跃度出现提升",
        "docid": "VG2RR3IMN",
        "url": "https://www.163.com/dy/article/VG2RR3IMN.html"
    },
    {
        "title": "买房遇到这样的情况，真的不能买贵的！买贵＝被割韭菜",
        "docid": "VB2RO3RRF",
        "url": "https://www.163.com/dy/article/VB2RO3RRF.html"
    },
    {
        "title": "法国四姐全家又开始看房了 结果心里落差太大",
        "docid": "VW2RINUKT",
        "url": "https://www.163.com/dy/article/VW2RINUKT.html"
    },
    {
        "title": "当你被困在这所无限循环的公寓，逃跑是不可能了！",
        "docid": "VD2EOP2QI",
        "url": "https://www.163.com/dy/article/VD2EOP2QI.html"
    },
    {
        "title": "年轻人谈买房色变：高房价下的生活压力与无奈",
        "docid": "VF2E9JL4B",
        "url": "https://www.163.com/dy/article/VF2E9JL4B.html"
    },
    {
        "title": "中国房价必须上涨，因为暴跌带来的后果和痛苦，普通人根本受不了",
        "docid": "VW2RMSQBR",
        "url": "https://www.163.com/dy/article/VW2RMSQBR.html"
    },
    {
        "title": "克而瑞研究：5月房地产市场成交稳中微增年中叠加政策窗口预期6月再回升  快报",
        "docid": "VP2OLC82Q",
        "url": "https://www.163.com/dy/article/VP2OLC82Q.html"
    },
    {
        "title": "农村自建房选址和门立向原则",
        "docid": "J3P8217505566SC9",
        "url": "https://www.163.com/dy/article/J3P8217505566SC9.html"
    },
    {
        "title": "要做好“大势已去”的准备？内行人：2024年起，建议手握3样东西",
        "docid": "J3P8GS540556124M",
        "url": "https://www.163.com/dy/article/J3P8GS540556124M.html"
    },
    {
        "title": "江西大老板的豪宅，一家人在上海做生意，老家每天都要请人打理",
        "docid": "VS2RPAJC7",
        "url": "https://www.163.com/dy/article/VS2RPAJC7.html"
    },
    {
        "title": "300平给85万天价都不肯搬，一家7口人居住在这，这点够买什么呢",
        "docid": "VS2EAHO47",
        "url": "https://www.163.com/dy/article/VS2EAHO47.html"
    },
    {
        "title": "父母赠房，如何最划算过户给子女？",
        "docid": "VF2EDHEA4",
        "url": "https://www.163.com/dy/article/VF2EDHEA4.html"
    },
    {
        "title": "整顿楼市打倒高房价！00后打响全国第一枪！网友：过瘾",
        "docid": "VC2EOVSL5",
        "url": "https://www.163.com/dy/article/VC2EOVSL5.html"
    },
    {
        "title": "买房子不通过中介，能省好多中介费，这样真能行吗",
        "docid": "VT2EALSHF",
        "url": "https://www.163.com/dy/article/VT2EALSHF.html"
    },
    {
        "title": "住在拙政园旁边是什么体验？论地段这里才是最好的吧",
        "docid": "VK2EDBDQH",
        "url": "https://www.163.com/dy/article/VK2EDBDQH.html"
    },
    {
        "title": "一把梭哈！苏州房价会涨吗？",
        "docid": "VC2RSVF8F",
        "url": "https://www.163.com/dy/article/VC2RSVF8F.html"
    },
    {
        "title": "武汉东西湖区：人才买首套新房最高补助200万元，支持企业给人才筹集购房首付款",
        "docid": "VD2ROI5BL",
        "url": "https://www.163.com/dy/article/VD2ROI5BL.html"
    },
    {
        "title": "好户型比好地段重要，这5种户型不要买，住起来不舒服还不好出手",
        "docid": "J3P6HORQ0532D0CK",
        "url": "https://www.163.com/dy/article/J3P6HORQ0532D0CK.html"
    },
    {
        "title": "中原按揭：香港5月现楼按揭宗数下降15% 总计为3380宗",
        "docid": "J3PNF0LU0519QIKK",
        "url": "https://www.163.com/dy/article/J3PNF0LU0519QIKK.html"
    },
    {
        "title": "评论丨住房金融政策优化有利于推动房地产市场企稳",
        "docid": "J3PP0GK505199NPP",
        "url": "https://www.163.com/dy/article/J3PP0GK505199NPP.html"
    },
    {
        "title": "如果一线城市取消限购，上海是全国人民的首选？",
        "docid": "J3P7LUF405565B5C",
        "url": "https://www.163.com/dy/article/J3P7LUF405565B5C.html"
    },
    {
        "title": "未来两年澳洲房价预测：珀斯领涨，布里斯班和阿德莱德紧随其后",
        "docid": "J3P6OMKQ053661TJ",
        "url": "https://www.163.com/dy/article/J3P6OMKQ053661TJ.html"
    },
    {
        "title": "刚刚！光谷一小区，商业停车场将拆除！",
        "docid": "J3PMGT0N0553TB9L",
        "url": "https://www.163.com/dy/article/J3PMGT0N0553TB9L.html"
    },
    {
        "title": "柯利达：地产新政利好产业链，装配化创新抢抓行业新机遇",
        "docid": "J3PMQT0J05199D8B",
        "url": "https://www.163.com/dy/article/J3PMQT0J05199D8B.html"
    },
    {
        "title": "谈判时，买方已知底价，想再砍点，房主却临时涨价：市场要回暖！",
        "docid": "J3P6F7PO05568CHS",
        "url": "https://www.163.com/dy/article/J3P6F7PO05568CHS.html"
    },
    {
        "title": "地产同行也来抢房，新政后豪宅被爆买！",
        "docid": "J3PNUGF505353LFK",
        "url": "https://www.163.com/dy/article/J3PNUGF505353LFK.html"
    },
    {
        "title": "买房就买这样的“上上等”户型，四平八稳无缺角，敞亮通风功能全",
        "docid": "VB2RU7F5B",
        "url": "https://www.163.com/dy/article/VB2RU7F5B.html"
    },
    {
        "title": "房贷还款方式卷出新花样，“先息后本”重出江湖遇冷",
        "docid": "J3PR2F8G0519DDQ2",
        "url": "https://www.163.com/dy/article/J3PR2F8G0519DDQ2.html"
    },
    {
        "title": "加装电梯需考虑7个方面，你都想到了吗？",
        "docid": "J3PQVKKI0532D0CK",
        "url": "https://www.163.com/dy/article/J3PQVKKI0532D0CK.html"
    },
    {
        "title": "全国政协委员柴强：开展消化存量房产和优化增量住房需通盘筹划",
        "docid": "J3PPQK1T05530KS1",
        "url": "https://www.163.com/dy/article/J3PPQK1T05530KS1.html"
    },
    {
        "title": "中国90%人未购房，专家揭秘",
        "docid": "VI2EUV7LG",
        "url": "https://www.163.com/dy/article/VI2EUV7LG.html"
    },
    {
        "title": "联建光电年报遭问询，被追问业绩连续大幅亏损原因、持续经营能力是否发生变化",
        "docid": "VD2RSR3P7",
        "url": "https://www.163.com/dy/article/VD2RSR3P7.html"
    },
    {
        "title": "陈景明团队计谋，彭湖17亿购房",
        "docid": "VX2RRNR87",
        "url": "https://www.163.com/dy/article/VX2RRNR87.html"
    },
    {
        "title": "老破小火出圈什么人能买",
        "docid": "VN2PAHP50",
        "url": "https://www.163.com/dy/article/VN2PAHP50.html"
    },
    {
        "title": "第三十五期  标准房间布局",
        "docid": "VZ2OQM3D7",
        "url": "https://www.163.com/dy/article/VZ2OQM3D7.html"
    },
    {
        "title": "焦点访谈丨投资13亿的超级项目为何成了“僵尸园区”？",
        "docid": "VG2EC7Q92",
        "url": "https://www.163.com/dy/article/VG2EC7Q92.html"
    },
    {
        "title": "每月1250的房租，在深圳能住什么样的房子",
        "docid": "VF2E8TAAJ",
        "url": "https://www.163.com/dy/article/VF2E8TAAJ.html"
    },
    {
        "title": "为何在这样的山上建房子有何意义？",
        "docid": "J3CRGFTN0532D0CK",
        "url": "https://www.163.com/dy/article/J3CRGFTN0532D0CK.html"
    },
    {
        "title": "房产市场赌局：房东预测上涨，客户观望，专家警告再跌2年",
        "docid": "VS2S0FL3P",
        "url": "https://www.163.com/dy/article/VS2S0FL3P.html"
    },
    {
        "title": "投资13亿却烂尾多年！\n问题在哪里？",
        "docid": "VJ2F2JMED",
        "url": "https://www.163.com/dy/article/VJ2F2JMED.html"
    },
    {
        "title": "现在适合买房吗？马光远：最焦虑的大山已经没了 ",
        "docid": "VR2S29O9P",
        "url": "https://www.163.com/dy/article/VR2S29O9P.html"
    },
    {
        "title": "陈淮：一半存量住房 20年内可能需拆了重建 ",
        "docid": "VU2EJDPU1",
        "url": "https://www.163.com/dy/article/VU2EJDPU1.html"
    },
    {
        "title": "房产税或将成为现实，楼市或将迎来新变化",
        "docid": "VP2RTQG6N",
        "url": "https://www.163.com/dy/article/VP2RTQG6N.html"
    },
    {
        "title": "房子砍出白菜价，真的能成交吗？天上会有馅饼吗？",
        "docid": "VA2E9GQAE",
        "url": "https://www.163.com/dy/article/VA2E9GQAE.html"
    },
    {
        "title": "5月楼市数据出炉，小幅上涨未达预期",
        "docid": "VJ2S1M956",
        "url": "https://www.163.com/dy/article/VJ2S1M956.html"
    },
    {
        "title": "雅居乐中央雅府约115-143㎡板式学府",
        "docid": "VV2QPSLCT",
        "url": "https://www.163.com/dy/article/VV2QPSLCT.html"
    },
    {
        "title": "网络贷款国家规定催收标准：每日电话催收不能超过3次,“晚上10点后不应催收”",
        "docid": "VP2RV2J4H",
        "url": "https://www.163.com/dy/article/VP2RV2J4H.html"
    },
    {
        "title": "杭州、苏州、成都、广州楼市限购解绑效果不佳，市场呼唤更强刺激",
        "docid": "J3PU5Q8Q05561A6X",
        "url": "https://www.163.com/dy/article/J3PU5Q8Q05561A6X.html"
    },
    {
        "title": "美的置业1-5月份合同销售额约169亿元",
        "docid": "J3PL9IMS0512D3VJ",
        "url": "https://www.163.com/dy/article/J3PL9IMS0512D3VJ.html"
    },
    {
        "title": "易闻天下丨武汉两区楼市公告，甘露山雪世界新动态",
        "docid": "J3OGM2NV05567SKQ",
        "url": "https://www.163.com/dy/article/J3OGM2NV05567SKQ.html"
    },
    {
        "title": "武汉东西湖区：人才买首套新房最高补助200万元，支持企业给人才筹集购房首付款",
        "docid": "J3PHH99Q0514R9P4",
        "url": "https://www.163.com/dy/article/J3PHH99Q0514R9P4.html"
    },
    {
        "title": "武汉名校遍地开分校，提醒你，别上头",
        "docid": "J3OFH82J0553TDVP",
        "url": "https://www.163.com/dy/article/J3OFH82J0553TDVP.html"
    },
    {
        "title": "武汉绿城·梧桐里产品发布圆满落幕",
        "docid": "J3JM6RTJ05567SKQ",
        "url": "https://www.163.com/dy/article/J3JM6RTJ05567SKQ.html"
    },
    {
        "title": "恒大暴雷前夜，恒大文化循环到了体外",
        "docid": "J3PB0RP20552NVEU",
        "url": "https://www.163.com/dy/article/J3PB0RP20552NVEU.html"
    },
    {
        "title": "万科：前5个月合同销售金额1022亿元，5月新增2个开发项目",
        "docid": "J3PO20OH0514R9P4",
        "url": "https://www.163.com/dy/article/J3PO20OH0514R9P4.html"
    },
    {
        "title": "武汉经开区联合贝壳找房推进房地产以旧换新",
        "docid": "J3MQLLO3053469LG",
        "url": "https://www.163.com/dy/article/J3MQLLO3053469LG.html"
    },
    {
        "title": "易闻天下丨汉阳第三批补助名单公布，上海发布新政",
        "docid": "J393JSH305567SKQ",
        "url": "https://www.163.com/dy/article/J393JSH305567SKQ.html"
    },
    {
        "title": "因为房子烂尾，小伙子结不了婚，当代青年人的痛",
        "docid": "J3CUEER30553SPQJ",
        "url": "https://www.163.com/dy/article/J3CUEER30553SPQJ.html"
    },
    {
        "title": "著名女歌手：王菲在北京的豪宅，下午14点27分发现反常，怎么了？",
        "docid": "VW2F68CSA",
        "url": "https://www.163.com/dy/article/VW2F68CSA.html"
    },
    {
        "title": "为什么高层宁愿降利率降首付，也不愿意降房价，让老百姓买得起房子？",
        "docid": "VR2F1P083",
        "url": "https://www.163.com/dy/article/VR2F1P083.html"
    },
    {
        "title": "塔布家遭遇危机！巨额土地费未付，一家人如何应对？",
        "docid": "VR2F0HGH9",
        "url": "https://www.163.com/dy/article/VR2F0HGH9.html"
    },
    {
        "title": "中国房地产重演日本老路？冯仑：不可比，土地制度差异巨大",
        "docid": "VP2F4QDRL",
        "url": "https://www.163.com/dy/article/VP2F4QDRL.html"
    },
    {
        "title": "热点分析，六月房地产形势预测有哪些基本特点？",
        "docid": "VS2RMCSR1",
        "url": "https://www.163.com/dy/article/VS2RMCSR1.html"
    },
    {
        "title": "这户人当初建房为节省材料，如今每天住得睡不着觉",
        "docid": "VU2F3N5K5",
        "url": "https://www.163.com/dy/article/VU2F3N5K5.html"
    },
    {
        "title": "房地产融资协调机制落地，项目资金迎及时雨",
        "docid": "VS2R76VQP",
        "url": "https://www.163.com/dy/article/VS2R76VQP.html"
    },
    {
        "title": "面对即将暴涨的房价，请拉黑劝你不要买房的人，这是在搞传销吧",
        "docid": "VF2S5B7A5",
        "url": "https://www.163.com/dy/article/VF2S5B7A5.html"
    },
    {
        "title": "取消限购后 男子砸2300多万买了8套房！只为全家族同住一个小区",
        "docid": "VT2ENMI3T",
        "url": "https://www.163.com/dy/article/VT2ENMI3T.html"
    }
]