[
    {
        "title": "房地产市场的问题就是……没钱",
        "docid": "J291USNB05158VA4",
        "url": "https://www.163.com/dy/article/J291USNB05158VA4.html"
    },
    {
        "title": "德国租房真贵！媒体曝光真实原因，当房东可真来钱……",
        "docid": "J2930UIU0514BIIR",
        "url": "https://www.163.com/dy/article/J2930UIU0514BIIR.html"
    },
    {
        "title": "日本空置房如何迎来“第二春”",
        "docid": "J291QQ2L0514CDBK",
        "url": "https://www.163.com/dy/article/J291QQ2L0514CDBK.html"
    },
    {
        "title": "国道边捡到个废弃别墅 价值百万 住了好几天这地方真不错",
        "docid": "VI1B65HCH",
        "url": "https://www.163.com/dy/article/VI1B65HCH.html"
    },
    {
        "title": "装修贷的最高额度是多少？",
        "docid": "VK0Q9QE7J",
        "url": "https://www.163.com/dy/article/VK0Q9QE7J.html"
    },
    {
        "title": "这样的好户型，我要给他100分，不算过分吧！你们愿意给多少分",
        "docid": "VB1B0S0CA",
        "url": "https://www.163.com/dy/article/VB1B0S0CA.html"
    },
    {
        "title": "400万打造一个现代简约风，私家入户小院联排别墅，厨房最是经典",
        "docid": "VB1B5RNP9",
        "url": "https://www.163.com/dy/article/VB1B5RNP9.html"
    },
    {
        "title": "打算孤独终老与世无争，住高层海景房记录独居生活，分享早餐",
        "docid": "VL0T0A14Q",
        "url": "https://www.163.com/dy/article/VL0T0A14Q.html"
    },
    {
        "title": "我们都相信，房价还会涨，而且是深信不疑",
        "docid": "VE1B5FJIT",
        "url": "https://www.163.com/dy/article/VE1B5FJIT.html"
    },
    {
        "title": "万万没想到 房价走势 多地限购放开你会出手买房吗",
        "docid": "VW1B0GOKQ",
        "url": "https://www.163.com/dy/article/VW1B0GOKQ.html"
    },
    {
        "title": "第二集：地产研究员也疯狂！实习生怀孕，大闹策略会...",
        "docid": "J294HJRP05566UTE",
        "url": "https://www.163.com/dy/article/J294HJRP05566UTE.html"
    },
    {
        "title": "极致不均衡？苏州中建熙辰上院值得买吗？",
        "docid": "J23Q9LDN0556720A",
        "url": "https://www.163.com/dy/article/J23Q9LDN0556720A.html"
    },
    {
        "title": "日本空置房屋数量达900万套，占整体住宅的13.8%创历史新高，免费送都没人要……",
        "docid": "J1RCN41D052597OI",
        "url": "https://www.163.com/dy/article/J1RCN41D052597OI.html"
    },
    {
        "title": "住进28层的房子，一直饱受煎熬，特别着急想卖掉",
        "docid": "VM0TRLD2C",
        "url": "https://www.163.com/dy/article/VM0TRLD2C.html"
    },
    {
        "title": "第四代住宅来了，该把老房子卖了置换吗？",
        "docid": "VG1B6QJAF",
        "url": "https://www.163.com/dy/article/VG1B6QJAF.html"
    },
    {
        "title": "王炸消息，国家要回购房子了？！ 美国回购股市，日本回购债市，中国回购房子，全球三大泡沫都找到了化解危",
        "docid": "VJ1BAKG8J",
        "url": "https://www.163.com/dy/article/VJ1BAKG8J.html"
    },
    {
        "title": "房东大哥直接降1300租金，飞哥却说贵贱不租了，究竟是为什么",
        "docid": "VI0U4P459",
        "url": "https://www.163.com/dy/article/VI0U4P459.html"
    },
    {
        "title": "40万买了500平别墅，如今想卖都卖不掉，说说别墅房三大硬伤",
        "docid": "VM0TREJ0D",
        "url": "https://www.163.com/dy/article/VM0TREJ0D.html"
    },
    {
        "title": "房价涨跌中的诚信危机：炒房客与购房者的博弈",
        "docid": "VF1AKDC3G",
        "url": "https://www.163.com/dy/article/VF1AKDC3G.html"
    },
    {
        "title": "法拍房手续齐全价格低，为什么很少有人买？来听听内行人怎么说",
        "docid": "VA1BAII97",
        "url": "https://www.163.com/dy/article/VA1BAII97.html"
    },
    {
        "title": "房地产，还有什么好期待？",
        "docid": "J294NQF705198JD9",
        "url": "https://www.163.com/dy/article/J294NQF705198JD9.html"
    },
    {
        "title": "欧洲哪个国家房主最多？哪个国家租客最少？面对住房危机，法国政府出何招",
        "docid": "J2964NFL0514BIJT",
        "url": "https://www.163.com/dy/article/J2964NFL0514BIJT.html"
    },
    {
        "title": "大风暴！二手房又下降了，同比跌幅13.1%，千万不要急着买房了！",
        "docid": "J287K4MN05566C1Z",
        "url": "https://www.163.com/dy/article/J287K4MN05566C1Z.html"
    },
    {
        "title": "【每日成交】2024年5月14日武汉市商品住房网签279套",
        "docid": "J27LT4G80553TEV3",
        "url": "https://www.163.com/dy/article/J27LT4G80553TEV3.html"
    },
    {
        "title": "白沙洲这个楼盘能否按时交付",
        "docid": "J280R1V80553TB9L",
        "url": "https://www.163.com/dy/article/J280R1V80553TB9L.html"
    },
    {
        "title": "以创新举措打造好服务、好房子",
        "docid": "J23BNOGQ055615MY",
        "url": "https://www.163.com/dy/article/J23BNOGQ055615MY.html"
    },
    {
        "title": "光谷这里土地属性调整！",
        "docid": "J24R946V0534SV3Y",
        "url": "https://www.163.com/dy/article/J24R946V0534SV3Y.html"
    },
    {
        "title": "易闻天下丨武汉公积金调整，汉阳又上新一家医院",
        "docid": "J27JU95T05567SKQ",
        "url": "https://www.163.com/dy/article/J27JU95T05567SKQ.html"
    },
    {
        "title": "自然资源部：1—4月全国农用地转用和土地征收批准面积同比增加56.57%",
        "docid": "J27OUQQH05199DKK",
        "url": "https://www.163.com/dy/article/J27OUQQH05199DKK.html"
    },
    {
        "title": "向往的生活，从一所好房子开始",
        "docid": "J20GRROT05567SKQ",
        "url": "https://www.163.com/dy/article/J20GRROT05567SKQ.html"
    },
    {
        "title": "全世界最大的骗局之一就是王健林疯狂变卖万达资产",
        "docid": "J28EFKGR0553VNKO",
        "url": "https://www.163.com/dy/article/J28EFKGR0553VNKO.html"
    },
    {
        "title": "房地产华南五虎之一的“雅居乐”暴雷！无能力履行境外所有债务！",
        "docid": "J28CL39R0552YPFH",
        "url": "https://www.163.com/dy/article/J28CL39R0552YPFH.html"
    },
    {
        "title": "当初有人说：将来房价如白菜价，很多人不相信",
        "docid": "J2922B520553SPQJ",
        "url": "https://www.163.com/dy/article/J2922B520553SPQJ.html"
    },
    {
        "title": "房价在可见的未来还会上涨吗？",
        "docid": "J28VD0UA05567IYR",
        "url": "https://www.163.com/dy/article/J28VD0UA05567IYR.html"
    },
    {
        "title": "又一城市提高公积金贷款额度！5月多地加速发力公积金政策 专家：灵活就业人群缴存比例不高成制约",
        "docid": "J2912HCK05198CJN",
        "url": "https://www.163.com/dy/article/J2912HCK05198CJN.html"
    },
    {
        "title": "日本用30年时间帮我们验证过了：房价暴跌，没有赢家，只有输家 ！",
        "docid": "J293BGC20553TDXU",
        "url": "https://www.163.com/dy/article/J293BGC20553TDXU.html"
    },
    {
        "title": "昱星家园69平米装修二房，窗户望出去就是美景；百日百房第78套",
        "docid": "VA1B43DTU",
        "url": "https://www.163.com/dy/article/VA1B43DTU.html"
    },
    {
        "title": "深户的好处 深户的好处可谓全方位",
        "docid": "VR1BBLJQD",
        "url": "https://www.163.com/dy/article/VR1BBLJQD.html"
    },
    {
        "title": "电梯机房等不纳入公摊面积！公摊面积取消势在必行？",
        "docid": "VR1BBUL1I",
        "url": "https://www.163.com/dy/article/VR1BBUL1I.html"
    },
    {
        "title": "补偿方式可以选择，城市改造也得为老百姓好",
        "docid": "VD1B4I3O6",
        "url": "https://www.163.com/dy/article/VD1B4I3O6.html"
    },
    {
        "title": "房源增加、销售下降、开工率下滑，高利率背景下的加拿大房地产何去何从？",
        "docid": "J29ACO1O05566YXD",
        "url": "https://www.163.com/dy/article/J29ACO1O05566YXD.html"
    },
    {
        "title": "房地产行业大事件汇总(2024.0515)",
        "docid": "J27NIFBT0515APM9",
        "url": "https://www.163.com/dy/article/J27NIFBT0515APM9.html"
    },
    {
        "title": "大风暴！二手房又下降了，同比跌幅13.1%，千万不要急着买房了！",
        "docid": "J287K4MN05566C1Z",
        "url": "https://www.163.com/dy/article/J287K4MN05566C1Z.html"
    },
    {
        "title": "【每日成交】2024年5月14日武汉市商品住房网签279套",
        "docid": "J27LT4G80553TEV3",
        "url": "https://www.163.com/dy/article/J27LT4G80553TEV3.html"
    },
    {
        "title": "白沙洲这个楼盘能否按时交付",
        "docid": "J280R1V80553TB9L",
        "url": "https://www.163.com/dy/article/J280R1V80553TB9L.html"
    },
    {
        "title": "以创新举措打造好服务、好房子",
        "docid": "J23BNOGQ055615MY",
        "url": "https://www.163.com/dy/article/J23BNOGQ055615MY.html"
    },
    {
        "title": "易闻天下丨武汉公积金调整，汉阳又上新一家医院",
        "docid": "J27JU95T05567SKQ",
        "url": "https://www.163.com/dy/article/J27JU95T05567SKQ.html"
    },
    {
        "title": "光谷这里土地属性调整！",
        "docid": "J24R946V0534SV3Y",
        "url": "https://www.163.com/dy/article/J24R946V0534SV3Y.html"
    },
    {
        "title": "向往的生活，从一所好房子开始",
        "docid": "J20GRROT05567SKQ",
        "url": "https://www.163.com/dy/article/J20GRROT05567SKQ.html"
    },
    {
        "title": "首套房贷利率3.15%！",
        "docid": "J28VGVUN05567IYR",
        "url": "https://www.163.com/dy/article/J28VGVUN05567IYR.html"
    },
    {
        "title": "大风暴！二手房又下降了，同比跌幅13.1%，千万不要急着买房了！",
        "docid": "J287K4MN05566C1Z",
        "url": "https://www.163.com/dy/article/J287K4MN05566C1Z.html"
    },
    {
        "title": "白沙洲这个楼盘能否按时交付",
        "docid": "J280R1V80553TB9L",
        "url": "https://www.163.com/dy/article/J280R1V80553TB9L.html"
    },
    {
        "title": "【每日成交】2024年5月14日武汉市商品住房网签279套",
        "docid": "J27LT4G80553TEV3",
        "url": "https://www.163.com/dy/article/J27LT4G80553TEV3.html"
    },
    {
        "title": "以创新举措打造好服务、好房子",
        "docid": "J23BNOGQ055615MY",
        "url": "https://www.163.com/dy/article/J23BNOGQ055615MY.html"
    },
    {
        "title": "易闻天下丨武汉公积金调整，汉阳又上新一家医院",
        "docid": "J27JU95T05567SKQ",
        "url": "https://www.163.com/dy/article/J27JU95T05567SKQ.html"
    },
    {
        "title": "光谷这里土地属性调整！",
        "docid": "J24R946V0534SV3Y",
        "url": "https://www.163.com/dy/article/J24R946V0534SV3Y.html"
    },
    {
        "title": "2024年5月16日房产早参 #楼市资讯 #房产早参",
        "docid": "J28PGPGV0512B07B",
        "url": "https://www.163.com/dy/article/J28PGPGV0512B07B.html"
    },
    {
        "title": "向往的生活，从一所好房子开始",
        "docid": "J20GRROT05567SKQ",
        "url": "https://www.163.com/dy/article/J20GRROT05567SKQ.html"
    },
    {
        "title": "金地管理联合金地商置中标武汉P(2021)102号地块委托管理项目",
        "docid": "J23B59I60519D45U",
        "url": "https://www.163.com/dy/article/J23B59I60519D45U.html"
    },
    {
        "title": "房地产行业大事件汇总(2024.0515)",
        "docid": "J27NGNKB0515APM9",
        "url": "https://www.163.com/dy/article/J27NGNKB0515APM9.html"
    },
    {
        "title": "父母出资购房，离婚后房产分割最全解读 | 家事金言（一百七十七",
        "docid": "J29D3Q1V0553TEQM",
        "url": "https://www.163.com/dy/article/J29D3Q1V0553TEQM.html"
    },
    {
        "title": "大风暴！二手房又下降了，同比跌幅13.1%，千万不要急着买房了！",
        "docid": "J287K4MN05566C1Z",
        "url": "https://www.163.com/dy/article/J287K4MN05566C1Z.html"
    },
    {
        "title": "【每日成交】2024年5月14日武汉市商品住房网签279套",
        "docid": "J27LT4G80553TEV3",
        "url": "https://www.163.com/dy/article/J27LT4G80553TEV3.html"
    },
    {
        "title": "白沙洲这个楼盘能否按时交付",
        "docid": "J280R1V80553TB9L",
        "url": "https://www.163.com/dy/article/J280R1V80553TB9L.html"
    },
    {
        "title": "以创新举措打造好服务、好房子",
        "docid": "J23BNOGQ055615MY",
        "url": "https://www.163.com/dy/article/J23BNOGQ055615MY.html"
    },
    {
        "title": "易闻天下丨武汉公积金调整，汉阳又上新一家医院",
        "docid": "J27JU95T05567SKQ",
        "url": "https://www.163.com/dy/article/J27JU95T05567SKQ.html"
    },
    {
        "title": "向往的生活，从一所好房子开始",
        "docid": "J20GRROT05567SKQ",
        "url": "https://www.163.com/dy/article/J20GRROT05567SKQ.html"
    },
    {
        "title": "金地管理联合金地商置中标武汉P(2021)102号地块委托管理项目",
        "docid": "J23B59I60519D45U",
        "url": "https://www.163.com/dy/article/J23B59I60519D45U.html"
    },
    {
        "title": "有高人预测，到2025年，我国可能会出现以下十大变化趋势",
        "docid": "J28KJA7B0552ZPDP",
        "url": "https://www.163.com/dy/article/J28KJA7B0552ZPDP.html"
    },
    {
        "title": "各地楼市政策密集“上新”，房地产类ETF领涨市场",
        "docid": "J283KHCM0534A4SC",
        "url": "https://www.163.com/dy/article/J283KHCM0534A4SC.html"
    },
    {
        "title": "楼市利好不断，买房风险越来越大，赶紧抛售这一类房产吧！",
        "docid": "J28AO3P605567HWG",
        "url": "https://www.163.com/dy/article/J28AO3P605567HWG.html"
    },
    {
        "title": "楼市大变天，房价不会下暴涨，但是也不会大跌了，可以买房了！",
        "docid": "J28AJ9BO05567HWG",
        "url": "https://www.163.com/dy/article/J28AJ9BO05567HWG.html"
    },
    {
        "title": "注意了， 买房一定要赚钱吗，住房不炒之下不赚钱你就不买房吗？",
        "docid": "J28AC47805567HWG",
        "url": "https://www.163.com/dy/article/J28AC47805567HWG.html"
    },
    {
        "title": "楼市传来好消息，房贷利率新鲜出炉，不要再等房价下跌了！",
        "docid": "J28A5ML905567HWG",
        "url": "https://www.163.com/dy/article/J28A5ML905567HWG.html"
    },
    {
        "title": "保利林语溪，类独栋别墅，精装修，可拎包入住，286平，大花园",
        "docid": "VA0RPSFKN",
        "url": "https://www.163.com/dy/article/VA0RPSFKN.html"
    },
    {
        "title": "俯瞰日本皇宫的顶层高级公寓",
        "docid": "VU0QUHK07",
        "url": "https://www.163.com/dy/article/VU0QUHK07.html"
    },
    {
        "title": "69平米的小二房，如果要求不高，可直接入住；百日百房第71套",
        "docid": "VA0RKBEB5",
        "url": "https://www.163.com/dy/article/VA0RKBEB5.html"
    },
    {
        "title": "东莞大事件！东莞这30条村即将拆迁改造！高达1090亿元巨资已到位",
        "docid": "VN1BDIIHJ",
        "url": "https://www.163.com/dy/article/VN1BDIIHJ.html"
    },
    {
        "title": "分享朋友家新房，全屋搭配出来的效果太好看了，非常让人喜欢啊",
        "docid": "VY0TUJB6Q",
        "url": "https://www.163.com/dy/article/VY0TUJB6Q.html"
    },
    {
        "title": "将近百年的河南大学博雅楼，可要保护好呀",
        "docid": "VY0Q4D2ID",
        "url": "https://www.163.com/dy/article/VY0Q4D2ID.html"
    },
    {
        "title": "和颂小区(一期)二标段工程总承包中标结果公告",
        "docid": "J29FKAA5055616W7",
        "url": "https://www.163.com/dy/article/J29FKAA5055616W7.html"
    },
    {
        "title": "潘石屹：房子不值钱了！人均住房面积已经超过了35平米！",
        "docid": "VP18EBGA9",
        "url": "https://www.163.com/dy/article/VP18EBGA9.html"
    },
    {
        "title": "一语 | 马光远：现在是取消公摊面积最好的时间窗口",
        "docid": "VP0R2HII1",
        "url": "https://www.163.com/dy/article/VP0R2HII1.html"
    },
    {
        "title": "1400万一线江景大平层，到底值在哪儿？车库简直就是豪车展",
        "docid": "VB0UB84MM",
        "url": "https://www.163.com/dy/article/VB0UB84MM.html"
    },
    {
        "title": "号称湖北第一鬼城，2000亩的烂尾楼群，区域内多年无人踏足！",
        "docid": "VI0UK1553",
        "url": "https://www.163.com/dy/article/VI0UK1553.html"
    },
    {
        "title": "随大流，永远都是不入流！",
        "docid": "VL0S34G07",
        "url": "https://www.163.com/dy/article/VL0S34G07.html"
    },
    {
        "title": "终于知道什么叫代代相传了",
        "docid": "VF0UJJNNK",
        "url": "https://www.163.com/dy/article/VF0UJJNNK.html"
    },
    {
        "title": "老无所依：美国住房短缺危机？",
        "docid": "VF0U6O3BG",
        "url": "https://www.163.com/dy/article/VF0U6O3BG.html"
    },
    {
        "title": "万恶的公摊面积，太坑人！都摊哪里了",
        "docid": "VZ0QAUA99",
        "url": "https://www.163.com/dy/article/VZ0QAUA99.html"
    },
    {
        "title": "上海第三批新房三个每平超17万，说明刚需房因下跌而无人购买",
        "docid": "VC19N3DBR",
        "url": "https://www.163.com/dy/article/VC19N3DBR.html"
    },
    {
        "title": "家住30年以上旧小区的人有福了，预计5000万人将受益！",
        "docid": "J27GNECR05566MKM",
        "url": "https://www.163.com/dy/article/J27GNECR05566MKM.html"
    },
    {
        "title": "空置房“停收物业费”？明确了：新规下一律这样交",
        "docid": "J22C2T8005566MKM",
        "url": "https://www.163.com/dy/article/J22C2T8005566MKM.html"
    },
    {
        "title": "我从“电梯房”搬回“楼梯房”，有些话不吐不快，感受太真实了",
        "docid": "J1VQP3Q705566MKM",
        "url": "https://www.163.com/dy/article/J1VQP3Q705566MKM.html"
    },
    {
        "title": "这3个证件，比房产证还重要，千万别弄丢！",
        "docid": "J25LLPV705566MKM",
        "url": "https://www.163.com/dy/article/J25LLPV705566MKM.html"
    },
    {
        "title": "小区划分“富人区”和“贫民窟”真的适合吗",
        "docid": "J1QO5PPQ055678KC",
        "url": "https://www.163.com/dy/article/J1QO5PPQ055678KC.html"
    },
    {
        "title": "2024-2025避坑指南：十大忠告助你明智决策，远离风险",
        "docid": "VM0Q8EDG8",
        "url": "https://www.163.com/dy/article/VM0Q8EDG8.html"
    },
    {
        "title": "2024年房价继续下跌，20多城取消限购，还推出了住房以旧换新政策",
        "docid": "VM158HI5I",
        "url": "https://www.163.com/dy/article/VM158HI5I.html"
    },
    {
        "title": "环京的房子没人要了吗？8000住宅不比10000公寓强吗？小心被坑",
        "docid": "VM151V7RK",
        "url": "https://www.163.com/dy/article/VM151V7RK.html"
    },
    {
        "title": "90城市房价已暴跌！24年会是最悲催的一年吗？！",
        "docid": "VV186QJP8",
        "url": "https://www.163.com/dy/article/VV186QJP8.html"
    },
    {
        "title": "这轮「一万亿国债」大放水会让房价物价上涨吗？盯住两个重要指标",
        "docid": "VL19P16IJ",
        "url": "https://www.163.com/dy/article/VL19P16IJ.html"
    },
    {
        "title": "许家印又膨胀起来？中国的房地产问题，能否治好",
        "docid": "J29K5FMG0553TDTY",
        "url": "https://www.163.com/dy/article/J29K5FMG0553TDTY.html"
    },
    {
        "title": "美联储古尔斯比：看到房价通胀将大幅下降的证据",
        "docid": "J29K44SP05198CJN",
        "url": "https://www.163.com/dy/article/J29K44SP05198CJN.html"
    },
    {
        "title": "未来购房宝典：十大精选标准，打造舒适家园",
        "docid": "VM0QB4M68",
        "url": "https://www.163.com/dy/article/VM0QB4M68.html"
    },
    {
        "title": "全民所有的土地卖了50万亿，有的公园刚建完就拆扒，公家钱要管好",
        "docid": "VL12GJ38R",
        "url": "https://www.163.com/dy/article/VL12GJ38R.html"
    },
    {
        "title": "大城市房价这么贵，难道让大家都露宿街头吗？",
        "docid": "VE123L8HQ",
        "url": "https://www.163.com/dy/article/VE123L8HQ.html"
    },
    {
        "title": "穷人最大的问题就是不爱学习，你认同吗？",
        "docid": "VM177USR0",
        "url": "https://www.163.com/dy/article/VM177USR0.html"
    },
    {
        "title": "4年时间亏掉了200多万！这个别墅区在当年要靠抢， 现在一言难尽",
        "docid": "VM154Q2C7",
        "url": "https://www.163.com/dy/article/VM154Q2C7.html"
    },
    {
        "title": "中国房产分为五级市场：城市如何挑选新移民？答：靠房价",
        "docid": "VE176AFKK",
        "url": "https://www.163.com/dy/article/VE176AFKK.html"
    },
    {
        "title": "2024年买房“4个坑”真的不能进，最后一个最重要！",
        "docid": "VU1782L6O",
        "url": "https://www.163.com/dy/article/VU1782L6O.html"
    },
    {
        "title": "房价到底什么时候能涨？现在卖房合适吗？",
        "docid": "VE1A0VHEM",
        "url": "https://www.163.com/dy/article/VE1A0VHEM.html"
    },
    {
        "title": "定了！澳洲投资移民政策，被彻底废除！",
        "docid": "J29KQOVN05199N88",
        "url": "https://www.163.com/dy/article/J29KQOVN05199N88.html"
    },
    {
        "title": "老房子加装电梯，有风险",
        "docid": "VF0TOLJE3",
        "url": "https://www.163.com/dy/article/VF0TOLJE3.html"
    },
    {
        "title": "房地产的水太深了，有多少人着了道进了套",
        "docid": "VP151CCBH",
        "url": "https://www.163.com/dy/article/VP151CCBH.html"
    },
    {
        "title": "这家可以办理公房改私房了，大家赶紧抓紧办理吧！",
        "docid": "VM1798J9C",
        "url": "https://www.163.com/dy/article/VM1798J9C.html"
    },
    {
        "title": "10年之后，中国贬值最快的不是房子，而是这3样东西，你家有吗？",
        "docid": "VC11U0BO8",
        "url": "https://www.163.com/dy/article/VC11U0BO8.html"
    },
    {
        "title": "全面租房时代来临？可以一辈子租房住吗？下集",
        "docid": "VE0QJEQ7Q",
        "url": "https://www.163.com/dy/article/VE0QJEQ7Q.html"
    },
    {
        "title": "房产中介说漏了嘴，今明两年想买房，一定要牢记这七个字",
        "docid": "VC14QQ3EP",
        "url": "https://www.163.com/dy/article/VC14QQ3EP.html"
    },
    {
        "title": "赵燕菁：房地产不好，所有人都没钱",
        "docid": "VS1109QCJ",
        "url": "https://www.163.com/dy/article/VS1109QCJ.html"
    },
    {
        "title": "老楼房加装电梯，低楼层有隐忍义务，法官说的！厉害",
        "docid": "VC0UP8B31",
        "url": "https://www.163.com/dy/article/VC0UP8B31.html"
    },
    {
        "title": "如果房价暴跌对谁影响最大？开发商还是购房者？其实还有“他”",
        "docid": "VU12786D2",
        "url": "https://www.163.com/dy/article/VU12786D2.html"
    },
    {
        "title": "外国投资者在澳买房将获大幅减税，首次置业者要想买房更难了！",
        "docid": "J29KR4G005199N88",
        "url": "https://www.163.com/dy/article/J29KR4G005199N88.html"
    },
    {
        "title": "宇宙中心前滩，跌惨了 ",
        "docid": "VC1BRTG9Q",
        "url": "https://www.163.com/dy/article/VC1BRTG9Q.html"
    },
    {
        "title": "住房“以旧换新”，销售楼盘增至8个！#以旧换新 #二手房",
        "docid": "VF0QUU249",
        "url": "https://www.163.com/dy/article/VF0QUU249.html"
    },
    {
        "title": "房价会跌到10年前，甚至20年前吗？",
        "docid": "VE12P1FN1",
        "url": "https://www.163.com/dy/article/VE12P1FN1.html"
    },
    {
        "title": "3平方小房 2200元一个月租金 在外边弯了一天的腰 回到家彻底断了",
        "docid": "VW0STEOU7",
        "url": "https://www.163.com/dy/article/VW0STEOU7.html"
    },
    {
        "title": "买房选择一次性付清还是30年贷款，原来区别这么大，幸亏知道的早",
        "docid": "VD0SRNOCP",
        "url": "https://www.163.com/dy/article/VD0SRNOCP.html"
    },
    {
        "title": "5年前300万买入临港，现在还剩下多少钱 ",
        "docid": "VF0Q31HI9",
        "url": "https://www.163.com/dy/article/VF0Q31HI9.html"
    },
    {
        "title": "四年前花1万5在武汉买的房，如今卖掉要赔多少？一算吓一跳",
        "docid": "VY0QRUBQC",
        "url": "https://www.163.com/dy/article/VY0QRUBQC.html"
    },
    {
        "title": "高铁涨价打响了全面涨价的第一枪，近来不知为啥多人想不开跳桥",
        "docid": "VU1771NHA",
        "url": "https://www.163.com/dy/article/VU1771NHA.html"
    },
    {
        "title": "杭州，西安也解除限购，成都的房产市场会不会因此波动受影响",
        "docid": "VR14L4QRA",
        "url": "https://www.163.com/dy/article/VR14L4QRA.html"
    },
    {
        "title": "购房即落户，抢人大战打响了",
        "docid": "J29OL2LA0553TDTY",
        "url": "https://www.163.com/dy/article/J29OL2LA0553TDTY.html"
    },
    {
        "title": "装电梯的老房子到底好不好？",
        "docid": "VG0QHCPNL",
        "url": "https://www.163.com/dy/article/VG0QHCPNL.html"
    },
    {
        "title": "中国房地产时代即将落幕？",
        "docid": "VQ14IALT3",
        "url": "https://www.163.com/dy/article/VQ14IALT3.html"
    },
    {
        "title": "终于狠心把50楼的房子卖了，价格难以接受，明年房价会涨吗？",
        "docid": "VY12DM0J7",
        "url": "https://www.163.com/dy/article/VY12DM0J7.html"
    },
    {
        "title": "海边捡的废弃别墅，很多人想过来住，晚上这么黑这么静，还过来吗",
        "docid": "VK17BBAVL",
        "url": "https://www.163.com/dy/article/VK17BBAVL.html"
    },
    {
        "title": "185万房子断供了，法拍了95万，买房毁一生，逼死我算了！",
        "docid": "VY0VLE5K8",
        "url": "https://www.163.com/dy/article/VY0VLE5K8.html"
    },
    {
        "title": "华北第二大城市房价失控，欠钱不还了，逼死我算了！",
        "docid": "VX177BJ66",
        "url": "https://www.163.com/dy/article/VX177BJ66.html"
    },
    {
        "title": "放开限购意味着，重大转折点来了。#经济 #投资 #生活",
        "docid": "VG15660AT",
        "url": "https://www.163.com/dy/article/VG15660AT.html"
    },
    {
        "title": "房地产真有可能起死回生 就因为这一招出现了",
        "docid": "VQ0R6D29G",
        "url": "https://www.163.com/dy/article/VQ0R6D29G.html"
    },
    {
        "title": "千万不要贷款买房！一旦断供悲催至极呀！",
        "docid": "VY19M4RB0",
        "url": "https://www.163.com/dy/article/VY19M4RB0.html"
    },
    {
        "title": "消费“以旧换新”到了楼市，近50城出扶持政策，都有哪些优惠？",
        "docid": "J29SC2AJ0539PXYN",
        "url": "https://www.163.com/dy/article/J29SC2AJ0539PXYN.html"
    },
    {
        "title": "又一家地产公司资不抵债无法继续经营！宣布与全员解除劳动合同…",
        "docid": "J29NTDJ805564S43",
        "url": "https://www.163.com/dy/article/J29NTDJ805564S43.html"
    },
    {
        "title": "武汉又一批拆迁出炉！涉及7个区！",
        "docid": "J29SM7SF0552F71X",
        "url": "https://www.163.com/dy/article/J29SM7SF0552F71X.html"
    },
    {
        "title": "武汉最大烂尾楼价值几十亿，在武汉市中心荒废14年",
        "docid": "VJ17TRLT8",
        "url": "https://www.163.com/dy/article/VJ17TRLT8.html"
    },
    {
        "title": "17年买房的你们还好吗",
        "docid": "VF1BSNHQN",
        "url": "https://www.163.com/dy/article/VF1BSNHQN.html"
    },
    {
        "title": "“房价落，万物升”！一大波涨价潮来袭，你准备好了吗？",
        "docid": "VL156SOOJ",
        "url": "https://www.163.com/dy/article/VL156SOOJ.html"
    },
    {
        "title": "震撼！专家建议“炸楼重建”拯救楼市，带动GDP发展！",
        "docid": "VL14I4UQA",
        "url": "https://www.163.com/dy/article/VL14I4UQA.html"
    },
    {
        "title": "激荡四十年·房子里的中国①：房荒！钱荒！中国地产史1978-1984",
        "docid": "VV17OQGR1",
        "url": "https://www.163.com/dy/article/VV17OQGR1.html"
    },
    {
        "title": "农村老家的房子也要办证了，你知道是什么证吗？",
        "docid": "VU13PF302",
        "url": "https://www.163.com/dy/article/VU13PF302.html"
    },
    {
        "title": "谁在托着县城的房价？看完之后忍不住的说，楼市拖不起了",
        "docid": "VY14J3LS4",
        "url": "https://www.163.com/dy/article/VY14J3LS4.html"
    },
    {
        "title": "为何房贷最多只能借30年，国债却能发50年？",
        "docid": "J29RLOK80553XH85",
        "url": "https://www.163.com/dy/article/J29RLOK80553XH85.html"
    },
    {
        "title": "中国楼市的“拯救计划”出炉",
        "docid": "J29ML7030553TEV3",
        "url": "https://www.163.com/dy/article/J29ML7030553TEV3.html"
    },
    {
        "title": "房子过户给子女，最好选择这一种方式，可以省下不少钱",
        "docid": "VO1BSRBR4",
        "url": "https://www.163.com/dy/article/VO1BSRBR4.html"
    },
    {
        "title": "尊华：房地产存量时代的资产运营创业机遇",
        "docid": "VM197S9UA",
        "url": "https://www.163.com/dy/article/VM197S9UA.html"
    },
    {
        "title": "你跟我说这是私人的？ ",
        "docid": "VF0QT15ME",
        "url": "https://www.163.com/dy/article/VF0QT15ME.html"
    },
    {
        "title": "要是早知道现在这样，打死我也不会买房。",
        "docid": "VK0U8DHND",
        "url": "https://www.163.com/dy/article/VK0U8DHND.html"
    },
    {
        "title": "有一种痛苦叫婚房买了loft，卖不出也不想住，彻底成了“不动产”",
        "docid": "VY12EBURJ",
        "url": "https://www.163.com/dy/article/VY12EBURJ.html"
    },
    {
        "title": "终于狠心把房子卖了，价格难以接受，亏到吐血，到现在心还在疼！",
        "docid": "VY15UGP38",
        "url": "https://www.163.com/dy/article/VY15UGP38.html"
    },
    {
        "title": "要不要提前还？怎么还更划算？",
        "docid": "VV1A21P1K",
        "url": "https://www.163.com/dy/article/VV1A21P1K.html"
    },
    {
        "title": "海边捡的废弃别墅，简单收拾一下在这边过年了，没水没电怎么解决",
        "docid": "VK17BBBKP",
        "url": "https://www.163.com/dy/article/VK17BBBKP.html"
    },
    {
        "title": "昨日晚评 | “房地产”逆转了？",
        "docid": "J29TVFBN0519C2BH",
        "url": "https://www.163.com/dy/article/J29TVFBN0519C2BH.html"
    },
    {
        "title": "大悦城地产的大量员工，合同到期不续约了",
        "docid": "J29U17Q80553TEV3",
        "url": "https://www.163.com/dy/article/J29U17Q80553TEV3.html"
    },
    {
        "title": "一款好户型，可以看出设计师的满满诚意",
        "docid": "J29MUV3F0552F71X",
        "url": "https://www.163.com/dy/article/J29MUV3F0552F71X.html"
    },
    {
        "title": "缅甸果敢“抄作业”的最高境界：连房产软文都是中国楼盘画风",
        "docid": "J29NNQHD055616ZT",
        "url": "https://www.163.com/dy/article/J29NNQHD055616ZT.html"
    },
    {
        "title": "房地产，或迎来超级大利好！",
        "docid": "J29TVP1Q05358KE1",
        "url": "https://www.163.com/dy/article/J29TVP1Q05358KE1.html"
    },
    {
        "title": "视高的亏主们你们现在还好吗？",
        "docid": "VR17DM4AI",
        "url": "https://www.163.com/dy/article/VR17DM4AI.html"
    },
    {
        "title": "花140万买了50层顶楼，每天就像住在天上，有7大硬伤，都是心里话",
        "docid": "VY0SRMS13",
        "url": "https://www.163.com/dy/article/VY0SRMS13.html"
    },
    {
        "title": "房价按市场规律下跌不可怕，姚洋：因为它还会涨回来 ",
        "docid": "VU1C2VVR4",
        "url": "https://www.163.com/dy/article/VU1C2VVR4.html"
    },
    {
        "title": "90平小家，入驻3年的温馨全貌，干净舒适的家治愈一切不开心",
        "docid": "VG0UO638F",
        "url": "https://www.163.com/dy/article/VG0UO638F.html"
    },
    {
        "title": "房地产这个惊天大雷被完美解决",
        "docid": "VC1C2UUA3",
        "url": "https://www.163.com/dy/article/VC1C2UUA3.html"
    },
    {
        "title": "如果楼市出现这5种现象，说明房子要贬值了，还没买房的再等等",
        "docid": "J29NL79O0553TDVP",
        "url": "https://www.163.com/dy/article/J29NL79O0553TDVP.html"
    },
    {
        "title": "房企这个部门，真的蛮尴尬",
        "docid": "J29V1P4M05158B67",
        "url": "https://www.163.com/dy/article/J29V1P4M05158B67.html"
    },
    {
        "title": "地产代建，开启炼狱模式",
        "docid": "J29V1AKE05158B67",
        "url": "https://www.163.com/dy/article/J29V1AKE05158B67.html"
    },
    {
        "title": "提前还房贷是聪明还是糊涂？银行员工：不少人还在“白送钱”",
        "docid": "VF16FT58C",
        "url": "https://www.163.com/dy/article/VF16FT58C.html"
    },
    {
        "title": "海边捡的别墅住了一个月，周围搜集物质，打造温馨小卧室，真好",
        "docid": "VK14R727D",
        "url": "https://www.163.com/dy/article/VK14R727D.html"
    },
    {
        "title": "房价下跌后，一位买了40套房子的大姐说了3件事，太真实了",
        "docid": "VY12DUVAM",
        "url": "https://www.163.com/dy/article/VY12DUVAM.html"
    },
    {
        "title": "海边捡的废弃别墅，收拾一下就在这边过年了，一个人简简单单挺好",
        "docid": "VK19SF196",
        "url": "https://www.163.com/dy/article/VK19SF196.html"
    },
    {
        "title": "一线城市房子旧改以下定居\n买新房子还是老房子？",
        "docid": "VJ15FBD84",
        "url": "https://www.163.com/dy/article/VJ15FBD84.html"
    },
    {
        "title": "海边捡的别墅住了一个月，带你们了解当地海鲜市场，你们觉得贵吗",
        "docid": "VK0VL20B7",
        "url": "https://www.163.com/dy/article/VK0VL20B7.html"
    },
    {
        "title": "房地产突传超级大利好！A股调整到位了吗？美国今夜重磅利空来袭",
        "docid": "VO1A30NVI",
        "url": "https://www.163.com/dy/article/VO1A30NVI.html"
    },
    {
        "title": "从一抹绿，到一束光，新质生产力们拥抱智慧物管",
        "docid": "J2A0VMR20519DLR9",
        "url": "https://www.163.com/dy/article/J2A0VMR20519DLR9.html"
    },
    {
        "title": "不愧是中国别墅看福建，福建别墅看莆田，别墅修的跟商场一样，有的又像圆明园，真的是大开眼界",
        "docid": "VP1C407R8",
        "url": "https://www.163.com/dy/article/VP1C407R8.html"
    },
    {
        "title": "消费不够 人口来凑 女子称现在贬值最狠的是户口 （来源",
        "docid": "VO1C6RGU8",
        "url": "https://www.163.com/dy/article/VO1C6RGU8.html"
    },
    {
        "title": "珠海房价持续下跌，斗门区香洲区跌幅最大！",
        "docid": "VV19L5LVP",
        "url": "https://www.163.com/dy/article/VV19L5LVP.html"
    },
    {
        "title": "封个7米的阳台就花掉了30000元，邻居们都说便宜，你们觉得值吗",
        "docid": "VS1C10QQ3",
        "url": "https://www.163.com/dy/article/VS1C10QQ3.html"
    },
    {
        "title": "广西最美“鬼城”，人烟稀少房价惊人，宽阔道路媲美北上广深",
        "docid": "VI1C0O7IL",
        "url": "https://www.163.com/dy/article/VI1C0O7IL.html"
    },
    {
        "title": "九郡弘750平新房开荒保洁管家式深度清洁 ",
        "docid": "VS1C6S65E",
        "url": "https://www.163.com/dy/article/VS1C6S65E.html"
    },
    {
        "title": "房价为何持续暴跌！三要素促使房价暴跌！",
        "docid": "VY15TVGAJ",
        "url": "https://www.163.com/dy/article/VY15TVGAJ.html"
    },
    {
        "title": "交了购房的定金后悔了，不哭不闹教你拿回定金",
        "docid": "VC0T4HF02",
        "url": "https://www.163.com/dy/article/VC0T4HF02.html"
    },
    {
        "title": "这三年不买房，\n5年后是随便挑还是更买不起？\n已经有答案了！",
        "docid": "VJ15F2K4T",
        "url": "https://www.163.com/dy/article/VJ15F2K4T.html"
    },
    {
        "title": "P2P兴衰史，其实就是楼市起伏的另一面而已，都是钱闹的",
        "docid": "J1T4QTMO0535FFBB",
        "url": "https://www.163.com/dy/article/J1T4QTMO0535FFBB.html"
    },
    {
        "title": "去库存王炸来袭，国家回购！",
        "docid": "J29MPOUL0553TDXU",
        "url": "https://www.163.com/dy/article/J29MPOUL0553TDXU.html"
    },
    {
        "title": "叹！最后模范生出事，还有人嘲笑恒大吗？",
        "docid": "J29HH5I0055634O5",
        "url": "https://www.163.com/dy/article/J29HH5I0055634O5.html"
    },
    {
        "title": "楼市限购会不会全面退出？",
        "docid": "J25UBGFG0512AKQV",
        "url": "https://www.163.com/dy/article/J25UBGFG0512AKQV.html"
    },
    {
        "title": "2024年裁员大预测：这些行业要小心了！",
        "docid": "J29FO3B60553TDVI",
        "url": "https://www.163.com/dy/article/J29FO3B60553TDVI.html"
    },
    {
        "title": "一批单身女性正在“捡漏”买房：比恋爱爽",
        "docid": "J2A319ER0553TEV3",
        "url": "https://www.163.com/dy/article/J2A319ER0553TEV3.html"
    },
    {
        "title": "房子继承人顺序，终于有人整理好了，不知道的收藏",
        "docid": "J29H8J23055616ZT",
        "url": "https://www.163.com/dy/article/J29H8J23055616ZT.html"
    },
    {
        "title": "在伦敦直播的投资干货复盘",
        "docid": "J2A3IBFF0539SD2G",
        "url": "https://www.163.com/dy/article/J2A3IBFF0539SD2G.html"
    },
    {
        "title": "二婚宝妈带娃嫁香港，老公月入百万 住5000万豪宅",
        "docid": "VL1C6AFMQ",
        "url": "https://www.163.com/dy/article/VL1C6AFMQ.html"
    },
    {
        "title": "因为连廊，导致小区的两家人大打出手，今天给大家说下连廊房利害",
        "docid": "VI0V1DP1L",
        "url": "https://www.163.com/dy/article/VI0V1DP1L.html"
    },
    {
        "title": "写字楼标准物业管理方案模板",
        "docid": "J2A507KP055615MY",
        "url": "https://www.163.com/dy/article/J2A507KP055615MY.html"
    },
    {
        "title": "个人住房贷款增长转负，房贷或难再为银行提供增长动力",
        "docid": "J2A4E7KP05199FB7",
        "url": "https://www.163.com/dy/article/J2A4E7KP05199FB7.html"
    },
    {
        "title": "Anand Khubani拟斥资1亿美元购入迈阿密海滩三套豪宅",
        "docid": "J2A42PR00519D45U",
        "url": "https://www.163.com/dy/article/J2A42PR00519D45U.html"
    },
    {
        "title": "很多人追捧流浪大师沈巍，估计有不少人是羡慕他 “ 带薪流浪 ”",
        "docid": "J2A3CL9I0535FFBB",
        "url": "https://www.163.com/dy/article/J2A3CL9I0535FFBB.html"
    },
    {
        "title": "小区楼道内有打牌的怎么处理？",
        "docid": "J2A57OVL055615MY",
        "url": "https://www.163.com/dy/article/J2A57OVL055615MY.html"
    },
    {
        "title": "东北最大城市巨型“空置群”，房子“尸横遍野”",
        "docid": "VX1CAI8D5",
        "url": "https://www.163.com/dy/article/VX1CAI8D5.html"
    },
    {
        "title": "新鲜出炉，今天刚拍的房源 ",
        "docid": "VI0V8C3BO",
        "url": "https://www.163.com/dy/article/VI0V8C3BO.html"
    },
    {
        "title": "最高院：挂靠施工对外签订的合同，应由哪一方承担付款责任？",
        "docid": "VU1C81P0M",
        "url": "https://www.163.com/dy/article/VU1C81P0M.html"
    },
    {
        "title": "通胀预警：存款还是购房？专家解析最佳守护财富策略",
        "docid": "VF1ALV547",
        "url": "https://www.163.com/dy/article/VF1ALV547.html"
    },
    {
        "title": "广西最美“鬼城”，人烟稀少房价惊人，宽阔道路媲美北上广深",
        "docid": "VS1C1SBL1",
        "url": "https://www.163.com/dy/article/VS1C1SBL1.html"
    },
    {
        "title": "“人穷买顶楼、人傻买一楼”有道理？懂行人：其实很多人都选错了",
        "docid": "J29623M70535BC2F",
        "url": "https://www.163.com/dy/article/J29623M70535BC2F.html"
    },
    {
        "title": "10年后：“楼梯房”和“电梯房”哪个更保值？建筑学家说出大实话",
        "docid": "J1ORJM1M0540SN7V",
        "url": "https://www.163.com/dy/article/J1ORJM1M0540SN7V.html"
    },
    {
        "title": "全国土地供应保持高速增长",
        "docid": "J2A6CIJH055616ZT",
        "url": "https://www.163.com/dy/article/J2A6CIJH055616ZT.html"
    },
    {
        "title": "美国地产富豪拟竞购TikTok美国业务",
        "docid": "J2A709S805566WVY",
        "url": "https://www.163.com/dy/article/J2A709S805566WVY.html"
    },
    {
        "title": "四川东方雨虹装配式建筑科技有限责任公司盛大开业",
        "docid": "J2A6GA4U05199FB7",
        "url": "https://www.163.com/dy/article/J2A6GA4U05199FB7.html"
    },
    {
        "title": "3个月狂赚1000万，上世纪的首都7号别墅，最终是如何覆灭的？",
        "docid": "VW1C9U561",
        "url": "https://www.163.com/dy/article/VW1C9U561.html"
    },
    {
        "title": "日本这种奇葩公寓，危险重重毫无隐私！究竟谁敢住啊？",
        "docid": "VF0VESMVJ",
        "url": "https://www.163.com/dy/article/VF0VESMVJ.html"
    },
    {
        "title": "韭菜割不到了，就开始挖韭菜根　法拍房大增 背后有深意",
        "docid": "VI0V922U5",
        "url": "https://www.163.com/dy/article/VI0V922U5.html"
    },
    {
        "title": "韭菜割不到了，就开始挖韭菜根　法拍房大增 背后有深意",
        "docid": "VF0V891DU",
        "url": "https://www.163.com/dy/article/VF0V891DU.html"
    },
    {
        "title": "房租如何成为房价的“定海神针”？#一个敢说真话的房产人",
        "docid": "VF1AITPT1",
        "url": "https://www.163.com/dy/article/VF1AITPT1.html"
    },
    {
        "title": "68城出台住房“以旧换新”相关政策",
        "docid": "J2A79FO10539AP40",
        "url": "https://www.163.com/dy/article/J2A79FO10539AP40.html"
    },
    {
        "title": "房地产发展新模式，加速了",
        "docid": "J2A60FMI05392B4P",
        "url": "https://www.163.com/dy/article/J2A60FMI05392B4P.html"
    },
    {
        "title": "招商中旅揽阅官方售楼处电话→招商中旅揽阅楼盘百科详情首页网站",
        "docid": "J2A7J0FS05567507",
        "url": "https://www.163.com/dy/article/J2A7J0FS05567507.html"
    },
    {
        "title": "房价下跌！一线跌到20000、二线9000、三四线4000，内行：可能吗",
        "docid": "J295OG6D0535BC2F",
        "url": "https://www.163.com/dy/article/J295OG6D0535BC2F.html"
    },
    {
        "title": "不必怀疑，这场大会铁了心要扭转地产预期",
        "docid": "J2A8LM6T0535PDC2",
        "url": "https://www.163.com/dy/article/J2A8LM6T0535PDC2.html"
    },
    {
        "title": "做一个遵纪守法的好公民",
        "docid": "VE1CD38PU",
        "url": "https://www.163.com/dy/article/VE1CD38PU.html"
    },
    {
        "title": "历史承载两次的旧楼市。这一次会成功吗？",
        "docid": "VR1CC15NF",
        "url": "https://www.163.com/dy/article/VR1CC15NF.html"
    },
    {
        "title": "你认为现在买房是机会还是坑",
        "docid": "VE1CD3B11",
        "url": "https://www.163.com/dy/article/VE1CD3B11.html"
    },
    {
        "title": "这几种人千万不要轻易卖掉房子",
        "docid": "VN1C5GQQ2",
        "url": "https://www.163.com/dy/article/VN1C5GQQ2.html"
    },
    {
        "title": "法拍房市场火爆，竞拍之前，这几个细节提前说明",
        "docid": "VU1C7GLPS",
        "url": "https://www.163.com/dy/article/VU1C7GLPS.html"
    },
    {
        "title": "国有职工数量前20城市榜单：西安多于广州、武汉，浙江城市缺席！",
        "docid": "J2AAFDAT0539KVTS",
        "url": "https://www.163.com/dy/article/J2AAFDAT0539KVTS.html"
    },
    {
        "title": "房产税 这个脑洞真是太大了，向没有房子的人征收房产税。妙啊",
        "docid": "VW1CFLQ1K",
        "url": "https://www.163.com/dy/article/VW1CFLQ1K.html"
    },
    {
        "title": "解决房地产问题是解决所有问题的突破口，我们已经开始这样做了！",
        "docid": "VR1ANS4QS",
        "url": "https://www.163.com/dy/article/VR1ANS4QS.html"
    },
    {
        "title": "房价从22000跌到8000，免费送房无人问，走投无路只能断供吗？",
        "docid": "VI1C467TB",
        "url": "https://www.163.com/dy/article/VI1C467TB.html"
    },
    {
        "title": "关注我了解更多房产知识",
        "docid": "VE1CD3C1P",
        "url": "https://www.163.com/dy/article/VE1CD3C1P.html"
    },
    {
        "title": "房价从22000跌到8000，免费送房无人问，走投无路只能断供吗？",
        "docid": "VF1C4RC6J",
        "url": "https://www.163.com/dy/article/VF1C4RC6J.html"
    },
    {
        "title": "楼市回暖反弹仍需时间 房地产行业发展重点将转移",
        "docid": "VI1CAKQ1O",
        "url": "https://www.163.com/dy/article/VI1CAKQ1O.html"
    },
    {
        "title": "南京、厦门绷不住了，买房送户口，新一轮抢人大战来了",
        "docid": "VH1B3B0L0",
        "url": "https://www.163.com/dy/article/VH1B3B0L0.html"
    },
    {
        "title": "装修贷申请之前，这四个问题一定要先弄清！",
        "docid": "VK0VEP8D9",
        "url": "https://www.163.com/dy/article/VK0VEP8D9.html"
    },
    {
        "title": "贷款买房是人生最大的陷阱？",
        "docid": "VQ15904JL",
        "url": "https://www.163.com/dy/article/VQ15904JL.html"
    },
    {
        "title": "打造老旧电梯更新“样板间”！万里街道电梯更新“提速”有“方”",
        "docid": "J2ABTMCE05503FCU",
        "url": "https://www.163.com/dy/article/J2ABTMCE05503FCU.html"
    },
    {
        "title": "碧桂园的项目总，一年没找到工作了……",
        "docid": "J2ACMI3B0553TDXU",
        "url": "https://www.163.com/dy/article/J2ACMI3B0553TDXU.html"
    },
    {
        "title": "戳破GS最大谎言|| 中国房价回调至2027年三季度，再下跌40%",
        "docid": "J2A8GROU0553TDTY",
        "url": "https://www.163.com/dy/article/J2A8GROU0553TDTY.html"
    },
    {
        "title": "男子买房贷款208万，九年每月还9100全是利息，银行：与我们无关",
        "docid": "J2A01SSQ05378IX6",
        "url": "https://www.163.com/dy/article/J2A01SSQ05378IX6.html"
    },
    {
        "title": "全国房地产政策变动监测报告（2024年4月）",
        "docid": "J2AC7VVP0515AN84",
        "url": "https://www.163.com/dy/article/J2AC7VVP0515AN84.html"
    },
    {
        "title": "重庆二手房市占率已经超过北京？",
        "docid": "J2ACM3J30535S45F",
        "url": "https://www.163.com/dy/article/J2ACM3J30535S45F.html"
    },
    {
        "title": "如果乡下房子美成这样，你还羡慕那些豪宅吗？",
        "docid": "J2AC7FKQ0553TDXU",
        "url": "https://www.163.com/dy/article/J2AC7FKQ0553TDXU.html"
    },
    {
        "title": "楼市去库存王炸？地方政府收购存量房行得通吗",
        "docid": "VY1CHEE8O",
        "url": "https://www.163.com/dy/article/VY1CHEE8O.html"
    },
    {
        "title": "房价不能在下降了，下降苦的是我们穷人！",
        "docid": "VJ1AQB8V3",
        "url": "https://www.163.com/dy/article/VJ1AQB8V3.html"
    },
    {
        "title": "征地补偿款缩水都缩到哪去了",
        "docid": "VC18V448R",
        "url": "https://www.163.com/dy/article/VC18V448R.html"
    },
    {
        "title": "为什么越来越多人嫌弃“大户型”?这4个缺点很明显,住过的人都懂",
        "docid": "J1TEDJ2M0535PKJN",
        "url": "https://www.163.com/dy/article/J1TEDJ2M0535PKJN.html"
    },
    {
        "title": "隐藏二手成交价，本质是争夺定价权",
        "docid": "J2AD5FCT05159NON",
        "url": "https://www.163.com/dy/article/J2AD5FCT05159NON.html"
    },
    {
        "title": "各位，请提前做好准备！",
        "docid": "J2AD79780515UN97",
        "url": "https://www.163.com/dy/article/J2AD79780515UN97.html"
    },
    {
        "title": "放开限购应该如何买房？解读资产负债表衰退",
        "docid": "VG1CH7TTB",
        "url": "https://www.163.com/dy/article/VG1CH7TTB.html"
    },
    {
        "title": "什么？专家说要干掉农民 #专家 #农民#三农",
        "docid": "VA19VHC6O",
        "url": "https://www.163.com/dy/article/VA19VHC6O.html"
    },
    {
        "title": "明明是扎心的话，看到最后却",
        "docid": "VC1CINUKH",
        "url": "https://www.163.com/dy/article/VC1CINUKH.html"
    },
    {
        "title": "房子过户给子女，最好选择这一种方式，可以省下不少钱",
        "docid": "VP1BT7IS0",
        "url": "https://www.163.com/dy/article/VP1BT7IS0.html"
    },
    {
        "title": "从今年8月份开始，风向完全变了！",
        "docid": "VS1580P62",
        "url": "https://www.163.com/dy/article/VS1580P62.html"
    },
    {
        "title": "父母花光积蓄给6女儿盖别墅，只为出嫁后能有退路，环视一圈壮观",
        "docid": "VB1CCHNKD",
        "url": "https://www.163.com/dy/article/VB1CCHNKD.html"
    },
    {
        "title": "房价还会涨吗？胡哥用三点告诉你，房价还能涨的本质原因",
        "docid": "VY155ONHM",
        "url": "https://www.163.com/dy/article/VY155ONHM.html"
    },
    {
        "title": "【按揭买房】选择双周供，快速还款、节省利息",
        "docid": "J2AE4GLV0553TEV3",
        "url": "https://www.163.com/dy/article/J2AE4GLV0553TEV3.html"
    },
    {
        "title": "这6类房子被称为“穷人房”，不好住也不好卖，别再贪便宜买错了",
        "docid": "J1TEG9LG0535PKJN",
        "url": "https://www.163.com/dy/article/J1TEG9LG0535PKJN.html"
    },
    {
        "title": "任泽平：可以考虑组建住房银行收购开发商库存用于保障房  快报",
        "docid": "VP1A360CU",
        "url": "https://www.163.com/dy/article/VP1A360CU.html"
    },
    {
        "title": "全世界房价，优质的，并没有便宜的！",
        "docid": "VJ1CJRM2K",
        "url": "https://www.163.com/dy/article/VJ1CJRM2K.html"
    },
    {
        "title": "我是一个正能量的传播者",
        "docid": "VE0VHP1H0",
        "url": "https://www.163.com/dy/article/VE0VHP1H0.html"
    },
    {
        "title": "嘴巴一张一合，贷款买房竟能剩下一大笔钱？",
        "docid": "VC1A0FNVK",
        "url": "https://www.163.com/dy/article/VC1A0FNVK.html"
    },
    {
        "title": "新加坡星狮地产拟1.409亿新元出售河滨辉盛庭国际公寓  快报",
        "docid": "VP1A36589",
        "url": "https://www.163.com/dy/article/VP1A36589.html"
    },
    {
        "title": "二手房如何卖个好价钱？",
        "docid": "VG1CIV2IC",
        "url": "https://www.163.com/dy/article/VG1CIV2IC.html"
    },
    {
        "title": "买房子怎么做才能真正的挣到钱？",
        "docid": "VG0VLOPNL",
        "url": "https://www.163.com/dy/article/VG0VLOPNL.html"
    },
    {
        "title": "房产为什么会长期持续回暖？",
        "docid": "VG1CIV3KS",
        "url": "https://www.163.com/dy/article/VG1CIV3KS.html"
    },
    {
        "title": "国家发改委：推进保障性住房建设，加快构建房地产发展新模式",
        "docid": "J2AGDMVM0534A4SC",
        "url": "https://www.163.com/dy/article/J2AGDMVM0534A4SC.html"
    },
    {
        "title": "房价跌了几百万，全家积蓄化为乌有，心酸无比！",
        "docid": "VY1CKI4H3",
        "url": "https://www.163.com/dy/article/VY1CKI4H3.html"
    },
    {
        "title": "买房并非稳赚不赔！理性看待房产投资，避免盲目跟风",
        "docid": "VF1CL2GBS",
        "url": "https://www.163.com/dy/article/VF1CL2GBS.html"
    },
    {
        "title": "二手房跌价对新房市场影响有限，新房市场地位更关键",
        "docid": "VF1CLRUHM",
        "url": "https://www.163.com/dy/article/VF1CLRUHM.html"
    },
    {
        "title": "国家发改委：推进保障性住房建设，加快构建房地产发展新模式",
        "docid": "VD1CN8J51",
        "url": "https://www.163.com/dy/article/VD1CN8J51.html"
    },
    {
        "title": "拿了1800万的拆迁款",
        "docid": "VZ1A1RC28",
        "url": "https://www.163.com/dy/article/VZ1A1RC28.html"
    },
    {
        "title": "以房换房！武汉首例交易成功",
        "docid": "VM1CNIJU1",
        "url": "https://www.163.com/dy/article/VM1CNIJU1.html"
    },
    {
        "title": "二手房市场流动性受阻，房东如何应对？#房价下降",
        "docid": "VF1CLK703",
        "url": "https://www.163.com/dy/article/VF1CLK703.html"
    },
    {
        "title": "八月开始，房贷利率或将迎来下降！",
        "docid": "VS1CLPJ82",
        "url": "https://www.163.com/dy/article/VS1CLPJ82.html"
    },
    {
        "title": "国家再放大招，量化监管新规终于来了，明日3100点保卫战来了",
        "docid": "VQ1CCR5E6",
        "url": "https://www.163.com/dy/article/VQ1CCR5E6.html"
    },
    {
        "title": "“碧桂园杨惠妍：房地产行业一定会迎来春天”上热搜，评论区热议",
        "docid": "J2ACVFV00553TDVP",
        "url": "https://www.163.com/dy/article/J2ACVFV00553TDVP.html"
    },
    {
        "title": "持续大涨!房地产大行情来了?三个问题告诉你能涨多久！",
        "docid": "J2AAGJNK0552QLFT",
        "url": "https://www.163.com/dy/article/J2AAGJNK0552QLFT.html"
    },
    {
        "title": "深读周刊·人物｜为老旧小区“装修”的人",
        "docid": "J2ADU8V00553TEV3",
        "url": "https://www.163.com/dy/article/J2ADU8V00553TEV3.html"
    },
    {
        "title": "二手房会像二手车一样，越来越不值钱",
        "docid": "J2ACTD2L055616ZT",
        "url": "https://www.163.com/dy/article/J2ACTD2L055616ZT.html"
    },
    {
        "title": "巴黎20区美丽城一带发生枪击！巴黎大区房价加速下跌，别墅卖不动了！马克龙：这里进入紧急状态",
        "docid": "J2ABPKS105566SC9",
        "url": "https://www.163.com/dy/article/J2ABPKS105566SC9.html"
    },
    {
        "title": "大洗牌！超级都市圈的崛起和三四线城市的鹤岗化！",
        "docid": "J2AEJUDA0553TDXU",
        "url": "https://www.163.com/dy/article/J2AEJUDA0553TDXU.html"
    },
    {
        "title": "土地财政要结束了！科技崛起到来了！？",
        "docid": "VS1CM3669",
        "url": "https://www.163.com/dy/article/VS1CM3669.html"
    },
    {
        "title": "房产投资新趋势：配合政策，新房二手房联动更赚钱",
        "docid": "VF1CLBB28",
        "url": "https://www.163.com/dy/article/VF1CLBB28.html"
    },
    {
        "title": "政治局发声，房地产正式进入新阶段，三大趋势即将到来",
        "docid": "VM1CI3JPE",
        "url": "https://www.163.com/dy/article/VM1CI3JPE.html"
    },
    {
        "title": "7万人弃城而去，别墅变成白菜价，低至10万一套，依然无人问津！",
        "docid": "VN1BTBL8A",
        "url": "https://www.163.com/dy/article/VN1BTBL8A.html"
    },
    {
        "title": "红头文！公积金从12%调整到5%！",
        "docid": "J2AL5SSQ0511N341",
        "url": "https://www.163.com/dy/article/J2AL5SSQ0511N341.html"
    },
    {
        "title": "楼市持续出新，十余股涨停，相关ETF领涨市场",
        "docid": "J2ALL5SL0534A4SC",
        "url": "https://www.163.com/dy/article/J2ALL5SL0534A4SC.html"
    },
    {
        "title": "法拍房流拍价格下调多少",
        "docid": "J1T8SOMT0556704Q",
        "url": "https://www.163.com/dy/article/J1T8SOMT0556704Q.html"
    },
    {
        "title": "讲真，你的房贷每个月多少钱？看了网友分享，既真实又心塞",
        "docid": "J1TNHUFJ055616ZT",
        "url": "https://www.163.com/dy/article/J1TNHUFJ055616ZT.html"
    },
    {
        "title": "行业风口丨家居板块近一月涨近15%，楼市政策宽松潮叠加海外需求拉动，当前布局性价比如何？",
        "docid": "J2AL8DDS05199NPP",
        "url": "https://www.163.com/dy/article/J2AL8DDS05199NPP.html"
    },
    {
        "title": "选错房后悔莫及，掌握这些变高手！完美户型挑选攻略",
        "docid": "J1OSNTVV0540H6M7",
        "url": "https://www.163.com/dy/article/J1OSNTVV0540H6M7.html"
    },
    {
        "title": "多层的房子，三楼合适吗？鹤沙航城81平二房；百日百房第77套",
        "docid": "VA1B19HJN",
        "url": "https://www.163.com/dy/article/VA1B19HJN.html"
    },
    {
        "title": "现在上海楼市有多“变态”那些事",
        "docid": "VV14JHO5C",
        "url": "https://www.163.com/dy/article/VV14JHO5C.html"
    },
    {
        "title": "有钱了，你们是先还房贷还是拿去投资？",
        "docid": "VQ1CPM60U",
        "url": "https://www.163.com/dy/article/VQ1CPM60U.html"
    },
    {
        "title": "中明确黄岩岛主权！ 吹填与否试情况而定！",
        "docid": "VP1CN0LA6",
        "url": "https://www.163.com/dy/article/VP1CN0LA6.html"
    },
    {
        "title": "住总集团京津两大住宅项目竣工验收总建面达30万平方米  快报",
        "docid": "VP1A6PDO8",
        "url": "https://www.163.com/dy/article/VP1A6PDO8.html"
    },
    {
        "title": "大家看看吧，这就是花180万买二楼的下场，不到半年，肠子都悔青",
        "docid": "VY0VEKAOU",
        "url": "https://www.163.com/dy/article/VY0VEKAOU.html"
    },
    {
        "title": "花200万买了50层顶楼，每天就像住在天上，腾云驾雾，肠子悔青了",
        "docid": "VY1CAJ8AI",
        "url": "https://www.163.com/dy/article/VY1CAJ8AI.html"
    },
    {
        "title": "7万人弃城而去，别墅变成白菜价，低至10万一套，依然无人问津！",
        "docid": "VW1BTLN9O",
        "url": "https://www.163.com/dy/article/VW1BTLN9O.html"
    },
    {
        "title": "全面取消限购，房子将继续大跌？",
        "docid": "VQ1AB58RS",
        "url": "https://www.163.com/dy/article/VQ1AB58RS.html"
    },
    {
        "title": "大家都看看，这就是花125万买的loft公寓，苦不堪言，肠子悔青了",
        "docid": "VY177TAC6",
        "url": "https://www.163.com/dy/article/VY177TAC6.html"
    },
    {
        "title": "耗资近2000万建成公园，五个月拆除，浪费纳税人钱还是掩盖什么",
        "docid": "VZ154Q7LT",
        "url": "https://www.163.com/dy/article/VZ154Q7LT.html"
    },
    {
        "title": "我的中介老板抄底18套别墅，当年负债2600万，现在活的怎么样了？",
        "docid": "VP1CG3P0K",
        "url": "https://www.163.com/dy/article/VP1CG3P0K.html"
    },
    {
        "title": "这是武汉市年成交量最好的20个小区房价，你能买得起哪一个？",
        "docid": "VV1CF0UUD",
        "url": "https://www.163.com/dy/article/VV1CF0UUD.html"
    },
    {
        "title": "保定北部新城正在努力发展，住宅、商务、医疗教育，都很不错……",
        "docid": "VS1AEPI9G",
        "url": "https://www.163.com/dy/article/VS1AEPI9G.html"
    },
    {
        "title": "房地产板块涨停潮背后楼市政策利好密集出炉",
        "docid": "J2AOIHOH0534JESX",
        "url": "https://www.163.com/dy/article/J2AOIHOH0534JESX.html"
    },
    {
        "title": "中指研究院：典型房企构建新发展模式已初现成效",
        "docid": "J2AOGRV60539AP40",
        "url": "https://www.163.com/dy/article/J2AOGRV60539AP40.html"
    },
    {
        "title": "房子卖不动，明年会迎来“抛售潮”？看清楼市的4个信号再说话",
        "docid": "J2A94PKE05536P04",
        "url": "https://www.163.com/dy/article/J2A94PKE05536P04.html"
    },
    {
        "title": "这5种房子不好卖，也不好住，聪明人早已悄悄脱手",
        "docid": "J2A7QE4C05536P04",
        "url": "https://www.163.com/dy/article/J2A7QE4C05536P04.html"
    },
    {
        "title": "买房应买几楼？这个女孩给出的答案太过直接，好难为情！",
        "docid": "J2AONVP00540FQWZ",
        "url": "https://www.163.com/dy/article/J2AONVP00540FQWZ.html"
    },
    {
        "title": "【活动报名】特立不独行：年轻消费“精神指南”YiSalon新消费沙龙@上海",
        "docid": "J2AO8N2G0519DDQ2",
        "url": "https://www.163.com/dy/article/J2AO8N2G0519DDQ2.html"
    },
    {
        "title": "楼市该怎么走？社科院给出答案，连续七年神预测！",
        "docid": "J2A7NF800540A6F8",
        "url": "https://www.163.com/dy/article/J2A7NF800540A6F8.html"
    },
    {
        "title": "房子过户给子女，“在世办理”和“过世办理”，哪一种更省钱？",
        "docid": "J2AP64VU0553TEV3",
        "url": "https://www.163.com/dy/article/J2AP64VU0553TEV3.html"
    },
    {
        "title": "曹德旺的话要成为现实？国内二三十层的电梯房，可能面临同一结局",
        "docid": "J2A78MNQ05536P04",
        "url": "https://www.163.com/dy/article/J2A78MNQ05536P04.html"
    },
    {
        "title": "2024中国物业服务上市公司TOP10研究报告",
        "docid": "J2ANC13F05159A0N",
        "url": "https://www.163.com/dy/article/J2ANC13F05159A0N.html"
    },
    {
        "title": "真心建议大家：连廊户再便宜也不能要，“十个买了九个后悔”！",
        "docid": "J1TH0909054057BR",
        "url": "https://www.163.com/dy/article/J1TH0909054057BR.html"
    },
    {
        "title": "勘设股份(603458.SH)：已承接部分棚户区城中村改造安置房项目",
        "docid": "J2APQR8605198ETO",
        "url": "https://www.163.com/dy/article/J2APQR8605198ETO.html"
    },
    {
        "title": "今明两年，持有“两套房”的家庭，将不得不面对“3大麻烦”！",
        "docid": "J2AOPJJE0553TDTY",
        "url": "https://www.163.com/dy/article/J2AOPJJE0553TDTY.html"
    },
    {
        "title": "全球地产遭减持后，基金经理仓位达15年最低点",
        "docid": "J2APSH4O05198NMR",
        "url": "https://www.163.com/dy/article/J2APSH4O05198NMR.html"
    },
    {
        "title": "非加拿大公民不能在加拿大买房了？这些群体享有豁免权！",
        "docid": "J2AOCAPO0553TDVP",
        "url": "https://www.163.com/dy/article/J2AOCAPO0553TDVP.html"
    },
    {
        "title": "重要的事情说三遍：房地产！房地产！房地产！",
        "docid": "J2AOQ52M0553TEV3",
        "url": "https://www.163.com/dy/article/J2AOQ52M0553TEV3.html"
    },
    {
        "title": "找不到工作，去小区做5种生意，挣钱比打工多别错过机会",
        "docid": "J2A8R69805536P04",
        "url": "https://www.163.com/dy/article/J2A8R69805536P04.html"
    },
    {
        "title": "金正恩带着女儿出席前卫大街住宅竣工典礼",
        "docid": "VI1CRF466",
        "url": "https://www.163.com/dy/article/VI1CRF466.html"
    },
    {
        "title": "国家发改委：#推进保障性住房建设，#加快构建房地产发展新模式",
        "docid": "VM1CVTAHU",
        "url": "https://www.163.com/dy/article/VM1CVTAHU.html"
    },
    {
        "title": "这种7字形的小洋房，你们喜欢不？没想到这种深色的外墙效果还好",
        "docid": "VL1ASS3AD",
        "url": "https://www.163.com/dy/article/VL1ASS3AD.html"
    },
    {
        "title": "现在是5月16日夜晚，突然曝出一个重大消息！又要来大动作吗？",
        "docid": "J2APLAV50539QCIH",
        "url": "https://www.163.com/dy/article/J2APLAV50539QCIH.html"
    },
    {
        "title": "多城新政明确提高住宅“得房率”，公共梯间及机房等不再纳入公摊面积",
        "docid": "J2AKCSS10512B07B",
        "url": "https://www.163.com/dy/article/J2AKCSS10512B07B.html"
    },
    {
        "title": "北漂来京在哪儿租房便宜？",
        "docid": "VW1CVV5UA",
        "url": "https://www.163.com/dy/article/VW1CVV5UA.html"
    },
    {
        "title": "常州首套房贷利率已降至3.25% 无锡降至3.45%",
        "docid": "VS1CU7DAS",
        "url": "https://www.163.com/dy/article/VS1CU7DAS.html"
    },
    {
        "title": "大理鼓励收购存量房作为保障房或人才房，去化周期超24个月的县市不再新建保障房",
        "docid": "VM1CTO27C",
        "url": "https://www.163.com/dy/article/VM1CTO27C.html"
    },
    {
        "title": "金融学教授从租售比和升值空间分析租房划算还是买房划算",
        "docid": "VH1A88D7E",
        "url": "https://www.163.com/dy/article/VH1A88D7E.html"
    },
    {
        "title": "如果你购买的房子房价下跌了，你该怎么办？",
        "docid": "VX0T48TKT",
        "url": "https://www.163.com/dy/article/VX0T48TKT.html"
    },
    {
        "title": "疫情后买房的底层逻辑是什么？",
        "docid": "VX1COHG3C",
        "url": "https://www.163.com/dy/article/VX1COHG3C.html"
    },
    {
        "title": "120万的房子卖了800块钱",
        "docid": "VI1C79ETE",
        "url": "https://www.163.com/dy/article/VI1C79ETE.html"
    },
    {
        "title": "宜乐居重轻钢别墅让爱的港湾温暖每个角落",
        "docid": "VF0P44755",
        "url": "https://www.163.com/dy/article/VF0P44755.html"
    },
    {
        "title": "志邦家居（603801.SH）正在建立旧改业务模型、搭建业务架构",
        "docid": "J2ATMJ0Q0534A4SC",
        "url": "https://www.163.com/dy/article/J2ATMJ0Q0534A4SC.html"
    },
    {
        "title": "全国各地，法拍房爆了！",
        "docid": "J2ATOBR30553TB9L",
        "url": "https://www.163.com/dy/article/J2ATOBR30553TB9L.html"
    },
    {
        "title": "华中“稀贵”大平层的【大尺度】",
        "docid": "J2ASRL3P05159OP0",
        "url": "https://www.163.com/dy/article/J2ASRL3P05159OP0.html"
    },
    {
        "title": "住房限购松绑初见成效，多地又推进保障房建设！地产股掀涨停潮",
        "docid": "J2ARRG1O0519DG1H",
        "url": "https://www.163.com/dy/article/J2ARRG1O0519DG1H.html"
    },
    {
        "title": "专题 | 2023年房企盈利能力报告：9家房企净亏损超百亿，盈利预期仍不乐观",
        "docid": "J2ATT5810515AR80",
        "url": "https://www.163.com/dy/article/J2ATT5810515AR80.html"
    },
    {
        "title": "“光之主场”一起探寻光与建筑的互融共生",
        "docid": "VK1D2JIOO",
        "url": "https://www.163.com/dy/article/VK1D2JIOO.html"
    },
    {
        "title": "超大特大城市，再掀抢人大战，释放了什么信号",
        "docid": "VE1D0CD31",
        "url": "https://www.163.com/dy/article/VE1D0CD31.html"
    },
    {
        "title": "2024年下半年房价还会跌吗",
        "docid": "VW1D1D2NN",
        "url": "https://www.163.com/dy/article/VW1D1D2NN.html"
    },
    {
        "title": "大姨捡漏53年的房子，里面没一处好地，买到即坑到",
        "docid": "VI1D3EMKO",
        "url": "https://www.163.com/dy/article/VI1D3EMKO.html"
    },
    {
        "title": "楼市“史上最宽松”时代到来，刚需购房者是时候入场了吗？",
        "docid": "VJ1D1JODC",
        "url": "https://www.163.com/dy/article/VJ1D1JODC.html"
    },
    {
        "title": "商业综合体、商场、酒店、饭店等商业场所改造加固2024工程特辑",
        "docid": "J1TVGHMR0553KKXB",
        "url": "https://www.163.com/dy/article/J1TVGHMR0553KKXB.html"
    },
    {
        "title": "今年必须值得期待的顶豪示范区来了",
        "docid": "J2AV4OG105567UM8",
        "url": "https://www.163.com/dy/article/J2AV4OG105567UM8.html"
    },
    {
        "title": "房地产转型时代，开发商如何利用AI卖房？",
        "docid": "J2AU14IA05199NPP",
        "url": "https://www.163.com/dy/article/J2AU14IA05199NPP.html"
    },
    {
        "title": "买房子“楼层”有讲究，不同楼层利弊不同，10到12层最好别买",
        "docid": "J2AUBQSF0540SN7V",
        "url": "https://www.163.com/dy/article/J2AUBQSF0540SN7V.html"
    },
    {
        "title": "国家要回购房子？终极大招，终于来了",
        "docid": "J2AUGCKS0552K0CA",
        "url": "https://www.163.com/dy/article/J2AUGCKS0552K0CA.html"
    },
    {
        "title": "王石再次预测中国房地产未来走向！前两次都准！这次怎样",
        "docid": "J2AV12PS0552F71X",
        "url": "https://www.163.com/dy/article/J2AV12PS0552F71X.html"
    },
    {
        "title": "楼市“史上最宽松”时代到来，刚需购房者是时候入场了吗？",
        "docid": "J2AP5U4J0535HK01",
        "url": "https://www.163.com/dy/article/J2AP5U4J0535HK01.html"
    },
    {
        "title": "2024年三大行业或沦为失业高发区",
        "docid": "J2AC8SM305567IYR",
        "url": "https://www.163.com/dy/article/J2AC8SM305567IYR.html"
    },
    {
        "title": "地尽其用！土地的“新质生产力”应该怎样定义？不患寡而患不均",
        "docid": "J2AU6GEP05562HOE",
        "url": "https://www.163.com/dy/article/J2AU6GEP05562HOE.html"
    },
    {
        "title": "有高人预测啊，2024年可能会发生九大社会现象",
        "docid": "J2B06BFC05566SDB",
        "url": "https://www.163.com/dy/article/J2B06BFC05566SDB.html"
    },
    {
        "title": "楼市风向变了！房地产再迎利好，远洋集团飙升40%领涨地产股！",
        "docid": "J2B053H605566C1Z",
        "url": "https://www.163.com/dy/article/J2B053H605566C1Z.html"
    },
    {
        "title": "未婚男人为何不建议在农村自建房，4点因素告诉你真相",
        "docid": "J1P47H0J0525D145",
        "url": "https://www.163.com/dy/article/J1P47H0J0525D145.html"
    },
    {
        "title": "2024年青年路的2个住宅新项目",
        "docid": "J2B1OP600553TB8M",
        "url": "https://www.163.com/dy/article/J2B1OP600553TB8M.html"
    },
    {
        "title": "二手房价格快速下降，卖了一套二手房，挣了100万",
        "docid": "J1SPCO3R0556124M",
        "url": "https://www.163.com/dy/article/J1SPCO3R0556124M.html"
    },
    {
        "title": "收购存量房用于出租，自产自销无奈之举，防止房价过快下跌",
        "docid": "J2AVVSG00553TDVP",
        "url": "https://www.163.com/dy/article/J2AVVSG00553TDVP.html"
    },
    {
        "title": "现实版：你离开了深圳，你的后代也要回来的……",
        "docid": "J1SPDCHU055616ZT",
        "url": "https://www.163.com/dy/article/J1SPDCHU055616ZT.html"
    },
    {
        "title": "从瓜棚出来直来到家用小电器展厅，各种电器眼花缭乱",
        "docid": "VN103P1MS",
        "url": "https://www.163.com/dy/article/VN103P1MS.html"
    },
    {
        "title": " 去化周期超24个月的县市不再新建保障房",
        "docid": "VT1D1FI7J",
        "url": "https://www.163.com/dy/article/VT1D1FI7J.html"
    },
    {
        "title": "揭秘学区房：从炒作泡沫到价值回归，家长们该如何抉择？",
        "docid": "VF1AIJI19",
        "url": "https://www.163.com/dy/article/VF1AIJI19.html"
    },
    {
        "title": "6月1日将实施的8条房产新规，关乎每个有房或买房的人！",
        "docid": "VM1D3AGIV",
        "url": "https://www.163.com/dy/article/VM1D3AGIV.html"
    },
    {
        "title": "绝不躺平的雅居乐，暴雷了...",
        "docid": "J2B0Q6TI0552FI8M",
        "url": "https://www.163.com/dy/article/J2B0Q6TI0552FI8M.html"
    },
    {
        "title": "地方新闻精选丨 广州批发市场火灾致1死 北京第三套房贷款认定标准出炉？知情人士回应",
        "docid": "J2B1VSH30534A4SC",
        "url": "https://www.163.com/dy/article/J2B1VSH30534A4SC.html"
    },
    {
        "title": "注意！爱尔兰央行警告，面临洪水风险的房产将无法投保",
        "docid": "J2B1FIF60534W85U",
        "url": "https://www.163.com/dy/article/J2B1FIF60534W85U.html"
    },
    {
        "title": "被征收房屋价值应如何评估？",
        "docid": "J1PES5GK0532Q69P",
        "url": "https://www.163.com/dy/article/J1PES5GK0532Q69P.html"
    },
    {
        "title": "融创中原壹号院500平新房开荒保洁管家式深度清洁 ",
        "docid": "VC0UQ78LB",
        "url": "https://www.163.com/dy/article/VC0UQ78LB.html"
    },
    {
        "title": "仅凭一个厨房，就能捕获你买房的冲动",
        "docid": "VU1A2N4QG",
        "url": "https://www.163.com/dy/article/VU1A2N4QG.html"
    },
    {
        "title": "“宅靠三处，家庭难富”，分别指的哪3处？买房子时可别犯了忌讳",
        "docid": "VP1D46G5H",
        "url": "https://www.163.com/dy/article/VP1D46G5H.html"
    },
    {
        "title": "重磅！房子接盘侠来了！一键N盘，到底利好谁？",
        "docid": "VA1D7ACRT",
        "url": "https://www.163.com/dy/article/VA1D7ACRT.html"
    },
    {
        "title": "都要做好准备了，卖房的人已经越来越少，东莞买房不能掉队",
        "docid": "VE1D62OK3",
        "url": "https://www.163.com/dy/article/VE1D62OK3.html"
    },
    {
        "title": "现有二手房，法拍房足以解决很多人住房问题",
        "docid": "VF1D5J9FD",
        "url": "https://www.163.com/dy/article/VF1D5J9FD.html"
    },
    {
        "title": "Tik Tok最终结果“二选一”？美国房产大亨宣布组建财团竞购",
        "docid": "J2B55A6F0519B3D7",
        "url": "https://www.163.com/dy/article/J2B55A6F0519B3D7.html"
    },
    {
        "title": "10倍市场牛股！装配式建筑利润升283%，第一龙头成为最大赢家！",
        "docid": "J2ARTAGM0553EI2T",
        "url": "https://www.163.com/dy/article/J2ARTAGM0553EI2T.html"
    },
    {
        "title": "赶紧收藏！二层带车库的乡村别墅案例",
        "docid": "J2B3CJCB05566SC9",
        "url": "https://www.163.com/dy/article/J2B3CJCB05566SC9.html"
    },
    {
        "title": "房地产大变天？有一个大胆猜想.....",
        "docid": "J2B241AV0519C18Q",
        "url": "https://www.163.com/dy/article/J2B241AV0519C18Q.html"
    },
    {
        "title": "2020年，买城市之光的业主，竟然亏了？",
        "docid": "J2B2NE5P05159GE6",
        "url": "https://www.163.com/dy/article/J2B2NE5P05159GE6.html"
    },
    {
        "title": "“小作文”不断，多地楼市密集发声，地产股拉伸，万科拐点到了？",
        "docid": "J2B3JHLR0534RBZZ",
        "url": "https://www.163.com/dy/article/J2B3JHLR0534RBZZ.html"
    },
    {
        "title": "看房时，尽量别说“这句话”，售楼员一看就知道你是小白",
        "docid": "J2AUB1FN0540SN7V",
        "url": "https://www.163.com/dy/article/J2AUB1FN0540SN7V.html"
    },
    {
        "title": "三轩茶屋徒步圈，东京富人区带租约投资物件，表面回报率6.46%",
        "docid": "J2B5J2EQ0517BACO",
        "url": "https://www.163.com/dy/article/J2B5J2EQ0517BACO.html"
    },
    {
        "title": "通过给租房者“返点”成为亿万富豪",
        "docid": "J1U4H4090530UH99",
        "url": "https://www.163.com/dy/article/J1U4H4090530UH99.html"
    },
    {
        "title": "一图读懂：更换租房如何修改填写个税专项附加扣除信息",
        "docid": "J2B2RJS20553XVUI",
        "url": "https://www.163.com/dy/article/J2B2RJS20553XVUI.html"
    },
    {
        "title": "简单唠唠一个老青年的购房故事",
        "docid": "J1T9VTML0535NCM9",
        "url": "https://www.163.com/dy/article/J1T9VTML0535NCM9.html"
    },
    {
        "title": "爱尔兰住房危机现实：即使新房供应增加，房价还是会上涨",
        "docid": "J2B55P760534W85U",
        "url": "https://www.163.com/dy/article/J2B55P760534W85U.html"
    },
    {
        "title": "“电梯房”选“楼层”法则？楼层数÷2+1，小高层的三分之一",
        "docid": "J2AU9RKD0540SN7V",
        "url": "https://www.163.com/dy/article/J2AU9RKD0540SN7V.html"
    },
    {
        "title": "信号！地产股频频涨停！河西顶豪集体喊涨！",
        "docid": "J2B4R7RE0515WLA7",
        "url": "https://www.163.com/dy/article/J2B4R7RE0515WLA7.html"
    },
    {
        "title": "房地产板块火爆，多位选手发起冲锋！周五将揭晓冠军，围观精彩角逐！",
        "docid": "J2AUHM0T0512B07B",
        "url": "https://www.163.com/dy/article/J2AUHM0T0512B07B.html"
    },
    {
        "title": "未来五年努力搞钱，千万不要误判形势",
        "docid": "J2ASTNDT05567IYR",
        "url": "https://www.163.com/dy/article/J2ASTNDT05567IYR.html"
    },
    {
        "title": "白沙洲这座商业广场，计划年底开业",
        "docid": "J2B72GVK0553TB8M",
        "url": "https://www.163.com/dy/article/J2B72GVK0553TB8M.html"
    },
    {
        "title": "社会戾气太重，楼市萎靡大势已去，买房人怨声载道",
        "docid": "VW1D80F1O",
        "url": "https://www.163.com/dy/article/VW1D80F1O.html"
    },
    {
        "title": "上海北京出现“洗房女”事件，让无数父母胆战心惊，太可恶了",
        "docid": "VM1DBAEK0",
        "url": "https://www.163.com/dy/article/VM1DBAEK0.html"
    },
    {
        "title": "花210万买了新房,接农村的母亲来住!",
        "docid": "VM1AHF59O",
        "url": "https://www.163.com/dy/article/VM1AHF59O.html"
    },
    {
        "title": "4月住房租赁月报| 包租婆的烦恼，租赁市场供需回落",
        "docid": "J2B7QL5L0515ATK9",
        "url": "https://www.163.com/dy/article/J2B7QL5L0515ATK9.html"
    },
    {
        "title": "武汉一个占地约419亩的工厂拍卖，被一刚城里公司捡漏5520万拿下",
        "docid": "J2B8KLPP05560O35",
        "url": "https://www.163.com/dy/article/J2B8KLPP05560O35.html"
    },
    {
        "title": "我爱我家：房地产行业政策环境呈现持续改善趋势",
        "docid": "J2B6OILV0519D45U",
        "url": "https://www.163.com/dy/article/J2B6OILV0519D45U.html"
    },
    {
        "title": "王炸！多地政府回购商品房，楚雄、大理已经启动！",
        "docid": "J2B7AEUN0535MCVM",
        "url": "https://www.163.com/dy/article/J2B7AEUN0535MCVM.html"
    },
    {
        "title": "售楼处很多漂亮女生，一年卖不出几套房，为何还干得津津有味？",
        "docid": "J2B6SVRG05565D74",
        "url": "https://www.163.com/dy/article/J2B6SVRG05565D74.html"
    },
    {
        "title": "21深度｜ 成功盘活80亿地产项目 AMC积极探索困境资产“解题钥匙”",
        "docid": "J2B7GE8905199NPP",
        "url": "https://www.163.com/dy/article/J2B7GE8905199NPP.html"
    },
    {
        "title": "五年后，120万的房子还能值多少钱",
        "docid": "VM1DBCE72",
        "url": "https://www.163.com/dy/article/VM1DBCE72.html"
    },
    {
        "title": "北大教授称未来几年房价或明显上涨，全国城市房价排名，66城破万",
        "docid": "VQ1D4JU46",
        "url": "https://www.163.com/dy/article/VQ1D4JU46.html"
    },
    {
        "title": "再便宜也不买这几个楼层",
        "docid": "VQ1D5Q8SH",
        "url": "https://www.163.com/dy/article/VQ1D5Q8SH.html"
    },
    {
        "title": "单身女性迎来买房热潮，单身女性选择购房主要是为了实现财务独立和个人生活愿景1",
        "docid": "VY1D8B72N",
        "url": "https://www.163.com/dy/article/VY1D8B72N.html"
    },
    {
        "title": "多地陆续松绑限购政策 未来房地产政策有望延续宽松基调",
        "docid": "J2AE4PRS055619EI",
        "url": "https://www.163.com/dy/article/J2AE4PRS055619EI.html"
    },
    {
        "title": "中国建筑前四月新签合同额14785亿 地产销售额下降32%",
        "docid": "J2B95ALR0519D45U",
        "url": "https://www.163.com/dy/article/J2B95ALR0519D45U.html"
    },
    {
        "title": "五个院子的别墅官网发布：五个院子的别墅清盘钜惠·官方百科详情",
        "docid": "J2B8T9C605567TPX",
        "url": "https://www.163.com/dy/article/J2B8T9C605567TPX.html"
    },
    {
        "title": "买二手房的要注意，都是过来人的血泪史！",
        "docid": "J2B9ACJV0553TEQM",
        "url": "https://www.163.com/dy/article/J2B9ACJV0553TEQM.html"
    },
    {
        "title": "加拿大未来一年降息200个点?但房价今明年还要涨?!全国挂牌激增!",
        "docid": "J2B62M0N05566SC9",
        "url": "https://www.163.com/dy/article/J2B62M0N05566SC9.html"
    },
    {
        "title": "今明两年，是“抓紧买房”还是“继续存款”，4大现象已给出答案",
        "docid": "J2AUCHJS0519GBC0",
        "url": "https://www.163.com/dy/article/J2AUCHJS0519GBC0.html"
    },
    {
        "title": "将公摊面积计算“规则化”，让住宅透明合理丨九派时评",
        "docid": "J2B6P3P70553TEQM",
        "url": "https://www.163.com/dy/article/J2B6P3P70553TEQM.html"
    },
    {
        "title": "收回集体土地使用权协议",
        "docid": "J2B9544G05566SC9",
        "url": "https://www.163.com/dy/article/J2B9544G05566SC9.html"
    },
    {
        "title": "帝国金融集团(08029.HK)接获集团投资物业承租人提出的指示性要约",
        "docid": "J2B8897E05198ETO",
        "url": "https://www.163.com/dy/article/J2B8897E05198ETO.html"
    },
    {
        "title": "地产大佬纷纷崩盘，被骂10年后，潘石屹竟成“中国地产良心”？",
        "docid": "J2B86M2305566SC9",
        "url": "https://www.163.com/dy/article/J2B86M2305566SC9.html"
    },
    {
        "title": "房地产进入新一轮“去库存”，地产股应声暴涨",
        "docid": "J2B9MRHB0534A4SC",
        "url": "https://www.163.com/dy/article/J2B9MRHB0534A4SC.html"
    },
    {
        "title": "城势｜新一轮房产新政触发“抢人潮”：有城市买1套房可全家落户",
        "docid": "J2BAHLBE051492T3",
        "url": "https://www.163.com/dy/article/J2BAHLBE051492T3.html"
    },
    {
        "title": "中国电建地产“星火BOX”首开亮相江城",
        "docid": "J2B9F0C005352LE9",
        "url": "https://www.163.com/dy/article/J2B9F0C005352LE9.html"
    },
    {
        "title": "“单位住房公积金账户设立”在“一网通办”便捷办！附视频指南→",
        "docid": "J1UBKF2H05503FCU",
        "url": "https://www.163.com/dy/article/J1UBKF2H05503FCU.html"
    },
    {
        "title": "新一波购房礼包诚意足！可补贴、可落户、放松首套房认定标准，加速扭转预期",
        "docid": "J2BAHFO005199NPP",
        "url": "https://www.163.com/dy/article/J2BAHFO005199NPP.html"
    },
    {
        "title": "房企短期偿债压力依然较大 克尔瑞：2023年末样本房企非受限现金短债比低于1",
        "docid": "J2BB5TT205198UNI",
        "url": "https://www.163.com/dy/article/J2BB5TT205198UNI.html"
    },
    {
        "title": "美国4月新宅开工季调后折年率为136万，预估为142.1万，前值为132.1万",
        "docid": "J2BAOM2A0539AP40",
        "url": "https://www.163.com/dy/article/J2BAOM2A0539AP40.html"
    },
    {
        "title": "房地产！国家放终极大招了吗？",
        "docid": "J2B961G70534SBI9",
        "url": "https://www.163.com/dy/article/J2B961G70534SBI9.html"
    },
    {
        "title": "中铁建花语天境-中铁建花语天境售楼处欢迎您",
        "docid": "J2B7Q8CK05567TPX",
        "url": "https://www.163.com/dy/article/J2B7Q8CK05567TPX.html"
    },
    {
        "title": "征地补偿款被人拿去理财了！",
        "docid": "VN1DFBKL4",
        "url": "https://www.163.com/dy/article/VN1DFBKL4.html"
    },
    {
        "title": "有钱人买房都抢着入手顶层，售楼小姐也透露，买到就是赚到！",
        "docid": "J2BB16L00520K44K",
        "url": "https://www.163.com/dy/article/J2BB16L00520K44K.html"
    },
    {
        "title": "买房抄底正当时，千万别再错过机会",
        "docid": "J2BCHPK50535B643",
        "url": "https://www.163.com/dy/article/J2BCHPK50535B643.html"
    },
    {
        "title": "“夺命房”让多少家庭惨遭伤害。",
        "docid": "J2BBSAUG05566SD1",
        "url": "https://www.163.com/dy/article/J2BBSAUG05566SD1.html"
    },
    {
        "title": "买房楼层怎么选？不同高度楼房各个楼层的优缺点，帮你更好选择",
        "docid": "J1U1UC1O0540B07R",
        "url": "https://www.163.com/dy/article/J1U1UC1O0540B07R.html"
    },
    {
        "title": "户口，正在变得越来越不值钱！",
        "docid": "J2B813I105119596",
        "url": "https://www.163.com/dy/article/J2B813I105119596.html"
    },
    {
        "title": "变天！房子、存款、学历都在贬值，这3样东西，却将“逆势升值”",
        "docid": "J2A47P4205566MKM",
        "url": "https://www.163.com/dy/article/J2A47P4205566MKM.html"
    },
    {
        "title": "多部委成立联合工作组 酝酿推出房地产“重大举措”",
        "docid": "J2BD07C905198CJN",
        "url": "https://www.163.com/dy/article/J2BD07C905198CJN.html"
    },
    {
        "title": "最新：横琴玺售楼处最新价格曝光！“以旧换新”惊呆“了【官网】",
        "docid": "J2BD713O055644UJ",
        "url": "https://www.163.com/dy/article/J2BD713O055644UJ.html"
    },
    {
        "title": "房贷利率调整又现接力赛，“定向降息”能否扭转楼市预期？",
        "docid": "J2BDBJOE0519DDQ2",
        "url": "https://www.163.com/dy/article/J2BDBJOE0519DDQ2.html"
    },
    {
        "title": "房地产保卫战爆发，耶伦终于怕了，美联储投降",
        "docid": "J2AOP06105566MKM",
        "url": "https://www.163.com/dy/article/J2AOP06105566MKM.html"
    },
    {
        "title": "购买房产的最佳时机是什么时候呢,房价会一直涨吗？",
        "docid": "J2AJFM3T0511HC7V",
        "url": "https://www.163.com/dy/article/J2AJFM3T0511HC7V.html"
    },
    {
        "title": "全面取消公摊年代来了！",
        "docid": "J2BFGUGR0515DBP5",
        "url": "https://www.163.com/dy/article/J2BFGUGR0515DBP5.html"
    },
    {
        "title": "罕见一幕发生！年轻人疯狂抄底“老破小”，楼市真的触底了？",
        "docid": "J2BE6JB10519844C",
        "url": "https://www.163.com/dy/article/J2BE6JB10519844C.html"
    },
    {
        "title": "“拼刺刀”！成都又爆了！",
        "docid": "J2BFHS990515DBP5",
        "url": "https://www.163.com/dy/article/J2BFHS990515DBP5.html"
    },
    {
        "title": "东京目黑区68万电梯房，双面采光，壁芯面积21㎡，电车直达涩谷！",
        "docid": "J2B8442I05359JWY",
        "url": "https://www.163.com/dy/article/J2B8442I05359JWY.html"
    },
    {
        "title": "条条干货！关于楼市重磅文件！",
        "docid": "J2BERV2C05526CDW",
        "url": "https://www.163.com/dy/article/J2BERV2C05526CDW.html"
    },
    {
        "title": "杭州、西安取消住房限购，全国放松限购政策节奏加快",
        "docid": "J2AJS57R05566UCS",
        "url": "https://www.163.com/dy/article/J2AJS57R05566UCS.html"
    },
    {
        "title": "丈母娘带我去看房，140个平方668000元，砍价60000块值得买吗？",
        "docid": "VZ1DKFKFP",
        "url": "https://www.163.com/dy/article/VZ1DKFKFP.html"
    },
    {
        "title": "收购存量房用于出租，自产自销的无奈说明过去的楼市措施都没用",
        "docid": "VS1DJHQ84",
        "url": "https://www.163.com/dy/article/VS1DJHQ84.html"
    },
    {
        "title": "碧桂园在鸟不拉屎地方，开发万人社区，当时是涨价去库存的第二年，2017年，结果哪里是去库存呀，就是大",
        "docid": "VF1DKMB6P",
        "url": "https://www.163.com/dy/article/VF1DKMB6P.html"
    },
    {
        "title": "2030年，价值150万的房子还能值多少钱？王健林和马光远观点一致",
        "docid": "J2BBBKBJ0553TDVP",
        "url": "https://www.163.com/dy/article/J2BBBKBJ0553TDVP.html"
    },
    {
        "title": "选房避开这三层：影响舒适度，还浪费钱！",
        "docid": "J2B8IOV705258H6P",
        "url": "https://www.163.com/dy/article/J2B8IOV705258H6P.html"
    },
    {
        "title": "岛国楼市能有今天，离不开国人赴日买房的三波浪潮？",
        "docid": "J2B8282805359JWY",
        "url": "https://www.163.com/dy/article/J2B8282805359JWY.html"
    },
    {
        "title": "危机升级！中国打响房地产保卫战！取消预售制,还是棚改货币化？",
        "docid": "J2B3B2V90553E71D",
        "url": "https://www.163.com/dy/article/J2B3B2V90553E71D.html"
    },
    {
        "title": "未来十年，哪种面积的房子最流行？建筑学家给出答案，确保你选对",
        "docid": "J1TF2P2N05536P04",
        "url": "https://www.163.com/dy/article/J1TF2P2N05536P04.html"
    },
    {
        "title": "昨天传卖地的成了买房的，今天传“降息”，你确定不是逗你玩？",
        "docid": "J2BFP2F00552F71X",
        "url": "https://www.163.com/dy/article/J2BFP2F00552F71X.html"
    },
    {
        "title": "女主业刚买新房一个月房价降20万 拿锤子猛砸售楼处",
        "docid": "VK1DK9NBT",
        "url": "https://www.163.com/dy/article/VK1DK9NBT.html"
    },
    {
        "title": "一年跌100万，深圳夫妻买房面临致贫",
        "docid": "VF1DJF9O0",
        "url": "https://www.163.com/dy/article/VF1DJF9O0.html"
    },
    {
        "title": "北大教授称未来几年房价或会明显上涨，你同意他的观点吗？",
        "docid": "VW1DGE6HQ",
        "url": "https://www.163.com/dy/article/VW1DGE6HQ.html"
    },
    {
        "title": "带日本女友图图、去看房子了",
        "docid": "VZ1DH5FGT",
        "url": "https://www.163.com/dy/article/VZ1DH5FGT.html"
    },
    {
        "title": "中国经济的非市场化行为：房地产是一个隐喻",
        "docid": "J1T72MGR05538DP3",
        "url": "https://www.163.com/dy/article/J1T72MGR05538DP3.html"
    },
    {
        "title": "我宁可买房子，也不会买黄金。",
        "docid": "J1U5H50E0553GD76",
        "url": "https://www.163.com/dy/article/J1U5H50E0553GD76.html"
    },
    {
        "title": "时代终有落幕，盛宴也终会散场",
        "docid": "J1TBNUA4055618W8",
        "url": "https://www.163.com/dy/article/J1TBNUA4055618W8.html"
    },
    {
        "title": "房价再这么跌下去，持有房地产还有意义吗",
        "docid": "J2BAO4NR0556124M",
        "url": "https://www.163.com/dy/article/J2BAO4NR0556124M.html"
    },
    {
        "title": "达顿承诺若当选，削减移民配额上限至14万！还要禁止外国人买房",
        "docid": "J2BDC8B805560ZCW",
        "url": "https://www.163.com/dy/article/J2BDC8B805560ZCW.html"
    },
    {
        "title": "越南的房地产商开始不断暴雷，超过1200多个楼盘烂尾",
        "docid": "J1T90SHB055618W8",
        "url": "https://www.163.com/dy/article/J1T90SHB055618W8.html"
    },
    {
        "title": "2024年宅基地改革新政策",
        "docid": "VF1DPCCTM",
        "url": "https://www.163.com/dy/article/VF1DPCCTM.html"
    },
    {
        "title": "房产惊爆大变革！对民众与房东影响深远 ",
        "docid": "VF1DL43G3",
        "url": "https://www.163.com/dy/article/VF1DL43G3.html"
    },
    {
        "title": "杠杆流跌落神坛，房价下跌引发投资反思#2024房地产走势",
        "docid": "VF1ALOG3F",
        "url": "https://www.163.com/dy/article/VF1ALOG3F.html"
    },
    {
        "title": "反弓桥加持！买这种楼盘洋房，明知很差还要买，买了有噪音苦受了",
        "docid": "VB1DH8PTN",
        "url": "https://www.163.com/dy/article/VB1DH8PTN.html"
    }
]