[
    {
        "title": "上海、深圳首付最低20% 广州最低15%！一线城市，陆续松绑 #一线城市 #房地产",
        "docid": "J3AC0CJT0512B07B",
        "url": "https://www.163.com/dy/article/J3AC0CJT0512B07B.html"
    },
    {
        "title": "华孚时尚：华尚数智中心商品房业务不属于上市公司业务板块",
        "docid": "J39VDETI0512B07B",
        "url": "https://www.163.com/dy/article/J39VDETI0512B07B.html"
    },
    {
        "title": "组建住房银行能救房地产吗？",
        "docid": "J3AE51TP0553TEV3",
        "url": "https://www.163.com/dy/article/J3AE51TP0553TEV3.html"
    },
    {
        "title": "日本买房？真相不如你想得那么美",
        "docid": "J3AIO55U05199DKK",
        "url": "https://www.163.com/dy/article/J3AIO55U05199DKK.html"
    },
    {
        "title": "新车贷款全款和按揭，哪个更划算？",
        "docid": "VV1VP82I9",
        "url": "https://www.163.com/dy/article/VV1VP82I9.html"
    },
    {
        "title": "12米×10米，中式小院别墅设计，布局合理",
        "docid": "VS2CMOBVN",
        "url": "https://www.163.com/dy/article/VS2CMOBVN.html"
    },
    {
        "title": "我与高新区的故事——泰锦睿 张军",
        "docid": "VZ29HCTHN",
        "url": "https://www.163.com/dy/article/VZ29HCTHN.html"
    },
    {
        "title": "人口大变局！只有这几个城市的房子，值得长线持有",
        "docid": "VF1VDTVI4",
        "url": "https://www.163.com/dy/article/VF1VDTVI4.html"
    },
    {
        "title": "以为提前还完房贷就万事大吉，没想到苦日子才刚刚降临！逼死我吧",
        "docid": "VP1T0TPLB",
        "url": "https://www.163.com/dy/article/VP1T0TPLB.html"
    },
    {
        "title": "给房子封顶到底是怎么完成的？他们的技术很精湛",
        "docid": "VW1VC9J67",
        "url": "https://www.163.com/dy/article/VW1VC9J67.html"
    },
    {
        "title": "讲真，这是我见过的最差劲的千万豪宅户型，没有之一",
        "docid": "J2TG71400515U60S",
        "url": "https://www.163.com/dy/article/J2TG71400515U60S.html"
    },
    {
        "title": "房价高低，房屋买卖之道",
        "docid": "VF2CMNU63",
        "url": "https://www.163.com/dy/article/VF2CMNU63.html"
    },
    {
        "title": "高善文：这一轮房地产政策找准了问题的关键，如果顺利推行下去，有可能推动市场触底和反转 ",
        "docid": "VA2CCUT3J",
        "url": "https://www.163.com/dy/article/VA2CCUT3J.html"
    },
    {
        "title": "房子没人住，物业费还要交吗？",
        "docid": "VX1VKPBIB",
        "url": "https://www.163.com/dy/article/VX1VKPBIB.html"
    },
    {
        "title": "月供3000的安居房卖不完，月租1500的公租房抢着要",
        "docid": "VT1T18HL6",
        "url": "https://www.163.com/dy/article/VT1T18HL6.html"
    },
    {
        "title": "第一个抢跑的，居然是上海！",
        "docid": "VC2CBKD1D",
        "url": "https://www.163.com/dy/article/VC2CBKD1D.html"
    },
    {
        "title": "在未来40%的家庭将会面临低价出售房产，刚需房需求者会怎么选择",
        "docid": "VR1U0JS9O",
        "url": "https://www.163.com/dy/article/VR1U0JS9O.html"
    },
    {
        "title": "决定房价高低的核心因素是什么？",
        "docid": "VG2BHLO35",
        "url": "https://www.163.com/dy/article/VG2BHLO35.html"
    },
    {
        "title": "这些村庄即将被拆迁，你家在其中吗？",
        "docid": "VE2C1IAA9",
        "url": "https://www.163.com/dy/article/VE2C1IAA9.html"
    },
    {
        "title": "中信证券：金融系统积极推动房地产业融资支持，有助于房地产市场平稳健康发展  快报",
        "docid": "VP28IILG4",
        "url": "https://www.163.com/dy/article/VP28IILG4.html"
    },
    {
        "title": "英媒：在中国，哪个行业能取代房地产成为经济增长的主要驱动力？",
        "docid": "J3AM0HD205566YXD",
        "url": "https://www.163.com/dy/article/J3AM0HD205566YXD.html"
    },
    {
        "title": "首付20%，利率可下调45个基点！深圳跟了，有人却不开心",
        "docid": "J3ALLL950553YHXE",
        "url": "https://www.163.com/dy/article/J3ALLL950553YHXE.html"
    },
    {
        "title": "炸裂！这一夜，地产人将无眠！",
        "docid": "J3AKOC8O0515UN97",
        "url": "https://www.163.com/dy/article/J3AKOC8O0515UN97.html"
    },
    {
        "title": "进驻广肇、广惠城铁 保利物业公共服务“上新”",
        "docid": "J3AKGEV30519D45U",
        "url": "https://www.163.com/dy/article/J3AKGEV30519D45U.html"
    },
    {
        "title": "王健林：房价降50%不可能，因为那是地价。老王说的都是原来真的",
        "docid": "J3AK7HI7055612JK",
        "url": "https://www.163.com/dy/article/J3AK7HI7055612JK.html"
    },
    {
        "title": "【张捷财经】政策底还没到核心市场已经活跃",
        "docid": "VR2CCU4DU",
        "url": "https://www.163.com/dy/article/VR2CCU4DU.html"
    },
    {
        "title": "救房地产后，谁才是背后真正的最大赢家？",
        "docid": "VQ2BVU8J6",
        "url": "https://www.163.com/dy/article/VQ2BVU8J6.html"
    },
    {
        "title": "揭秘房价软着陆四大路径：如何平衡房价与收入增长",
        "docid": "VF2BOLR7V",
        "url": "https://www.163.com/dy/article/VF2BOLR7V.html"
    },
    {
        "title": "房贷新政后楼市热度提升 ，逾十省份已下调首付比例、房贷利率 5月17日午间，央行联合金融监管总局发布",
        "docid": "VL2C4KMT6",
        "url": "https://www.163.com/dy/article/VL2C4KMT6.html"
    },
    {
        "title": "老旧小区加装电梯后，6楼住户却肠子悔青，花钱买了三个大麻烦",
        "docid": "VC1U8A86G",
        "url": "https://www.163.com/dy/article/VC1U8A86G.html"
    },
    {
        "title": "如果楼市继续下滑：守住价格，还是守住销量？",
        "docid": "J2TJ2Q9505538DP3",
        "url": "https://www.163.com/dy/article/J2TJ2Q9505538DP3.html"
    },
    {
        "title": "武汉市设计最奇葩，最拥堵路段，实至名归！",
        "docid": "VP1VV3U8N",
        "url": "https://www.163.com/dy/article/VP1VV3U8N.html"
    },
    {
        "title": "这样的户型，真的不建议买！双暗卫加餐厅，以后住着别提多难受了",
        "docid": "VB2CM1A5T",
        "url": "https://www.163.com/dy/article/VB2CM1A5T.html"
    },
    {
        "title": "房子到底是租好还是买好？",
        "docid": "VI1UILEP2",
        "url": "https://www.163.com/dy/article/VI1UILEP2.html"
    },
    {
        "title": "武汉高楼电梯等死我，第一次进城遭遇",
        "docid": "VZ2C1Q8RL",
        "url": "https://www.163.com/dy/article/VZ2C1Q8RL.html"
    },
    {
        "title": "房价再这么下去，很多人都要出问题了",
        "docid": "VP2CIG8PV",
        "url": "https://www.163.com/dy/article/VP2CIG8PV.html"
    },
    {
        "title": "保利物业宣布派发年度末期股息每股0.998元  快报",
        "docid": "VP2A69CRD",
        "url": "https://www.163.com/dy/article/VP2A69CRD.html"
    },
    {
        "title": "最全数据！美国人购房首付12%，但仍有三成以上选择租房过日",
        "docid": "VX2BTF9G9",
        "url": "https://www.163.com/dy/article/VX2BTF9G9.html"
    },
    {
        "title": "我爸妈76万全款给我买的房，他们却",
        "docid": "VF1UGP44D",
        "url": "https://www.163.com/dy/article/VF1UGP44D.html"
    },
    {
        "title": "土地流转与土地转让：重要差别解析",
        "docid": "VW1U5AH2R",
        "url": "https://www.163.com/dy/article/VW1U5AH2R.html"
    },
    {
        "title": "现在买房子，是“聪明”还是“愚蠢”？懂行人一语道破，说通透了",
        "docid": "J3AQ173U0553TDVP",
        "url": "https://www.163.com/dy/article/J3AQ173U0553TDVP.html"
    },
    {
        "title": "好的户型图应满足这些指标，你选对了吗？",
        "docid": "J39U0OO00540B07R",
        "url": "https://www.163.com/dy/article/J39U0OO00540B07R.html"
    },
    {
        "title": "现在的房子会发生什么样的变化呢？",
        "docid": "VW1V94EGM",
        "url": "https://www.163.com/dy/article/VW1V94EGM.html"
    },
    {
        "title": "真正的步步高升户型，四水归堂，中式四合院！",
        "docid": "VW1RMC1DK",
        "url": "https://www.163.com/dy/article/VW1RMC1DK.html"
    },
    {
        "title": "天涯神贴：酒店员工惊魂记【三】",
        "docid": "VW2BPLD1U",
        "url": "https://www.163.com/dy/article/VW2BPLD1U.html"
    },
    {
        "title": "楼市40年来最大招，为啥不救房价？",
        "docid": "VB2A0RC1D",
        "url": "https://www.163.com/dy/article/VB2A0RC1D.html"
    },
    {
        "title": "让人意想不到，贬值最快的竟然不是房子，普通人怎么应对？",
        "docid": "VV1USQUDC",
        "url": "https://www.163.com/dy/article/VV1USQUDC.html"
    },
    {
        "title": "你会为了得房率选择老房子吗？桃园新村107平；百日百房第88套",
        "docid": "VA1T53MG6",
        "url": "https://www.163.com/dy/article/VA1T53MG6.html"
    },
    {
        "title": "中东地区装修风格的新库房，解锁多样货品，返乡创业新农人必看！",
        "docid": "VF1VLL5UG",
        "url": "https://www.163.com/dy/article/VF1VLL5UG.html"
    },
    {
        "title": "政策组合拳继续中，调控福利期还在",
        "docid": "VJ2CL85HS",
        "url": "https://www.163.com/dy/article/VJ2CL85HS.html"
    },
    {
        "title": "原来福宝所住的繁育园环境并不好，场地面积也没有几百平方米",
        "docid": "VF2D1F2P3",
        "url": "https://www.163.com/dy/article/VF2D1F2P3.html"
    },
    {
        "title": "家庭小幸福大：住小房子更温馨",
        "docid": "VZ1UP33V8",
        "url": "https://www.163.com/dy/article/VZ1UP33V8.html"
    },
    {
        "title": "老百姓申请宅基地难、自建房难，究竟难在哪里？大佬如实解答！",
        "docid": "VO1V17ITA",
        "url": "https://www.163.com/dy/article/VO1V17ITA.html"
    },
    {
        "title": "房贷还不上了不要断供，这样做后果很严重",
        "docid": "VE2B7Q9QN",
        "url": "https://www.163.com/dy/article/VE2B7Q9QN.html"
    },
    {
        "title": "20年前的老牌独栋别墅，360° 环绕式大花园，老房子还有第二春吗",
        "docid": "VN1VOAPA1",
        "url": "https://www.163.com/dy/article/VN1VOAPA1.html"
    },
    {
        "title": "农民翻建房屋被指违建，农田上的高楼却无人管理，双重标准惹争议",
        "docid": "VX2BSANFV",
        "url": "https://www.163.com/dy/article/VX2BSANFV.html"
    },
    {
        "title": "五年以后3类房子将会一文不值，很多人还不知道，内行人开始抛售",
        "docid": "VI1U4DSER",
        "url": "https://www.163.com/dy/article/VI1U4DSER.html"
    },
    {
        "title": "现在卖房已经变态到什么程度了？",
        "docid": "VW1V299KF",
        "url": "https://www.163.com/dy/article/VW1V299KF.html"
    },
    {
        "title": "现在卖房的房东都要小心了",
        "docid": "VS1VRGOR0",
        "url": "https://www.163.com/dy/article/VS1VRGOR0.html"
    },
    {
        "title": "某专家称：将需要更多更好更快的建房",
        "docid": "VN1VLEAHR",
        "url": "https://www.163.com/dy/article/VN1VLEAHR.html"
    },
    {
        "title": "龙华玖越府首页：龙华小产权房-观澜玖越府-售楼处",
        "docid": "J39O0K9R05563HNR",
        "url": "https://www.163.com/dy/article/J39O0K9R05563HNR.html"
    },
    {
        "title": "高利率阴影笼罩下，美国3月份房价仍创历史新高",
        "docid": "J3ARP03I05198NMR",
        "url": "https://www.163.com/dy/article/J3ARP03I05198NMR.html"
    },
    {
        "title": "近几年经营管理签证取消数据公布，不敢再说日本“进来容易，留下难了”……",
        "docid": "J2T4LPCN05359JWY",
        "url": "https://www.163.com/dy/article/J2T4LPCN05359JWY.html"
    },
    {
        "title": "两个161.56平米的房子，哪个更优秀呢?",
        "docid": "J2TS1TIC0552F71X",
        "url": "https://www.163.com/dy/article/J2TS1TIC0552F71X.html"
    },
    {
        "title": "张国文：卢麒元说的“地租经济”正确吗？",
        "docid": "J3AS8T3R055633SL",
        "url": "https://www.163.com/dy/article/J3AS8T3R055633SL.html"
    },
    {
        "title": "秋叶原商圈400米！东京千代田区2002年电梯房，6线6站可利用，25㎡售约126万！",
        "docid": "J3A7N9KC05359JWY",
        "url": "https://www.163.com/dy/article/J3A7N9KC05359JWY.html"
    },
    {
        "title": "为什么不建议女生结婚后住对方父母的房产？",
        "docid": "VD1VR8VF5",
        "url": "https://www.163.com/dy/article/VD1VR8VF5.html"
    },
    {
        "title": "3400万确实贵的离谱！颜值爆表的游艇大宅，970m²湖畔独栋别墅",
        "docid": "VB2CLO4GG",
        "url": "https://www.163.com/dy/article/VB2CLO4GG.html"
    },
    {
        "title": "专业选房技巧分享，这样选房，就不会入坑了",
        "docid": "VB1VGKAA7",
        "url": "https://www.163.com/dy/article/VB1VGKAA7.html"
    },
    {
        "title": "小敏打算把家里房子卖掉，准备到重庆发展，佳乐说出自己的顾虑",
        "docid": "VZ201IKP0",
        "url": "https://www.163.com/dy/article/VZ201IKP0.html"
    },
    {
        "title": "一套公寓300亿！东京最贵豪宅和背后的神秘买家，到底都有什么来头……",
        "docid": "J3A7OLOV05359JWY",
        "url": "https://www.163.com/dy/article/J3A7OLOV05359JWY.html"
    },
    {
        "title": "我93年就财富自由了，上海市中心全款买房",
        "docid": "VN203DTSF",
        "url": "https://www.163.com/dy/article/VN203DTSF.html"
    },
    {
        "title": "越来越多人逃离大平层？房产中介说漏嘴，这4个缺点太明显！",
        "docid": "VN200IUO9",
        "url": "https://www.163.com/dy/article/VN200IUO9.html"
    },
    {
        "title": "上海限购放开影响是所有人的资产，财富重新分配的剧本要上演了",
        "docid": "VF2CG53H0",
        "url": "https://www.163.com/dy/article/VF2CG53H0.html"
    },
    {
        "title": "探寻哈桑的财富起源，豪华大院的背后秘密",
        "docid": "VW204GD34",
        "url": "https://www.163.com/dy/article/VW204GD34.html"
    },
    {
        "title": "御龙半山龙晟苑约89-204㎡板式实景现房",
        "docid": "VV1UFPSHL",
        "url": "https://www.163.com/dy/article/VV1UFPSHL.html"
    },
    {
        "title": "美国加息对想买房人的影响",
        "docid": "VI2D30E1O",
        "url": "https://www.163.com/dy/article/VI2D30E1O.html"
    },
    {
        "title": "#一语 | #孟晓苏 ：房子70年产权到期后，还能继续住吗？ #买房 ",
        "docid": "VP1V3ETAB",
        "url": "https://www.163.com/dy/article/VP1V3ETAB.html"
    },
    {
        "title": "买房梦碎？楼市真相揭秘，投资房产需谨慎#抖音房产",
        "docid": "VF1UU9NCV",
        "url": "https://www.163.com/dy/article/VF1UU9NCV.html"
    },
    {
        "title": "装修省钱攻略，避坑指南",
        "docid": "VC2CH712D",
        "url": "https://www.163.com/dy/article/VC2CH712D.html"
    },
    {
        "title": "去年7.6万，今年6.7万！古翠隐秀第二套法拍房成交",
        "docid": "J3AVS9TP0553TB9L",
        "url": "https://www.163.com/dy/article/J3AVS9TP0553TB9L.html"
    },
    {
        "title": "提着现金，买套一楼带院的市区豪宅！90后也开始准备养老问题了",
        "docid": "VI2D3AB9I",
        "url": "https://www.163.com/dy/article/VI2D3AB9I.html"
    },
    {
        "title": "上海开大招了！北京赶紧出手送户口！",
        "docid": "VA2CL5EFF",
        "url": "https://www.163.com/dy/article/VA2CL5EFF.html"
    },
    {
        "title": "揭秘中国房产市场的四大变革",
        "docid": "VP1UQKKKJ",
        "url": "https://www.163.com/dy/article/VP1UQKKKJ.html"
    },
    {
        "title": "今天刚看的房子就拿下了，我们是不是太冲动了，但是对新家很满意",
        "docid": "VL200B1QC",
        "url": "https://www.163.com/dy/article/VL200B1QC.html"
    },
    {
        "title": "埃舍尔的楼梯 一个“永无止境 无限循环的楼梯”",
        "docid": "VA2C0LHI2",
        "url": "https://www.163.com/dy/article/VA2C0LHI2.html"
    },
    {
        "title": "绿地滇池国际健康城现房别墅",
        "docid": "VV1UGBH7N",
        "url": "https://www.163.com/dy/article/VV1UGBH7N.html"
    },
    {
        "title": "一千年后的房子会是怎么的？",
        "docid": "VI2CM8T7O",
        "url": "https://www.163.com/dy/article/VI2CM8T7O.html"
    },
    {
        "title": "男子3天花2300万买8套房，全家住1个小区：给直系亲属买了",
        "docid": "VT2CEFERQ",
        "url": "https://www.163.com/dy/article/VT2CEFERQ.html"
    },
    {
        "title": "郭有才推荐的庭院大门，真的很不错！",
        "docid": "VS1UUN30R",
        "url": "https://www.163.com/dy/article/VS1UUN30R.html"
    },
    {
        "title": "深、穗、沪相继大力度松绑楼市调控 知情人士称北京有望很快跟进",
        "docid": "J3AE23PO05198CJN",
        "url": "https://www.163.com/dy/article/J3AE23PO05198CJN.html"
    },
    {
        "title": "硅谷杀妻“凶宅”上市不到10天已售出，据称亚裔买家加价$20万",
        "docid": "J3B1LIK40514BT3D",
        "url": "https://www.163.com/dy/article/J3B1LIK40514BT3D.html"
    },
    {
        "title": "多家上市房企加快偿债步伐",
        "docid": "J3ANJURV05198CJN",
        "url": "https://www.163.com/dy/article/J3ANJURV05198CJN.html"
    },
    {
        "title": "中信证券：看好房地产交易服务商、开发企业和物业服务龙头公司",
        "docid": "J38TOVUH05198CJN",
        "url": "https://www.163.com/dy/article/J38TOVUH05198CJN.html"
    },
    {
        "title": "贷款购房后80岁还贷款，你愿意吗？说说你的心里话。",
        "docid": "J2T8N7II0525D145",
        "url": "https://www.163.com/dy/article/J2T8N7II0525D145.html"
    },
    {
        "title": "高善文：政策如顺利执行 有望推动房地产触底和反转",
        "docid": "J39QAC1U05198CJN",
        "url": "https://www.163.com/dy/article/J39QAC1U05198CJN.html"
    },
    {
        "title": "财联社债市早参5月28日 | “沪九条”楼市新政出炉；第二期特别国债几分钟内抢完",
        "docid": "J38VBVVR05198CJN",
        "url": "https://www.163.com/dy/article/J38VBVVR05198CJN.html"
    },
    {
        "title": "广州发布房产新政！利息少了很多",
        "docid": "VS2D6N1SI",
        "url": "https://www.163.com/dy/article/VS2D6N1SI.html"
    },
    {
        "title": "现在的房子银行都不敢要了",
        "docid": "VI2D8C8PC",
        "url": "https://www.163.com/dy/article/VI2D8C8PC.html"
    },
    {
        "title": "怎么判断移民项目靠不靠谱？",
        "docid": "VW29LNP67",
        "url": "https://www.163.com/dy/article/VW29LNP67.html"
    },
    {
        "title": "澳洲高利率吓退大批投资者，建筑成本暴涨，澳洲一半租房正面临经济困难！",
        "docid": "J3B2S46705199N88",
        "url": "https://www.163.com/dy/article/J3B2S46705199N88.html"
    },
    {
        "title": "中国最保值的二线城市房产排名来了",
        "docid": "J3B35BK90556124M",
        "url": "https://www.163.com/dy/article/J3B35BK90556124M.html"
    },
    {
        "title": "京东爱空间联合铸铝门公司，小心了！",
        "docid": "VC28EJOR7",
        "url": "https://www.163.com/dy/article/VC28EJOR7.html"
    },
    {
        "title": "怪不得中国人都不买房了！看完后莫名心酸，说的真是太真实了",
        "docid": "VI200RBDC",
        "url": "https://www.163.com/dy/article/VI200RBDC.html"
    },
    {
        "title": "寸土寸金的香港，置一套物业真的太不容易了！",
        "docid": "VW203ID26",
        "url": "https://www.163.com/dy/article/VW203ID26.html"
    },
    {
        "title": "买房返佣的骗局，你经历过吗？",
        "docid": "VA1T4B6JF",
        "url": "https://www.163.com/dy/article/VA1T4B6JF.html"
    },
    {
        "title": "上海重大楼市政策调整，北京会跟进吗？",
        "docid": "VW2CNVJ15",
        "url": "https://www.163.com/dy/article/VW2CNVJ15.html"
    },
    {
        "title": "别再看热闹！没有没房的看买了房的笑话，相当不合理",
        "docid": "VE2BQRHDU",
        "url": "https://www.163.com/dy/article/VE2BQRHDU.html"
    },
    {
        "title": "参观老表的新房子，小小县级市房价这么贵，真不愧是百强县之首！",
        "docid": "VC2030MV9",
        "url": "https://www.163.com/dy/article/VC2030MV9.html"
    },
    {
        "title": "18亿平方米销售面积峰值，楼市天花板？或许会打破大家认知",
        "docid": "VP2C0AK45",
        "url": "https://www.163.com/dy/article/VP2C0AK45.html"
    },
    {
        "title": "在印度用一百万人民币，能买多大房子，当地回答让国人震惊",
        "docid": "VQ2C95929",
        "url": "https://www.163.com/dy/article/VQ2C95929.html"
    },
    {
        "title": "到底该不该贷款买房提前还房贷没那么简单小心被套路了",
        "docid": "VF20BR22V",
        "url": "https://www.163.com/dy/article/VF20BR22V.html"
    },
    {
        "title": "美国3月FHFA房价指数环比上升0.1%",
        "docid": "VD2CFMSLE",
        "url": "https://www.163.com/dy/article/VD2CFMSLE.html"
    },
    {
        "title": "专业选房技巧分享，这样选房，就不会入坑了（2）",
        "docid": "VB1VGRTHC",
        "url": "https://www.163.com/dy/article/VB1VGRTHC.html"
    },
    {
        "title": "父母给的房子，千万不能要",
        "docid": "VW1UOT1TN",
        "url": "https://www.163.com/dy/article/VW1UOT1TN.html"
    },
    {
        "title": "原来大陆人买房公司要缴一半住房公积金 医保还有户头能买药?",
        "docid": "VN2CK8QM3",
        "url": "https://www.163.com/dy/article/VN2CK8QM3.html"
    },
    {
        "title": "区区60平花园面积，也能停车和休闲",
        "docid": "VN2D8HN1P",
        "url": "https://www.163.com/dy/article/VN2D8HN1P.html"
    },
    {
        "title": "央行三箭稳楼市，媒体再评房地产市场前景",
        "docid": "VF2CGSKC4",
        "url": "https://www.163.com/dy/article/VF2CGSKC4.html"
    },
    {
        "title": "【视频】带租约出售的房子，正在成为香饽饽",
        "docid": "VT1SNTLV0",
        "url": "https://www.163.com/dy/article/VT1SNTLV0.html"
    },
    {
        "title": "保利物业进驻广惠城际、广肇城际线项目  快报",
        "docid": "VP2A2072U",
        "url": "https://www.163.com/dy/article/VP2A2072U.html"
    },
    {
        "title": "你也在赌吗？ 一个敢说真话的房产人",
        "docid": "VM2DAKI2M",
        "url": "https://www.163.com/dy/article/VM2DAKI2M.html"
    },
    {
        "title": "身份证5开头的省份，你知道有哪些吗？",
        "docid": "VS20EKQ22",
        "url": "https://www.163.com/dy/article/VS20EKQ22.html"
    },
    {
        "title": "揭露黑户贷款骗局，中融亚洲的警示！",
        "docid": "VF2D6FIG0",
        "url": "https://www.163.com/dy/article/VF2D6FIG0.html"
    },
    {
        "title": "南沙仙宾礁要占稳，菲律宾再闹事我们也可以不承认巴拉望岛！",
        "docid": "VD1UB0NUP",
        "url": "https://www.163.com/dy/article/VD1UB0NUP.html"
    },
    {
        "title": "今日优质房源实景拍摄 一室一厅吾悦短租房，随时看房拎包入住",
        "docid": "VR1RIQNOR",
        "url": "https://www.163.com/dy/article/VR1RIQNOR.html"
    },
    {
        "title": "奇葩！男子装修认错门 竟把邻居家给拆了！",
        "docid": "VT1SPERF9",
        "url": "https://www.163.com/dy/article/VT1SPERF9.html"
    },
    {
        "title": "数据还是严谨点！信息还是正确点",
        "docid": "VE2C5EUO4",
        "url": "https://www.163.com/dy/article/VE2C5EUO4.html"
    },
    {
        "title": "2024年起，中国或将迎四大降价潮，除房价外，这3类也准备降价了",
        "docid": "VP2CJAPIR",
        "url": "https://www.163.com/dy/article/VP2CJAPIR.html"
    },
    {
        "title": "农村自建房，为何选择危险地点？村长缺乏宅基地？",
        "docid": "VF2BGKC64",
        "url": "https://www.163.com/dy/article/VF2BGKC64.html"
    },
    {
        "title": "揭秘“辽宁鬼城”：房子白给也不要?背后隐藏着什么秘密",
        "docid": "VF2BEGBPP",
        "url": "https://www.163.com/dy/article/VF2BEGBPP.html"
    },
    {
        "title": "在澳洲, 你算是富人吗? 有钱人特征曝光, 收入要达到这个数",
        "docid": "J3B7PCVT0553TAZH",
        "url": "https://www.163.com/dy/article/J3B7PCVT0553TAZH.html"
    },
    {
        "title": "房子贷款没成功怎么办？ #北京律师朱瑞雷#房屋买卖#房产律师",
        "docid": "VZ2CC63QV",
        "url": "https://www.163.com/dy/article/VZ2CC63QV.html"
    },
    {
        "title": "见识一下富豪的家，这才是有钱人的标配！承认此刻是羡慕了",
        "docid": "VY1U28N82",
        "url": "https://www.163.com/dy/article/VY1U28N82.html"
    },
    {
        "title": "教授谈租房划算还是买房划算：主要看租售比",
        "docid": "VD1VC0JNN",
        "url": "https://www.163.com/dy/article/VD1VC0JNN.html"
    },
    {
        "title": "东北特大城市房价“崩雷”，业主孤注一郑，血拼到底！",
        "docid": "VP2BCHC41",
        "url": "https://www.163.com/dy/article/VP2BCHC41.html"
    },
    {
        "title": "一旦出现三大信号，立刻买房",
        "docid": "VF2CFIT74",
        "url": "https://www.163.com/dy/article/VF2CFIT74.html"
    },
    {
        "title": "为什么很多女孩子喜欢去开夜房呢？",
        "docid": "VZ2CJU7Q5",
        "url": "https://www.163.com/dy/article/VZ2CJU7Q5.html"
    },
    {
        "title": "有的小区为啥只盖到6楼",
        "docid": "VZ28UV5E0",
        "url": "https://www.163.com/dy/article/VZ28UV5E0.html"
    },
    {
        "title": "房子这个东西，在我们一生中影响太多，结婚、上学、养老等都需要",
        "docid": "VB20DE0BP",
        "url": "https://www.163.com/dy/article/VB20DE0BP.html"
    },
    {
        "title": "海信观澜实景样板间：餐厨客厅一体，尽享家庭欢聚与私密休憩",
        "docid": "VA29FCLR9",
        "url": "https://www.163.com/dy/article/VA29FCLR9.html"
    },
    {
        "title": "深、穗、沪相继松绑楼市调控 ；北京或于近日出台；楼市能牛启吗",
        "docid": "J3B9D38J05562L3S",
        "url": "https://www.163.com/dy/article/J3B9D38J05562L3S.html"
    },
    {
        "title": "为什么大城市房价那么高，大城市的那些父母还在那拼命鸡娃？",
        "docid": "J2SP0EJ50535JMSP",
        "url": "https://www.163.com/dy/article/J2SP0EJ50535JMSP.html"
    },
    {
        "title": "比住宅更着急的是写字楼？",
        "docid": "J3BBMT8J0553XVC8",
        "url": "https://www.163.com/dy/article/J3BBMT8J0553XVC8.html"
    },
    {
        "title": "户型鉴赏：381㎡墅级尺度，一户一层，3入户，3阳台，360°视野",
        "docid": "J3B4L82J0556124M",
        "url": "https://www.163.com/dy/article/J3B4L82J0556124M.html"
    },
    {
        "title": "上海广州深圳已出手，全国这些省份和城市已优化调整住房信贷政策",
        "docid": "J3BAKGGD0514R9P4",
        "url": "https://www.163.com/dy/article/J3BAKGGD0514R9P4.html"
    },
    {
        "title": "北京、上海等城市房价那么高，普通人怎么办才能在这些城市买房？",
        "docid": "J2SNBUTD0535JMSP",
        "url": "https://www.163.com/dy/article/J2SNBUTD0535JMSP.html"
    },
    {
        "title": "深圳、广州等城市房价不涨，导致卷王越来越多了",
        "docid": "J2SOM0LH0535JMSP",
        "url": "https://www.163.com/dy/article/J2SOM0LH0535JMSP.html"
    },
    {
        "title": "个人与国家之间究竟以什么关系相处才是利益最大化呢？",
        "docid": "VZ2DHF88I",
        "url": "https://www.163.com/dy/article/VZ2DHF88I.html"
    },
    {
        "title": "央视新闻报道三大消息，其中一条全网刷频，今天的主线就是它！",
        "docid": "VD2CG76V0",
        "url": "https://www.163.com/dy/article/VD2CG76V0.html"
    },
    {
        "title": "安徽农民造出折叠房，10分钟组装两室一厅，为打工人提供舒适住所",
        "docid": "VH1HISMVL",
        "url": "https://www.163.com/dy/article/VH1HISMVL.html"
    },
    {
        "title": "楼市的那些利好能让北京、上海房价止跌吗？",
        "docid": "J2SO4U7J0535JMSP",
        "url": "https://www.163.com/dy/article/J2SO4U7J0535JMSP.html"
    },
    {
        "title": "当前房价仍偏高！超半数调查者不打算购房",
        "docid": "J39S79SR05352LE9",
        "url": "https://www.163.com/dy/article/J39S79SR05352LE9.html"
    },
    {
        "title": "写字楼持续承压，大资管席卷写字楼市场，REITs有望打开后续退出通道",
        "docid": "J3A2EROG0515S3NH",
        "url": "https://www.163.com/dy/article/J3A2EROG0515S3NH.html"
    },
    {
        "title": "首付15%！贷款利率3.25%！苏州今起执行！",
        "docid": "J39TD3IC05563UT9",
        "url": "https://www.163.com/dy/article/J39TD3IC05563UT9.html"
    },
    {
        "title": "全国超八成城市落地房贷新政",
        "docid": "J3AKGDNB0514R9KQ",
        "url": "https://www.163.com/dy/article/J3AKGDNB0514R9KQ.html"
    },
    {
        "title": "内卷的风，刮到了武汉楼市",
        "docid": "J38E5F0M0552F71X",
        "url": "https://www.163.com/dy/article/J38E5F0M0552F71X.html"
    },
    {
        "title": "内部大变样，《小鬼当家》住宅挂牌出售",
        "docid": "J3BBTJDQ05504DOQ",
        "url": "https://www.163.com/dy/article/J3BBTJDQ05504DOQ.html"
    },
    {
        "title": "新政逐渐形成叠加效应，促使武汉潜在购房者入市",
        "docid": "J353DRKT053469LG",
        "url": "https://www.163.com/dy/article/J353DRKT053469LG.html"
    },
    {
        "title": "北京、上海等城市房价那么高，普通人怎么办才能在这些城市买房？",
        "docid": "J2SN0UU60535JMSP",
        "url": "https://www.163.com/dy/article/J2SN0UU60535JMSP.html"
    },
    {
        "title": "2024年能买房吗？一文告诉你答案",
        "docid": "J38UKSG20535PKJN",
        "url": "https://www.163.com/dy/article/J38UKSG20535PKJN.html"
    },
    {
        "title": "Mysteel早读：国际大宗商品价格上涨，广深发布房地产新政",
        "docid": "J3BCUUFR0514AHGG",
        "url": "https://www.163.com/dy/article/J3BCUUFR0514AHGG.html"
    },
    {
        "title": "一线城市已有三城下调购房首付及利率，业内：预期市场信心将进一步提升，6月楼市值得期待",
        "docid": "J3BDFTP50514R9P4",
        "url": "https://www.163.com/dy/article/J3BDFTP50514R9P4.html"
    },
    {
        "title": "牛市早报｜广州、深圳调整房贷首付比例和利率下限",
        "docid": "J3BED6R30514R9P4",
        "url": "https://www.163.com/dy/article/J3BED6R30514R9P4.html"
    },
    {
        "title": "写字楼遍地哀嚎，该咋整",
        "docid": "J3BD655705158B67",
        "url": "https://www.163.com/dy/article/J3BD655705158B67.html"
    },
    {
        "title": "2024年东西湖区三大招商地块简介",
        "docid": "J3BECKJF0553TDXU",
        "url": "https://www.163.com/dy/article/J3BECKJF0553TDXU.html"
    },
    {
        "title": "早读｜广深调整住房信贷政策；神十八乘组首次出舱成功",
        "docid": "J3BCMMPA0514R9OM",
        "url": "https://www.163.com/dy/article/J3BCMMPA0514R9OM.html"
    },
    {
        "title": "招商蛇口的实力，彻底藏不住了",
        "docid": "J3BD90RC05158B67",
        "url": "https://www.163.com/dy/article/J3BD90RC05158B67.html"
    },
    {
        "title": "越来越多的人都开始撤离高层住宅的原因是什么？网友的回答真实",
        "docid": "J3BC5RG8055631P5",
        "url": "https://www.163.com/dy/article/J3BC5RG8055631P5.html"
    },
    {
        "title": "请铭记今天！2024.5.28，它们集体走上了“邪路”！",
        "docid": "J3BF5B930552HI5G",
        "url": "https://www.163.com/dy/article/J3BF5B930552HI5G.html"
    },
    {
        "title": "终于! 加拿大租房者迎来好消息! 房屋租金大幅放缓!",
        "docid": "J3BBV8C1055616ZT",
        "url": "https://www.163.com/dy/article/J3BBV8C1055616ZT.html"
    },
    {
        "title": "飞涨的房价让老百姓买不起房？有个事情更为严重，但却无人在意！",
        "docid": "J2U9L0K50553TDTY",
        "url": "https://www.163.com/dy/article/J2U9L0K50553TDTY.html"
    },
    {
        "title": "“因城施策”稳楼市 沪广深“大招”频出",
        "docid": "J3BE1ISO0539AP40",
        "url": "https://www.163.com/dy/article/J3BE1ISO0539AP40.html"
    },
    {
        "title": "出租屋备案办理，学位被占？",
        "docid": "VG2DGVSMT",
        "url": "https://www.163.com/dy/article/VG2DGVSMT.html"
    },
    {
        "title": "租售比房地产投资的诱惑与挑战",
        "docid": "VL20JVKR1",
        "url": "https://www.163.com/dy/article/VL20JVKR1.html"
    },
    {
        "title": "揭秘：上海身份证号的惊人秘密",
        "docid": "VW2DI4RK6",
        "url": "https://www.163.com/dy/article/VW2DI4RK6.html"
    },
    {
        "title": "上海11000买的房子，卖了860万，不得不面对现实，内心很难受",
        "docid": "VP2DIJSTA",
        "url": "https://www.163.com/dy/article/VP2DIJSTA.html"
    },
    {
        "title": "小梁在珠海看房，99平四房改三房，客厅和景观是亮点",
        "docid": "VF2DIN58M",
        "url": "https://www.163.com/dy/article/VF2DIN58M.html"
    },
    {
        "title": "国家第四次动员买房，你跟吗",
        "docid": "VY2DJTPVL",
        "url": "https://www.163.com/dy/article/VY2DJTPVL.html"
    },
    {
        "title": "报告：4月百城新房库存去化周期为26.5个月  快报",
        "docid": "VP2AVTU1J",
        "url": "https://www.163.com/dy/article/VP2AVTU1J.html"
    },
    {
        "title": "深夜市场传3消息，小作文疯传要信吗？小心主力设下陷阱",
        "docid": "VW2DKCUJR",
        "url": "https://www.163.com/dy/article/VW2DKCUJR.html"
    },
    {
        "title": "房产政策解读：首付和利息都降了，要不要去买房？",
        "docid": "J3BH5E0M0535PKJN",
        "url": "https://www.163.com/dy/article/J3BH5E0M0535PKJN.html"
    },
    {
        "title": "南财论道丨一线城市地产优化政策看点多、成色足",
        "docid": "J3BHBGTQ05199NPP",
        "url": "https://www.163.com/dy/article/J3BHBGTQ05199NPP.html"
    },
    {
        "title": "建筑成本暴涨，澳洲新住宅开发受阻！推动租金房价双双上涨",
        "docid": "J3BG9T540553TDVP",
        "url": "https://www.163.com/dy/article/J3BG9T540553TDVP.html"
    },
    {
        "title": "【早知道】广深进一步优化调整房地产政策措施；显示巨头纷纷投资AMOLED产线",
        "docid": "J3BH9HV80519D3V1",
        "url": "https://www.163.com/dy/article/J3BH9HV80519D3V1.html"
    },
    {
        "title": "房产大势已定！老百姓还没有等来房价如葱，负债潮却开始了吗？",
        "docid": "J37NGLH70520K44K",
        "url": "https://www.163.com/dy/article/J37NGLH70520K44K.html"
    },
    {
        "title": "各地楼市新政陆续出台 影响几何",
        "docid": "J3BFKQOH0525CHJG",
        "url": "https://www.163.com/dy/article/J3BFKQOH0525CHJG.html"
    },
    {
        "title": "日本人用泡沫盖房子，一套房子价值50万，即使地震来临也非常安全",
        "docid": "VH1811GI5",
        "url": "https://www.163.com/dy/article/VH1811GI5.html"
    },
    {
        "title": "独栋庄园出售，占地4亩，手续齐全！可经营可自住",
        "docid": "VP20NERBB",
        "url": "https://www.163.com/dy/article/VP20NERBB.html"
    },
    {
        "title": "房价崩盘回忆录：日本高位接盘的人，30年后过得如何？",
        "docid": "VO1L1JM1I",
        "url": "https://www.163.com/dy/article/VO1L1JM1I.html"
    },
    {
        "title": "不惜一切救楼市的原因只有一个",
        "docid": "VF20HDM3D",
        "url": "https://www.163.com/dy/article/VF20HDM3D.html"
    },
    {
        "title": "国家队下场，收购新房？房价要迎来“报复性上涨”了",
        "docid": "J392KD1R05566MKM",
        "url": "https://www.163.com/dy/article/J392KD1R05566MKM.html"
    },
    {
        "title": "释放重要信号：存款利率或将下行",
        "docid": "J392N3JU05566MKM",
        "url": "https://www.163.com/dy/article/J392N3JU05566MKM.html"
    },
    {
        "title": "2024年不买房，五年后房价会涨吗？内行人预言，一线3倍、二线4倍",
        "docid": "J3BHI7EN0540A6F8",
        "url": "https://www.163.com/dy/article/J3BHI7EN0540A6F8.html"
    },
    {
        "title": "英国房屋要价创历史新高;保守党与工党交锋不断;",
        "docid": "J3BHIO830553TEQM",
        "url": "https://www.163.com/dy/article/J3BHIO830553TEQM.html"
    },
    {
        "title": "拐点将至？房贷新政落地10余天，三大一线城市重磅官宣",
        "docid": "J3BI7KLK0519DDQ2",
        "url": "https://www.163.com/dy/article/J3BI7KLK0519DDQ2.html"
    },
    {
        "title": "“失业族”住房危机：男子失业被爸爸指责，一家人或将无家可归！",
        "docid": "J3BHVTTN05565GC7",
        "url": "https://www.163.com/dy/article/J3BHVTTN05565GC7.html"
    },
    {
        "title": "日本人竟统一了日本房屋租金差",
        "docid": "VU2BO40LC",
        "url": "https://www.163.com/dy/article/VU2BO40LC.html"
    },
    {
        "title": "比房价下跌更可怕的五件事情，其实已经发生，大家知道是什么吗？",
        "docid": "VS2DIIJRT",
        "url": "https://www.163.com/dy/article/VS2DIIJRT.html"
    },
    {
        "title": "台湾名嘴谈大陆：称大陆好的都是假的，大陆连房子都买不起",
        "docid": "VE20GJO22",
        "url": "https://www.163.com/dy/article/VE20GJO22.html"
    },
    {
        "title": "创造正循环：资产负债表修复",
        "docid": "VF2DIHTVD",
        "url": "https://www.163.com/dy/article/VF2DIHTVD.html"
    },
    {
        "title": "“传贳房”诈骗正毁掉韩国年轻人生活",
        "docid": "J3BKGHA20514BQ68",
        "url": "https://www.163.com/dy/article/J3BKGHA20514BQ68.html"
    },
    {
        "title": "比房价下跌更令人担忧的问题已经出现？42%的家庭或将面对！",
        "docid": "J3BJB2UV05566DVL",
        "url": "https://www.163.com/dy/article/J3BJB2UV05566DVL.html"
    },
    {
        "title": "知名物业部门绩效考核方案及实施流程全集",
        "docid": "J3BKFMAE055615MY",
        "url": "https://www.163.com/dy/article/J3BKFMAE055615MY.html"
    },
    {
        "title": "武汉东西湖区拟挂牌3宗地块 包括居住、商服和社会福利用地",
        "docid": "J3BKPQQD0519D45U",
        "url": "https://www.163.com/dy/article/J3BKPQQD0519D45U.html"
    },
    {
        "title": "操盘必读｜广深优化房地产调控政策；贵州茅台股东大会今日举行",
        "docid": "J3BK79EN053469M5",
        "url": "https://www.163.com/dy/article/J3BK79EN053469M5.html"
    },
    {
        "title": "租房市场崩溃，某如大面积和房东强制解约背后的算计",
        "docid": "J3BLTECM055648NS",
        "url": "https://www.163.com/dy/article/J3BLTECM055648NS.html"
    },
    {
        "title": "沈阳铁西西二环老破小动迁给多钱？和你想的一样不？",
        "docid": "VB20KTGKU",
        "url": "https://www.163.com/dy/article/VB20KTGKU.html"
    },
    {
        "title": "取消首套房贷利率下限，对买房人是利好吗？",
        "docid": "VF2DQJLSH",
        "url": "https://www.163.com/dy/article/VF2DQJLSH.html"
    },
    {
        "title": "今天凌晨早盘仍然有大的利空~今天上午沪深大盘继续下跌",
        "docid": "VO2DOJ0JB",
        "url": "https://www.163.com/dy/article/VO2DOJ0JB.html"
    },
    {
        "title": "房地产还会继续有大动作吗？",
        "docid": "VQ2DP5LNH",
        "url": "https://www.163.com/dy/article/VQ2DP5LNH.html"
    },
    {
        "title": "误判2024年楼市！行内专家：有购房计划的家庭，建议看这4条忠告",
        "docid": "J3BKP57Q055640VF",
        "url": "https://www.163.com/dy/article/J3BKP57Q055640VF.html"
    },
    {
        "title": "千疮百孔的楼房，变身“命悬一线”的陷阱，一家三口陷入废墟失联",
        "docid": "J3BMP29C05561JGQ",
        "url": "https://www.163.com/dy/article/J3BMP29C05561JGQ.html"
    },
    {
        "title": "市区洋房vs郊区别墅，谁才是改善之王？",
        "docid": "J36KTOKI0535WDMF",
        "url": "https://www.163.com/dy/article/J36KTOKI0535WDMF.html"
    },
    {
        "title": "华尔街到陆家嘴精选｜美国3月房价创历史新高；高盛：全球石油需求能续增十年",
        "docid": "J3BK31800519DDQ2",
        "url": "https://www.163.com/dy/article/J3BK31800519DDQ2.html"
    },
    {
        "title": "“远离四房，拒绝两铺”，牢记这条定律，避免很多问题",
        "docid": "J2NPDO9E0540SN7V",
        "url": "https://www.163.com/dy/article/J2NPDO9E0540SN7V.html"
    },
    {
        "title": "地产新政发力或将带来大盘风格的“盛夏”？",
        "docid": "J3BN8PE30519QIKK",
        "url": "https://www.163.com/dy/article/J3BN8PE30519QIKK.html"
    },
    {
        "title": "楼市重磅！继上海之后，深圳、广州相继出手！",
        "docid": "J3BMJQCG0519B04T",
        "url": "https://www.163.com/dy/article/J3BMJQCG0519B04T.html"
    },
    {
        "title": "5万一套的房子，三室一厅100多平，竟然还卖不出去，真让人无奈",
        "docid": "VW20KAA3F",
        "url": "https://www.163.com/dy/article/VW20KAA3F.html"
    },
    {
        "title": "现代生活新风尚，钢结构厂房成潮流引领者#钢结构 #钢结构厂房",
        "docid": "VG2B93SHT",
        "url": "https://www.163.com/dy/article/VG2B93SHT.html"
    },
    {
        "title": "房价从22000跌到8000，免费送房无人问，走投无路只能断供吗？",
        "docid": "VF20I1LG7",
        "url": "https://www.163.com/dy/article/VF20I1LG7.html"
    },
    {
        "title": "地产板块拉升，世荣兆业、中天服务涨停，各地新政持续落地",
        "docid": "J3BOERSR0539AP40",
        "url": "https://www.163.com/dy/article/J3BOERSR0539AP40.html"
    },
    {
        "title": "最新！白沙洲K6地块项目建设",
        "docid": "J3BOEQPA05566RS4",
        "url": "https://www.163.com/dy/article/J3BOEQPA05566RS4.html"
    },
    {
        "title": "夏季物业服务管理工作的9个重点和措施",
        "docid": "J3BNLBNL055615MY",
        "url": "https://www.163.com/dy/article/J3BNLBNL055615MY.html"
    },
    {
        "title": "购买法拍房能申请贷款吗？",
        "docid": "J3BM8L9L0556704Q",
        "url": "https://www.163.com/dy/article/J3BM8L9L0556704Q.html"
    },
    {
        "title": "买房签完合同后，在这3处你要留个心眼，别最后交了钱也拿不到房",
        "docid": "J2NPB9IE0540SN7V",
        "url": "https://www.163.com/dy/article/J2NPB9IE0540SN7V.html"
    },
    {
        "title": "北漂女生花光积蓄在燕郊买了一套loft公寓，如今肠子都悔青了！",
        "docid": "VR2DG11FQ",
        "url": "https://www.163.com/dy/article/VR2DG11FQ.html"
    },
    {
        "title": "眼下房地产行业迎来关键变化点和转折点",
        "docid": "VG2DL20ML",
        "url": "https://www.163.com/dy/article/VG2DL20ML.html"
    },
    {
        "title": "台湾名嘴谈大陆：称大陆好的都是假的，大陆连房子都买不起",
        "docid": "VE20H0KLU",
        "url": "https://www.163.com/dy/article/VE20H0KLU.html"
    },
    {
        "title": "家乡楼市崩了！完善的设施、优美的环境、白菜的价格！",
        "docid": "VZ2DMV8KV",
        "url": "https://www.163.com/dy/article/VZ2DMV8KV.html"
    },
    {
        "title": "深穗沪大力度松绑楼市调控，房价会上涨吗？",
        "docid": "VV2DLLOJ1",
        "url": "https://www.163.com/dy/article/VV2DLLOJ1.html"
    },
    {
        "title": "为什么普通人都买不起房、不愿买房的时候，才松绑楼市？",
        "docid": "J3BP8LD70556124M",
        "url": "https://www.163.com/dy/article/J3BP8LD70556124M.html"
    },
    {
        "title": "万科怎么了：万科9C系数简要分析",
        "docid": "J3BOIRL10519GVR5",
        "url": "https://www.163.com/dy/article/J3BOIRL10519GVR5.html"
    },
    {
        "title": "买多大面积的房子才保值？过来人的话一针见血",
        "docid": "J2NPRR5A0540SN7V",
        "url": "https://www.163.com/dy/article/J2NPRR5A0540SN7V.html"
    },
    {
        "title": "买房这件事，还得听上面的！",
        "docid": "J3BPC7T10552TUV8",
        "url": "https://www.163.com/dy/article/J3BPC7T10552TUV8.html"
    },
    {
        "title": "英伟达疯狂 房地产再放大招",
        "docid": "J3BOV0C00553TEQM",
        "url": "https://www.163.com/dy/article/J3BOV0C00553TEQM.html"
    },
    {
        "title": "地产股冲高回落，世荣兆业、中天服务涨停，南国置业逼近涨停",
        "docid": "J3BOIJMD0519DDQ2",
        "url": "https://www.163.com/dy/article/J3BOIJMD0519DDQ2.html"
    },
    {
        "title": "中国购房vs日本购房。日本工人买一套房只需14年。中国需要79年",
        "docid": "VI1VA5D9S",
        "url": "https://www.163.com/dy/article/VI1VA5D9S.html"
    },
    {
        "title": "融创房地产新增一则被执行人信息，执行标的逾14亿元",
        "docid": "VD2DTAVNF",
        "url": "https://www.163.com/dy/article/VD2DTAVNF.html"
    },
    {
        "title": "帮帮团问政热点：小区车位出入口部分被挡住，业主停车备受影响",
        "docid": "VT2DU6FCN",
        "url": "https://www.163.com/dy/article/VT2DU6FCN.html"
    },
    {
        "title": "他像女人的脸，说变就变。省了多少呢？",
        "docid": "VQ2DT1M9K",
        "url": "https://www.163.com/dy/article/VQ2DT1M9K.html"
    },
    {
        "title": "我们在等你！上广深先后下调房贷利率和首付比例，压力给到北京",
        "docid": "J3BQ5HO30535HK01",
        "url": "https://www.163.com/dy/article/J3BQ5HO30535HK01.html"
    },
    {
        "title": "这个人口超过200万的城市，成为家族办公室的热门聚集地",
        "docid": "J3BPQMN105198DBD",
        "url": "https://www.163.com/dy/article/J3BPQMN105198DBD.html"
    },
    {
        "title": "一个真实的故事，表姐在大城市买房后的绝望",
        "docid": "J3BRBOJQ055616ZT",
        "url": "https://www.163.com/dy/article/J3BRBOJQ055616ZT.html"
    },
    {
        "title": "希腊将会涌现一大批“全新房”？",
        "docid": "J3BP04JA0517CSU1",
        "url": "https://www.163.com/dy/article/J3BP04JA0517CSU1.html"
    },
    {
        "title": "市场周报|2024年第21周——重点城市商品住宅成交量微增",
        "docid": "J3BR8IMA0515AN84",
        "url": "https://www.163.com/dy/article/J3BR8IMA0515AN84.html"
    },
    {
        "title": "重磅消息！全国即将解除限购；五个院子的别墅现场火爆认购中！",
        "docid": "J374DPOF0556757N",
        "url": "https://www.163.com/dy/article/J374DPOF0556757N.html"
    },
    {
        "title": "明星，主妇，土豪，东京居住街区排行榜",
        "docid": "J3BQ71AG055616YD",
        "url": "https://www.163.com/dy/article/J3BQ71AG055616YD.html"
    },
    {
        "title": "517后，很多城市楼市一下子就火了起来",
        "docid": "J3BRIEJM05567IYR",
        "url": "https://www.163.com/dy/article/J3BRIEJM05567IYR.html"
    },
    {
        "title": "雨虹桃花源，让生活更美好！",
        "docid": "J3BQ9U1V05199FB7",
        "url": "https://www.163.com/dy/article/J3BQ9U1V05199FB7.html"
    },
    {
        "title": "突然宣布！一线城市沸腾，这次房价稳涨了？",
        "docid": "J3BQD1EH05536P04",
        "url": "https://www.163.com/dy/article/J3BQD1EH05536P04.html"
    },
    {
        "title": "终于来了！取消限购，首套房首付比例降到15%，取消利率下限！",
        "docid": "J3BQ2B1J05562DLL",
        "url": "https://www.163.com/dy/article/J3BQ2B1J05562DLL.html"
    },
    {
        "title": "买二手房，怎样能规避 “ 一房两卖 ”",
        "docid": "J2UQEC610535FFBB",
        "url": "https://www.163.com/dy/article/J2UQEC610535FFBB.html"
    },
    {
        "title": "拼一把买“一梯两户”，别退而求其次选“两梯四户”，住过就知道",
        "docid": "J2NPVK440540SN7V",
        "url": "https://www.163.com/dy/article/J2NPVK440540SN7V.html"
    },
    {
        "title": "黄奇帆访谈关于房地产的十个拐点五个调整",
        "docid": "J3BT1FOM0553TDTY",
        "url": "https://www.163.com/dy/article/J3BT1FOM0553TDTY.html"
    },
    {
        "title": "王健林再谈房价：跌50%？地皮都不止这个价！",
        "docid": "J3BOHNV10553TDXU",
        "url": "https://www.163.com/dy/article/J3BOHNV10553TDXU.html"
    },
    {
        "title": "房贷政策放松了，买房支出反而高了？别被反逻辑的观点给忽悠了",
        "docid": "J3BK9HCT0553XH85",
        "url": "https://www.163.com/dy/article/J3BK9HCT0553XH85.html"
    },
    {
        "title": "重磅救市！广深集体出手！",
        "docid": "J3BQBALB0539LWPU",
        "url": "https://www.163.com/dy/article/J3BQBALB0539LWPU.html"
    },
    {
        "title": "中经评论：住房“以旧换新”要“因城施策”",
        "docid": "J3BRABDM0514CQIE",
        "url": "https://www.163.com/dy/article/J3BRABDM0514CQIE.html"
    },
    {
        "title": "苏州无锡拉低全省增势，浙江增长更稳健！江浙两省公积金缴存情况",
        "docid": "J3BP84NQ0539KVTS",
        "url": "https://www.163.com/dy/article/J3BP84NQ0539KVTS.html"
    },
    {
        "title": "世邦魏理仕：若恒指维持现水平或续升 料未来香港楼价将平稳发展",
        "docid": "J3BQTNS705198UNI",
        "url": "https://www.163.com/dy/article/J3BQTNS705198UNI.html"
    },
    {
        "title": "昆明北大资源颐和1898楼盘详情",
        "docid": "J3AL0F2C0556866B",
        "url": "https://www.163.com/dy/article/J3AL0F2C0556866B.html"
    },
    {
        "title": "房地产又要沸腾了？还在继续看空楼市的人，要吃亏了！",
        "docid": "J3BQIB9P05536P04",
        "url": "https://www.163.com/dy/article/J3BQIB9P05536P04.html"
    },
    {
        "title": "房贷新格局或已形成！广州、深圳同日落地降首付降利率政策",
        "docid": "J3BQO11I0514R9NP",
        "url": "https://www.163.com/dy/article/J3BQO11I0514R9NP.html"
    },
    {
        "title": "连排别墅平面规划构思要点",
        "docid": "VO1UAFQIU",
        "url": "https://www.163.com/dy/article/VO1UAFQIU.html"
    },
    {
        "title": "未来3年，这8个城市房价可能会翻倍，看看有你所在的城市吗？",
        "docid": "VP2DVNGBE",
        "url": "https://www.163.com/dy/article/VP2DVNGBE.html"
    },
    {
        "title": "2024平安租赁安腾2期38.36亿元ABS更新至“已受理”  快报",
        "docid": "VP2BEIDOC",
        "url": "https://www.163.com/dy/article/VP2BEIDOC.html"
    },
    {
        "title": "北京海淀区百旺家苑东区17楼2单元302号132.48㎡873万6月27日起拍",
        "docid": "VO20SJJMO",
        "url": "https://www.163.com/dy/article/VO20SJJMO.html"
    },
    {
        "title": "大摩指内房联合宽松政策应该能为买家情绪提供更好的支持  快报",
        "docid": "VP2BGVC3N",
        "url": "https://www.163.com/dy/article/VP2BGVC3N.html"
    },
    {
        "title": "房产经纪人实话实说正能量",
        "docid": "VE2DTQQJT",
        "url": "https://www.163.com/dy/article/VE2DTQQJT.html"
    },
    {
        "title": "土地收入缩水1万亿？供地大减背后，楼市供需矛盾加剧",
        "docid": "VP2E00S43",
        "url": "https://www.163.com/dy/article/VP2E00S43.html"
    },
    {
        "title": "盖一栋传世好宅，推荐新中式合院，通体气派，一看就很有内涵",
        "docid": "J3C0BKTD0553TDXU",
        "url": "https://www.163.com/dy/article/J3C0BKTD0553TDXU.html"
    },
    {
        "title": "我的房子200跌到140万，我断供了，被法拍了！再来看房子最后一眼",
        "docid": "VY213A90I",
        "url": "https://www.163.com/dy/article/VY213A90I.html"
    },
    {
        "title": "中国房地产业协会：房地产已经进入深度调整阶段，唯一的出路就是卧薪尝胆，奋发图强，盖好房子  快报",
        "docid": "VP2BC3P94",
        "url": "https://www.163.com/dy/article/VP2BC3P94.html"
    },
    {
        "title": "我们在等你！上广深先后下调房贷利率和首付比例，压力给到北京",
        "docid": "VJ2E1QUUP",
        "url": "https://www.163.com/dy/article/VJ2E1QUUP.html"
    },
    {
        "title": "三河灵山宝塔陵园是合法正规的公墓陵园",
        "docid": "VN2DU82M9",
        "url": "https://www.163.com/dy/article/VN2DU82M9.html"
    },
    {
        "title": "金融监管总局：满足房地产项目合理融资需求，大力支持保障性住房等“三大工程”建设  快报",
        "docid": "VP2BJE3JM",
        "url": "https://www.163.com/dy/article/VP2BJE3JM.html"
    },
    {
        "title": "房价从14000降到7000，三代积蓄化为乌有，房子赔钱终于卖出去了",
        "docid": "VY20V8MPQ",
        "url": "https://www.163.com/dy/article/VY20V8MPQ.html"
    },
    {
        "title": "200万买的60层超高层住宅，每天住在180米高空！真的是肠子悔青",
        "docid": "VY20V1LRR",
        "url": "https://www.163.com/dy/article/VY20V1LRR.html"
    },
    {
        "title": "陷进去就是一辈子，盘点那些法拍房大坑",
        "docid": "VC2BFBR7O",
        "url": "https://www.163.com/dy/article/VC2BFBR7O.html"
    },
    {
        "title": "楼市最可怕的一幕来了？越来越多人“弃房断供”，真让专家说中了",
        "docid": "VR2DL3AI2",
        "url": "https://www.163.com/dy/article/VR2DL3AI2.html"
    },
    {
        "title": "住房城乡建设部第一批城市更新典型案例推介Ⅱ——城镇老旧小区改造类",
        "docid": "J3C11Q6B0553TDVP",
        "url": "https://www.163.com/dy/article/J3C11Q6B0553TDVP.html"
    },
    {
        "title": "这是一款奢华的316.56平米户型吗?",
        "docid": "J3C3E14A0553TEQM",
        "url": "https://www.163.com/dy/article/J3C3E14A0553TEQM.html"
    },
    {
        "title": "不建议高负债和消费透支，买房还是要慎重",
        "docid": "J3BRNHQ605567IYR",
        "url": "https://www.163.com/dy/article/J3BRNHQ605567IYR.html"
    },
    {
        "title": "2024年Q1净收入上涨3.3%，美国TOP5住房租赁REIT的五大秘籍",
        "docid": "J3C0PD7S05530RXA",
        "url": "https://www.163.com/dy/article/J3C0PD7S05530RXA.html"
    },
    {
        "title": "如果需要，那几亿农民，是可以有钱买房的",
        "docid": "J2UVO62N0553JMK2",
        "url": "https://www.163.com/dy/article/J2UVO62N0553JMK2.html"
    },
    {
        "title": "二手房是现在卖？还是等等再卖？",
        "docid": "J3BRPU1R05567IYR",
        "url": "https://www.163.com/dy/article/J3BRPU1R05567IYR.html"
    },
    {
        "title": "从一楼带院子搬到顶楼带院子的房子后，才发现，原来区别这么大！",
        "docid": "J3C1DSG70553TDTY",
        "url": "https://www.163.com/dy/article/J3C1DSG70553TDTY.html"
    },
    {
        "title": "酒店升房不靠“玄学”，能行吗？",
        "docid": "J3C1R4NV0514R9KQ",
        "url": "https://www.163.com/dy/article/J3C1R4NV0514R9KQ.html"
    },
    {
        "title": "交房时间晚于上学时间该怎么办？",
        "docid": "VG218A39S",
        "url": "https://www.163.com/dy/article/VG218A39S.html"
    },
    {
        "title": "房价暴涨合情合理，房价暴降恶意降价叫停！廉价房离我们很近很远",
        "docid": "VY2E42FLJ",
        "url": "https://www.163.com/dy/article/VY2E42FLJ.html"
    },
    {
        "title": "上海开启抽水机，南京豪宅咋办？？",
        "docid": "J3BNT2KN05566SOW",
        "url": "https://www.163.com/dy/article/J3BNT2KN05566SOW.html"
    },
    {
        "title": "两万字干货 | 克而瑞CEO张燕解读《2024不动产运营发展报告》",
        "docid": "J3C460FA0515AR3K",
        "url": "https://www.163.com/dy/article/J3C460FA0515AR3K.html"
    },
    {
        "title": "突发！永辉超市玖隆茂店突然停业引发关注！",
        "docid": "VF2E4K7H9",
        "url": "https://www.163.com/dy/article/VF2E4K7H9.html"
    },
    {
        "title": "房价是一个城市的门票！",
        "docid": "VY2E2VL4H",
        "url": "https://www.163.com/dy/article/VY2E2VL4H.html"
    },
    {
        "title": "北大教授建议房价涨跌应该让市场决定",
        "docid": "VB2DVN7PH",
        "url": "https://www.163.com/dy/article/VB2DVN7PH.html"
    },
    {
        "title": "楼市最强刺激政策出炉，我听到的却是地产裁员降薪没法做的坏消息",
        "docid": "VA2CAJTOT",
        "url": "https://www.163.com/dy/article/VA2CAJTOT.html"
    },
    {
        "title": "180万的房子被法拍了90万，还倒欠银行45万，真是万万没想到心碎",
        "docid": "VY214V2F4",
        "url": "https://www.163.com/dy/article/VY214V2F4.html"
    },
    {
        "title": "为什么很多工地明明烂尾了，唯独塔吊没有撤走？",
        "docid": "VW2DTNHSD",
        "url": "https://www.163.com/dy/article/VW2DTNHSD.html"
    },
    {
        "title": "6年前花17000一平在郑州郊区买的房，如今赔了多少？一算吓一跳",
        "docid": "VP2C8FE7C",
        "url": "https://www.163.com/dy/article/VP2C8FE7C.html"
    },
    {
        "title": "女子花150万高位买房 如今房价跌到首付都没了",
        "docid": "VT2C8A5OL",
        "url": "https://www.163.com/dy/article/VT2C8A5OL.html"
    },
    {
        "title": "约20省市区落实&quot;5·17&quot;楼市新政！部分城市成交数据好转，房价何时见底？",
        "docid": "J3C5TO6S0519QIKK",
        "url": "https://www.163.com/dy/article/J3C5TO6S0519QIKK.html"
    },
    {
        "title": "有钱也买不到房子？存量房时代即将到来？房子将会上涨吗？",
        "docid": "VC21329GH",
        "url": "https://www.163.com/dy/article/VC21329GH.html"
    },
    {
        "title": "5万一套的房子，三室一厅100多平，竟然还卖不出去，真让人无奈",
        "docid": "VF20NRMEV",
        "url": "https://www.163.com/dy/article/VF20NRMEV.html"
    },
    {
        "title": "广州：取消首套及二套住房贷款利率下限，首套房首付最低15%",
        "docid": "VF2DJ48I3",
        "url": "https://www.163.com/dy/article/VF2DJ48I3.html"
    },
    {
        "title": "公园脚下的电梯房，下楼梯是公园入口",
        "docid": "VU2DVB62E",
        "url": "https://www.163.com/dy/article/VU2DVB62E.html"
    },
    {
        "title": "买的低楼层后悔的想锤自己，打算卖了换18层，说说低层的5大通病",
        "docid": "VR2DPP4B6",
        "url": "https://www.163.com/dy/article/VR2DPP4B6.html"
    },
    {
        "title": "房价从22000跌到8000，免费送房无人问，走投无路只能断供吗？",
        "docid": "VW20GT1JF",
        "url": "https://www.163.com/dy/article/VW20GT1JF.html"
    },
    {
        "title": "国家放了“三支箭”，这次楼市的春天就要来了吗？",
        "docid": "VW2DU76E1",
        "url": "https://www.163.com/dy/article/VW2DU76E1.html"
    },
    {
        "title": "中国楼市现状及未来趋势",
        "docid": "VW2DMK5LN",
        "url": "https://www.163.com/dy/article/VW2DMK5LN.html"
    },
    {
        "title": "老外热议中国昆山金字塔公寓，油管网友：看起来非常的神奇",
        "docid": "VD2CVO9NK",
        "url": "https://www.163.com/dy/article/VD2CVO9NK.html"
    },
    {
        "title": "“老小区”要吃香了？2024年起全面旧改，这3类人或将受益！",
        "docid": "J2UT36P60519GBC0",
        "url": "https://www.163.com/dy/article/J2UT36P60519GBC0.html"
    },
    {
        "title": "楼市大招，根本不是你想的那样！",
        "docid": "VY2DUP5UD",
        "url": "https://www.163.com/dy/article/VY2DUP5UD.html"
    },
    {
        "title": "517新政之后，房贷利率还会继续下降吗？",
        "docid": "VS2DQ97KJ",
        "url": "https://www.163.com/dy/article/VS2DQ97KJ.html"
    },
    {
        "title": "太劲爆了，周二晚间，高层再放大招，明天的变盘马上要来了吗？",
        "docid": "VP2DU8ISJ",
        "url": "https://www.163.com/dy/article/VP2DU8ISJ.html"
    },
    {
        "title": "盖好别墅，花了多少钱？",
        "docid": "VC2E37LVJ",
        "url": "https://www.163.com/dy/article/VC2E37LVJ.html"
    },
    {
        "title": "人生中的第一套房应该怎么买？",
        "docid": "VG2E21EQ8",
        "url": "https://www.163.com/dy/article/VG2E21EQ8.html"
    },
    {
        "title": "南昌废弃豪华别墅群变身菜地鸡舍，惋惜之余",
        "docid": "VW210NGSC",
        "url": "https://www.163.com/dy/article/VW210NGSC.html"
    },
    {
        "title": "佛山刀哥：这6种楼盘，既不好住，也不好卖！谁买了谁就吃大亏！",
        "docid": "VP2159I13",
        "url": "https://www.163.com/dy/article/VP2159I13.html"
    },
    {
        "title": "不愧是韩国人的首都，豪宅旁边就是贫民区，这可是首尔啊",
        "docid": "VF2C4G0EI",
        "url": "https://www.163.com/dy/article/VF2C4G0EI.html"
    },
    {
        "title": "关注我了解更多房产知识",
        "docid": "VE211A8RF",
        "url": "https://www.163.com/dy/article/VE211A8RF.html"
    },
    {
        "title": "加勒比各国投资入籍涨价倒计时，格林纳达投资入籍将如何跟进?",
        "docid": "J3C7BJKK05148L59",
        "url": "https://www.163.com/dy/article/J3C7BJKK05148L59.html"
    },
    {
        "title": "住在几楼很讲究！买房选楼层有四个要点",
        "docid": "J3C9GGHS0540SN7V",
        "url": "https://www.163.com/dy/article/J3C9GGHS0540SN7V.html"
    },
    {
        "title": "投资房产一定要慎重，这5个方面不要轻易触碰，否则很容易吃亏",
        "docid": "J3C7FH3V0532D0CK",
        "url": "https://www.163.com/dy/article/J3C7FH3V0532D0CK.html"
    },
    {
        "title": "一线城市加入落实楼市新政队伍 房地产板块震荡拉升",
        "docid": "J3C8TGMH0534JESX",
        "url": "https://www.163.com/dy/article/J3C8TGMH0534JESX.html"
    },
    {
        "title": "买房选这四个楼层，能招财带福气",
        "docid": "J3C9AT0O0540SN7V",
        "url": "https://www.163.com/dy/article/J3C9AT0O0540SN7V.html"
    },
    {
        "title": "粤海置地：受益政策红利和稳健管理双重驱动，市场关注度显著提升",
        "docid": "J3C7EJDI05199D8B",
        "url": "https://www.163.com/dy/article/J3C7EJDI05199D8B.html"
    },
    {
        "title": "为啥聪明人直接“拎包入住”毛坯房？",
        "docid": "J3C9E1IT0540SN7V",
        "url": "https://www.163.com/dy/article/J3C9E1IT0540SN7V.html"
    },
    {
        "title": "新加坡模式是房地产的救命药吗",
        "docid": "J3C43TT505567AYR",
        "url": "https://www.163.com/dy/article/J3C43TT505567AYR.html"
    },
    {
        "title": "澳洲房市风云：买家与卖家的心态对比",
        "docid": "J3C89F9I053661TJ",
        "url": "https://www.163.com/dy/article/J3C89F9I053661TJ.html"
    },
    {
        "title": "万科交付满意度97%的背后：让地下停车库也能阳光舒适",
        "docid": "J3C8SM4L051598SA",
        "url": "https://www.163.com/dy/article/J3C8SM4L051598SA.html"
    },
    {
        "title": "重磅！贝壳今年第一季度财报出炉，揭秘中国房地产市场的真实走向",
        "docid": "J3C89DCK0553TDXU",
        "url": "https://www.163.com/dy/article/J3C89DCK0553TDXU.html"
    },
    {
        "title": "上广深大力度救市政策的出台后，网传某地落户政策即将取消！",
        "docid": "J3CAJBBI05563EX9",
        "url": "https://www.163.com/dy/article/J3CAJBBI05563EX9.html"
    },
    {
        "title": "高善文最新研判：房市估值回到合理水平，出海有助于提高企业盈利和竞争力",
        "docid": "J3CAL1NR05199NPP",
        "url": "https://www.163.com/dy/article/J3CAL1NR05199NPP.html"
    },
    {
        "title": "马云的预言要实现了？以后全国41.5%的城镇家庭，或将碰到4个问题",
        "docid": "J3BHP1T30540A6F8",
        "url": "https://www.163.com/dy/article/J3BHP1T30540A6F8.html"
    },
    {
        "title": "买电梯房，选“楼层”很重要，别买了才开始后悔",
        "docid": "J3C9C6G10540SN7V",
        "url": "https://www.163.com/dy/article/J3C9C6G10540SN7V.html"
    },
    {
        "title": "原来住宅是有讲究的，涨知识了，收藏看看（仅供参考）",
        "docid": "J3CACLIG055616WX",
        "url": "https://www.163.com/dy/article/J3CACLIG055616WX.html"
    },
    {
        "title": "8米宽20米长的地能建怎样的户型房？",
        "docid": "J3C76K380553TDTY",
        "url": "https://www.163.com/dy/article/J3C76K380553TDTY.html"
    },
    {
        "title": "最新发布！光谷将添住宅、公园用地！",
        "docid": "J3CAINCJ0545DG4X",
        "url": "https://www.163.com/dy/article/J3CAINCJ0545DG4X.html"
    },
    {
        "title": "不猜涨跌，相信趋势就可以了。 更多精彩内容来老严直播间！",
        "docid": "VK2BSDFI7",
        "url": "https://www.163.com/dy/article/VK2BSDFI7.html"
    },
    {
        "title": "住了三年的房子，价格从130万跌到50万，房子赔钱也卖不出去",
        "docid": "VP2EBLFJ6",
        "url": "https://www.163.com/dy/article/VP2EBLFJ6.html"
    },
    {
        "title": "上海首付2折，广州开出1.5折：我卖的不是房，是底线！",
        "docid": "J3CB6FNS05564TWO",
        "url": "https://www.163.com/dy/article/J3CB6FNS05564TWO.html"
    },
    {
        "title": "高善文：房地产还未到底",
        "docid": "J3CE6NAU0519JF10",
        "url": "https://www.163.com/dy/article/J3CE6NAU0519JF10.html"
    },
    {
        "title": "『官方』上海虹口虹口源717售楼处发布：水岸邻里等你来!",
        "docid": "J3CCD016055663IX",
        "url": "https://www.163.com/dy/article/J3CCD016055663IX.html"
    },
    {
        "title": "永升服务携手奥的斯机电打造“物业管理×电梯服务”一站式解决方案",
        "docid": "J3CBRS070552NVEU",
        "url": "https://www.163.com/dy/article/J3CBRS070552NVEU.html"
    },
    {
        "title": "房地产走势大白话分析：新政后的变化，哪些信息和老百姓息息相关",
        "docid": "J3CC12IA05536P04",
        "url": "https://www.163.com/dy/article/J3CC12IA05536P04.html"
    },
    {
        "title": "进入6月，楼市正在加速回暖！这些信号你捕捉到了吗?",
        "docid": "J3CBP08705536P04",
        "url": "https://www.163.com/dy/article/J3CBP08705536P04.html"
    },
    {
        "title": "打算卖房才发现，难以接受的，不是房价下降了，而是根本卖不出去",
        "docid": "J3CBVO4I0553TB8M",
        "url": "https://www.163.com/dy/article/J3CBVO4I0553TB8M.html"
    },
    {
        "title": "多地加速落实楼市新政！二手房活跃度回暖，房地产股票再度拉升",
        "docid": "J3BVC9EL0519D3V1",
        "url": "https://www.163.com/dy/article/J3BVC9EL0519D3V1.html"
    },
    {
        "title": "三缺一！上海、广州、深圳陆续出台楼市新政",
        "docid": "J3C9L0610552A0VF",
        "url": "https://www.163.com/dy/article/J3C9L0610552A0VF.html"
    },
    {
        "title": "“政府收储”去库存，房价会涨吗？",
        "docid": "J3CCV0AO0514BE2Q",
        "url": "https://www.163.com/dy/article/J3CCV0AO0514BE2Q.html"
    },
    {
        "title": "沪、穗两地刺激房地产放大招，解决资产配置荒，地产是重要突破口",
        "docid": "J3C4Q8CQ05561VON",
        "url": "https://www.163.com/dy/article/J3C4Q8CQ05561VON.html"
    },
    {
        "title": "单身女性，高位买房，后悔吗",
        "docid": "J34PB4ON055649GX",
        "url": "https://www.163.com/dy/article/J34PB4ON055649GX.html"
    },
    {
        "title": "楼市该不该救？如何救，还有什么大招？",
        "docid": "J2VGELB605538DP3",
        "url": "https://www.163.com/dy/article/J2VGELB605538DP3.html"
    },
    {
        "title": "“5点放款6点出新政”，房贷利率能按最新的走吗？",
        "docid": "J3CF2ASR0519C6T9",
        "url": "https://www.163.com/dy/article/J3CF2ASR0519C6T9.html"
    },
    {
        "title": "一夜涨价72万！这里的楼市迎风上涨",
        "docid": "VR2EH4V0U",
        "url": "https://www.163.com/dy/article/VR2EH4V0U.html"
    },
    {
        "title": "2025，租房时代元年",
        "docid": "VN2EF7AG3",
        "url": "https://www.163.com/dy/article/VN2EF7AG3.html"
    },
    {
        "title": "原来离婚也有限号！婚姻不易，且行且珍惜啊！ ",
        "docid": "VQ2EIJQJV",
        "url": "https://www.163.com/dy/article/VQ2EIJQJV.html"
    },
    {
        "title": "投资13亿工业园成“僵尸园区”，100多座楼烂尾逾期8年未竣工，公司濒临破产",
        "docid": "VC2EKBMIU",
        "url": "https://www.163.com/dy/article/VC2EKBMIU.html"
    },
    {
        "title": "北大徐高未来几年大城市房价，可能大幅上涨，机构称房价90%情况下会上涨",
        "docid": "VL2BVSMF0",
        "url": "https://www.163.com/dy/article/VL2BVSMF0.html"
    },
    {
        "title": "楼市新政落地!上海地产情况如何",
        "docid": "VM2EC35NJ",
        "url": "https://www.163.com/dy/article/VM2EC35NJ.html"
    },
    {
        "title": "伯明翰房产租赁市场洞察，透视各区域租金走势与回报分析",
        "docid": "J3CE4RS00514DPPR",
        "url": "https://www.163.com/dy/article/J3CE4RS00514DPPR.html"
    },
    {
        "title": "物流公司股权质押也能获得200亿贷款？万科再被惠誉下调评级！",
        "docid": "J3CER3SI0519F913",
        "url": "https://www.163.com/dy/article/J3CER3SI0519F913.html"
    },
    {
        "title": "024年房地产市场走势明朗！专家观点：立刻卖房，你可能会亏大了",
        "docid": "J3CDLKU805536P04",
        "url": "https://www.163.com/dy/article/J3CDLKU805536P04.html"
    },
    {
        "title": "上亿业主苦存量房贷利率久矣！强烈呼吁尽快下调！ ",
        "docid": "VJ2ELQJFE",
        "url": "https://www.163.com/dy/article/VJ2ELQJFE.html"
    },
    {
        "title": "上期能源：对部分客户采取限制开仓监管措施",
        "docid": "VD2ELSJGN",
        "url": "https://www.163.com/dy/article/VD2ELSJGN.html"
    },
    {
        "title": "新闻1+1丨各地楼市新政陆续出台，影响几何？专家解读",
        "docid": "VC2EIV1A6",
        "url": "https://www.163.com/dy/article/VC2EIV1A6.html"
    },
    {
        "title": "房子5年没人住，物业费被强制交付，合理？",
        "docid": "VC1UJJN20",
        "url": "https://www.163.com/dy/article/VC1UJJN20.html"
    },
    {
        "title": "房价涨跌的逻辑是什么？",
        "docid": "VB21KAO6U",
        "url": "https://www.163.com/dy/article/VB21KAO6U.html"
    },
    {
        "title": "房地产ETF午后继续大跌，南方中证全指房地产ETF跌3.11%  快报",
        "docid": "VP2BQOL7J",
        "url": "https://www.163.com/dy/article/VP2BQOL7J.html"
    },
    {
        "title": "有院子有花的一层自建房",
        "docid": "VG2EEH2EI",
        "url": "https://www.163.com/dy/article/VG2EEH2EI.html"
    },
    {
        "title": "一线城市密集更新楼市政策 市场反应如何？",
        "docid": "J3CGJKKK0534JESX",
        "url": "https://www.163.com/dy/article/J3CGJKKK0534JESX.html"
    },
    {
        "title": "潮观凤起云座（官方网站）潮观凤起云座（官方预约通道）楼盘详情",
        "docid": "J3CGK5C405567TPX",
        "url": "https://www.163.com/dy/article/J3CGK5C405567TPX.html"
    },
    {
        "title": "【关注】马光远：一线城市调整房地产政策，市场反转不远了",
        "docid": "J3CGD4A90519D88G",
        "url": "https://www.163.com/dy/article/J3CGD4A90519D88G.html"
    },
    {
        "title": "降首付、解限售，史诗级救市政策背后，为什么就是不肯降房价？",
        "docid": "J3CHAQ740552P8AD",
        "url": "https://www.163.com/dy/article/J3CHAQ740552P8AD.html"
    },
    {
        "title": "\"深度解析：为何70后、80后仅凭一套房难留大城市？\"",
        "docid": "VF21K3GMU",
        "url": "https://www.163.com/dy/article/VF21K3GMU.html"
    },
    {
        "title": "陈淮：一半存量住房 20年内可能需拆了重建",
        "docid": "VU2EKKATB",
        "url": "https://www.163.com/dy/article/VU2EKKATB.html"
    },
    {
        "title": "这楼房还能住人吗？随时都有可能坍塌啊！",
        "docid": "VF2C1DMSM",
        "url": "https://www.163.com/dy/article/VF2C1DMSM.html"
    },
    {
        "title": "马老师预测什么时候房价大降价？",
        "docid": "VG2EC7N75",
        "url": "https://www.163.com/dy/article/VG2EC7N75.html"
    },
    {
        "title": "新加坡离婚居然是这样规定的，特别震惊，非常值得推荐",
        "docid": "VF2EK652P",
        "url": "https://www.163.com/dy/article/VF2EK652P.html"
    },
    {
        "title": "南京杭州房地产成交量大涨，苏州何时跟进？",
        "docid": "VS2EE72HB",
        "url": "https://www.163.com/dy/article/VS2EE72HB.html"
    },
    {
        "title": "保障房资金收储存量商品房，这一西部城市出手了",
        "docid": "J3CJ0NL40519DDQ2",
        "url": "https://www.163.com/dy/article/J3CJ0NL40519DDQ2.html"
    },
    {
        "title": "2024年，面向中产的新一轮收割已在路上",
        "docid": "J2VKT43O055648NS",
        "url": "https://www.163.com/dy/article/J2VKT43O055648NS.html"
    },
    {
        "title": "响应“517”新政，超200城执行最低15%首付，楼市“红六月”或可期，市场仍处修复过程",
        "docid": "J3CKP4VU0512D03F",
        "url": "https://www.163.com/dy/article/J3CKP4VU0512D03F.html"
    },
    {
        "title": "粤19市调整房贷政策 广深为什么不在内?",
        "docid": "J391VLF905129QAF",
        "url": "https://www.163.com/dy/article/J391VLF905129QAF.html"
    },
    {
        "title": "一线城市也绷不住了！沪广深“接力”发布楼市新政",
        "docid": "J3CHCANO05566TBX",
        "url": "https://www.163.com/dy/article/J3CHCANO05566TBX.html"
    },
    {
        "title": "厉害了，现在刺激楼市，到底刺激了谁？",
        "docid": "J3CL3BM0055674JQ",
        "url": "https://www.163.com/dy/article/J3CL3BM0055674JQ.html"
    },
    {
        "title": "武汉这里要拆迁了，又要造就一大批千万富翁，你们羡慕吗",
        "docid": "VJ2C3STQB",
        "url": "https://www.163.com/dy/article/VJ2C3STQB.html"
    },
    {
        "title": "终于狠心把房子卖了，价格难以接受，血泪史，到现在心都在滴血",
        "docid": "VN21FFQDU",
        "url": "https://www.163.com/dy/article/VN21FFQDU.html"
    },
    {
        "title": "外网评论我国最大公寓楼：那是功夫电影的新公寓吗",
        "docid": "VL29NBK0O",
        "url": "https://www.163.com/dy/article/VL29NBK0O.html"
    },
    {
        "title": "当你被困在这所无限循环的公寓，逃跑是不可能了！",
        "docid": "VD2EOP2QI",
        "url": "https://www.163.com/dy/article/VD2EOP2QI.html"
    },
    {
        "title": "517新政效果如何，救市政策还得加码",
        "docid": "J3CLOL7R055629OM",
        "url": "https://www.163.com/dy/article/J3CLOL7R055629OM.html"
    },
    {
        "title": "50城新建商品住宅库存消化周期达2年，哈尔滨高达75.2个月",
        "docid": "J3CLDAC40553YQBK",
        "url": "https://www.163.com/dy/article/J3CLDAC40553YQBK.html"
    },
    {
        "title": "美国写字楼租金崩盘，华尔街顶级投行债券遭受压力。",
        "docid": "J3BTGMU405565ICD",
        "url": "https://www.163.com/dy/article/J3BTGMU405565ICD.html"
    },
    {
        "title": "年轻人谈买房色变：高房价下的生活压力与无奈",
        "docid": "VF2E9JL4B",
        "url": "https://www.163.com/dy/article/VF2E9JL4B.html"
    },
    {
        "title": "最高院：施工方接受的“工抵房”，有建设工程价款优先受偿权吗？",
        "docid": "VU1UPKURM",
        "url": "https://www.163.com/dy/article/VU1UPKURM.html"
    },
    {
        "title": "取消限购后 男子砸2300多万买了8套房！只为全家族同住一个小区",
        "docid": "VT2ENMI3T",
        "url": "https://www.163.com/dy/article/VT2ENMI3T.html"
    },
    {
        "title": "翻译翻译什么叫错层结构？！38㎡的小房子搞出五室两厅两卫！",
        "docid": "VU1V703PK",
        "url": "https://www.163.com/dy/article/VU1V703PK.html"
    },
    {
        "title": "为什么取消限购这么难？要减少各种“限制”，给经济松松绑",
        "docid": "VG2C3B94B",
        "url": "https://www.163.com/dy/article/VG2C3B94B.html"
    },
    {
        "title": "上广深楼市放大招，还有人离婚抢房吗？",
        "docid": "VW2ENL072",
        "url": "https://www.163.com/dy/article/VW2ENL072.html"
    },
    {
        "title": "房地产市场两个难题，出生人口低和房产库存高，两大矛盾如何化解",
        "docid": "VA2EAAJA3",
        "url": "https://www.163.com/dy/article/VA2EAAJA3.html"
    },
    {
        "title": "果真是思路决定出路！能减免1000房租不香吗？",
        "docid": "VQ21JTIB7",
        "url": "https://www.163.com/dy/article/VQ21JTIB7.html"
    },
    {
        "title": "送你一套房子你要不要？",
        "docid": "VF21HLLJS",
        "url": "https://www.163.com/dy/article/VF21HLLJS.html"
    },
    {
        "title": "温铁军：城里买房才能上学看病，房地产加速农村衰败 ",
        "docid": "VG21N98EQ",
        "url": "https://www.163.com/dy/article/VG21N98EQ.html"
    },
    {
        "title": "这房子盖的一刮风就得倒",
        "docid": "VU1V27NHL",
        "url": "https://www.163.com/dy/article/VU1V27NHL.html"
    },
    {
        "title": "某些中介到底有多离谱？房东被套路连环杀，被侃到骨折价！",
        "docid": "VM21TFEH5",
        "url": "https://www.163.com/dy/article/VM21TFEH5.html"
    },
    {
        "title": "300平给85万天价都不肯搬，一家7口人居住在这，这点够买什么呢",
        "docid": "VS2EAHO47",
        "url": "https://www.163.com/dy/article/VS2EAHO47.html"
    },
    {
        "title": "父母赠房，如何最划算过户给子女？",
        "docid": "VF2EDHEA4",
        "url": "https://www.163.com/dy/article/VF2EDHEA4.html"
    },
    {
        "title": "整顿楼市打倒高房价！00后打响全国第一枪！网友：过瘾",
        "docid": "VC2EOVSL5",
        "url": "https://www.163.com/dy/article/VC2EOVSL5.html"
    },
    {
        "title": "买房子不通过中介，能省好多中介费，这样真能行吗",
        "docid": "VT2EALSHF",
        "url": "https://www.163.com/dy/article/VT2EALSHF.html"
    },
    {
        "title": "住在拙政园旁边是什么体验？论地段这里才是最好的吧",
        "docid": "VK2EDBDQH",
        "url": "https://www.163.com/dy/article/VK2EDBDQH.html"
    },
    {
        "title": "为什么很多人不想要一梯两户？房产中介说漏嘴：这4个缺点太明显",
        "docid": "J3CP5Q2E05566SC9",
        "url": "https://www.163.com/dy/article/J3CP5Q2E05566SC9.html"
    },
    {
        "title": "老破小最终的结局终于浮出水面。",
        "docid": "J3CP28I70553VNKO",
        "url": "https://www.163.com/dy/article/J3CP28I70553VNKO.html"
    },
    {
        "title": "深圳政策落地，买还是卖？",
        "docid": "J3CO4V8805158VA4",
        "url": "https://www.163.com/dy/article/J3CO4V8805158VA4.html"
    },
    {
        "title": "华发股份：加强业务协同 新政下项目热销",
        "docid": "J3CONA0F0552HN90",
        "url": "https://www.163.com/dy/article/J3CONA0F0552HN90.html"
    },
    {
        "title": "东京23个区新公寓均价破1亿日元，是谁在买买买",
        "docid": "J3CO77SU0519DDQ2",
        "url": "https://www.163.com/dy/article/J3CO77SU0519DDQ2.html"
    },
    {
        "title": "一线城市限购放开，二三线城市危险 ",
        "docid": "VJ2ESJF4B",
        "url": "https://www.163.com/dy/article/VJ2ESJF4B.html"
    },
    {
        "title": "西边户vs东边户，西户西晒更严重？大错特错，没有具体分析没答案",
        "docid": "VB21V4S5D",
        "url": "https://www.163.com/dy/article/VB21V4S5D.html"
    },
    {
        "title": "苏州北厍镇，未来的高铁新城板块",
        "docid": "VF2DGOVHJ",
        "url": "https://www.163.com/dy/article/VF2DGOVHJ.html"
    },
    {
        "title": "阜阳城南房价或将大涨，买房攻略必看！",
        "docid": "VW2DSOTCB",
        "url": "https://www.163.com/dy/article/VW2DSOTCB.html"
    },
    {
        "title": "焦点访谈丨投资13亿的超级项目为何成了“僵尸园区”？",
        "docid": "VG2EC7Q92",
        "url": "https://www.163.com/dy/article/VG2EC7Q92.html"
    },
    {
        "title": "美国中产最倒霉！房贷利率上升至7%，住房市场格局被重塑",
        "docid": "J3CQ903E05566YXD",
        "url": "https://www.163.com/dy/article/J3CQ903E05566YXD.html"
    },
    {
        "title": "武汉楼市，有钱人在狂欢",
        "docid": "J3CQ9LIF0553TDXU",
        "url": "https://www.163.com/dy/article/J3CQ9LIF0553TDXU.html"
    },
    {
        "title": "独家丨银行集体行动！“执行要求已转至全辖网点”",
        "docid": "J3CPPNAL05199NPP",
        "url": "https://www.163.com/dy/article/J3CPPNAL05199NPP.html"
    },
    {
        "title": "这12种「垃圾房产」，难住更难卖，眼光长远的都在悄悄处理",
        "docid": "J2VQJ8BD0520PKNQ",
        "url": "https://www.163.com/dy/article/J2VQJ8BD0520PKNQ.html"
    },
    {
        "title": "成都、燕郊房价暴跌，购房者血泪控诉：百万首付打水漂！",
        "docid": "J3CQPNTC0553TDXU",
        "url": "https://www.163.com/dy/article/J3CQPNTC0553TDXU.html"
    },
    {
        "title": "调查｜楼市调整第三年，土地市场变了“模样”",
        "docid": "J3CQGSIF05198R91",
        "url": "https://www.163.com/dy/article/J3CQGSIF05198R91.html"
    },
    {
        "title": "小区最好的3个位置，选对的人运气极佳",
        "docid": "VB21VET0U",
        "url": "https://www.163.com/dy/article/VB21VET0U.html"
    },
    {
        "title": "中国90%人未购房，专家揭秘",
        "docid": "VI2EUV7LG",
        "url": "https://www.163.com/dy/article/VI2EUV7LG.html"
    },
    {
        "title": "每月1250的房租，在深圳能住什么样的房子",
        "docid": "VF2E8TAAJ",
        "url": "https://www.163.com/dy/article/VF2E8TAAJ.html"
    },
    {
        "title": "陈淮：一半存量住房 20年内可能需拆了重建 ",
        "docid": "VU2EJDPU1",
        "url": "https://www.163.com/dy/article/VU2EJDPU1.html"
    },
    {
        "title": "一诺“万金” 臻享幸福",
        "docid": "J2VU863H0556648A",
        "url": "https://www.163.com/dy/article/J2VU863H0556648A.html"
    },
    {
        "title": "上广深降维打击，超级虹吸时代开始了",
        "docid": "J3CQH3MC0553OQTJ",
        "url": "https://www.163.com/dy/article/J3CQH3MC0553OQTJ.html"
    },
    {
        "title": "为何在这样的山上建房子有何意义？",
        "docid": "J3CRGFTN0532D0CK",
        "url": "https://www.163.com/dy/article/J3CRGFTN0532D0CK.html"
    },
    {
        "title": "央媒喊话：房价已经降到可以出手的心理价位！又被我说中了？",
        "docid": "J3CR8NN905359WBS",
        "url": "https://www.163.com/dy/article/J3CR8NN905359WBS.html"
    },
    {
        "title": "好消息！天源环保集团计划在汉南区建设商业综合体",
        "docid": "J3CS9SQ40553TDTY",
        "url": "https://www.163.com/dy/article/J3CS9SQ40553TDTY.html"
    },
    {
        "title": "投资13亿却烂尾多年！\n问题在哪里？",
        "docid": "VJ2F2JMED",
        "url": "https://www.163.com/dy/article/VJ2F2JMED.html"
    },
    {
        "title": "房价真的下跌了，大家如愿以偿了，可是你们都买房了吗？",
        "docid": "VW2EV9172",
        "url": "https://www.163.com/dy/article/VW2EV9172.html"
    },
    {
        "title": "房产中介门店正在快速消失，成交量无法支撑众多从业者",
        "docid": "VR20NOG10",
        "url": "https://www.163.com/dy/article/VR20NOG10.html"
    },
    {
        "title": "房子砍出白菜价，真的能成交吗？天上会有馅饼吗？",
        "docid": "VA2E9GQAE",
        "url": "https://www.163.com/dy/article/VA2E9GQAE.html"
    },
    {
        "title": "对于中国房地产现状以及未来发展趋势的一个解读7分钟",
        "docid": "VO20C5I5H",
        "url": "https://www.163.com/dy/article/VO20C5I5H.html"
    },
    {
        "title": "超20省份取消房贷利率下限，首套房贷利率降至历史最低",
        "docid": "J3CU7FDL05129QAF",
        "url": "https://www.163.com/dy/article/J3CU7FDL05129QAF.html"
    },
    {
        "title": "517楼市新政出台后，广州、天津、沈阳、上海等集体跟进",
        "docid": "J3CQ98CO0556730Q",
        "url": "https://www.163.com/dy/article/J3CQ98CO0556730Q.html"
    },
    {
        "title": "塔布家遭遇危机！巨额土地费未付，一家人如何应对？",
        "docid": "VR2F0HGH9",
        "url": "https://www.163.com/dy/article/VR2F0HGH9.html"
    },
    {
        "title": "这个账，不太对啊！ 买房划算还是租房划算？",
        "docid": "VS2F27E88",
        "url": "https://www.163.com/dy/article/VS2F27E88.html"
    },
    {
        "title": "517新政效果如何，救市政策还得加码",
        "docid": "VJ2F35QFG",
        "url": "https://www.163.com/dy/article/VJ2F35QFG.html"
    },
    {
        "title": "“沪九条”打响楼市新政后第一枪，房地产板块能否持续发酵？ ",
        "docid": "VR2CFDROB",
        "url": "https://www.163.com/dy/article/VR2CFDROB.html"
    },
    {
        "title": "山东最憋屈的地方青岛黄岛区，来到这发现和想象当中不太一样",
        "docid": "VV213H1PQ",
        "url": "https://www.163.com/dy/article/VV213H1PQ.html"
    },
    {
        "title": "怎么家装房子？如何选家具？每周五16:30",
        "docid": "VC224D3LP",
        "url": "https://www.163.com/dy/article/VC224D3LP.html"
    },
    {
        "title": "沪穗深接力落地楼市松绑组合拳",
        "docid": "VN2EKEIRI",
        "url": "https://www.163.com/dy/article/VN2EKEIRI.html"
    },
    {
        "title": "我的房子终于卖了，最后价格难以接受，现在心还在滴血！",
        "docid": "VW1TC8G3L",
        "url": "https://www.163.com/dy/article/VW1TC8G3L.html"
    },
    {
        "title": "信号：存款利率，是时候下调了？",
        "docid": "J3CULC0U0519CCS1",
        "url": "https://www.163.com/dy/article/J3CULC0U0519CCS1.html"
    },
    {
        "title": "4月数据：分化持续，国企能否反击？",
        "docid": "J3CUB9TH0535LVTK",
        "url": "https://www.163.com/dy/article/J3CUB9TH0535LVTK.html"
    },
    {
        "title": "日本房地产泡沫破裂的启示",
        "docid": "J3CVUCDD0553TEQM",
        "url": "https://www.163.com/dy/article/J3CVUCDD0553TEQM.html"
    },
    {
        "title": "大家提前做好准备，不出意外：从2024年起，会发生3个重要转变",
        "docid": "J3D0DPVV055616ZT",
        "url": "https://www.163.com/dy/article/J3D0DPVV055616ZT.html"
    },
    {
        "title": "因为房子烂尾，小伙子结不了婚，当代青年人的痛",
        "docid": "J3CUEER30553SPQJ",
        "url": "https://www.163.com/dy/article/J3CUEER30553SPQJ.html"
    },
    {
        "title": "著名女歌手：王菲在北京的豪宅，下午14点27分发现反常，怎么了？",
        "docid": "VW2F68CSA",
        "url": "https://www.163.com/dy/article/VW2F68CSA.html"
    },
    {
        "title": "为什么高层宁愿降利率降首付，也不愿意降房价，让老百姓买得起房子？",
        "docid": "VR2F1P083",
        "url": "https://www.163.com/dy/article/VR2F1P083.html"
    },
    {
        "title": "中国房地产重演日本老路？冯仑：不可比，土地制度差异巨大",
        "docid": "VP2F4QDRL",
        "url": "https://www.163.com/dy/article/VP2F4QDRL.html"
    },
    {
        "title": "这户人当初建房为节省材料，如今每天住得睡不着觉",
        "docid": "VU2F3N5K5",
        "url": "https://www.163.com/dy/article/VU2F3N5K5.html"
    },
    {
        "title": "美联：撤辣三个月香港一手房成交宗数增长超2.7倍  快报",
        "docid": "VP2CFH6PH",
        "url": "https://www.163.com/dy/article/VP2CFH6PH.html"
    },
    {
        "title": "已有十五省落地 首套房首付15%时代到来 专家称低首付低利率或将成常态",
        "docid": "J3D2EQI3051492T3",
        "url": "https://www.163.com/dy/article/J3D2EQI3051492T3.html"
    },
    {
        "title": "租房如买房，这9个禁忌一定要注意，关乎到自身的气场、运势",
        "docid": "J3D20CD10520E3F7",
        "url": "https://www.163.com/dy/article/J3D20CD10520E3F7.html"
    },
    {
        "title": "错配一小步，库存一大步",
        "docid": "J3D11NKT05567UM8",
        "url": "https://www.163.com/dy/article/J3D11NKT05567UM8.html"
    },
    {
        "title": "世界最“绝望”国家：房被中国人买了空置，竟逼得当地人无房可住",
        "docid": "J3D2AKG0055616ZT",
        "url": "https://www.163.com/dy/article/J3D2AKG0055616ZT.html"
    },
    {
        "title": "楼市新政，一个比一个邪乎",
        "docid": "J3CU88H10535PKJN",
        "url": "https://www.163.com/dy/article/J3CU88H10535PKJN.html"
    },
    {
        "title": "2024年，置业重庆，粉丝问题集中回答第六期",
        "docid": "J3CVVE0P0515AP70",
        "url": "https://www.163.com/dy/article/J3CVVE0P0515AP70.html"
    },
    {
        "title": "一线城市密集松绑楼市，这是要破釜沉舟，楼市要画上句号",
        "docid": "VF2F55QQC",
        "url": "https://www.163.com/dy/article/VF2F55QQC.html"
    },
    {
        "title": "不交物业费就能不受管束？这种合理吗！",
        "docid": "VV2F579UE",
        "url": "https://www.163.com/dy/article/VV2F579UE.html"
    },
    {
        "title": "湖南省康宸新材料有限公司全屋整装提高了整个空间的生活品质",
        "docid": "VS2EEFSTR",
        "url": "https://www.163.com/dy/article/VS2EEFSTR.html"
    },
    {
        "title": "楼市大招频出，刚需房要被消灭了？",
        "docid": "VB2F230E8",
        "url": "https://www.163.com/dy/article/VB2F230E8.html"
    }
]