[
    {
        "title": "汉口北，一个很小资的地方",
        "docid": "INU8C5SH0545ACCK",
        "url": "https://www.163.com/dy/article/INU8C5SH0545ACCK.html"
    },
    {
        "title": "武汉高端豪宅的变迁：从西北湖到华侨城、再到汉口二七滨江！",
        "docid": "IO13MFTK0552QWCE",
        "url": "https://www.163.com/dy/article/IO13MFTK0552QWCE.html"
    },
    {
        "title": "光谷新房直降40万，你觉得是机会，其实是踩雷",
        "docid": "IO4NECFR055616ZT",
        "url": "https://www.163.com/dy/article/IO4NECFR055616ZT.html"
    },
    {
        "title": "听说这是一款无懈可击的户型，你认为呢？",
        "docid": "INTHGBBE0535MP84",
        "url": "https://www.163.com/dy/article/INTHGBBE0535MP84.html"
    },
    {
        "title": "建筑学家直言：一栋楼不管多少层，这3个楼层都属于“黄金楼层”",
        "docid": "INKCB5JU0553RHO2",
        "url": "https://www.163.com/dy/article/INKCB5JU0553RHO2.html"
    },
    {
        "title": "2023年武汉各区新建商品房成交量对比",
        "docid": "IO0VBLOA0534M7IC",
        "url": "https://www.163.com/dy/article/IO0VBLOA0534M7IC.html"
    },
    {
        "title": "住进武汉豪宅区的第一天，我就想搬走",
        "docid": "INTHUQ7G0535MP84",
        "url": "https://www.163.com/dy/article/INTHUQ7G0535MP84.html"
    },
    {
        "title": "滨江又一纯新盘！青山武粮库3宗地块报规，总建面17.56万方！",
        "docid": "IO1RB6M80534M7IC",
        "url": "https://www.163.com/dy/article/IO1RB6M80534M7IC.html"
    },
    {
        "title": "选套好房：198㎡四室三卫，这大平层不会是开发商的自留地吧？",
        "docid": "INV8S0UG0515U60S",
        "url": "https://www.163.com/dy/article/INV8S0UG0515U60S.html"
    },
    {
        "title": "武汉商业综合体缘何越开越火",
        "docid": "IO1TMD1D05524ETU",
        "url": "https://www.163.com/dy/article/IO1TMD1D05524ETU.html"
    },
    {
        "title": "童瑶继子豪购北京天花板级别墅！每平高达20万，张国立也是业主",
        "docid": "IO6B25M50552F71X",
        "url": "https://www.163.com/dy/article/IO6B25M50552F71X.html"
    },
    {
        "title": "高房价“弊端”已现，“弃房断供”现象增多，房屋遭法拍",
        "docid": "IO6FNOJU0540KLAM",
        "url": "https://www.163.com/dy/article/IO6FNOJU0540KLAM.html"
    },
    {
        "title": "新一轮“拆迁潮”来了？再出新规，2024年起4类房子通通纳入拆迁",
        "docid": "INV15UKL05359WBS",
        "url": "https://www.163.com/dy/article/INV15UKL05359WBS.html"
    },
    {
        "title": "2023年武汉住房销售破21万套 二手房成交同比暴涨39.7%",
        "docid": "IO11TNPG0519D45U",
        "url": "https://www.163.com/dy/article/IO11TNPG0519D45U.html"
    },
    {
        "title": "定了！市政府拨款22.5万欧元建立唐人街！Usera成马德里租金涨幅最大的街区！",
        "docid": "IO2BMLDQ0514BIH4",
        "url": "https://www.163.com/dy/article/IO2BMLDQ0514BIH4.html"
    },
    {
        "title": "以案说法 | 解除房屋买卖合同后，能否退还中介费？",
        "docid": "IO37JMLQ0541ECH9",
        "url": "https://www.163.com/dy/article/IO37JMLQ0541ECH9.html"
    },
    {
        "title": "未来10年，房子、车子、现金都会贬值，而这3样东西会持续升值！",
        "docid": "INV5I5KF0545PEDS",
        "url": "https://www.163.com/dy/article/INV5I5KF0545PEDS.html"
    },
    {
        "title": "吵翻了！光谷一小区对口学校或有变！",
        "docid": "INVBNDTL0552QWCE",
        "url": "https://www.163.com/dy/article/INVBNDTL0552QWCE.html"
    },
    {
        "title": "买房切记不要选这3个特殊楼层，幸亏行内人告诉我，差点买错",
        "docid": "INUL182B0540B07R",
        "url": "https://www.163.com/dy/article/INUL182B0540B07R.html"
    },
    {
        "title": "秃顶大爷成香饽饽，被亲了一脸口水，知情人：家里有6套房子出租",
        "docid": "IO16QUO305534KHT",
        "url": "https://www.163.com/dy/article/IO16QUO305534KHT.html"
    },
    {
        "title": "烂尾楼是怎样产生的？开发商跑路为何不被抓？购房者还要还贷款？",
        "docid": "IO6C9HSP0540SN7V",
        "url": "https://www.163.com/dy/article/IO6C9HSP0540SN7V.html"
    },
    {
        "title": "破产清算！资产从6523万跌到2587万，暴降60%！",
        "docid": "IO4PEVPM055616ZT",
        "url": "https://www.163.com/dy/article/IO4PEVPM055616ZT.html"
    },
    {
        "title": "土地确权的好处与作用！",
        "docid": "IO4J5HIO0532Q69P",
        "url": "https://www.163.com/dy/article/IO4J5HIO0532Q69P.html"
    },
    {
        "title": "为啥中高层楼房那么受欢迎？原来好处这么多，难怪大家都趋之若鹜",
        "docid": "IO5UDJNO054057BR",
        "url": "https://www.163.com/dy/article/IO5UDJNO054057BR.html"
    },
    {
        "title": "小区一期和二期到底有何区别？内行人说出其中门道，买房必看！",
        "docid": "IO3RCK0O0536UOB3",
        "url": "https://www.163.com/dy/article/IO3RCK0O0536UOB3.html"
    },
    {
        "title": "小心了！开发商、炒房客、专家开始鼓吹大家买房了",
        "docid": "IO03QPJ90535MP84",
        "url": "https://www.163.com/dy/article/IO03QPJ90535MP84.html"
    },
    {
        "title": "华润城润府！低于指导价100万！还是高层！精装奶油风格",
        "docid": "IO2AHPDI0556123R",
        "url": "https://www.163.com/dy/article/IO2AHPDI0556123R.html"
    },
    {
        "title": "楼可以不盖，钱可以不还，但是高层的工资不能不发",
        "docid": "IO5QFOA20553MZK7",
        "url": "https://www.163.com/dy/article/IO5QFOA20553MZK7.html"
    },
    {
        "title": "房子要是有这些特征，就是“黄金户型”了，你家占了几条？",
        "docid": "IO03NRTG0535MP84",
        "url": "https://www.163.com/dy/article/IO03NRTG0535MP84.html"
    },
    {
        "title": "2024年房价还会下跌吗？业内人士预测：今年房价变化将出乎意料！",
        "docid": "IO1VLQCC0519GBC0",
        "url": "https://www.163.com/dy/article/IO1VLQCC0519GBC0.html"
    },
    {
        "title": "选套好房：127㎡四室两卫，没成想改善户型也能如此完美",
        "docid": "IO1OEQCM0515U60S",
        "url": "https://www.163.com/dy/article/IO1OEQCM0515U60S.html"
    },
    {
        "title": "兼顾三代人所需的大平层户型，值得一看",
        "docid": "INLQ8H1L0552CPHG",
        "url": "https://www.163.com/dy/article/INLQ8H1L0552CPHG.html"
    },
    {
        "title": "房地产不景气，对哪些行业利空，对哪些行业利好？",
        "docid": "IO1EO8SV05561JSB",
        "url": "https://www.163.com/dy/article/IO1EO8SV05561JSB.html"
    },
    {
        "title": "每经数读｜TOP50少卖了1万亿！2023年上市房企销售排名落定，保利、万科、中海成为三甲",
        "docid": "IO6K47P70534M7IC",
        "url": "https://www.163.com/dy/article/IO6K47P70534M7IC.html"
    },
    {
        "title": "可以给80分的顶级大平层是什么样子?",
        "docid": "IO5QBF2G0553TDXU",
        "url": "https://www.163.com/dy/article/IO5QBF2G0553TDXU.html"
    },
    {
        "title": "上月重点城市二手房挂牌量环比呈现“六连升”",
        "docid": "IO46S2PK0542M5JD",
        "url": "https://www.163.com/dy/article/IO46S2PK0542M5JD.html"
    },
    {
        "title": "5年后，步梯房会比电梯房更值钱?内行人：新规下一眼明了!",
        "docid": "IO0OM2N90512ES8F",
        "url": "https://www.163.com/dy/article/IO0OM2N90512ES8F.html"
    },
    {
        "title": "卖房的人越来越多，却卖不出去了，2024年的楼市还有转机吗？",
        "docid": "IO4KGL81053312Y9",
        "url": "https://www.163.com/dy/article/IO4KGL81053312Y9.html"
    },
    {
        "title": "3楼不是普通楼层，为什么一般人不能住？原来是这5个原因！",
        "docid": "INMSLOS7054057BR",
        "url": "https://www.163.com/dy/article/INMSLOS7054057BR.html"
    },
    {
        "title": "布里斯班房价超过墨尔本，维州受洪灾严重影响，澳洲发救灾补助金",
        "docid": "IO5LE56E05560ZCW",
        "url": "https://www.163.com/dy/article/IO5LE56E05560ZCW.html"
    },
    {
        "title": "中国“留不住”人的3座城市现状：人均工资三四千，房价却一两万",
        "docid": "IO67V43E05536P04",
        "url": "https://www.163.com/dy/article/IO67V43E05536P04.html"
    },
    {
        "title": "2024年第一搞花园方案",
        "docid": "IO547DL20553TDXU",
        "url": "https://www.163.com/dy/article/IO547DL20553TDXU.html"
    },
    {
        "title": "11年的房地产从业者，为2024年买房人提供的一些宝贵的建议",
        "docid": "INRGL80U0553SQD3",
        "url": "https://www.163.com/dy/article/INRGL80U0553SQD3.html"
    },
    {
        "title": "近9成租客不愿房租超月收入30%",
        "docid": "IO5V732005118I96",
        "url": "https://www.163.com/dy/article/IO5V732005118I96.html"
    },
    {
        "title": "周海媚的豪宅算凶宅吗？你敢住吗？",
        "docid": "INMFP69F055639OX",
        "url": "https://www.163.com/dy/article/INMFP69F055639OX.html"
    },
    {
        "title": "调查 I 美国房主维修保养房屋每年需万元",
        "docid": "IO08Q5M90552JRS3",
        "url": "https://www.163.com/dy/article/IO08Q5M90552JRS3.html"
    },
    {
        "title": "677平米的极致大平层户型是什么样子？",
        "docid": "INVK9DCP0542M5JD",
        "url": "https://www.163.com/dy/article/INVK9DCP0542M5JD.html"
    },
    {
        "title": "上海『招商臻境』官网—浦东三林『招商臻境』售楼处地址—详情",
        "docid": "INSGVQ7P05565QF9",
        "url": "https://www.163.com/dy/article/INSGVQ7P05565QF9.html"
    },
    {
        "title": "14.2亿元！江苏钢企拍下上海市中心20幢花园洋房，此前曾三次流拍、一次撤拍",
        "docid": "IO47H204055616ZT",
        "url": "https://www.163.com/dy/article/IO47H204055616ZT.html"
    },
    {
        "title": "高层住宅一旦停建，那么楼市里的这2种房子，可能要大增值了",
        "docid": "IO4KBOBD053312Y9",
        "url": "https://www.163.com/dy/article/IO4KBOBD053312Y9.html"
    },
    {
        "title": "全款买房和贷款买房有啥区别？内行人终于道出实情，越早知道越好",
        "docid": "INUKGA2K054057BR",
        "url": "https://www.163.com/dy/article/INUKGA2K054057BR.html"
    },
    {
        "title": "买房的时候贪便宜，选择了2楼，肠子都悔青了，比1楼还不如！",
        "docid": "IO66T4IT054057BR",
        "url": "https://www.163.com/dy/article/IO66T4IT054057BR.html"
    },
    {
        "title": "中国不适宜生存的十个城市！郑州工资太低，天津房价太高",
        "docid": "INV6PF500553TB9L",
        "url": "https://www.163.com/dy/article/INV6PF500553TB9L.html"
    },
    {
        "title": "东西湖吴家山这里用地属性大调整！",
        "docid": "IO4LULK00534SV3Y",
        "url": "https://www.163.com/dy/article/IO4LULK00534SV3Y.html"
    },
    {
        "title": "武汉城建集团与市房管局就加快推进“安居链”平台建设座谈交流",
        "docid": "IO6PGP0A0553TEV3",
        "url": "https://www.163.com/dy/article/IO6PGP0A0553TEV3.html"
    },
    {
        "title": "你知道良心的139平米户型是什么样子吗？",
        "docid": "IO5QQ1EK0535LAX2",
        "url": "https://www.163.com/dy/article/IO5QQ1EK0535LAX2.html"
    },
    {
        "title": "4楼、8楼、18楼不能买？其实真正不能买是这4个楼层，不是迷信",
        "docid": "IO429D6T0552O6SX",
        "url": "https://www.163.com/dy/article/IO429D6T0552O6SX.html"
    },
    {
        "title": "2024最火二层别墅，20款二层别墅设计图纸，简约时尚的经典之作",
        "docid": "INTPOJKM0520BKDJ",
        "url": "https://www.163.com/dy/article/INTPOJKM0520BKDJ.html"
    },
    {
        "title": "在古代，打工多久能买套房子？看完你都想穿越了",
        "docid": "INVR9KS90553THMN",
        "url": "https://www.163.com/dy/article/INVR9KS90553THMN.html"
    },
    {
        "title": "房地产的终局将会出现。三四线城市全面开启新一轮农村化。",
        "docid": "IO1KSUQ60553VNKO",
        "url": "https://www.163.com/dy/article/IO1KSUQ60553VNKO.html"
    },
    {
        "title": "央行终于出手了！2024年房地产，前途光明",
        "docid": "IO45A2IF0552ZPDP",
        "url": "https://www.163.com/dy/article/IO45A2IF0552ZPDP.html"
    },
    {
        "title": "房价跌成这样，北京、上海等城市随便一套跌幅超过100万",
        "docid": "IO4DFS8C0535JMSP",
        "url": "https://www.163.com/dy/article/IO4DFS8C0535JMSP.html"
    },
    {
        "title": "女生一个人租房要注意哪些问题？评论区上万网友来提个醒！",
        "docid": "IO3HTT950535KYBM",
        "url": "https://www.163.com/dy/article/IO3HTT950535KYBM.html"
    },
    {
        "title": "曹德旺预言或成真？中国二三十层的高层电梯房，或将迎来一种结果",
        "docid": "IO3RK73H0536UOB3",
        "url": "https://www.163.com/dy/article/IO3RK73H0536UOB3.html"
    },
    {
        "title": "自如：在涨价热潮中维护租客权益的可靠选择",
        "docid": "IO6B0P6305566PGC",
        "url": "https://www.163.com/dy/article/IO6B0P6305566PGC.html"
    },
    {
        "title": "一次探亲见证家庭变化（二）  四十年间跨越五代住房",
        "docid": "IO6POGTK0534M7IC",
        "url": "https://www.163.com/dy/article/IO6POGTK0534M7IC.html"
    },
    {
        "title": "卖了超高层，搬回“老小区”，才发现高层住宅就是一场虚妄的梦",
        "docid": "IO3OF6D00549RI77",
        "url": "https://www.163.com/dy/article/IO3OF6D00549RI77.html"
    },
    {
        "title": "四种“穷人房”千万不要买，可能会砸在手里，你“踩雷”了么？",
        "docid": "IO1CIH8V0553TDVP",
        "url": "https://www.163.com/dy/article/IO1CIH8V0553TDVP.html"
    },
    {
        "title": "1月起，这5种房子将被陆续“收回”，建议做好心理准备",
        "docid": "IO20JQV3053312Y9",
        "url": "https://www.163.com/dy/article/IO20JQV3053312Y9.html"
    },
    {
        "title": "怪不得中国人现在都不买房了！看完后房奴们都哭了，真是太现实了",
        "docid": "IO0RDN890545PEDS",
        "url": "https://www.163.com/dy/article/IO0RDN890545PEDS.html"
    },
    {
        "title": "2022全国各省市房地产行业增加值！",
        "docid": "IO696KGP0553RLII",
        "url": "https://www.163.com/dy/article/IO696KGP0553RLII.html"
    },
    {
        "title": "房子的继承人第一继承顺序，再忙也要看，千万别搞反了。",
        "docid": "IO5S9PHC0553T643",
        "url": "https://www.163.com/dy/article/IO5S9PHC0553T643.html"
    },
    {
        "title": "新一轮“棚改”蓄势待发？这类房子要升值了？提前了解准没错！",
        "docid": "IO4KI85D053312Y9",
        "url": "https://www.163.com/dy/article/IO4KI85D053312Y9.html"
    },
    {
        "title": "为啥有人专门收购老旧小区顶楼？知情人：背后商机你可能还不知道",
        "docid": "INUDKRIG0536UOB3",
        "url": "https://www.163.com/dy/article/INUDKRIG0536UOB3.html"
    },
    {
        "title": "凭啥我们拼命地干活，房东却躺着赚钱？你埋怨的躺平收租要结束了",
        "docid": "IO49UQ350552QWCS",
        "url": "https://www.163.com/dy/article/IO49UQ350552QWCS.html"
    },
    {
        "title": "24年上半年，可能会出现5大现象，要早做准备！",
        "docid": "IO675FLS05536P04",
        "url": "https://www.163.com/dy/article/IO675FLS05536P04.html"
    },
    {
        "title": "韩国人说因为中国人不去旅游，致韩国房产崩盘，那中国人就有钱？",
        "docid": "IO597TDK0535KYC0",
        "url": "https://www.163.com/dy/article/IO597TDK0535KYC0.html"
    },
    {
        "title": "买房时，宁可选4楼、14楼和18楼，也不要选这4个楼层，缺点太突出",
        "docid": "INU57KFS0553TDXU",
        "url": "https://www.163.com/dy/article/INU57KFS0553TDXU.html"
    },
    {
        "title": "149平米的轻奢房子是什么样子？配置了五个卧室！",
        "docid": "INU24VIF0552QWCS",
        "url": "https://www.163.com/dy/article/INU24VIF0552QWCS.html"
    },
    {
        "title": "买房别选这3个“废铁楼层”，非常容易贬值，简直就是花钱买罪受",
        "docid": "INSOOR0F054057BR",
        "url": "https://www.163.com/dy/article/INSOOR0F054057BR.html"
    },
    {
        "title": "央妈“摸排”！结果出来了：国内能一次拿出40万的家庭，超乎想象",
        "docid": "IO4GGV460548A03Q",
        "url": "https://www.163.com/dy/article/IO4GGV460548A03Q.html"
    },
    {
        "title": "离职售楼员透露这10种房子风水不好，买过的80%都后悔！",
        "docid": "INU5QNHL0520CBAF",
        "url": "https://www.163.com/dy/article/INU5QNHL0520CBAF.html"
    },
    {
        "title": "自带低空露台的148.8平米户型是什么样子?",
        "docid": "INV3NT940535KYBM",
        "url": "https://www.163.com/dy/article/INV3NT940535KYBM.html"
    },
    {
        "title": "这5种房子内行人都不要, 开发商打折也不要花钱买",
        "docid": "IO57D6DR0535MP84",
        "url": "https://www.163.com/dy/article/IO57D6DR0535MP84.html"
    },
    {
        "title": "妈妈为什么一定要我在上海买房？别的城市都不行，她都没来过上海",
        "docid": "INUIP2QH05566CN1",
        "url": "https://www.163.com/dy/article/INUIP2QH05566CN1.html"
    },
    {
        "title": "花1000多万买的海淀学区房，已经亏麻了......",
        "docid": "IO5VE8AB0553TDVP",
        "url": "https://www.163.com/dy/article/IO5VE8AB0553TDVP.html"
    },
    {
        "title": "未来半年，这6种房子将会陆续被国家收回，即便有房产证也没辙！",
        "docid": "INPSHMPI054057BR",
        "url": "https://www.163.com/dy/article/INPSHMPI054057BR.html"
    },
    {
        "title": "长虹桥一片已纳入十四五城市更新改造计划中",
        "docid": "IO1FU15T0553TDXU",
        "url": "https://www.163.com/dy/article/IO1FU15T0553TDXU.html"
    },
    {
        "title": "买房子，一定要遵循“3选3不选”原则，不仅住着舒服，还容易升值",
        "docid": "IO69D33N054057BR",
        "url": "https://www.163.com/dy/article/IO69D33N054057BR.html"
    },
    {
        "title": "房地产市场如今被视为最令人痛心的一种剥削方式...",
        "docid": "IO600LB805563TCH",
        "url": "https://www.163.com/dy/article/IO600LB805563TCH.html"
    },
    {
        "title": "印度一栋豪华公寓三天售空，25%买家来自国外！",
        "docid": "IO3ABGEP0553TDXU",
        "url": "https://www.163.com/dy/article/IO3ABGEP0553TDXU.html"
    },
    {
        "title": "换了好几次房子，发现这4个楼层越住越舒坦，稳稳的“黄金楼层”",
        "docid": "INUHJQKD0520E3F7",
        "url": "https://www.163.com/dy/article/INUHJQKD0520E3F7.html"
    },
    {
        "title": "这4种户型将沦为“不动产”，卖不出去，自己也不想住，太真实了",
        "docid": "IO23T3DK055332YH",
        "url": "https://www.163.com/dy/article/IO23T3DK055332YH.html"
    },
    {
        "title": "住在高层楼房10年以上的过来人告诉你，每天都像是一种煎熬",
        "docid": "INOBP7UD0535KYBT",
        "url": "https://www.163.com/dy/article/INOBP7UD0535KYBT.html"
    },
    {
        "title": "今年上半年，该抓紧买房还是尽快卖房？曹德旺“2句话”解释清楚",
        "docid": "IO5N84TP055640VF",
        "url": "https://www.163.com/dy/article/IO5N84TP055640VF.html"
    },
    {
        "title": "2024年全国主要城市最新房价排名，新鲜出炉，你的城市房价降了吗",
        "docid": "IO2EKTP60545PEDS",
        "url": "https://www.163.com/dy/article/IO2EKTP60545PEDS.html"
    },
    {
        "title": "“白沙洲茶码头”商业中心已挂牌，位置在——",
        "docid": "IO6VAE1S05524ETU",
        "url": "https://www.163.com/dy/article/IO6VAE1S05524ETU.html"
    },
    {
        "title": "2024年买不买房，最重要的并不是看市场好坏，而是这2点!",
        "docid": "IO6UDNC30553TEV3",
        "url": "https://www.163.com/dy/article/IO6UDNC30553TEV3.html"
    },
    {
        "title": "还款能力弱！导致深圳安居房被拍卖了！卖了81万？发生了什么",
        "docid": "IO6H3F1K0553TDTY",
        "url": "https://www.163.com/dy/article/IO6H3F1K0553TDTY.html"
    }
]