[
    {
        "title": "一旦买到这5个“黄金楼层”，就要提前恭喜了，转手就能赚几十万",
        "docid": "INKEQO30054057BR",
        "url": "https://www.163.com/dy/article/INKEQO30054057BR.html"
    },
    {
        "title": "去年武汉新房成交超13万套，这几个区最受欢迎",
        "docid": "INMS2KH40552H092",
        "url": "https://www.163.com/dy/article/INMS2KH40552H092.html"
    },
    {
        "title": "最新出炉！2024年全国主要城市最新房价排名，你家乡房价多少了",
        "docid": "INN1E2450552F71X",
        "url": "https://www.163.com/dy/article/INN1E2450552F71X.html"
    },
    {
        "title": "加拿大温哥华楼市销量暴跌42%！ 专家却说很强劲？！",
        "docid": "INKHGQN90552QDEA",
        "url": "https://www.163.com/dy/article/INKHGQN90552QDEA.html"
    },
    {
        "title": "这样的四房户型相当理想",
        "docid": "INLPKDRO0535MP84",
        "url": "https://www.163.com/dy/article/INLPKDRO0535MP84.html"
    },
    {
        "title": "2023年武汉296个老旧小区完成改造",
        "docid": "INN58P900550AAMM",
        "url": "https://www.163.com/dy/article/INN58P900550AAMM.html"
    },
    {
        "title": "什么？月薪3000元，是中等收入吗？那么存多少年能买房呢？",
        "docid": "INN7U0800553RRD3",
        "url": "https://www.163.com/dy/article/INN7U0800553RRD3.html"
    },
    {
        "title": "“揭秘”王健林再卖四座万达广场的真正原因",
        "docid": "INMLHJ5F0553TB9L",
        "url": "https://www.163.com/dy/article/INMLHJ5F0553TB9L.html"
    },
    {
        "title": "总投资30亿元！汉南将策划大型商业综合体，或选址这里~",
        "docid": "INKNO83S0552TI8F",
        "url": "https://www.163.com/dy/article/INKNO83S0552TI8F.html"
    },
    {
        "title": "100万在不同的城市能买多大的房子？你的城市可以买多大的？",
        "docid": "INN4DPH90545PEDS",
        "url": "https://www.163.com/dy/article/INN4DPH90545PEDS.html"
    },
    {
        "title": "汉南房票拉动内需！汉南2023年全年新房成交量最新出炉~",
        "docid": "INKNQR660552TI8F",
        "url": "https://www.163.com/dy/article/INKNQR660552TI8F.html"
    },
    {
        "title": "房子靠近这3个地方最好不要买，自住不舒适，未来转手也很难",
        "docid": "IN8U86AM0535MP84",
        "url": "https://www.163.com/dy/article/IN8U86AM0535MP84.html"
    },
    {
        "title": "郎教授：大批量造房子足够中国人住，房价永远降不下来的原因!",
        "docid": "INK2FLBL055616ZT",
        "url": "https://www.163.com/dy/article/INK2FLBL055616ZT.html"
    },
    {
        "title": "惊了！仁恒江核新品放风价约3万/㎡起，马上首开！",
        "docid": "INN1UTMN05149FJ9",
        "url": "https://www.163.com/dy/article/INN1UTMN05149FJ9.html"
    },
    {
        "title": "宁可选“天地层”，也别买这5个楼层，一旦选错肠子都悔青了！",
        "docid": "INMTVEQT054057BR",
        "url": "https://www.163.com/dy/article/INMTVEQT054057BR.html"
    },
    {
        "title": "回顾重庆楼市2023入市的纯楼盘",
        "docid": "INL6IJMH0515AP70",
        "url": "https://www.163.com/dy/article/INL6IJMH0515AP70.html"
    },
    {
        "title": "乘古城文化之风钟家村重铸武汉头部商圈",
        "docid": "INMAKVT2053469LG",
        "url": "https://www.163.com/dy/article/INMAKVT2053469LG.html"
    },
    {
        "title": "为什么说18楼是“特殊楼层”？入住后才懂，难怪那么多人吐槽",
        "docid": "INIJKBQ30520E3F7",
        "url": "https://www.163.com/dy/article/INIJKBQ30520E3F7.html"
    }
]