[
    {
        "title": "武汉房价五连跌，武汉楼市二手房成交量突破10万套，武汉房东赢了",
        "docid": "IQ8UGVMD0535JMSP",
        "url": "https://www.163.com/dy/article/IQ8UGVMD0535JMSP.html"
    },
    {
        "title": "2024年首月武汉新建住房成交数出炉！",
        "docid": "IQ4R2IUS0534SV3Y",
        "url": "https://www.163.com/dy/article/IQ4R2IUS0534SV3Y.html"
    },
    {
        "title": "网友：只有下雪以后，小区才有这么热闹",
        "docid": "IQ4D8UVI0545ACCK",
        "url": "https://www.163.com/dy/article/IQ4D8UVI0545ACCK.html"
    },
    {
        "title": "区域分析：武汉王家墩CBD的悲与喜！",
        "docid": "IQ880BPR055616ZT",
        "url": "https://www.163.com/dy/article/IQ880BPR055616ZT.html"
    },
    {
        "title": "每户有份！光谷这一小区发钱啦！",
        "docid": "IQ43EG320545DG4X",
        "url": "https://www.163.com/dy/article/IQ43EG320545DG4X.html"
    },
    {
        "title": "注意：多伦多这份申报表月底截止，每个房主都必须填，轻则罚款",
        "docid": "IQ5J3SHL05566SDU",
        "url": "https://www.163.com/dy/article/IQ5J3SHL05566SDU.html"
    },
    {
        "title": "老师傅告诉你：买房选楼层一定要看看，后悔我家买错了！",
        "docid": "IQ4TE17V055669HQ",
        "url": "https://www.163.com/dy/article/IQ4TE17V055669HQ.html"
    },
    {
        "title": "疯狂！加拿大多伦多，房东囤数百套房来出租！烂手里被追债$1.4亿",
        "docid": "IQ3EGVPM0549RI77",
        "url": "https://www.163.com/dy/article/IQ3EGVPM0549RI77.html"
    },
    {
        "title": "不是我吹牛，这两款户型你根本无法选择",
        "docid": "IQ5LRHRG0553TEV3",
        "url": "https://www.163.com/dy/article/IQ5LRHRG0553TEV3.html"
    }
]