[
    {
        "title": "盘龙城：如今在售的几个楼盘，卖得如何",
        "docid": "J0FQ7MQF0545ACCK",
        "url": "https://www.163.com/dy/article/J0FQ7MQF0545ACCK.html"
    },
    {
        "title": "高层洋房混搭的小区千万别买？内行人指出缺点，别等入住后才后悔",
        "docid": "J05P2N9D0535BC2F",
        "url": "https://www.163.com/dy/article/J05P2N9D0535BC2F.html"
    },
    {
        "title": "武汉这些地方，即将拆迁！",
        "docid": "J0G1C0EO0553TDXU",
        "url": "https://www.163.com/dy/article/J0G1C0EO0553TDXU.html"
    },
    {
        "title": "恭喜了！接下来，武汉将迎来商业大爆发！",
        "docid": "J0HLGDIB0552F71X",
        "url": "https://www.163.com/dy/article/J0HLGDIB0552F71X.html"
    },
    {
        "title": "全面回暖，没买房的砸锅了，上涨28.28%，真的不要再等房价下跌！",
        "docid": "J0KE89E005562DLL",
        "url": "https://www.163.com/dy/article/J0KE89E005562DLL.html"
    },
    {
        "title": "为啥越来越多的有钱人住“毛坯房”？听工人一说，才知好处这么多",
        "docid": "J0G74NEI05258H6P",
        "url": "https://www.163.com/dy/article/J0G74NEI05258H6P.html"
    },
    {
        "title": "惊掉下巴！神盘二手房价现状！",
        "docid": "J0I4HA7Q0553TB9L",
        "url": "https://www.163.com/dy/article/J0I4HA7Q0553TB9L.html"
    },
    {
        "title": "这是一款优秀的172.93平米居家户型吗？",
        "docid": "J0J4ORCC0556124M",
        "url": "https://www.163.com/dy/article/J0J4ORCC0556124M.html"
    },
    {
        "title": "武汉楼市的不败神话结束了，武汉房价从23000元降至了20000元",
        "docid": "J0FPV3M20535JMSP",
        "url": "https://www.163.com/dy/article/J0FPV3M20535JMSP.html"
    },
    {
        "title": "重锤！武汉买房有新变化！",
        "docid": "J0N6C1950514BINQ",
        "url": "https://www.163.com/dy/article/J0N6C1950514BINQ.html"
    },
    {
        "title": "盘龙城，想不到还有这么一个地方",
        "docid": "J0IIQN830545ACCK",
        "url": "https://www.163.com/dy/article/J0IIQN830545ACCK.html"
    },
    {
        "title": "冯毅成：武汉高品质住宅未来能卖到10万？",
        "docid": "J0MT5S440519D45U",
        "url": "https://www.163.com/dy/article/J0MT5S440519D45U.html"
    },
    {
        "title": "超级天街TOD大城全速兑现，实力诠释龙湖速度，新品即将加推！",
        "docid": "J0MLSATM05567SKQ",
        "url": "https://www.163.com/dy/article/J0MLSATM05567SKQ.html"
    },
    {
        "title": "192.8平米的空中花园户型",
        "docid": "J0D3RJO30553TEQM",
        "url": "https://www.163.com/dy/article/J0D3RJO30553TEQM.html"
    },
    {
        "title": "这里火出圈了！地标武珞路",
        "docid": "J0N07GU60552H092",
        "url": "https://www.163.com/dy/article/J0N07GU60552H092.html"
    },
    {
        "title": "老旧小区改造工程施工现场安全生产标准化图集（2022版），94页PDF可下载！",
        "docid": "J0HUJ1AC0553TDTY",
        "url": "https://www.163.com/dy/article/J0HUJ1AC0553TDTY.html"
    },
    {
        "title": "武汉最新民生收费标准出炉！事关物业费、停车费……",
        "docid": "J0LDJI920553TDXU",
        "url": "https://www.163.com/dy/article/J0LDJI920553TDXU.html"
    },
    {
        "title": "【细思恐极】消失的社区和物业：为何在群众最需要你们的时候？",
        "docid": "J0M7ULBG0553TB9L",
        "url": "https://www.163.com/dy/article/J0M7ULBG0553TB9L.html"
    },
    {
        "title": "原来商品房和公寓有这么大的区别，很多人都不懂，买完才开始后悔",
        "docid": "J0HVPQOM054057BR",
        "url": "https://www.163.com/dy/article/J0HVPQOM054057BR.html"
    },
    {
        "title": "有一种痛苦叫买了个“老破小”，卖不掉也不想住，真心让人痛苦",
        "docid": "J0IBCOOO0553TB8M",
        "url": "https://www.163.com/dy/article/J0IBCOOO0553TB8M.html"
    },
    {
        "title": "买房必避四大地段！内行曝光，守护健康不容忽视",
        "docid": "J0IRQKV505258H6P",
        "url": "https://www.163.com/dy/article/J0IRQKV505258H6P.html"
    },
    {
        "title": "武汉头条二七路东部购物公园C2商场能否改造一下？",
        "docid": "J0IKTLPN0553TB8M",
        "url": "https://www.163.com/dy/article/J0IKTLPN0553TB8M.html"
    },
    {
        "title": "今年开始，闭着眼睛买房的时代已经过去，买房有5点建议，要留意",
        "docid": "J08M1JQA0535BC2F",
        "url": "https://www.163.com/dy/article/J08M1JQA0535BC2F.html"
    },
    {
        "title": "武汉这一辖区推动老旧住宅增设电梯，“梯”升居民幸福感",
        "docid": "J0N9G9PD053469LG",
        "url": "https://www.163.com/dy/article/J0N9G9PD053469LG.html"
    },
    {
        "title": "最新！沌口两则土地征收",
        "docid": "J0GCPFA405149MGC",
        "url": "https://www.163.com/dy/article/J0GCPFA405149MGC.html"
    },
    {
        "title": "房奴注意：这几种房子千万别碰，贬值隐患极大！",
        "docid": "J0I1S6GI0540FQWZ",
        "url": "https://www.163.com/dy/article/J0I1S6GI0540FQWZ.html"
    },
    {
        "title": "农村盖房要严格禁止用红砖?红砖的三大危害,你想象不到！",
        "docid": "J05RN41Q0535PKJN",
        "url": "https://www.163.com/dy/article/J05RN41Q0535PKJN.html"
    },
    {
        "title": "老小区原拆原建，每户出资20万，完工后提包入住，90％业主通",
        "docid": "J0ML88HH0552F71X",
        "url": "https://www.163.com/dy/article/J0ML88HH0552F71X.html"
    },
    {
        "title": "我把房子从3楼换成28楼后，心里话不吐不快，全都是经验教训",
        "docid": "J0FJP4G30553TEV3",
        "url": "https://www.163.com/dy/article/J0FJP4G30553TEV3.html"
    },
    {
        "title": "欣赏一款美妙的户型，右上角还配置了一个密室！",
        "docid": "J0JLVPMS0556124M",
        "url": "https://www.163.com/dy/article/J0JLVPMS0556124M.html"
    },
    {
        "title": "一栋楼不管多少层，这4层都属于“黄金楼层”，了解一下，很实用",
        "docid": "J0HO7FRM05536P04",
        "url": "https://www.163.com/dy/article/J0HO7FRM05536P04.html"
    },
    {
        "title": "加拿大哪里最适合退休养老？十大城市排行榜：前3名都在BC省",
        "docid": "J0KCQGAE055615RY",
        "url": "https://www.163.com/dy/article/J0KCQGAE055615RY.html"
    },
    {
        "title": "从一梯一户,搬走的人越来越多?看看过来人说出的4大缺点!",
        "docid": "J0C5FV4D0535PKJN",
        "url": "https://www.163.com/dy/article/J0C5FV4D0535PKJN.html"
    },
    {
        "title": "终于！房地产给了个交代！",
        "docid": "J0G91TBJ0515DBP5",
        "url": "https://www.163.com/dy/article/J0G91TBJ0515DBP5.html"
    },
    {
        "title": "房子“不好卖”了？内行：可能不是高房价的问题，而是有了新麻烦",
        "docid": "J0CER4500540A6F8",
        "url": "https://www.163.com/dy/article/J0CER4500540A6F8.html"
    },
    {
        "title": "华润万象生活武昌万象城5月18日开业 建筑面积25万平方米",
        "docid": "J0KQFHIJ0519D45U",
        "url": "https://www.163.com/dy/article/J0KQFHIJ0519D45U.html"
    },
    {
        "title": "原来住宅是有讲究的，涨知识了，收藏看看，此文仅供参考",
        "docid": "J0GL9MSK0556124M",
        "url": "https://www.163.com/dy/article/J0GL9MSK0556124M.html"
    },
    {
        "title": "《灯下夜话》～我为何住在大别墅",
        "docid": "J07CVOK905566AX8",
        "url": "https://www.163.com/dy/article/J07CVOK905566AX8.html"
    },
    {
        "title": "这是一款相当有个性的172.43平米户型吗？",
        "docid": "J0AVVQVM0553TB9L",
        "url": "https://www.163.com/dy/article/J0AVVQVM0553TB9L.html"
    },
    {
        "title": "卖掉16层房子，又买同一小区4层房子，心中的疑虑终于解决了",
        "docid": "J0CO1N6405563TCH",
        "url": "https://www.163.com/dy/article/J0CO1N6405563TCH.html"
    },
    {
        "title": "揭秘二手房：破旧外表下的三大未来投资机遇，懂行者的秘密收藏!",
        "docid": "J0681NIN05258H6P",
        "url": "https://www.163.com/dy/article/J0681NIN05258H6P.html"
    },
    {
        "title": "李嘉诚预言已应验了？我国超过41.5%的城镇家庭，将面临两个问题",
        "docid": "J0LH2P9H0535BC2F",
        "url": "https://www.163.com/dy/article/J0LH2P9H0535BC2F.html"
    },
    {
        "title": "今明两年，房贷利率一旦跌破3%，全国至少45%的家庭面临5大风险",
        "docid": "J0L88V1V05563X80",
        "url": "https://www.163.com/dy/article/J0L88V1V05563X80.html"
    },
    {
        "title": "重大信号！网传贝壳开始关闭二手房成交价了！",
        "docid": "J0IHD5DF0515WLA7",
        "url": "https://www.163.com/dy/article/J0IHD5DF0515WLA7.html"
    },
    {
        "title": "太火爆，二手房成交1072套，主升浪来了吗，为什么不要急着买房呢",
        "docid": "J0KKV0PD05562DLL",
        "url": "https://www.163.com/dy/article/J0KKV0PD05562DLL.html"
    },
    {
        "title": "人住几楼运气更旺？真不是迷信，难怪有钱人都争着买这几层！",
        "docid": "J0M6KSUF0552F71X",
        "url": "https://www.163.com/dy/article/J0M6KSUF0552F71X.html"
    },
    {
        "title": "户籍政策“大转弯”！已迁出子女户口，2024年有望回村建房！",
        "docid": "J0I1K8IS0530ICNH",
        "url": "https://www.163.com/dy/article/J0I1K8IS0530ICNH.html"
    },
    {
        "title": "房价下跌买不买房？从2024年起，或做好房子“潮水退却”后的准备",
        "docid": "J0IQM4EP0535BC2F",
        "url": "https://www.163.com/dy/article/J0IQM4EP0535BC2F.html"
    },
    {
        "title": "住了3年高层后，我果断搬到了低楼层！优点太多了，给大家分享下",
        "docid": "J0FNB7CS0556124M",
        "url": "https://www.163.com/dy/article/J0FNB7CS0556124M.html"
    },
    {
        "title": "这年头，还没有背上房贷，都是什么人？",
        "docid": "J0CGQRIJ0553TDTY",
        "url": "https://www.163.com/dy/article/J0CGQRIJ0553TDTY.html"
    },
    {
        "title": "2024年卖房，是“明智”还是“愚蠢”？内行人一语道破！",
        "docid": "J0CCD6HQ05566DVL",
        "url": "https://www.163.com/dy/article/J0CCD6HQ05566DVL.html"
    },
    {
        "title": "为何有些二手房“久挂不售”？中介不能说的“秘密”，原因就4个",
        "docid": "J02P4NJU0540SN7V",
        "url": "https://www.163.com/dy/article/J02P4NJU0540SN7V.html"
    },
    {
        "title": "楼市总体走势发生转变？2024年准备买房的人，四个忠告，很实用！",
        "docid": "J0J0OI4B0535BC2F",
        "url": "https://www.163.com/dy/article/J0J0OI4B0535BC2F.html"
    },
    {
        "title": "一张照片让澳洲人破防! 中国人又躺枪了",
        "docid": "J0HFMLPB0553TB9L",
        "url": "https://www.163.com/dy/article/J0HFMLPB0553TB9L.html"
    },
    {
        "title": "一套100万房子需要多少成本，有人整理出来了，看完你就知道了。",
        "docid": "J0N8A0O3055616ZT",
        "url": "https://www.163.com/dy/article/J0N8A0O3055616ZT.html"
    },
    {
        "title": "未来五年，房子靠近这“3个地方”会越来越吃香，看看有你家吗？",
        "docid": "J0C5AC2V0535PKJN",
        "url": "https://www.163.com/dy/article/J0C5AC2V0535PKJN.html"
    },
    {
        "title": "2030年，100万现金和100万房产，哪个好？王健林与潘石屹说法一致",
        "docid": "J0KPR92E05359WBS",
        "url": "https://www.163.com/dy/article/J0KPR92E05359WBS.html"
    },
    {
        "title": "140平方米的户型，算大平层吗？多大面积才算？",
        "docid": "IVSUPDU90535WDMF",
        "url": "https://www.163.com/dy/article/IVSUPDU90535WDMF.html"
    },
    {
        "title": "最新进展！光谷这几大商业地标！",
        "docid": "J0NJ664D0545DG4X",
        "url": "https://www.163.com/dy/article/J0NJ664D0545DG4X.html"
    },
    {
        "title": "为什么越来越多人想买一楼",
        "docid": "J0I3GFK50553QD2F",
        "url": "https://www.163.com/dy/article/J0I3GFK50553QD2F.html"
    },
    {
        "title": "改建拆迁前，必须走过的那些“法定之路”？",
        "docid": "J07U8C3E0532AYDR",
        "url": "https://www.163.com/dy/article/J07U8C3E0532AYDR.html"
    },
    {
        "title": "2024年，国内或将迎来三大降价潮，除房价外这2个行业也可能降价",
        "docid": "J0KFBNO305567IYR",
        "url": "https://www.163.com/dy/article/J0KFBNO305567IYR.html"
    },
    {
        "title": "二手房成交价格再次被关闭，释放什么信号？",
        "docid": "J0K6UKTL05560VHD",
        "url": "https://www.163.com/dy/article/J0K6UKTL05560VHD.html"
    },
    {
        "title": "2024年中央定调，宅基地3不批，4禁止，2不得，老百姓需提前了解",
        "docid": "J0MMQ5RE0530ICNH",
        "url": "https://www.163.com/dy/article/J0MMQ5RE0530ICNH.html"
    },
    {
        "title": "怪象？同一栋楼，为何西户卖光，东户却无人问津？内行人总结3点",
        "docid": "J0K9TAQU05536P04",
        "url": "https://www.163.com/dy/article/J0K9TAQU05536P04.html"
    },
    {
        "title": "新房选购攻略：卧室阳台VS客厅阳台，决策不纠结！",
        "docid": "J067HVD705258H6P",
        "url": "https://www.163.com/dy/article/J067HVD705258H6P.html"
    },
    {
        "title": "为什么有的楼盘卖完后，要立刻把售楼中心拆掉？这下明白了",
        "docid": "J0KTJAV00540SN7V",
        "url": "https://www.163.com/dy/article/J0KTJAV00540SN7V.html"
    },
    {
        "title": "75%行业与房地产有关，楼市必将反弹的5大动力",
        "docid": "J0KS6F3705536P04",
        "url": "https://www.163.com/dy/article/J0KS6F3705536P04.html"
    },
    {
        "title": "这四种聪明人没有被房子套路，没有背上房贷，不知道你是否在其中",
        "docid": "J0LCRCD80553TDXU",
        "url": "https://www.163.com/dy/article/J0LCRCD80553TDXU.html"
    },
    {
        "title": "还在三四线城市投资的房企，拿了什么地？",
        "docid": "J0NDMAGV0553TDTY",
        "url": "https://www.163.com/dy/article/J0NDMAGV0553TDTY.html"
    },
    {
        "title": "上世纪日本房价暴跌，数万人跳楼，却悟出了一个硬道理，沿用至今",
        "docid": "J09OUD5H05561V9U",
        "url": "https://www.163.com/dy/article/J09OUD5H05561V9U.html"
    },
    {
        "title": "是“保楼市”还是“保孩子”？中央多次定调，已经向“住房”下手",
        "docid": "J0MP3UN30536UOB3",
        "url": "https://www.163.com/dy/article/J0MP3UN30536UOB3.html"
    },
    {
        "title": "2024年宅基地上如何申请建房？",
        "docid": "J0F0RU1U0535W7UR",
        "url": "https://www.163.com/dy/article/J0F0RU1U0535W7UR.html"
    },
    {
        "title": "开发商透露实情：选择这几个“楼层”都是聪明人，一般人想不到",
        "docid": "J0I609CB0540SN7V",
        "url": "https://www.163.com/dy/article/J0I609CB0540SN7V.html"
    },
    {
        "title": "高层住宅，还在纠结购买哪一层？内行人建议：坚持“选三不选二”",
        "docid": "J0ATBUG70535BC2F",
        "url": "https://www.163.com/dy/article/J0ATBUG70535BC2F.html"
    },
    {
        "title": "3套二层农村别墅，带车库，漂亮大气，简洁实用，造价也亲民实惠",
        "docid": "J0M0UID30556124M",
        "url": "https://www.163.com/dy/article/J0M0UID30556124M.html"
    },
    {
        "title": "买房最忌选这一层，我家当初未听劝，如今懊悔不已！",
        "docid": "J0FN9CB20540H6M7",
        "url": "https://www.163.com/dy/article/J0FN9CB20540H6M7.html"
    },
    {
        "title": "新加坡虾皮创办人李小冬妻子，斥资超2.2亿人民币买下一栋优质洋房！",
        "docid": "J0GDUF050514CL19",
        "url": "https://www.163.com/dy/article/J0GDUF050514CL19.html"
    },
    {
        "title": "金价涨，金店为什么纷纷跑路？房价涨的时候怎么不见开发商这样？",
        "docid": "J0EKR2JC0553JMK2",
        "url": "https://www.163.com/dy/article/J0EKR2JC0553JMK2.html"
    },
    {
        "title": "预制板楼有5大缺陷！为何不能全面拆除拆迁？3个原因太现实",
        "docid": "J0DI2O8K05563SS0",
        "url": "https://www.163.com/dy/article/J0DI2O8K05563SS0.html"
    },
    {
        "title": "澳洲25年来最惨！血崩！华人哀嚎一片！一张图片引发热议，这个数字飙升了",
        "docid": "J0KF98100534I43Y",
        "url": "https://www.163.com/dy/article/J0KF98100534I43Y.html"
    },
    {
        "title": "拿到房产证后万万要做这几件事，不然房子还不是你的，好多人不懂",
        "docid": "J0I640SO0540SN7V",
        "url": "https://www.163.com/dy/article/J0I640SO0540SN7V.html"
    },
    {
        "title": "楼市，或已开启第二轮下降行情！",
        "docid": "J0IN1G4J05159NON",
        "url": "https://www.163.com/dy/article/J0IN1G4J05159NON.html"
    },
    {
        "title": "二手房不走中介的全款交易流程，先给钱还是先过户？傻傻分不清楚",
        "docid": "J0FJV6B1054057BR",
        "url": "https://www.163.com/dy/article/J0FJV6B1054057BR.html"
    },
    {
        "title": "父母要给子女买房，“这样买”算是上了双保险，这样属于婚前财产",
        "docid": "J02OKQPU0540SN7V",
        "url": "https://www.163.com/dy/article/J02OKQPU0540SN7V.html"
    },
    {
        "title": "你常见的拆迁的“拆”字，外面为什么要画个圆圈？看完涨知识了",
        "docid": "J0FO91DU0540SN7V",
        "url": "https://www.163.com/dy/article/J0FO91DU0540SN7V.html"
    },
    {
        "title": "为什么在广东买房子定居不是并称两广的广西而是湖南呢？",
        "docid": "J0H3H96H0553TEV3",
        "url": "https://www.163.com/dy/article/J0H3H96H0553TEV3.html"
    },
    {
        "title": "自带空中大露台，这样的户型很优雅",
        "docid": "J0H0PIMJ0553TB9L",
        "url": "https://www.163.com/dy/article/J0H0PIMJ0553TB9L.html"
    },
    {
        "title": "甲有5套房，不上班，收房租；乙有1套房，上班赚工资；丙无房，租房子…",
        "docid": "J0BRUTVA055616ZT",
        "url": "https://www.163.com/dy/article/J0BRUTVA055616ZT.html"
    },
    {
        "title": "遇到拆迁，应该关注评估中哪些门道，你知道吗？",
        "docid": "J0B89LOF0532Q69P",
        "url": "https://www.163.com/dy/article/J0B89LOF0532Q69P.html"
    },
    {
        "title": "【官方发布】2024最新《华发院子》售楼处电话-华发院子售楼中心",
        "docid": "J0DH3PV8055644UJ",
        "url": "https://www.163.com/dy/article/J0DH3PV8055644UJ.html"
    },
    {
        "title": "这是奢华的641.42平米户型吗?",
        "docid": "J0LDLP9T0553TB8M",
        "url": "https://www.163.com/dy/article/J0LDLP9T0553TB8M.html"
    },
    {
        "title": "此人耗资700亿建中国第一高楼，多年过去，高楼却成最大烂尾楼！",
        "docid": "IVVUFGDS05564TUT",
        "url": "https://www.163.com/dy/article/IVVUFGDS05564TUT.html"
    },
    {
        "title": "376平米奢华户型，自带空中露台",
        "docid": "J0BULNBS0553TEQM",
        "url": "https://www.163.com/dy/article/J0BULNBS0553TEQM.html"
    },
    {
        "title": "聪明人买二手房，往往留意“7不买”，很多人吃亏就吃在这上面",
        "docid": "J0D8QCD20540B11V",
        "url": "https://www.163.com/dy/article/J0D8QCD20540B11V.html"
    },
    {
        "title": "买房定要看阳台朝向，别选了个住进去冬冷夏热的“叹息”",
        "docid": "J0KTK3210540SN7V",
        "url": "https://www.163.com/dy/article/J0KTK3210540SN7V.html"
    },
    {
        "title": "房价跌到底了吗？内行人揭秘：再降下去，你可能真的买不起房！",
        "docid": "IVVL9AN70540A6F8",
        "url": "https://www.163.com/dy/article/IVVL9AN70540A6F8.html"
    },
    {
        "title": "买房不要再买高层住宅了，再优惠也不要买，住着实在是糟心",
        "docid": "J0FOBJ3I0540SN7V",
        "url": "https://www.163.com/dy/article/J0FOBJ3I0540SN7V.html"
    },
    {
        "title": "天花板的园林配置，坐在家里也能闻花香？",
        "docid": "J0MSRK2B05567SKQ",
        "url": "https://www.163.com/dy/article/J0MSRK2B05567SKQ.html"
    },
    {
        "title": "买房时，什么样的小区值得买？符合这几点少碰，别等买了后悔",
        "docid": "J0KGAPSH0553TB9L",
        "url": "https://www.163.com/dy/article/J0KGAPSH0553TB9L.html"
    },
    {
        "title": "大多数人预判房价都错了",
        "docid": "J0DL18NR0519DP0A",
        "url": "https://www.163.com/dy/article/J0DL18NR0519DP0A.html"
    },
    {
        "title": "一旦房价大跌，谁影响最大？“2种人”可能要赔哭！你在其中吗？",
        "docid": "J0KGB8J50553TDTY",
        "url": "https://www.163.com/dy/article/J0KGB8J50553TDTY.html"
    },
    {
        "title": "65万的房子，房产中介非要让我挂价110万？目的只有6个字",
        "docid": "J02P674E0540SN7V",
        "url": "https://www.163.com/dy/article/J02P674E0540SN7V.html"
    },
    {
        "title": "黎耀祥果断把自己房子卖掉，拿到了1350万元的房款，赚了900万",
        "docid": "J06NL3BP0553TB8M",
        "url": "https://www.163.com/dy/article/J06NL3BP0553TB8M.html"
    },
    {
        "title": "隐患增多，为什么曾经轰轰烈烈的老旧小区安装电梯行动没有声响？",
        "docid": "J0979GBF055634ZP",
        "url": "https://www.163.com/dy/article/J0979GBF055634ZP.html"
    },
    {
        "title": "聪明人买房，一定不会贷款，他们选择全款买房，贷款买房太坑人！",
        "docid": "J0N5SH4C05562DLL",
        "url": "https://www.163.com/dy/article/J0N5SH4C05562DLL.html"
    },
    {
        "title": "新加坡大巴窑组屋开出200万新币天价转售！全网热议：宁愿买公寓！",
        "docid": "J0IVGA2U0514CL19",
        "url": "https://www.163.com/dy/article/J0IVGA2U0514CL19.html"
    },
    {
        "title": "在征地拆迁中，国家赔偿数额不会低于拆迁补偿！请农民朋友牢记！",
        "docid": "J0641V4S0532Q69P",
        "url": "https://www.163.com/dy/article/J0641V4S0532Q69P.html"
    },
    {
        "title": "2024年，这5个地段的房子大概率快速增值！希望你家也在其中",
        "docid": "J0I7P7NO0540B07R",
        "url": "https://www.163.com/dy/article/J0I7P7NO0540B07R.html"
    },
    {
        "title": "2024年，稳赚不赔的买房思路！",
        "docid": "J0KBJ24A05536P04",
        "url": "https://www.163.com/dy/article/J0KBJ24A05536P04.html"
    },
    {
        "title": "准备在买卖二手房的朋友，今天的文章就一定要用心看完",
        "docid": "J096VQOJ0553TB9L",
        "url": "https://www.163.com/dy/article/J096VQOJ0553TB9L.html"
    },
    {
        "title": "万科麻烦才刚开始，它的处置结果或将影响整个行业方向",
        "docid": "J09TIGST05566KC3",
        "url": "https://www.163.com/dy/article/J09TIGST05566KC3.html"
    },
    {
        "title": "买了新房再卖老房子，损失20多万！聪明人是怎么换房子的？",
        "docid": "J02P0AQF0540SN7V",
        "url": "https://www.163.com/dy/article/J02P0AQF0540SN7V.html"
    },
    {
        "title": "今年起，做好房子贬值准备？郁亮预测未来中国房地产走向或是对的",
        "docid": "J0G8UR450535BC2F",
        "url": "https://www.163.com/dy/article/J0G8UR450535BC2F.html"
    },
    {
        "title": "143平米能做出什么花样？这两个户型给你一个标准示范",
        "docid": "J0H322B805566SC9",
        "url": "https://www.163.com/dy/article/J0H322B805566SC9.html"
    },
    {
        "title": "雅致的285平米“三代居”户型",
        "docid": "J09ATQ810556124M",
        "url": "https://www.163.com/dy/article/J09ATQ810556124M.html"
    },
    {
        "title": "研究｜城市更新战略背景下如何破局城中村改造",
        "docid": "J0C93RG30532KV9K",
        "url": "https://www.163.com/dy/article/J0C93RG30532KV9K.html"
    },
    {
        "title": "8套农村自建房图纸，漂亮实惠户型，实用又美观，当下建房流行款",
        "docid": "J0J4RDLJ0553TEQM",
        "url": "https://www.163.com/dy/article/J0J4RDLJ0553TEQM.html"
    },
    {
        "title": "我把房子从“中间户”换成“边户”后，有些话不吐不快，全是眼泪",
        "docid": "J0DB9KC90553TEQM",
        "url": "https://www.163.com/dy/article/J0DB9KC90553TEQM.html"
    },
    {
        "title": "房产证上尽量不要写夫妻两人的名字，以前不清楚，现在知道也不晚",
        "docid": "J0CJGNV305566CPS",
        "url": "https://www.163.com/dy/article/J0CJGNV305566CPS.html"
    },
    {
        "title": "为什么很多人不愿意买主卧带卫的房子了？网友:绝对不是因为我穷",
        "docid": "J0JRPFMI055616ZT",
        "url": "https://www.163.com/dy/article/J0JRPFMI055616ZT.html"
    },
    {
        "title": "祸害人三年的新冠消失了，四大奇怪现象却出现了，很多人没察觉",
        "docid": "J0KCF8RB0553TEY0",
        "url": "https://www.163.com/dy/article/J0KCF8RB0553TEY0.html"
    },
    {
        "title": "“毛坯房”到手后，记得要检查4个地方，我家当初漏掉，多花了钱",
        "docid": "J065639U05258H6P",
        "url": "https://www.163.com/dy/article/J065639U05258H6P.html"
    },
    {
        "title": "为什么有人宁愿让房子空置也不出租？是愚蠢还是聪明？原因有5点",
        "docid": "J0J2408Q0519GBC0",
        "url": "https://www.163.com/dy/article/J0J2408Q0519GBC0.html"
    },
    {
        "title": "两个买房真事，写尽了无知和心酸！",
        "docid": "J0EH357Q0553TDXU",
        "url": "https://www.163.com/dy/article/J0EH357Q0553TDXU.html"
    },
    {
        "title": "今年五一假期，会迎来一波楼市“小阳春”吗？概率很大！",
        "docid": "J0IOAE3O0553TDTY",
        "url": "https://www.163.com/dy/article/J0IOAE3O0553TDTY.html"
    },
    {
        "title": "“逃离别墅”的有钱人，正在搬回高层？内行人：3大硬伤难以忽视",
        "docid": "J0JER0JM0553TEQM",
        "url": "https://www.163.com/dy/article/J0JER0JM0553TEQM.html"
    },
    {
        "title": "千万退休金不稳？73岁的王石，要靠小30岁的嫩妻养家了？",
        "docid": "J0NJSS9F0552NMAF",
        "url": "https://www.163.com/dy/article/J0NJSS9F0552NMAF.html"
    },
    {
        "title": "实体经济不死，天理难容，男子开面馆日均100份，每月房租2.3万",
        "docid": "J0INB1H60553TEV3",
        "url": "https://www.163.com/dy/article/J0INB1H60553TEV3.html"
    },
    {
        "title": "中产阶级合格线来了：我国仅有3300万户，才4种家庭达标，有你吗",
        "docid": "J0KJMDLO0556124M",
        "url": "https://www.163.com/dy/article/J0KJMDLO0556124M.html"
    },
    {
        "title": "买房和有房子的人要注意力！同一个城市，这4类住房未来保值率高",
        "docid": "J08GEIG40535BC2F",
        "url": "https://www.163.com/dy/article/J08GEIG40535BC2F.html"
    },
    {
        "title": "买低不买高，买大不买小，有何深意？内行：“差距”很明显",
        "docid": "J0NKSGV80553TEQM",
        "url": "https://www.163.com/dy/article/J0NKSGV80553TEQM.html"
    },
    {
        "title": "一梯一户，观景大边厅，这个户型有点奢华",
        "docid": "J09D6ST00553TEV3",
        "url": "https://www.163.com/dy/article/J09D6ST00553TEV3.html"
    },
    {
        "title": "国内房子的租售比真的很低吗？",
        "docid": "J0IALTBI05198V4T",
        "url": "https://www.163.com/dy/article/J0IALTBI05198V4T.html"
    },
    {
        "title": "为何不建议购买“顶楼带露台”的房子？内行人一语点破，问题太多",
        "docid": "J0KQI62M054057BR",
        "url": "https://www.163.com/dy/article/J0KQI62M054057BR.html"
    },
    {
        "title": "从“追高”到“买低”，低楼层成为新宠",
        "docid": "J02ON2UD0540SN7V",
        "url": "https://www.163.com/dy/article/J02ON2UD0540SN7V.html"
    },
    {
        "title": "2024年西班牙养房明细出炉！想去西班牙购房？必看！",
        "docid": "J0CEGDNS05562NI7",
        "url": "https://www.163.com/dy/article/J0CEGDNS05562NI7.html"
    },
    {
        "title": "5年后，商铺是“金砖”还是“板砖”？内行人的分析让人“清醒”",
        "docid": "J0MPHJCB05566KOW",
        "url": "https://www.163.com/dy/article/J0MPHJCB05566KOW.html"
    },
    {
        "title": "曹德旺的话要成真了？中国二三十层的高层，最后将面临同一结局",
        "docid": "J0D0R62F05536P04",
        "url": "https://www.163.com/dy/article/J0D0R62F05536P04.html"
    },
    {
        "title": "买房时，首选这4个“黄金楼层”，内行人抢着买！别听销售忽悠",
        "docid": "J0KRES09054057BR",
        "url": "https://www.163.com/dy/article/J0KRES09054057BR.html"
    },
    {
        "title": "别嫌二手房“旧”，这3大优势，有些人不懂，内行人正暗暗下手",
        "docid": "J0NAPLF50540SN7V",
        "url": "https://www.163.com/dy/article/J0NAPLF50540SN7V.html"
    },
    {
        "title": "如此判许家印？本以为会判死刑，但结果让人意外",
        "docid": "J0DS7DHS05561FTB",
        "url": "https://www.163.com/dy/article/J0DS7DHS05561FTB.html"
    },
    {
        "title": "拼爹妈时代到来！房价一路飞涨，普通人在澳洲已难以迈入房市",
        "docid": "J0LGKSSU05560ZCW",
        "url": "https://www.163.com/dy/article/J0LGKSSU05560ZCW.html"
    },
    {
        "title": "6年后，200万的房产还能值多少钱？孙宏斌、王健林看法一致",
        "docid": "J0FG9PC30535BC2F",
        "url": "https://www.163.com/dy/article/J0FG9PC30535BC2F.html"
    },
    {
        "title": "深度剖析！保利和著这套163㎡，凭什么轰动整个桂城",
        "docid": "J0O19ECK053571DT",
        "url": "https://www.163.com/dy/article/J0O19ECK053571DT.html"
    },
    {
        "title": "如果房子坚持不降价，而购房人又坚决不买房，最后会怎么样？",
        "docid": "J0KGAG1A055616ZT",
        "url": "https://www.163.com/dy/article/J0KGAG1A055616ZT.html"
    },
    {
        "title": "房价铁定上涨3个理由，通货膨胀在路上，楼市逆转就在眼前？",
        "docid": "J0IBLOPC05563TCH",
        "url": "https://www.163.com/dy/article/J0IBLOPC05563TCH.html"
    },
    {
        "title": "你的住房公积金达到了多少级",
        "docid": "J0LCU1D205566SC9",
        "url": "https://www.163.com/dy/article/J0LCU1D205566SC9.html"
    },
    {
        "title": "公租房、经济房、限价房都是什么东东？有人说保障房如同鸡肋？",
        "docid": "J0FO6EJT0540SN7V",
        "url": "https://www.163.com/dy/article/J0FO6EJT0540SN7V.html"
    },
    {
        "title": "老人过户房屋给后代，“在世办理”和“过世办理”，哪种更划算？",
        "docid": "J0K52QVN055615RY",
        "url": "https://www.163.com/dy/article/J0K52QVN055615RY.html"
    },
    {
        "title": "“房奴”与“无房族”差别在哪里？专家：过个10年，差距一目了然",
        "docid": "J0FF8M1S0540A6F8",
        "url": "https://www.163.com/dy/article/J0FF8M1S0540A6F8.html"
    },
    {
        "title": "未登记房屋何去何从？补偿能否落实？",
        "docid": "J072H5Q10535W7UR",
        "url": "https://www.163.com/dy/article/J072H5Q10535W7UR.html"
    },
    {
        "title": "240424房建项目质量控制手册（94页）",
        "docid": "J0I2NLJS055616ZJ",
        "url": "https://www.163.com/dy/article/J0I2NLJS055616ZJ.html"
    }
]