[
    {
        "title": "房价一旦“大幅下跌”，最倒霉的不是手上有房的炒房客，是这些人",
        "docid": "INRGHSH40539SQ59",
        "url": "https://www.163.com/dy/article/INRGHSH40539SQ59.html"
    },
    {
        "title": "重磅！盘龙城叶店荒地，已经找到了合作开发商",
        "docid": "INS7OFU50545ACCK",
        "url": "https://www.163.com/dy/article/INS7OFU50545ACCK.html"
    },
    {
        "title": "兼顾三代人所需的大平层户型，值得一看",
        "docid": "INLQ8H1L0552CPHG",
        "url": "https://www.163.com/dy/article/INLQ8H1L0552CPHG.html"
    },
    {
        "title": "第一批用经营贷买房的人开始“接不上”了？",
        "docid": "INIE9OG30530WBKB",
        "url": "https://www.163.com/dy/article/INIE9OG30530WBKB.html"
    },
    {
        "title": "这次房地产调整是十年大周期，不轻谈结束，上海楼市也不会幸免！",
        "docid": "INRIDUN605563TCH",
        "url": "https://www.163.com/dy/article/INRIDUN605563TCH.html"
    },
    {
        "title": "专家：一线城市楼市全面复苏，房东们注意了，不要降价买房了！",
        "docid": "INSGP5OB05562DLL",
        "url": "https://www.163.com/dy/article/INSGP5OB05562DLL.html"
    },
    {
        "title": "幸好没有贪便宜，买这5种房子的人，估计都亏得“血本无归”！",
        "docid": "INSR0JSE054057BR",
        "url": "https://www.163.com/dy/article/INSR0JSE054057BR.html"
    },
    {
        "title": "买房人拿不到房不能断供，开发商没钱直接烂尾，为何区别这么大？",
        "docid": "INHSFKQ80539SQ59",
        "url": "https://www.163.com/dy/article/INHSFKQ80539SQ59.html"
    },
    {
        "title": "理想的130多平米优雅轻奢户型！",
        "docid": "INSSN4NB0535LAX2",
        "url": "https://www.163.com/dy/article/INSSN4NB0535LAX2.html"
    },
    {
        "title": "假如房价回归两千多，是不是购房者的机会来了？",
        "docid": "INSP919J05562O3H",
        "url": "https://www.163.com/dy/article/INSP919J05562O3H.html"
    },
    {
        "title": "这个五居室的户型你认为如何?",
        "docid": "INHR1IFA0552QWCS",
        "url": "https://www.163.com/dy/article/INHR1IFA0552QWCS.html"
    },
    {
        "title": "央行重启PSL（抵押补充贷款），房地产的及时雨终于等来啦？",
        "docid": "INMLRCAB05565OJR",
        "url": "https://www.163.com/dy/article/INMLRCAB05565OJR.html"
    },
    {
        "title": "专家荒诞言论：不要被三十年房贷吓到了",
        "docid": "INLP4QE30535KYBT",
        "url": "https://www.163.com/dy/article/INLP4QE30535KYBT.html"
    },
    {
        "title": "这些事几乎关系到所有想在一二线城市买房的人。",
        "docid": "INNJ6EQK0553K5ZV",
        "url": "https://www.163.com/dy/article/INNJ6EQK0553K5ZV.html"
    },
    {
        "title": "当年日本房价泡沫一刺就破，为什么中国的房价却跌不下来？",
        "docid": "INL1NRTI05563TCH",
        "url": "https://www.163.com/dy/article/INL1NRTI05563TCH.html"
    },
    {
        "title": "加拿大多伦多楼市陷入困境！中介：卖家不肯降价！买家也贷不了款",
        "docid": "INPSKJF005566PML",
        "url": "https://www.163.com/dy/article/INPSKJF005566PML.html"
    },
    {
        "title": "周海媚的豪宅算凶宅吗？你敢住吗？",
        "docid": "INMFP69F055639OX",
        "url": "https://www.163.com/dy/article/INMFP69F055639OX.html"
    },
    {
        "title": "蛇口花园品质！楼王单位179平！低于指导价300万！笋盘",
        "docid": "INRSVSBH0553TB8M",
        "url": "https://www.163.com/dy/article/INRSVSBH0553TB8M.html"
    }
]