[
    {
        "title": "授信183.6亿元！全国首批城中村改造专项借款在武汉成功落地",
        "docid": "IPUHEPH1053469LG",
        "url": "https://www.163.com/dy/article/IPUHEPH1053469LG.html"
    },
    {
        "title": "盘龙城叶店荒地商业项目，2024年要落地达到效果",
        "docid": "IPSSISQ10545ACCK",
        "url": "https://www.163.com/dy/article/IPSSISQ10545ACCK.html"
    },
    {
        "title": "武汉首批房地产项目“白名单”出炉，涉及101个项目",
        "docid": "IPUSJNL305199DKK",
        "url": "https://www.163.com/dy/article/IPUSJNL305199DKK.html"
    },
    {
        "title": "&quot;售楼处的心机，从椅子开始都在套路你&quot;",
        "docid": "IPTTGU6U0540MBU3",
        "url": "https://www.163.com/dy/article/IPTTGU6U0540MBU3.html"
    },
    {
        "title": "换租还是转租？自如老租客教你如何灵活应对提前解约！",
        "docid": "IPUFEQA205504D8I",
        "url": "https://www.163.com/dy/article/IPUFEQA205504D8I.html"
    },
    {
        "title": "点赞！白沙洲这一楼盘小区获省级荣誉",
        "docid": "IPU0FQJG0535KYBM",
        "url": "https://www.163.com/dy/article/IPU0FQJG0535KYBM.html"
    },
    {
        "title": "为何很多有钱人，抛弃别墅回到市区的高层？一位中介经理道出答案",
        "docid": "IPO4LDT90535BC2F",
        "url": "https://www.163.com/dy/article/IPO4LDT90535BC2F.html"
    },
    {
        "title": "六个卧室的户型可以如此漂亮吗？",
        "docid": "IPRATVSS0535KYBT",
        "url": "https://www.163.com/dy/article/IPRATVSS0535KYBT.html"
    },
    {
        "title": "足不出户！光谷启动试点！",
        "docid": "IPUEDNIC0545DG4X",
        "url": "https://www.163.com/dy/article/IPUEDNIC0545DG4X.html"
    },
    {
        "title": "购买新房，除了地段、楼层等因素，居住密度也和幸福感息息相关！",
        "docid": "IPUE5GJ8054057BR",
        "url": "https://www.163.com/dy/article/IPUE5GJ8054057BR.html"
    },
    {
        "title": "清单推送当天发款！武汉首批19个项目获城中村改造专项借款401亿元",
        "docid": "IPTNA1M90556123R",
        "url": "https://www.163.com/dy/article/IPTNA1M90556123R.html"
    },
    {
        "title": "民营房企入围！武汉首批“白名单”已推送至银行",
        "docid": "IPTN9BCQ05566SC9",
        "url": "https://www.163.com/dy/article/IPTN9BCQ05566SC9.html"
    },
    {
        "title": "“3大信号”释放，2024年房价走势明朗，能不能买房已有答案",
        "docid": "IPTQNJPA055616ZT",
        "url": "https://www.163.com/dy/article/IPTQNJPA055616ZT.html"
    },
    {
        "title": "5年以后，70万的存款和70万的房产，哪个更香呢？",
        "docid": "IPTUV13G05566SCK",
        "url": "https://www.163.com/dy/article/IPTUV13G05566SCK.html"
    },
    {
        "title": "79.6万套！法拍房数量再创历史新高，常州......",
        "docid": "IPQHQT2T0535QL75",
        "url": "https://www.163.com/dy/article/IPQHQT2T0535QL75.html"
    },
    {
        "title": "15万欧元在西班牙可能买不了一套公寓，但可以买个小镇",
        "docid": "IPUIFCNS0553TB9L",
        "url": "https://www.163.com/dy/article/IPUIFCNS0553TB9L.html"
    },
    {
        "title": "中介，你的良心不会痛么？！！",
        "docid": "IPSFT80V05522QVI",
        "url": "https://www.163.com/dy/article/IPSFT80V05522QVI.html"
    },
    {
        "title": "现实版：你离开了深圳，你的后代也要回来的……",
        "docid": "IPTS0FL10540MBU3",
        "url": "https://www.163.com/dy/article/IPTS0FL10540MBU3.html"
    },
    {
        "title": "买房的时候要注意，碰到这2个“黄金楼层”，千万别错过了！",
        "docid": "IPSEMFHT054057BR",
        "url": "https://www.163.com/dy/article/IPSEMFHT054057BR.html"
    },
    {
        "title": "买房三不要原则：不要太大或太小、开盘不要冲动、不要太在意楼层",
        "docid": "IPKIL4RQ0540SN7V",
        "url": "https://www.163.com/dy/article/IPKIL4RQ0540SN7V.html"
    },
    {
        "title": "澳洲房产搜索量飙升, 大批中国人来买房! 这些华人区搜索榜上有名",
        "docid": "IPO8MJOS05566SC9",
        "url": "https://www.163.com/dy/article/IPO8MJOS05566SC9.html"
    },
    {
        "title": "买二手房一定要知道的事情，为什么我买房的时候没人告诉我这些？",
        "docid": "IPSI5FHA0553TDTY",
        "url": "https://www.163.com/dy/article/IPSI5FHA0553TDTY.html"
    },
    {
        "title": "昆州州长遇车祸！三车相撞，所乘车辆报废；布里斯班房价持续上涨",
        "docid": "IPTFUG920553TF8P",
        "url": "https://www.163.com/dy/article/IPTFUG920553TF8P.html"
    },
    {
        "title": "孙宏斌：如果房价下跌超过30%，那我们就都死了！这是威胁吗？",
        "docid": "IPSJVLFB0553TB8M",
        "url": "https://www.163.com/dy/article/IPSJVLFB0553TB8M.html"
    },
    {
        "title": "毛坯房交房验收标准，达到这样才算合格（户内验收15项）",
        "docid": "IPTMIKTD0552F71X",
        "url": "https://www.163.com/dy/article/IPTMIKTD0552F71X.html"
    },
    {
        "title": "取消限购24小时，为何超千套房降价？",
        "docid": "IPSGU8P30553QMR9",
        "url": "https://www.163.com/dy/article/IPSGU8P30553QMR9.html"
    },
    {
        "title": "老房子该卖还是该留，是许多家庭面临的难题，几个观点值得参考",
        "docid": "IPRJH1IB0553YGEK",
        "url": "https://www.163.com/dy/article/IPRJH1IB0553YGEK.html"
    }
]