[
    {
        "title": "房东感谢租客：54万买的房，收了他8年房租，最后卖了114万……",
        "docid": "J3S132QR05567IYR",
        "url": "https://www.163.com/dy/article/J3S132QR05567IYR.html"
    },
    {
        "title": "100 万的房子，我们就这么白白损失了 30 几万。",
        "docid": "J3RVED3P0553GD76",
        "url": "https://www.163.com/dy/article/J3RVED3P0553GD76.html"
    },
    {
        "title": "【营销星球】24地产项目“解压艺术展”不蕉虑研究所活动策划方案",
        "docid": "J3SJ7B9M05566ORN",
        "url": "https://www.163.com/dy/article/J3SJ7B9M05566ORN.html"
    },
    {
        "title": "一建建筑+业绩25W，一建市政+二建市政、房建，12W",
        "docid": "J3SIR1J90553TDVP",
        "url": "https://www.163.com/dy/article/J3SIR1J90553TDVP.html"
    },
    {
        "title": "华发狂飙！滨江集团坠落？5月TOP10房企销售涨跌榜",
        "docid": "J3SI7LD40519RMOP",
        "url": "https://www.163.com/dy/article/J3SI7LD40519RMOP.html"
    },
    {
        "title": "这样的洋房，以后再也不要买了！太差劲，为学校采光业主吃亏太多",
        "docid": "VB2UMKN57",
        "url": "https://www.163.com/dy/article/VB2UMKN57.html"
    },
    {
        "title": "房价不能大规模大幅度下跌，因为有巨额的贷款要还，事实是什么？",
        "docid": "VX2QFCCB8",
        "url": "https://www.163.com/dy/article/VX2QFCCB8.html"
    },
    {
        "title": "如果房价持续下跌，只会让老百姓，更痛苦",
        "docid": "VW2UMMN46",
        "url": "https://www.163.com/dy/article/VW2UMMN46.html"
    },
    {
        "title": "乍一看是好户型，仔细看却让人“闻风丧胆”！这样的户型不建议买",
        "docid": "VB2UNL3UF",
        "url": "https://www.163.com/dy/article/VB2UNL3UF.html"
    },
    {
        "title": "第三十一期  好楼盘的几个标志",
        "docid": "VZ2EM27FK",
        "url": "https://www.163.com/dy/article/VZ2EM27FK.html"
    },
    {
        "title": "全国超70城支持住房“以旧换新” 已有城市取得效果",
        "docid": "J3RN3EDK0539AP40",
        "url": "https://www.163.com/dy/article/J3RN3EDK0539AP40.html"
    },
    {
        "title": "二手房以旧换新遇冷：房东期待高价，政策需更灵活",
        "docid": "VF2UD4NE2",
        "url": "https://www.163.com/dy/article/VF2UD4NE2.html"
    },
    {
        "title": "星期三贷款买房后，会把房子装饰成怎么样呢？",
        "docid": "VF2H0F07B",
        "url": "https://www.163.com/dy/article/VF2H0F07B.html"
    },
    {
        "title": "演员宋丹丹在北京的顶级豪宅，一套价值一个亿，看看有多气派",
        "docid": "VW2GD6G78",
        "url": "https://www.163.com/dy/article/VW2GD6G78.html"
    },
    {
        "title": "南方城市和北方城市，住宅楼有个大差异，注意到的人，都非常细心",
        "docid": "VB2HL9T7G",
        "url": "https://www.163.com/dy/article/VB2HL9T7G.html"
    },
    {
        "title": "三姐陪女儿去看房子，跑了一天还是没有结果，买个房子也难选了",
        "docid": "VW2HBQC38",
        "url": "https://www.163.com/dy/article/VW2HBQC38.html"
    },
    {
        "title": "农村自建房 20项配置全解析",
        "docid": "VW2UME2C1",
        "url": "https://www.163.com/dy/article/VW2UME2C1.html"
    },
    {
        "title": "太坑了！男子花1700万买下大平层 收房时发现竟没有燃气？",
        "docid": "VT2HA8N1O",
        "url": "https://www.163.com/dy/article/VT2HA8N1O.html"
    },
    {
        "title": "搬进别人住过的房子，一定要记住这四点",
        "docid": "VF2HD9OAE",
        "url": "https://www.163.com/dy/article/VF2HD9OAE.html"
    },
    {
        "title": "警惕房产黑中介的新骗局",
        "docid": "VN2H18O14",
        "url": "https://www.163.com/dy/article/VN2H18O14.html"
    },
    {
        "title": "机构：5月一线城市找房热度环比上涨7%",
        "docid": "J3RSDGI705198CJN",
        "url": "https://www.163.com/dy/article/J3RSDGI705198CJN.html"
    },
    {
        "title": "社区接管物业职能可行吗？",
        "docid": "J3KAN1E6055638FO",
        "url": "https://www.163.com/dy/article/J3KAN1E6055638FO.html"
    },
    {
        "title": "“沪九条”出台满一周：新房成交量环比增34% 二手房去化速度明显加快",
        "docid": "J3RQKR8M05198CJN",
        "url": "https://www.163.com/dy/article/J3RQKR8M05198CJN.html"
    },
    {
        "title": "中国铁建房地产30亿元中票将于6月5日至6日发行  快报",
        "docid": "VP2S90UG7",
        "url": "https://www.163.com/dy/article/VP2S90UG7.html"
    },
    {
        "title": "自助棋牌室房租多少合适？怎么控制",
        "docid": "VX2GTT7GH",
        "url": "https://www.163.com/dy/article/VX2GTT7GH.html"
    },
    {
        "title": "农村无证房属于农民合法财产，法律咨询解析",
        "docid": "VX2HGG9AN",
        "url": "https://www.163.com/dy/article/VX2HGG9AN.html"
    },
    {
        "title": "【视频】无敌海景房究竟是什么样子的？",
        "docid": "VT2EOCM0J",
        "url": "https://www.163.com/dy/article/VT2EOCM0J.html"
    },
    {
        "title": "前五月地产操盘榜，两家房企值得关注",
        "docid": "VR2S26LPB",
        "url": "https://www.163.com/dy/article/VR2S26LPB.html"
    },
    {
        "title": "买房为什么要避开这3种楼层，鲜为人知的秘密",
        "docid": "VV2GUMDO5",
        "url": "https://www.163.com/dy/article/VV2GUMDO5.html"
    },
    {
        "title": "三四线和县城的房东是未来最惨的人吗",
        "docid": "VN2RHP0L2",
        "url": "https://www.163.com/dy/article/VN2RHP0L2.html"
    },
    {
        "title": "“一怕大树压房顶，二怕房后有池塘，三怕房前有水田”，有道理？",
        "docid": "J3FOEK320532WEG6",
        "url": "https://www.163.com/dy/article/J3FOEK320532WEG6.html"
    },
    {
        "title": "百城二套商贷利率进入“3时代”",
        "docid": "J3SHS26S053469RG",
        "url": "https://www.163.com/dy/article/J3SHS26S053469RG.html"
    },
    {
        "title": "大家提前做好准备，6月份开始，不出意外的话，或将呈现5个趋势",
        "docid": "J3RV6GEC055616ZT",
        "url": "https://www.163.com/dy/article/J3RV6GEC055616ZT.html"
    },
    {
        "title": "武汉盘龙城楼盘坤合云海城备案均价约11304元/平，上涨594元/平！",
        "docid": "J3SCIHJU055616ZT",
        "url": "https://www.163.com/dy/article/J3SCIHJU055616ZT.html"
    },
    {
        "title": "易闻天下丨武汉两区楼市公告，甘露山雪世界新动态",
        "docid": "J3OGM2NV05567SKQ",
        "url": "https://www.163.com/dy/article/J3OGM2NV05567SKQ.html"
    },
    {
        "title": "近三年投资买房的人，现在怎么样了？",
        "docid": "J3RSSOB20535KTFG",
        "url": "https://www.163.com/dy/article/J3RSSOB20535KTFG.html"
    },
    {
        "title": "武汉东西湖区：人才买首套新房最高补助200万元，支持企业给人才筹集购房首付款",
        "docid": "J3PHH99Q0514R9P4",
        "url": "https://www.163.com/dy/article/J3PHH99Q0514R9P4.html"
    },
    {
        "title": "机构：全国找房热度环比上涨，购房者信心环比上涨5.3%",
        "docid": "J3RTRU2M0514R9P4",
        "url": "https://www.163.com/dy/article/J3RTRU2M0514R9P4.html"
    },
    {
        "title": "武汉名校遍地开分校，提醒你，别上头",
        "docid": "J3OFH82J0553TDVP",
        "url": "https://www.163.com/dy/article/J3OFH82J0553TDVP.html"
    },
    {
        "title": "事关楼市，国家选中15个城市",
        "docid": "J3R61QER0552GHFT",
        "url": "https://www.163.com/dy/article/J3R61QER0552GHFT.html"
    },
    {
        "title": "“去过度金融化”让利护盘，去库存有希望",
        "docid": "J3RJ3I9J0530IU8N",
        "url": "https://www.163.com/dy/article/J3RJ3I9J0530IU8N.html"
    },
    {
        "title": "炒房客全军覆没，那些看到楼市利好就上调房价的人后悔了",
        "docid": "J3RN0LAU0535JMSP",
        "url": "https://www.163.com/dy/article/J3RN0LAU0535JMSP.html"
    },
    {
        "title": "楼市里面的镰刀越来越多了，韭菜不够用了",
        "docid": "J3RMRG3G0535JMSP",
        "url": "https://www.163.com/dy/article/J3RMRG3G0535JMSP.html"
    },
    {
        "title": "上海楼市首付降到20%，广州楼市首付降低到15%越来越多购房者慌了",
        "docid": "J3RMC4AJ0535JMSP",
        "url": "https://www.163.com/dy/article/J3RMC4AJ0535JMSP.html"
    },
    {
        "title": "楼市新政一出，越来越多城市的裸奔！房东立马把房价从5万涨至8万",
        "docid": "J3RMI93N0535JMSP",
        "url": "https://www.163.com/dy/article/J3RMI93N0535JMSP.html"
    },
    {
        "title": "降息刺激房地产回暖？想多了！",
        "docid": "J3SPSI9K05566YXD",
        "url": "https://www.163.com/dy/article/J3SPSI9K05566YXD.html"
    },
    {
        "title": "观点与隋颂伟对话：恒隆地产在红海里面找蓝海",
        "docid": "J3SQKOSH0519D45U",
        "url": "https://www.163.com/dy/article/J3SQKOSH0519D45U.html"
    },
    {
        "title": "买房时“一次性付清”和“还贷30年”，区别有多大？幸亏知道的早",
        "docid": "J3CAJEV105566N4D",
        "url": "https://www.163.com/dy/article/J3CAJEV105566N4D.html"
    },
    {
        "title": "和00后聊天才明白房地产为什么救不起来的原因了",
        "docid": "VW2UV0VEU",
        "url": "https://www.163.com/dy/article/VW2UV0VEU.html"
    },
    {
        "title": "豪宅市场大揭秘，干货分享上热门",
        "docid": "VF2HR2HN9",
        "url": "https://www.163.com/dy/article/VF2HR2HN9.html"
    },
    {
        "title": "武汉盘龙城楼盘坤合云海城备案均价约11304元/平，上涨594元/平！",
        "docid": "J3SCIHJU055616ZT",
        "url": "https://www.163.com/dy/article/J3SCIHJU055616ZT.html"
    },
    {
        "title": "百城二套房利率进入“3时代” 超八成城市已执行“517”新政",
        "docid": "J3RU3HRF05198CJN",
        "url": "https://www.163.com/dy/article/J3RU3HRF05198CJN.html"
    },
    {
        "title": "上海楼市首付降到20%，广州楼市首付降低到15%越来越多购房者慌了",
        "docid": "J3RMAVTD0535JMSP",
        "url": "https://www.163.com/dy/article/J3RMAVTD0535JMSP.html"
    },
    {
        "title": "易闻天下丨武汉两区楼市公告，甘露山雪世界新动态",
        "docid": "J3OGM2NV05567SKQ",
        "url": "https://www.163.com/dy/article/J3OGM2NV05567SKQ.html"
    },
    {
        "title": "武汉东西湖区：人才买首套新房最高补助200万元，支持企业给人才筹集购房首付款",
        "docid": "J3PHH99Q0514R9P4",
        "url": "https://www.163.com/dy/article/J3PHH99Q0514R9P4.html"
    },
    {
        "title": "武汉名校遍地开分校，提醒你，别上头",
        "docid": "J3OFH82J0553TDVP",
        "url": "https://www.163.com/dy/article/J3OFH82J0553TDVP.html"
    },
    {
        "title": "武汉篷房租赁-专业厂家生产供应",
        "docid": "J3OKIOMI05568AUP",
        "url": "https://www.163.com/dy/article/J3OKIOMI05568AUP.html"
    },
    {
        "title": "武汉绿城·梧桐里产品发布圆满落幕",
        "docid": "J3JM6RTJ05567SKQ",
        "url": "https://www.163.com/dy/article/J3JM6RTJ05567SKQ.html"
    },
    {
        "title": "喜讯：二手房，历史拐点来了！",
        "docid": "J3SABEJ40552F71X",
        "url": "https://www.163.com/dy/article/J3SABEJ40552F71X.html"
    },
    {
        "title": "多个一线城市落地地产517新政，房地产ETF(159768)跟踪指数大幅上涨，华发股份、万科A、保利发展领涨",
        "docid": "J3R68EA80534A4SC",
        "url": "https://www.163.com/dy/article/J3R68EA80534A4SC.html"
    },
    {
        "title": "2025年，是租房元年！",
        "docid": "J3M5QLII05567IYR",
        "url": "https://www.163.com/dy/article/J3M5QLII05567IYR.html"
    },
    {
        "title": "70 岁还在打零工，80 岁还要还房贷，这日本房奴现在究竟有多惨？",
        "docid": "J3FAT9T60553VNKO",
        "url": "https://www.163.com/dy/article/J3FAT9T60553VNKO.html"
    },
    {
        "title": "武汉盘龙城楼盘坤合云海城备案均价约11304元/平，上涨594元/平！",
        "docid": "J3SCIHJU055616ZT",
        "url": "https://www.163.com/dy/article/J3SCIHJU055616ZT.html"
    },
    {
        "title": "易闻天下丨武汉两区楼市公告，甘露山雪世界新动态",
        "docid": "J3OGM2NV05567SKQ",
        "url": "https://www.163.com/dy/article/J3OGM2NV05567SKQ.html"
    },
    {
        "title": "武汉东西湖区：人才买首套新房最高补助200万元，支持企业给人才筹集购房首付款",
        "docid": "J3PHH99Q0514R9P4",
        "url": "https://www.163.com/dy/article/J3PHH99Q0514R9P4.html"
    },
    {
        "title": "武汉名校遍地开分校，提醒你，别上头",
        "docid": "J3OFH82J0553TDVP",
        "url": "https://www.163.com/dy/article/J3OFH82J0553TDVP.html"
    },
    {
        "title": "武汉篷房租赁-专业厂家生产供应",
        "docid": "J3OKIOMI05568AUP",
        "url": "https://www.163.com/dy/article/J3OKIOMI05568AUP.html"
    },
    {
        "title": "武汉绿城·梧桐里产品发布圆满落幕",
        "docid": "J3JM6RTJ05567SKQ",
        "url": "https://www.163.com/dy/article/J3JM6RTJ05567SKQ.html"
    },
    {
        "title": "2019年来首次！百城二套商贷利率进入“3时代”，机构预计将继续下行",
        "docid": "J3RHJMFS0519QIKK",
        "url": "https://www.163.com/dy/article/J3RHJMFS0519QIKK.html"
    },
    {
        "title": "武汉经开区联合贝壳找房推进房地产以旧换新",
        "docid": "J3MQLLO3053469LG",
        "url": "https://www.163.com/dy/article/J3MQLLO3053469LG.html"
    },
    {
        "title": "2024年6月4日房产早参 #楼市资讯 #房产早参",
        "docid": "J3PR5NSK0512B07B",
        "url": "https://www.163.com/dy/article/J3PR5NSK0512B07B.html"
    },
    {
        "title": "房价上涨是藏富于民，共同富裕",
        "docid": "VW2HKPAQC",
        "url": "https://www.163.com/dy/article/VW2HKPAQC.html"
    },
    {
        "title": "“沪九条”实施满一周 买家活跃度上升明显",
        "docid": "VM2V5MFT5",
        "url": "https://www.163.com/dy/article/VM2V5MFT5.html"
    },
    {
        "title": "400多平的新房装修接近尾声，孩子们的房间都分配好了，挺满意！",
        "docid": "VS2I731D8",
        "url": "https://www.163.com/dy/article/VS2I731D8.html"
    },
    {
        "title": "怪不得现在所有人都不买房子了，房奴们哭了，含泪看完太扎心",
        "docid": "VW2UVKPF3",
        "url": "https://www.163.com/dy/article/VW2UVKPF3.html"
    },
    {
        "title": "孟晓苏：见房就征，见证就退，房产税征收越简单越好！马光远怒斥",
        "docid": "VP2I4Q85K",
        "url": "https://www.163.com/dy/article/VP2I4Q85K.html"
    },
    {
        "title": "贪便宜买了安置房，如今烦恼不断后悔莫及，一把辛酸泪，肠子悔青",
        "docid": "VY2GHM52N",
        "url": "https://www.163.com/dy/article/VY2GHM52N.html"
    },
    {
        "title": "六零后朱姐，旅行3年住上了一套价值600万的房子，有点惊到我了！",
        "docid": "VC2V07U2K",
        "url": "https://www.163.com/dy/article/VC2V07U2K.html"
    },
    {
        "title": "深圳全面取消新能源限购上海绿牌将何去何从",
        "docid": "VW2V053V9",
        "url": "https://www.163.com/dy/article/VW2V053V9.html"
    },
    {
        "title": "房价下跌，受害的不是炒房客，也不是全款买房人，而是更多穷苦人",
        "docid": "VR2GBEGIA",
        "url": "https://www.163.com/dy/article/VR2GBEGIA.html"
    },
    {
        "title": "地产人的华丽转身：开启新职业篇章",
        "docid": "J3SKGNRD05565QPS",
        "url": "https://www.163.com/dy/article/J3SKGNRD05565QPS.html"
    },
    {
        "title": "有一种痛苦叫买了2楼，卖不掉又不想住，彻底沦为不动产？？",
        "docid": "J3GOJMD805566MH1",
        "url": "https://www.163.com/dy/article/J3GOJMD805566MH1.html"
    },
    {
        "title": "武汉盘龙城楼盘坤合云海城备案均价约11304元/平，上涨594元/平！",
        "docid": "J3SCIHJU055616ZT",
        "url": "https://www.163.com/dy/article/J3SCIHJU055616ZT.html"
    },
    {
        "title": "易闻天下丨武汉两区楼市公告，甘露山雪世界新动态",
        "docid": "J3OGM2NV05567SKQ",
        "url": "https://www.163.com/dy/article/J3OGM2NV05567SKQ.html"
    },
    {
        "title": "武汉东西湖区：人才买首套新房最高补助200万元，支持企业给人才筹集购房首付款",
        "docid": "J3PHH99Q0514R9P4",
        "url": "https://www.163.com/dy/article/J3PHH99Q0514R9P4.html"
    },
    {
        "title": "武汉名校遍地开分校，提醒你，别上头",
        "docid": "J3OFH82J0553TDVP",
        "url": "https://www.163.com/dy/article/J3OFH82J0553TDVP.html"
    },
    {
        "title": "武汉篷房租赁-专业厂家生产供应",
        "docid": "J3OKIOMI05568AUP",
        "url": "https://www.163.com/dy/article/J3OKIOMI05568AUP.html"
    },
    {
        "title": "武汉绿城·梧桐里产品发布圆满落幕",
        "docid": "J3JM6RTJ05567SKQ",
        "url": "https://www.163.com/dy/article/J3JM6RTJ05567SKQ.html"
    },
    {
        "title": "五年来首次！百城首二套房贷利率进入“3字头”",
        "docid": "J3RU539T0519DDQ2",
        "url": "https://www.163.com/dy/article/J3RU539T0519DDQ2.html"
    },
    {
        "title": "武汉经开区联合贝壳找房推进房地产以旧换新",
        "docid": "J3MQLLO3053469LG",
        "url": "https://www.163.com/dy/article/J3MQLLO3053469LG.html"
    },
    {
        "title": "武汉盘龙城楼盘坤合云海城备案均价约11304元/平，上涨594元/平！",
        "docid": "J3SCIHJU055616ZT",
        "url": "https://www.163.com/dy/article/J3SCIHJU055616ZT.html"
    },
    {
        "title": "易闻天下丨武汉两区楼市公告，甘露山雪世界新动态",
        "docid": "J3OGM2NV05567SKQ",
        "url": "https://www.163.com/dy/article/J3OGM2NV05567SKQ.html"
    },
    {
        "title": "武汉东西湖区：人才买首套新房最高补助200万元，支持企业给人才筹集购房首付款",
        "docid": "J3PHH99Q0514R9P4",
        "url": "https://www.163.com/dy/article/J3PHH99Q0514R9P4.html"
    },
    {
        "title": "武汉名校遍地开分校，提醒你，别上头",
        "docid": "J3OFH82J0553TDVP",
        "url": "https://www.163.com/dy/article/J3OFH82J0553TDVP.html"
    },
    {
        "title": "武汉篷房租赁-专业厂家生产供应",
        "docid": "J3OKIOMI05568AUP",
        "url": "https://www.163.com/dy/article/J3OKIOMI05568AUP.html"
    },
    {
        "title": "武汉绿城·梧桐里产品发布圆满落幕",
        "docid": "J3JM6RTJ05567SKQ",
        "url": "https://www.163.com/dy/article/J3JM6RTJ05567SKQ.html"
    },
    {
        "title": "武汉经开区联合贝壳找房推进房地产以旧换新",
        "docid": "J3MQLLO3053469LG",
        "url": "https://www.163.com/dy/article/J3MQLLO3053469LG.html"
    },
    {
        "title": "美籍放弃国内房屋继承权声明书公证海牙认证指南",
        "docid": "J3E8G3S2055364TO",
        "url": "https://www.163.com/dy/article/J3E8G3S2055364TO.html"
    },
    {
        "title": "不听劝！买了一套“老破小”，入住2年，我哭着搬回了高层",
        "docid": "J3RJBID7054057BR",
        "url": "https://www.163.com/dy/article/J3RJBID7054057BR.html"
    },
    {
        "title": "楼市巨变！第三轮暴涨要来了？",
        "docid": "J3RBMJ6S05536P04",
        "url": "https://www.163.com/dy/article/J3RBMJ6S05536P04.html"
    },
    {
        "title": "澳洲违约还款人数增加，澳洲这些地方三个月房价飙升10%！",
        "docid": "J3T3OPLK05199N88",
        "url": "https://www.163.com/dy/article/J3T3OPLK05199N88.html"
    },
    {
        "title": "哪一秒你觉得合租真的难受？大家都感同身受吧",
        "docid": "J3G4BHC6055633JM",
        "url": "https://www.163.com/dy/article/J3G4BHC6055633JM.html"
    },
    {
        "title": "武汉盘龙城楼盘坤合云海城备案均价约11304元/平，上涨594元/平！",
        "docid": "J3SCIHJU055616ZT",
        "url": "https://www.163.com/dy/article/J3SCIHJU055616ZT.html"
    },
    {
        "title": "易闻天下丨武汉两区楼市公告，甘露山雪世界新动态",
        "docid": "J3OGM2NV05567SKQ",
        "url": "https://www.163.com/dy/article/J3OGM2NV05567SKQ.html"
    },
    {
        "title": "武汉东西湖区：人才买首套新房最高补助200万元，支持企业给人才筹集购房首付款",
        "docid": "J3PHH99Q0514R9P4",
        "url": "https://www.163.com/dy/article/J3PHH99Q0514R9P4.html"
    },
    {
        "title": "武汉名校遍地开分校，提醒你，别上头",
        "docid": "J3OFH82J0553TDVP",
        "url": "https://www.163.com/dy/article/J3OFH82J0553TDVP.html"
    },
    {
        "title": "武汉篷房租赁-专业厂家生产供应",
        "docid": "J3OKIOMI05568AUP",
        "url": "https://www.163.com/dy/article/J3OKIOMI05568AUP.html"
    },
    {
        "title": "武汉绿城·梧桐里产品发布圆满落幕",
        "docid": "J3JM6RTJ05567SKQ",
        "url": "https://www.163.com/dy/article/J3JM6RTJ05567SKQ.html"
    },
    {
        "title": "武汉经开区联合贝壳找房推进房地产以旧换新",
        "docid": "J3MQLLO3053469LG",
        "url": "https://www.163.com/dy/article/J3MQLLO3053469LG.html"
    },
    {
        "title": "楼市新政后，哪些万亿城市将成为最大赢家？",
        "docid": "J3QT8GE10534I0NW",
        "url": "https://www.163.com/dy/article/J3QT8GE10534I0NW.html"
    },
    {
        "title": "武汉盘龙城楼盘坤合云海城备案均价约11304元/平，上涨594元/平！",
        "docid": "J3SCIHJU055616ZT",
        "url": "https://www.163.com/dy/article/J3SCIHJU055616ZT.html"
    },
    {
        "title": "易闻天下丨武汉两区楼市公告，甘露山雪世界新动态",
        "docid": "J3OGM2NV05567SKQ",
        "url": "https://www.163.com/dy/article/J3OGM2NV05567SKQ.html"
    },
    {
        "title": "武汉东西湖区：人才买首套新房最高补助200万元，支持企业给人才筹集购房首付款",
        "docid": "J3PHH99Q0514R9P4",
        "url": "https://www.163.com/dy/article/J3PHH99Q0514R9P4.html"
    },
    {
        "title": "武汉名校遍地开分校，提醒你，别上头",
        "docid": "J3OFH82J0553TDVP",
        "url": "https://www.163.com/dy/article/J3OFH82J0553TDVP.html"
    },
    {
        "title": "武汉篷房租赁-专业厂家生产供应",
        "docid": "J3OKIOMI05568AUP",
        "url": "https://www.163.com/dy/article/J3OKIOMI05568AUP.html"
    },
    {
        "title": "武汉绿城·梧桐里产品发布圆满落幕",
        "docid": "J3JM6RTJ05567SKQ",
        "url": "https://www.163.com/dy/article/J3JM6RTJ05567SKQ.html"
    },
    {
        "title": "武汉经开区联合贝壳找房推进房地产以旧换新",
        "docid": "J3MQLLO3053469LG",
        "url": "https://www.163.com/dy/article/J3MQLLO3053469LG.html"
    },
    {
        "title": "首映当燃 全城竞藏 | 武汉进入誉府时代",
        "docid": "J3OVQGRH05567SKQ",
        "url": "https://www.163.com/dy/article/J3OVQGRH05567SKQ.html"
    },
    {
        "title": "碧桂园服务2023年减员1.4万人，人均成本仅7万/年",
        "docid": "J3S0OPA60552NVEU",
        "url": "https://www.163.com/dy/article/J3S0OPA60552NVEU.html"
    },
    {
        "title": "武汉5月新建住房成交环比上涨，6月多个新盘上市",
        "docid": "J3MDDVA3053469LG",
        "url": "https://www.163.com/dy/article/J3MDDVA3053469LG.html"
    },
    {
        "title": "土地储备制度进一步完善",
        "docid": "J3T8DHQJ0514CQIE",
        "url": "https://www.163.com/dy/article/J3T8DHQJ0514CQIE.html"
    },
    {
        "title": "今明两年，买房牢记7字真言“买小、买旧、不买三”，还别不信",
        "docid": "J3T4CI7V0553TB9L",
        "url": "https://www.163.com/dy/article/J3T4CI7V0553TB9L.html"
    },
    {
        "title": "观察丨销售千亿重启买地，万科活过来了？",
        "docid": "J3SKF3TG055650O5",
        "url": "https://www.163.com/dy/article/J3SKF3TG055650O5.html"
    },
    {
        "title": "武汉盘龙城楼盘坤合云海城备案均价约11304元/平，上涨594元/平！",
        "docid": "J3SCIHJU055616ZT",
        "url": "https://www.163.com/dy/article/J3SCIHJU055616ZT.html"
    },
    {
        "title": "易闻天下丨武汉两区楼市公告，甘露山雪世界新动态",
        "docid": "J3OGM2NV05567SKQ",
        "url": "https://www.163.com/dy/article/J3OGM2NV05567SKQ.html"
    },
    {
        "title": "武汉东西湖区：人才买首套新房最高补助200万元，支持企业给人才筹集购房首付款",
        "docid": "J3PHH99Q0514R9P4",
        "url": "https://www.163.com/dy/article/J3PHH99Q0514R9P4.html"
    },
    {
        "title": "武汉名校遍地开分校，提醒你，别上头",
        "docid": "J3OFH82J0553TDVP",
        "url": "https://www.163.com/dy/article/J3OFH82J0553TDVP.html"
    },
    {
        "title": "武汉篷房租赁-专业厂家生产供应",
        "docid": "J3OKIOMI05568AUP",
        "url": "https://www.163.com/dy/article/J3OKIOMI05568AUP.html"
    },
    {
        "title": "武汉绿城·梧桐里产品发布圆满落幕",
        "docid": "J3JM6RTJ05567SKQ",
        "url": "https://www.163.com/dy/article/J3JM6RTJ05567SKQ.html"
    },
    {
        "title": "武汉经开区联合贝壳找房推进房地产以旧换新",
        "docid": "J3MQLLO3053469LG",
        "url": "https://www.163.com/dy/article/J3MQLLO3053469LG.html"
    },
    {
        "title": "武汉盘龙城楼盘坤合云海城备案均价约11304元/平，上涨594元/平！",
        "docid": "J3SCIHJU055616ZT",
        "url": "https://www.163.com/dy/article/J3SCIHJU055616ZT.html"
    },
    {
        "title": "易闻天下丨武汉两区楼市公告，甘露山雪世界新动态",
        "docid": "J3OGM2NV05567SKQ",
        "url": "https://www.163.com/dy/article/J3OGM2NV05567SKQ.html"
    },
    {
        "title": "武汉东西湖区：人才买首套新房最高补助200万元，支持企业给人才筹集购房首付款",
        "docid": "J3PHH99Q0514R9P4",
        "url": "https://www.163.com/dy/article/J3PHH99Q0514R9P4.html"
    },
    {
        "title": "武汉名校遍地开分校，提醒你，别上头",
        "docid": "J3OFH82J0553TDVP",
        "url": "https://www.163.com/dy/article/J3OFH82J0553TDVP.html"
    },
    {
        "title": "武汉篷房租赁-专业厂家生产供应",
        "docid": "J3OKIOMI05568AUP",
        "url": "https://www.163.com/dy/article/J3OKIOMI05568AUP.html"
    },
    {
        "title": "武汉绿城·梧桐里产品发布圆满落幕",
        "docid": "J3JM6RTJ05567SKQ",
        "url": "https://www.163.com/dy/article/J3JM6RTJ05567SKQ.html"
    },
    {
        "title": "武汉经开区联合贝壳找房推进房地产以旧换新",
        "docid": "J3MQLLO3053469LG",
        "url": "https://www.163.com/dy/article/J3MQLLO3053469LG.html"
    },
    {
        "title": "首映当燃 全城竞藏 | 武汉进入誉府时代",
        "docid": "J3OVQGRH05567SKQ",
        "url": "https://www.163.com/dy/article/J3OVQGRH05567SKQ.html"
    },
    {
        "title": "武汉5月新建住房成交环比上涨，6月多个新盘上市",
        "docid": "J3MDDVA3053469LG",
        "url": "https://www.163.com/dy/article/J3MDDVA3053469LG.html"
    },
    {
        "title": "曹德旺预示：2024年不购房，五年后将是“庆幸”还是“后悔”？",
        "docid": "J3SDN02C0552F71X",
        "url": "https://www.163.com/dy/article/J3SDN02C0552F71X.html"
    },
    {
        "title": "外媒：中国大城市楼市回暖",
        "docid": "J3TAFEUV05504DOQ",
        "url": "https://www.163.com/dy/article/J3TAFEUV05504DOQ.html"
    },
    {
        "title": "中国房地产必须“吸取日本教训，借鉴日本经验”，事实是什么？",
        "docid": "J3TBHSSH05524QHN",
        "url": "https://www.163.com/dy/article/J3TBHSSH05524QHN.html"
    },
    {
        "title": "武汉盘龙城楼盘坤合云海城备案均价约11304元/平，上涨594元/平！",
        "docid": "J3SCIHJU055616ZT",
        "url": "https://www.163.com/dy/article/J3SCIHJU055616ZT.html"
    },
    {
        "title": "易闻天下丨武汉两区楼市公告，甘露山雪世界新动态",
        "docid": "J3OGM2NV05567SKQ",
        "url": "https://www.163.com/dy/article/J3OGM2NV05567SKQ.html"
    },
    {
        "title": "武汉东西湖区：人才买首套新房最高补助200万元，支持企业给人才筹集购房首付款",
        "docid": "J3PHH99Q0514R9P4",
        "url": "https://www.163.com/dy/article/J3PHH99Q0514R9P4.html"
    },
    {
        "title": "武汉名校遍地开分校，提醒你，别上头",
        "docid": "J3OFH82J0553TDVP",
        "url": "https://www.163.com/dy/article/J3OFH82J0553TDVP.html"
    },
    {
        "title": "武汉篷房租赁-专业厂家生产供应",
        "docid": "J3OKIOMI05568AUP",
        "url": "https://www.163.com/dy/article/J3OKIOMI05568AUP.html"
    },
    {
        "title": "武汉绿城·梧桐里产品发布圆满落幕",
        "docid": "J3JM6RTJ05567SKQ",
        "url": "https://www.163.com/dy/article/J3JM6RTJ05567SKQ.html"
    },
    {
        "title": "武汉经开区联合贝壳找房推进房地产以旧换新",
        "docid": "J3MQLLO3053469LG",
        "url": "https://www.163.com/dy/article/J3MQLLO3053469LG.html"
    },
    {
        "title": "首映当燃 全城竞藏 | 武汉进入誉府时代",
        "docid": "J3OVQGRH05567SKQ",
        "url": "https://www.163.com/dy/article/J3OVQGRH05567SKQ.html"
    },
    {
        "title": "新房成交量明显提升，购二套房居民增多，楼市迎来拐点了吗",
        "docid": "J3RRHAK40519B623",
        "url": "https://www.163.com/dy/article/J3RRHAK40519B623.html"
    },
    {
        "title": "VILLA ONE~山墅一生~",
        "docid": "J3RRP17E05568C3X",
        "url": "https://www.163.com/dy/article/J3RRP17E05568C3X.html"
    },
    {
        "title": "武汉盘龙城楼盘坤合云海城备案均价约11304元/平，上涨594元/平！",
        "docid": "J3SCIHJU055616ZT",
        "url": "https://www.163.com/dy/article/J3SCIHJU055616ZT.html"
    },
    {
        "title": "易闻天下丨武汉两区楼市公告，甘露山雪世界新动态",
        "docid": "J3OGM2NV05567SKQ",
        "url": "https://www.163.com/dy/article/J3OGM2NV05567SKQ.html"
    },
    {
        "title": "武汉东西湖区：人才买首套新房最高补助200万元，支持企业给人才筹集购房首付款",
        "docid": "J3PHH99Q0514R9P4",
        "url": "https://www.163.com/dy/article/J3PHH99Q0514R9P4.html"
    },
    {
        "title": "武汉名校遍地开分校，提醒你，别上头",
        "docid": "J3OFH82J0553TDVP",
        "url": "https://www.163.com/dy/article/J3OFH82J0553TDVP.html"
    },
    {
        "title": "武汉篷房租赁-专业厂家生产供应",
        "docid": "J3OKIOMI05568AUP",
        "url": "https://www.163.com/dy/article/J3OKIOMI05568AUP.html"
    },
    {
        "title": "武汉绿城·梧桐里产品发布圆满落幕",
        "docid": "J3JM6RTJ05567SKQ",
        "url": "https://www.163.com/dy/article/J3JM6RTJ05567SKQ.html"
    },
    {
        "title": "武汉经开区联合贝壳找房推进房地产以旧换新",
        "docid": "J3MQLLO3053469LG",
        "url": "https://www.163.com/dy/article/J3MQLLO3053469LG.html"
    },
    {
        "title": "首映当燃 全城竞藏 | 武汉进入誉府时代",
        "docid": "J3OVQGRH05567SKQ",
        "url": "https://www.163.com/dy/article/J3OVQGRH05567SKQ.html"
    },
    {
        "title": "澳洲多地房价暴跌！华人熟悉的地区，甚至跌幅第一！悉尼则逆势暴涨，部分投资者真损失惨重...",
        "docid": "J3TES3J60534I43Y",
        "url": "https://www.163.com/dy/article/J3TES3J60534I43Y.html"
    },
    {
        "title": "华泰证券：我国房贷利率或仍有下行空间 继续看好地产板块估值修复",
        "docid": "J3TF7HSN05198UNI",
        "url": "https://www.163.com/dy/article/J3TF7HSN05198UNI.html"
    },
    {
        "title": "这一轮去库存，有点棘手",
        "docid": "J3TESFIA05158B67",
        "url": "https://www.163.com/dy/article/J3TESFIA05158B67.html"
    },
    {
        "title": "国泰君安：房企销售弱复苏房地产信心在修复  快报",
        "docid": "VP2T2LJ46",
        "url": "https://www.163.com/dy/article/VP2T2LJ46.html"
    },
    {
        "title": "房价下跌，但因为买了50套房子，大哥说了几句话，让人瞬间通透。",
        "docid": "VK2VHKQH6",
        "url": "https://www.163.com/dy/article/VK2VHKQH6.html"
    },
    {
        "title": "国家队抄底房地产，收购存量房：托的住吗？",
        "docid": "VL2VHPPV8",
        "url": "https://www.163.com/dy/article/VL2VHPPV8.html"
    },
    {
        "title": "房地产板块：第二波风口来临？",
        "docid": "VF2VBU8S0",
        "url": "https://www.163.com/dy/article/VF2VBU8S0.html"
    },
    {
        "title": "房价从2万2降到6千，多年积蓄化作一场空，现如今想卖已无人接盘",
        "docid": "VF2VBA4FQ",
        "url": "https://www.163.com/dy/article/VF2VBA4FQ.html"
    },
    {
        "title": "房地产的雷远远没完。这才是房地产最大的雷",
        "docid": "VF2UK096T",
        "url": "https://www.163.com/dy/article/VF2UK096T.html"
    },
    {
        "title": "泰山不算很高，红房子是售票处，高不可攀",
        "docid": "VS2VKO1VJ",
        "url": "https://www.163.com/dy/article/VS2VKO1VJ.html"
    },
    {
        "title": "面馆老板不干了：房东又加了20000房租，我还怎么活？",
        "docid": "J3GAN7C20553TB9L",
        "url": "https://www.163.com/dy/article/J3GAN7C20553TB9L.html"
    },
    {
        "title": "楼市“露出本色”，开发商已经意识到了，买房人还蒙在鼓里？",
        "docid": "J3GAGGBS0553TDVP",
        "url": "https://www.163.com/dy/article/J3GAGGBS0553TDVP.html"
    },
    {
        "title": "房价大跌，已经从9000降到了5000，有人建议我断供，可行吗？",
        "docid": "J3GARRV30553TB9L",
        "url": "https://www.163.com/dy/article/J3GARRV30553TB9L.html"
    },
    {
        "title": "【官方】大华锦绣四季官方售楼处预约通道，官方售楼中心指定网站",
        "docid": "J3EC1GE405567507",
        "url": "https://www.163.com/dy/article/J3EC1GE405567507.html"
    },
    {
        "title": "【官网置顶】保利西郊和煦-官方预约通道@售楼处电话；火爆热销中",
        "docid": "J3EBUM9E05567507",
        "url": "https://www.163.com/dy/article/J3EBUM9E05567507.html"
    },
    {
        "title": "武汉盘龙城楼盘坤合云海城备案均价约11304元/平，上涨594元/平！",
        "docid": "J3SCIHJU055616ZT",
        "url": "https://www.163.com/dy/article/J3SCIHJU055616ZT.html"
    },
    {
        "title": "易闻天下丨武汉两区楼市公告，甘露山雪世界新动态",
        "docid": "J3OGM2NV05567SKQ",
        "url": "https://www.163.com/dy/article/J3OGM2NV05567SKQ.html"
    },
    {
        "title": "武汉东西湖区：人才买首套新房最高补助200万元，支持企业给人才筹集购房首付款",
        "docid": "J3PHH99Q0514R9P4",
        "url": "https://www.163.com/dy/article/J3PHH99Q0514R9P4.html"
    },
    {
        "title": "武汉名校遍地开分校，提醒你，别上头",
        "docid": "J3OFH82J0553TDVP",
        "url": "https://www.163.com/dy/article/J3OFH82J0553TDVP.html"
    },
    {
        "title": "新房成交量明显提升，购二套房居民增多，楼市迎来拐点了吗",
        "docid": "J3RRHAK40519B623",
        "url": "https://www.163.com/dy/article/J3RRHAK40519B623.html"
    },
    {
        "title": "“限量版”藏品级新中式合院！五个院子的别墅官方售楼处预约通道",
        "docid": "J3ECG7NB05567507",
        "url": "https://www.163.com/dy/article/J3ECG7NB05567507.html"
    },
    {
        "title": "不用再等15个工作日不动产登记刷新办理速度",
        "docid": "J3THMKMU0552ADWT",
        "url": "https://www.163.com/dy/article/J3THMKMU0552ADWT.html"
    },
    {
        "title": "如今的房价跌得太惨了！",
        "docid": "J3GAVRJO05566SC9",
        "url": "https://www.163.com/dy/article/J3GAVRJO05566SC9.html"
    },
    {
        "title": "一线楼市纷纷憋出大招！买房的时机到了吗？",
        "docid": "J3THK2420519BKFH",
        "url": "https://www.163.com/dy/article/J3THK2420519BKFH.html"
    },
    {
        "title": "雅诗阁中国2024年全球客户答谢活动圆满举办",
        "docid": "J3TI8SKO0514R9KQ",
        "url": "https://www.163.com/dy/article/J3TI8SKO0514R9KQ.html"
    },
    {
        "title": "5月武汉房价暴跌！二手房跌幅扩大！",
        "docid": "VF2VMO3RB",
        "url": "https://www.163.com/dy/article/VF2VMO3RB.html"
    },
    {
        "title": "“栋”和“幢”有什么区别，一个口诀：整体栋，局部幢",
        "docid": "VI2IMHRK1",
        "url": "https://www.163.com/dy/article/VI2IMHRK1.html"
    },
    {
        "title": "15%首付，85%贷款，银行不知道风险？大部分人都是老实人",
        "docid": "VF2VNDDHI",
        "url": "https://www.163.com/dy/article/VF2VNDDHI.html"
    },
    {
        "title": "华中地区最大的烂尾工程，武汉恒大科技旅游城",
        "docid": "VP2VPAVAI",
        "url": "https://www.163.com/dy/article/VP2VPAVAI.html"
    },
    {
        "title": "看不懂越南最近的事情？快速揭示越南动荡的本质，一看就懂",
        "docid": "VI2VLSUMP",
        "url": "https://www.163.com/dy/article/VI2VLSUMP.html"
    },
    {
        "title": "从开发商呈报给税务局的财务数据，看每平方米商品住宅的开发成本",
        "docid": "J3GC3R2D0553TDXU",
        "url": "https://www.163.com/dy/article/J3GC3R2D0553TDXU.html"
    },
    {
        "title": "警惕二手房买卖新套路，千万不要被坑了！",
        "docid": "J3TJIT1B05566SC9",
        "url": "https://www.163.com/dy/article/J3TJIT1B05566SC9.html"
    },
    {
        "title": "房子跌了，软阶层何去何从",
        "docid": "J3TFGAA30552F71X",
        "url": "https://www.163.com/dy/article/J3TFGAA30552F71X.html"
    },
    {
        "title": "人间清醒：房贷就是吸血鬼！",
        "docid": "J3TDN4F90556124M",
        "url": "https://www.163.com/dy/article/J3TDN4F90556124M.html"
    },
    {
        "title": "我们房价高？看看越南房价再说吧！不吃不喝100年也买不起",
        "docid": "J3GK174E0525D1LQ",
        "url": "https://www.163.com/dy/article/J3GK174E0525D1LQ.html"
    },
    {
        "title": "有人专门收购“老旧小区顶楼”？知情人：背后商机你还不知道",
        "docid": "J3S9UF3Q05566MKM",
        "url": "https://www.163.com/dy/article/J3S9UF3Q05566MKM.html"
    },
    {
        "title": "企业租赁土地自行建造的厂房，没有产权证，是不是不需要缴纳房产税？",
        "docid": "J3TANMBA0556124M",
        "url": "https://www.163.com/dy/article/J3TANMBA0556124M.html"
    },
    {
        "title": "业主在自家阳台装电子防风帘 却遭物业强拆：影响外立面！",
        "docid": "VT2U8VDFM",
        "url": "https://www.163.com/dy/article/VT2U8VDFM.html"
    },
    {
        "title": "定了，保房价还是保实体",
        "docid": "VF2IKSUD7",
        "url": "https://www.163.com/dy/article/VF2IKSUD7.html"
    },
    {
        "title": "800万卖掉上海房子，花600万回武汉买了套别墅，如今却烦恼不断",
        "docid": "VI2ILHTNV",
        "url": "https://www.163.com/dy/article/VI2ILHTNV.html"
    },
    {
        "title": "厦门楼市：传闻大招还要来？",
        "docid": "J3SPP6AC055644RG",
        "url": "https://www.163.com/dy/article/J3SPP6AC055644RG.html"
    },
    {
        "title": "6.5早看点|房贷政策优化提振市场，5月全国重点50城市场情绪指数止降回升",
        "docid": "J3TKK5MB0515AF0E",
        "url": "https://www.163.com/dy/article/J3TKK5MB0515AF0E.html"
    },
    {
        "title": "【官方网站】国贸鹭原(正在认筹中)官方预约通道@售楼处热销中",
        "docid": "J3EM48CF0556757N",
        "url": "https://www.163.com/dy/article/J3EM48CF0556757N.html"
    },
    {
        "title": "雅居乐前5个月预售82亿元，同比降66.79%",
        "docid": "J3TLNI92055381XS",
        "url": "https://www.163.com/dy/article/J3TLNI92055381XS.html"
    },
    {
        "title": "中信证券：重点城市二手房逐周销售环比上升 看好市场波浪式复苏",
        "docid": "J3TL9IMQ05198UNI",
        "url": "https://www.163.com/dy/article/J3TL9IMQ05198UNI.html"
    },
    {
        "title": "河北400万的房子被法拍了80万，还倒欠银行很多钱，万万没想到啊",
        "docid": "VY2VPMQBC",
        "url": "https://www.163.com/dy/article/VY2VPMQBC.html"
    },
    {
        "title": "500万不愿拆的房子，城市传奇！",
        "docid": "VL2VNCRVC",
        "url": "https://www.163.com/dy/article/VL2VNCRVC.html"
    },
    {
        "title": "国贸 cbd 全新现房",
        "docid": "VW2VKEM4O",
        "url": "https://www.163.com/dy/article/VW2VKEM4O.html"
    },
    {
        "title": "月薪几千的人要去看几千万的房子。",
        "docid": "VZ2VRAN4S",
        "url": "https://www.163.com/dy/article/VZ2VRAN4S.html"
    },
    {
        "title": "150万卖的房子，花90万又买回来了",
        "docid": "VI2IN0JFM",
        "url": "https://www.163.com/dy/article/VI2IN0JFM.html"
    },
    {
        "title": "美国经济恐出大事！美联储“利率过高”压制房地产市场 《华尔街日报》：开发商资金敲响警钟",
        "docid": "J3TN643K05566YXF",
        "url": "https://www.163.com/dy/article/J3TN643K05566YXF.html"
    },
    {
        "title": "高房价副作用显露了出来：年轻人买不起房、不愿结婚、不愿生娃？",
        "docid": "J3FR8OJQ0535BC2F",
        "url": "https://www.163.com/dy/article/J3FR8OJQ0535BC2F.html"
    },
    {
        "title": "大行评级｜中银国际：内房数据显示市场改善 首选中国海外",
        "docid": "J3TNQ35O05198ETO",
        "url": "https://www.163.com/dy/article/J3TNQ35O05198ETO.html"
    },
    {
        "title": "易闻天下丨武汉新增191米地标，江岸区保租房上新",
        "docid": "J3TN8T1405567SKQ",
        "url": "https://www.163.com/dy/article/J3TN8T1405567SKQ.html"
    },
    {
        "title": "外资巨头重燃信心！中国房地产板块表现抢眼，三大因素或推动市场进一步回暖",
        "docid": "J3TNQR9C0519QIKK",
        "url": "https://www.163.com/dy/article/J3TNQR9C0519QIKK.html"
    },
    {
        "title": "新政后的二手市场变天了",
        "docid": "J3TNN9G90515I4G5",
        "url": "https://www.163.com/dy/article/J3TNN9G90515I4G5.html"
    },
    {
        "title": "关注我了解更多房产知识",
        "docid": "VE2VTMOA7",
        "url": "https://www.163.com/dy/article/VE2VTMOA7.html"
    },
    {
        "title": "430万的房子被法拍了100万，最后还倒欠银行好多钱，真没想到啊！",
        "docid": "VY2VU08QO",
        "url": "https://www.163.com/dy/article/VY2VU08QO.html"
    },
    {
        "title": "入住别墅后，只想尽快搬回高层，没有想象中那么好，住了才知道",
        "docid": "VW2IL5N44",
        "url": "https://www.163.com/dy/article/VW2IL5N44.html"
    },
    {
        "title": "年轻人打响房价大跌第一枪，不结婚不生娃，这辈子不考虑买房！",
        "docid": "VV2VL6N52",
        "url": "https://www.163.com/dy/article/VV2VL6N52.html"
    },
    {
        "title": "红利期结束后，普通人的三大巨坑：教育、孩子、买房",
        "docid": "J3TPGUI70553TDXU",
        "url": "https://www.163.com/dy/article/J3TPGUI70553TDXU.html"
    },
    {
        "title": "二手房虽“破”，却有10大优势！有些人不懂，内行人却在悄悄下手",
        "docid": "J3TPF0630553TEV3",
        "url": "https://www.163.com/dy/article/J3TPF0630553TEV3.html"
    },
    {
        "title": "未来5年，老百姓买不起的将不再是房子，而是这4样不起眼的东西！",
        "docid": "J3TKL6SV05566SC9",
        "url": "https://www.163.com/dy/article/J3TKL6SV05566SC9.html"
    },
    {
        "title": "现在卖掉房子，是“精明”还是​“糊涂”？王石直言，这下真懂了",
        "docid": "J3TJU6HG055640VF",
        "url": "https://www.163.com/dy/article/J3TJU6HG055640VF.html"
    },
    {
        "title": "2024年第22周——重点城市商品住宅成交量持续上涨",
        "docid": "J3TPV5DE0515AN84",
        "url": "https://www.163.com/dy/article/J3TPV5DE0515AN84.html"
    },
    {
        "title": "子女不具备掌控大额资产能力的时候，不要提前把房子或钱交给他们",
        "docid": "J3GPF2BI0535FFBB",
        "url": "https://www.163.com/dy/article/J3GPF2BI0535FFBB.html"
    },
    {
        "title": "老家宅基地不规整的，不如建个L户型，突出部分做餐厨厅，美观又实用！",
        "docid": "J3TPINKR0553TB9L",
        "url": "https://www.163.com/dy/article/J3TPINKR0553TB9L.html"
    },
    {
        "title": "2024年1-5月【珠江河梅汕】房企排行榜TOP10揭晓！",
        "docid": "J3TJK2AH05158C7P",
        "url": "https://www.163.com/dy/article/J3TJK2AH05158C7P.html"
    },
    {
        "title": "商业地产危机四伏！Axos遭空头狙击，美国地区银行担忧重燃",
        "docid": "J3TP0V400519QIKK",
        "url": "https://www.163.com/dy/article/J3TP0V400519QIKK.html"
    },
    {
        "title": "三菱地产新开银座6丁目皇家花园酒店 提供273间客房及多功能空间",
        "docid": "J3TP0JI00519D45U",
        "url": "https://www.163.com/dy/article/J3TP0JI00519D45U.html"
    },
    {
        "title": "杭州、苏州、成都、广州等放开限购效果平淡：为何楼市不温不火？",
        "docid": "J3PO4DOD0552C5PL",
        "url": "https://www.163.com/dy/article/J3PO4DOD0552C5PL.html"
    },
    {
        "title": "促销又上强度了！老百姓的钱袋子这一次能守住吗？",
        "docid": "J3PSGJ080552257Z",
        "url": "https://www.163.com/dy/article/J3PSGJ080552257Z.html"
    },
    {
        "title": "月度市场 | 新政频出，市场不买账？房企“换新购”难撼客户心",
        "docid": "J3PDUAQK0515ARKP",
        "url": "https://www.163.com/dy/article/J3PDUAQK0515ARKP.html"
    },
    {
        "title": "60岁退休后，住郊区别墅养老，合适吗？",
        "docid": "J3GRHHH20535WDMF",
        "url": "https://www.163.com/dy/article/J3GRHHH20535WDMF.html"
    },
    {
        "title": "消息传来：明年比今年更难熬？老百姓或将面临6大难题！",
        "docid": "J3TP37D005536P04",
        "url": "https://www.163.com/dy/article/J3TP37D005536P04.html"
    },
    {
        "title": "房子过户给子女，“在世办理”和“过世办理”，哪一种更省钱？",
        "docid": "J3TNVAKE05566N4D",
        "url": "https://www.163.com/dy/article/J3TNVAKE05566N4D.html"
    },
    {
        "title": "一个更好的消息传来，公积金实施新规定，一字之差好处却很大",
        "docid": "J3TKHSHE0535AX4A",
        "url": "https://www.163.com/dy/article/J3TKHSHE0535AX4A.html"
    },
    {
        "title": "把握机会！不要放弃老宅基地，翻新维修是个好选择！",
        "docid": "J3PQSNRM0532D0CK",
        "url": "https://www.163.com/dy/article/J3PQSNRM0532D0CK.html"
    },
    {
        "title": "恒大地产新增被执行标的33亿 累计被执行已达769亿元",
        "docid": "J3TQIL6Q0553TDTY",
        "url": "https://www.163.com/dy/article/J3TQIL6Q0553TDTY.html"
    },
    {
        "title": "看房后找别的中介买房是“跳单”？购房者有选择中介的权利",
        "docid": "J3TQS30O053469LG",
        "url": "https://www.163.com/dy/article/J3TQS30O053469LG.html"
    },
    {
        "title": "“楼市强刺激”结束了？官方定调，今年起，房地产走势已定！",
        "docid": "J3TLOBRD0540A6F8",
        "url": "https://www.163.com/dy/article/J3TLOBRD0540A6F8.html"
    },
    {
        "title": "最新！成都执行“首付15%”，改善“以旧换新”也落地了！",
        "docid": "J3TRV87105524XKD",
        "url": "https://www.163.com/dy/article/J3TRV87105524XKD.html"
    },
    {
        "title": "再过10年，现金和房子都将贬值，只有2样东西最值钱！",
        "docid": "J3TP0DN105536P04",
        "url": "https://www.163.com/dy/article/J3TP0DN105536P04.html"
    },
    {
        "title": "谢逸枫：楼市复苏效果平淡，不容乐观？",
        "docid": "J3TSJ80H0515ALUG",
        "url": "https://www.163.com/dy/article/J3TSJ80H0515ALUG.html"
    },
    {
        "title": "世界上最“便宜”的海岛：三千亩只卖4300元，闲置至今一直没人买",
        "docid": "J3TQBPR205566N4D",
        "url": "https://www.163.com/dy/article/J3TQBPR205566N4D.html"
    },
    {
        "title": "投资，这种房子今后会更吃香",
        "docid": "J3TR4JP20515WE4J",
        "url": "https://www.163.com/dy/article/J3TR4JP20515WE4J.html"
    },
    {
        "title": "这次房地产救市会不会成功",
        "docid": "J3TR6V7L0535FFBB",
        "url": "https://www.163.com/dy/article/J3TR6V7L0535FFBB.html"
    },
    {
        "title": "扩募+首发：保租房REITs的机遇与挑战 | 投资视野",
        "docid": "J3TPUAVI05530RXA",
        "url": "https://www.163.com/dy/article/J3TPUAVI05530RXA.html"
    },
    {
        "title": "农村自建房更方便了，满足4个条件就可以",
        "docid": "J3TJVV90055640VF",
        "url": "https://www.163.com/dy/article/J3TJVV90055640VF.html"
    },
    {
        "title": "房产税为什么不好推？只要明白一个词：基本盘就行了。",
        "docid": "J3PM92J605566AX1",
        "url": "https://www.163.com/dy/article/J3PM92J605566AX1.html"
    },
    {
        "title": "先等一等！存量房贷利率，很快就要降了",
        "docid": "J3TU11Q70515UN97",
        "url": "https://www.163.com/dy/article/J3TU11Q70515UN97.html"
    },
    {
        "title": "“不要碰房子！”，事实是什么？",
        "docid": "J3TTIR6S05524QHN",
        "url": "https://www.163.com/dy/article/J3TTIR6S05524QHN.html"
    },
    {
        "title": "购买10层以上的商品房到底好不好，优点和缺点全在这里！",
        "docid": "J3RMCIFH0540H6M7",
        "url": "https://www.163.com/dy/article/J3RMCIFH0540H6M7.html"
    },
    {
        "title": "“房奴”与“无房族”哪个过得更好？内行：10年后，差距一目了然",
        "docid": "J3FSI2I30535BC2F",
        "url": "https://www.163.com/dy/article/J3FSI2I30535BC2F.html"
    },
    {
        "title": "中海拿地就一个字 | 潘永堂",
        "docid": "J3TME4ID0553TDTY",
        "url": "https://www.163.com/dy/article/J3TME4ID0553TDTY.html"
    },
    {
        "title": "房子置换，接下来操作清晰了",
        "docid": "J3TS8GG00553QD2F",
        "url": "https://www.163.com/dy/article/J3TS8GG00553QD2F.html"
    },
    {
        "title": "她可能是全网最悲催的买房人",
        "docid": "J3TMAFHK05567Q0C",
        "url": "https://www.163.com/dy/article/J3TMAFHK05567Q0C.html"
    },
    {
        "title": "6.5早评：今日市场出现了反弹？房地产板块昨日再度异动",
        "docid": "J3THNDCK0553Y7J3",
        "url": "https://www.163.com/dy/article/J3THNDCK0553Y7J3.html"
    },
    {
        "title": "博枫2.89亿美元兜售 ARA韩国八折接手首尔康莱德",
        "docid": "J3TSNFCK0519D45U",
        "url": "https://www.163.com/dy/article/J3TSNFCK0519D45U.html"
    },
    {
        "title": "颠覆！万科·安璞轩实景揭秘",
        "docid": "VX300CJBN",
        "url": "https://www.163.com/dy/article/VX300CJBN.html"
    },
    {
        "title": "心塞！购房不知如何选楼层？1 至 33 层优劣大剖析！",
        "docid": "J3RNU3V10540H6M7",
        "url": "https://www.163.com/dy/article/J3RNU3V10540H6M7.html"
    },
    {
        "title": "晒晒我在北京的47平小窝，前后花了125万，大家看看值吗？",
        "docid": "J391T0VL0520CBAF",
        "url": "https://www.163.com/dy/article/J391T0VL0520CBAF.html"
    },
    {
        "title": "买房切记避开这两个特殊楼层，我家贪小便宜，住后才觉是大坑！",
        "docid": "J3RN1LNN0540H6M7",
        "url": "https://www.163.com/dy/article/J3RN1LNN0540H6M7.html"
    },
    {
        "title": "关注我了解更多房产知识",
        "docid": "VE2J2IT8G",
        "url": "https://www.163.com/dy/article/VE2J2IT8G.html"
    },
    {
        "title": "30年的房贷利息总和确实很高，现在买房真的会供满30年吗",
        "docid": "VE2VU9S10",
        "url": "https://www.163.com/dy/article/VE2VU9S10.html"
    },
    {
        "title": "大平层开始被抛弃？是什么原因让大家避之不及？房价暴跌太惨痛！",
        "docid": "VW2IPCQK5",
        "url": "https://www.163.com/dy/article/VW2IPCQK5.html"
    },
    {
        "title": "Nguyen Khac Phuoc：如何在不规则场地设计建筑和民宿",
        "docid": "VC306H4C6",
        "url": "https://www.163.com/dy/article/VC306H4C6.html"
    },
    {
        "title": "证监会将在2024陆家嘴论坛期间发布资本市场相关政策举措",
        "docid": "VB300R0C2",
        "url": "https://www.163.com/dy/article/VB300R0C2.html"
    },
    {
        "title": "买房子是大了好还是小了好？",
        "docid": "VG303L2OM",
        "url": "https://www.163.com/dy/article/VG303L2OM.html"
    },
    {
        "title": "800万卖掉上海房子，花600万回武汉买了套别墅，如今却烦恼不断",
        "docid": "VF2INJSQQ",
        "url": "https://www.163.com/dy/article/VF2INJSQQ.html"
    },
    {
        "title": "相当漂亮的146.56平米户型",
        "docid": "J3U1ILTT0553TEV3",
        "url": "https://www.163.com/dy/article/J3U1ILTT0553TEV3.html"
    },
    {
        "title": "有人想借鉴我的买房思路",
        "docid": "J3H10COF0553JMK2",
        "url": "https://www.163.com/dy/article/J3H10COF0553JMK2.html"
    },
    {
        "title": "在严厂长这选的整屋家具配送安装好了，实拍纪录看看整体效果",
        "docid": "VI2VP1VOA",
        "url": "https://www.163.com/dy/article/VI2VP1VOA.html"
    },
    {
        "title": "兆龙互连(300913.SZ)：公司已在泰国租赁了厂房预计第三季度将正式规模化生产  快报",
        "docid": "VP2TJ2G3C",
        "url": "https://www.163.com/dy/article/VP2TJ2G3C.html"
    },
    {
        "title": "房子结构，厨房内部改动，与你解析",
        "docid": "VS2VLEOJD",
        "url": "https://www.163.com/dy/article/VS2VLEOJD.html"
    },
    {
        "title": "房产之路上，80后的人，一路走到黑",
        "docid": "VU2T678B8",
        "url": "https://www.163.com/dy/article/VU2T678B8.html"
    },
    {
        "title": "我懵了，这个开发商一夜降5000，怎么敢的？",
        "docid": "VN2VOP2IN",
        "url": "https://www.163.com/dy/article/VN2VOP2IN.html"
    },
    {
        "title": "10年20万租金一次性付清的农村小别墅您愿意租吗？单身女农村躺平",
        "docid": "VF3005RN3",
        "url": "https://www.163.com/dy/article/VF3005RN3.html"
    },
    {
        "title": "华泰证券：5月百强房企销售额同比跌幅收窄，期待政策效果  快报",
        "docid": "VP2T4FL3Q",
        "url": "https://www.163.com/dy/article/VP2T4FL3Q.html"
    },
    {
        "title": "14号文，彻底改变房地产 #一个说真话的房产人",
        "docid": "VZ302EV4G",
        "url": "https://www.163.com/dy/article/VZ302EV4G.html"
    },
    {
        "title": "乡村中式庭院别墅豪宅，独门独院的美丽宅基地建房",
        "docid": "VS2J7KADQ",
        "url": "https://www.163.com/dy/article/VS2J7KADQ.html"
    },
    {
        "title": "二手房缘何成为交易主力军［会员直播片段］",
        "docid": "VY2J5L92E",
        "url": "https://www.163.com/dy/article/VY2J5L92E.html"
    },
    {
        "title": "房子都卖不动了，为什么不降价？内容过于真实",
        "docid": "VW2VOFGJI",
        "url": "https://www.163.com/dy/article/VW2VOFGJI.html"
    },
    {
        "title": "花几百万买了房子，涨价后开发商要收回(上)",
        "docid": "VP2J82JQ8",
        "url": "https://www.163.com/dy/article/VP2J82JQ8.html"
    },
    {
        "title": "160万的房子，五年时间，竟然跌成这样",
        "docid": "VV302QC03",
        "url": "https://www.163.com/dy/article/VV302QC03.html"
    },
    {
        "title": "几十年辛苦白费了，房价下跌业主暴怒，拿水压枪狂喷售楼处人员",
        "docid": "VX2VUTT8F",
        "url": "https://www.163.com/dy/article/VX2VUTT8F.html"
    },
    {
        "title": "转机来了！恒大烂尾楼或许有救了，专家方案获网友力挺！",
        "docid": "VS2VUBIHL",
        "url": "https://www.163.com/dy/article/VS2VUBIHL.html"
    },
    {
        "title": "如果房价继续下跌，将有60%的家庭，要面对这三大风险",
        "docid": "VV2J4TJB6",
        "url": "https://www.163.com/dy/article/VV2J4TJB6.html"
    },
    {
        "title": "买了45楼高层后苦不堪言，发生事故只能自救，如今贱卖无人接盘！",
        "docid": "VY2J5BL19",
        "url": "https://www.163.com/dy/article/VY2J5BL19.html"
    },
    {
        "title": "投票建车棚 结果没通过",
        "docid": "VV3047P8C",
        "url": "https://www.163.com/dy/article/VV3047P8C.html"
    },
    {
        "title": "遇上这些爱占小便宜的“好邻居”，烦得想换房子住，晒给大家看看",
        "docid": "J3U289AB05566SC9",
        "url": "https://www.163.com/dy/article/J3U289AB05566SC9.html"
    },
    {
        "title": "最低还1元本金！房贷“先息后本”划算吗？",
        "docid": "J3U4D3K00519C6T9",
        "url": "https://www.163.com/dy/article/J3U4D3K00519C6T9.html"
    },
    {
        "title": "如果再暴跌，剩下就是跳楼了？16年前花223万买房，如今何去何从",
        "docid": "J3U1D2QG05566SC9",
        "url": "https://www.163.com/dy/article/J3U1D2QG05566SC9.html"
    },
    {
        "title": "江苏取消首套和二套房贷利率下限！专家：持续降低购房成本｜宅男财经",
        "docid": "J3U5ETEL0519C6T9",
        "url": "https://www.163.com/dy/article/J3U5ETEL0519C6T9.html"
    },
    {
        "title": "澳洲官宣新法案: 又要让房东大出血! 所有人都不干了",
        "docid": "J3TRE3VE0553TEQM",
        "url": "https://www.163.com/dy/article/J3TRE3VE0553TEQM.html"
    },
    {
        "title": "警惕！有房企用“四代住宅”，割韭菜！",
        "docid": "J3U4HF5805533TRB",
        "url": "https://www.163.com/dy/article/J3U4HF5805533TRB.html"
    },
    {
        "title": "龙翔控股：风波后的思考与变革",
        "docid": "J3TTH95N0553TB8M",
        "url": "https://www.163.com/dy/article/J3TTH95N0553TB8M.html"
    },
    {
        "title": "花几百万买了房子，涨价后开发商要收回(中)",
        "docid": "VP2J83E0M",
        "url": "https://www.163.com/dy/article/VP2J83E0M.html"
    },
    {
        "title": "关注我了解更多房产知识",
        "docid": "VE2J2IUH9",
        "url": "https://www.163.com/dy/article/VE2J2IUH9.html"
    },
    {
        "title": "帝景苑3亿海景豪宅空中泳池复式全被刷，实力强大",
        "docid": "VI2J7FBIR",
        "url": "https://www.163.com/dy/article/VI2J7FBIR.html"
    },
    {
        "title": "端午消费｜部分热门城市高考房预订量同比涨5倍，价格稳中有降",
        "docid": "J3U5V9EQ0519DDQ2",
        "url": "https://www.163.com/dy/article/J3U5V9EQ0519DDQ2.html"
    },
    {
        "title": "全球15城写字楼租金调查：首尔涨幅居首 北京上海降幅最大",
        "docid": "J3U6EREP0519D45U",
        "url": "https://www.163.com/dy/article/J3U6EREP0519D45U.html"
    },
    {
        "title": "熬过了最艰难的时刻，万科的“拐点”到了吗？",
        "docid": "J3TLHP6I0530IU8N",
        "url": "https://www.163.com/dy/article/J3TLHP6I0530IU8N.html"
    },
    {
        "title": "李稻葵：为房地产开发商提供充足融资并放开限购 是稳定房价的两项关键措施",
        "docid": "J3U73B6A0519D45U",
        "url": "https://www.163.com/dy/article/J3U73B6A0519D45U.html"
    },
    {
        "title": "新力地产新增24.4亿被执行信息 累计亿超88亿元",
        "docid": "J3U6ERDM0519D45U",
        "url": "https://www.163.com/dy/article/J3U6ERDM0519D45U.html"
    },
    {
        "title": "江西酷里篮新材料有限公司整装定制的际遇展示别样温柔的极简之美",
        "docid": "VA30DRSUB",
        "url": "https://www.163.com/dy/article/VA30DRSUB.html"
    },
    {
        "title": "不愧是韩国人的首都，豪宅旁边就是贫民区，这可是首尔啊",
        "docid": "VW2IVECQK",
        "url": "https://www.163.com/dy/article/VW2IVECQK.html"
    },
    {
        "title": "你的房子未来是怎么变成长租房的？",
        "docid": "VN30D8122",
        "url": "https://www.163.com/dy/article/VN30D8122.html"
    },
    {
        "title": "房价12000跌到了6000，真的后悔买房了，多年积蓄化为乌有",
        "docid": "VV305PCP5",
        "url": "https://www.163.com/dy/article/VV305PCP5.html"
    },
    {
        "title": "房价拐点来了吗？2024年将进入楼市疯狂救市期",
        "docid": "VX307DIR9",
        "url": "https://www.163.com/dy/article/VX307DIR9.html"
    },
    {
        "title": "新华视点｜北上广深接连出招，房地产市场影响几何？",
        "docid": "J3U8TRN605346RC6",
        "url": "https://www.163.com/dy/article/J3U8TRN605346RC6.html"
    },
    {
        "title": "大悦城：将综合房地产发展走势及各地市场情况进行投资决策",
        "docid": "J3U8B8LJ0519D45U",
        "url": "https://www.163.com/dy/article/J3U8B8LJ0519D45U.html"
    },
    {
        "title": "武汉的房价，卖房子太难了！",
        "docid": "VJ2JGGKGN",
        "url": "https://www.163.com/dy/article/VJ2JGGKGN.html"
    },
    {
        "title": "房子挂了两年发现卖不掉",
        "docid": "VZ2JFEHSP",
        "url": "https://www.163.com/dy/article/VZ2JFEHSP.html"
    },
    {
        "title": "都说买这房子的都是人傻钱多，我不图房只是觉得聪明太累",
        "docid": "VF2JER36C",
        "url": "https://www.163.com/dy/article/VF2JER36C.html"
    },
    {
        "title": "价值490万房子130万卖了，赔的心慌慌，多年积蓄化为乌有！",
        "docid": "VY2JG50A7",
        "url": "https://www.163.com/dy/article/VY2JG50A7.html"
    },
    {
        "title": "大平层开始被抛弃？是什么原因让大家避之不及？房价暴跌太惨痛！",
        "docid": "VF2IOMHC6",
        "url": "https://www.163.com/dy/article/VF2IOMHC6.html"
    },
    {
        "title": "公务员是否还能享受分房待遇？",
        "docid": "VA2J4ADCT",
        "url": "https://www.163.com/dy/article/VA2J4ADCT.html"
    },
    {
        "title": "不用一天时间就能将房子建好，你信吗",
        "docid": "VW30DIB7D",
        "url": "https://www.163.com/dy/article/VW30DIB7D.html"
    },
    {
        "title": "房地产是否要回暖.25",
        "docid": "VN2TCAA2P",
        "url": "https://www.163.com/dy/article/VN2TCAA2P.html"
    },
    {
        "title": "花旗：中国房地产迎来软着陆，6-9个月内房价降企稳",
        "docid": "J3UA9H4405198NMR",
        "url": "https://www.163.com/dy/article/J3UA9H4405198NMR.html"
    },
    {
        "title": "法拍房远低于市场价，想入手的话，最好避开这4个“陷阱”",
        "docid": "J3HBS0D90532D0CK",
        "url": "https://www.163.com/dy/article/J3HBS0D90532D0CK.html"
    },
    {
        "title": "房子还可以这样建造，速度很快",
        "docid": "VZ30DPC6S",
        "url": "https://www.163.com/dy/article/VZ30DPC6S.html"
    },
    {
        "title": "现在能不买房，尽量不买房",
        "docid": "VI30DLQ4L",
        "url": "https://www.163.com/dy/article/VI30DLQ4L.html"
    },
    {
        "title": "购房7天无理由退定？长沙发《通知》鼓励推行",
        "docid": "VP30FSANF",
        "url": "https://www.163.com/dy/article/VP30FSANF.html"
    },
    {
        "title": "烂尾资金断裂保交楼恶性循环，烂的程度不同各地都有估计量很大",
        "docid": "VF30EJUUJ",
        "url": "https://www.163.com/dy/article/VF30EJUUJ.html"
    },
    {
        "title": "房价从2万2降到6千，多年积蓄化作一场空，现如今想卖已无人接盘",
        "docid": "VY2VQ6GHL",
        "url": "https://www.163.com/dy/article/VY2VQ6GHL.html"
    },
    {
        "title": "为了贪便宜，买下这套一楼带露台的房子，如今不想要了，进退两难",
        "docid": "VF2IIAV6J",
        "url": "https://www.163.com/dy/article/VF2IIAV6J.html"
    },
    {
        "title": "最不是资产的财产！高层住宅危害巨大！",
        "docid": "VV2UEA1NC",
        "url": "https://www.163.com/dy/article/VV2UEA1NC.html"
    },
    {
        "title": "房子烂尾了还被催还贷款，一位烂尾楼业主跟银行的通话！听得想哭",
        "docid": "VF2IK17NM",
        "url": "https://www.163.com/dy/article/VF2IK17NM.html"
    },
    {
        "title": "拜托！我们买房，不要买椟还珠好不好？",
        "docid": "J3UBB92E0535FFBW",
        "url": "https://www.163.com/dy/article/J3UBB92E0535FFBW.html"
    },
    {
        "title": "华人豪掷数千万澳洲盖房，如今1折抛售! 空置10年没人接盘",
        "docid": "J3UC3HQ805560ZCW",
        "url": "https://www.163.com/dy/article/J3UC3HQ805560ZCW.html"
    },
    {
        "title": "能工青年说匠心之项目篇（房建板块）",
        "docid": "VF2GUL71D",
        "url": "https://www.163.com/dy/article/VF2GUL71D.html"
    },
    {
        "title": "“取消”公摊面积？已经买了房的人，能获得补偿吗？回应来了",
        "docid": "VN2JGUUKP",
        "url": "https://www.163.com/dy/article/VN2JGUUKP.html"
    },
    {
        "title": "马光远：买房面前最焦虑的大山已经没了",
        "docid": "VA2GTCQ2D",
        "url": "https://www.163.com/dy/article/VA2GTCQ2D.html"
    },
    {
        "title": "为何有些个东西要下调？",
        "docid": "VD30HGMD2",
        "url": "https://www.163.com/dy/article/VD30HGMD2.html"
    },
    {
        "title": "揭秘！老百姓不买房的十大原因，还贷压力竟成头号难题",
        "docid": "VM2GBUDRG",
        "url": "https://www.163.com/dy/article/VM2GBUDRG.html"
    },
    {
        "title": "买完房子这两件事一定要尽快去做",
        "docid": "VG303L3F1",
        "url": "https://www.163.com/dy/article/VG303L3F1.html"
    },
    {
        "title": "房租15000水电一个月3000今日营业额200，现在想转店都没人接手",
        "docid": "VL307C9SD",
        "url": "https://www.163.com/dy/article/VL307C9SD.html"
    },
    {
        "title": "中国四川巴中小松和越南媳妇秋秋在越南给老丈人盖房子帮三姐开店",
        "docid": "VZ2VNLPHB",
        "url": "https://www.163.com/dy/article/VZ2VNLPHB.html"
    },
    {
        "title": "买得起房的人都在埋头苦干,买不起房的都在抱怨不公平",
        "docid": "J3U5KF9L05565306",
        "url": "https://www.163.com/dy/article/J3U5KF9L05565306.html"
    },
    {
        "title": "中国房价的终极答案！如果物价上涨，房价会上涨吗？",
        "docid": "J3U8LAEA05566SC9",
        "url": "https://www.163.com/dy/article/J3U8LAEA05566SC9.html"
    },
    {
        "title": "成都的撇火药房子，和找活路的年轻人",
        "docid": "J3U3BIJH0553TEV3",
        "url": "https://www.163.com/dy/article/J3U3BIJH0553TEV3.html"
    },
    {
        "title": "楼市转向了！外资积极做多房地产板块，对中国房地产市场态度转暖",
        "docid": "J3U0LGJ605562DLL",
        "url": "https://www.163.com/dy/article/J3U0LGJ605562DLL.html"
    },
    {
        "title": "“以价换量”究竟好还是不好呢",
        "docid": "J3U4AFSJ05567AYR",
        "url": "https://www.163.com/dy/article/J3U4AFSJ05567AYR.html"
    },
    {
        "title": "已经开始收购存量房，那存量房贷的利率什么时候降？",
        "docid": "J3U0P93A05567IYR",
        "url": "https://www.163.com/dy/article/J3U0P93A05567IYR.html"
    },
    {
        "title": "房子是一个综合原因决定价格的玩意！",
        "docid": "J3U0UQ1305567IYR",
        "url": "https://www.163.com/dy/article/J3U0UQ1305567IYR.html"
    },
    {
        "title": "外高桥俞勇：将保持对产业物业开发的投入 今明两年改建约70万平米",
        "docid": "J3UD74B30519D45U",
        "url": "https://www.163.com/dy/article/J3UD74B30519D45U.html"
    },
    {
        "title": "重要消息！住房公积金贷款额度最高调至120万，没买房的有福了",
        "docid": "J3U33FV705562DLL",
        "url": "https://www.163.com/dy/article/J3U33FV705562DLL.html"
    },
    {
        "title": "新加坡办公室市场逆势上涨，抗衡全球市场不利因素",
        "docid": "J3TR5S11055631IE",
        "url": "https://www.163.com/dy/article/J3TR5S11055631IE.html"
    },
    {
        "title": "新政加持，楼市明显复苏，关键能否维持三个月",
        "docid": "J3UA379K051597TT",
        "url": "https://www.163.com/dy/article/J3UA379K051597TT.html"
    },
    {
        "title": "永丰VS翠湖，这道置业题，该怎么选？",
        "docid": "J3UCUH6N05567UM9",
        "url": "https://www.163.com/dy/article/J3UCUH6N05567UM9.html"
    },
    {
        "title": "重磅利好！地产融资协调机制加速运转，房企融资环境有望持续改善",
        "docid": "J3U5NQ6B05562DLL",
        "url": "https://www.163.com/dy/article/J3U5NQ6B05562DLL.html"
    },
    {
        "title": "客户看房，被房托逼定，房主的安排，到底是套路，还是博弈之道？",
        "docid": "J3TVVRF005568CHS",
        "url": "https://www.163.com/dy/article/J3TVVRF005568CHS.html"
    },
    {
        "title": "市场情绪，两极分化了！",
        "docid": "J3TTKAOE0536UOB3",
        "url": "https://www.163.com/dy/article/J3TTKAOE0536UOB3.html"
    },
    {
        "title": "为什么出现0公摊？一定要了解清楚",
        "docid": "J3UF61T905567SKQ",
        "url": "https://www.163.com/dy/article/J3UF61T905567SKQ.html"
    },
    {
        "title": "全面回暖！不要等房价下跌，成交面积增长65.78%，透露了什么信号",
        "docid": "J3U024A005562DLL",
        "url": "https://www.163.com/dy/article/J3U024A005562DLL.html"
    },
    {
        "title": "保利西子湾，北卧带飘窗1600元/月，3户合租高楼层，整体空",
        "docid": "VV2J4BF33",
        "url": "https://www.163.com/dy/article/VV2J4BF33.html"
    },
    {
        "title": "以后家家户户都在用的阳光房",
        "docid": "VS2JKJ5R6",
        "url": "https://www.163.com/dy/article/VS2JKJ5R6.html"
    },
    {
        "title": "买房首付降至15%，背后的秘密让人大开眼界",
        "docid": "VP2JKSPS1",
        "url": "https://www.163.com/dy/article/VP2JKSPS1.html"
    },
    {
        "title": "新地NOVO LAND第3B期将于6月6日上载楼书",
        "docid": "J3UHEHEA0519D45U",
        "url": "https://www.163.com/dy/article/J3UHEHEA0519D45U.html"
    },
    {
        "title": "本周重大事件：香港楼价跌回“撤辣”前，中国跨境电商或遭美国重挫",
        "docid": "J3UHMM5J05566YTZ",
        "url": "https://www.163.com/dy/article/J3UHMM5J05566YTZ.html"
    },
    {
        "title": "大公开！新加坡这些地区租房市场最火爆！全岛最靓房源戳文进~",
        "docid": "J3UG935M05371E5Q",
        "url": "https://www.163.com/dy/article/J3UG935M05371E5Q.html"
    },
    {
        "title": "认房不认贷！房价会上涨吗？高层表态：楼市将朝这3个方向发力",
        "docid": "J3TLV9ID0540A6F8",
        "url": "https://www.163.com/dy/article/J3TLV9ID0540A6F8.html"
    },
    {
        "title": "美联工商铺：香港5月份工商铺注册量突破300宗 创9个月新高",
        "docid": "J3UHEL3E0519D45U",
        "url": "https://www.163.com/dy/article/J3UHEL3E0519D45U.html"
    },
    {
        "title": "拆迁户回迁房：我也轮到了",
        "docid": "VL2JKB28K",
        "url": "https://www.163.com/dy/article/VL2JKB28K.html"
    },
    {
        "title": "外高桥金纬苑·2500元春晖路25弄 北厅一室户燃气做饭·",
        "docid": "VV2IMIILI",
        "url": "https://www.163.com/dy/article/VV2IMIILI.html"
    },
    {
        "title": "2024年4月全国5A级景区100强，华山第42，泰山第6，那黄山第几？",
        "docid": "VQ2JNSQ8P",
        "url": "https://www.163.com/dy/article/VQ2JNSQ8P.html"
    },
    {
        "title": "楼市的矛盾很尖锐，楼市，中国房地产",
        "docid": "VE30JI414",
        "url": "https://www.163.com/dy/article/VE30JI414.html"
    },
    {
        "title": "山海湾8号高楼层观滇景观房",
        "docid": "VV30CR1C5",
        "url": "https://www.163.com/dy/article/VV30CR1C5.html"
    },
    {
        "title": "我把别墅住宅换回大平层后，心里话不吐不快，真的是上千万的教训",
        "docid": "J3UG0RO9054057BR",
        "url": "https://www.163.com/dy/article/J3UG0RO9054057BR.html"
    },
    {
        "title": "市场青睐的：一层两户、大平层，225~299㎡创新户型分享",
        "docid": "J3UISPVE0535LAX2",
        "url": "https://www.163.com/dy/article/J3UISPVE0535LAX2.html"
    },
    {
        "title": "百强房企销售额同比降幅继续收窄，专家：预计6月成交量有望创年内新高",
        "docid": "J3PBBEDB0514R9NP",
        "url": "https://www.163.com/dy/article/J3PBBEDB0514R9NP.html"
    },
    {
        "title": "房价暴跌，没有赢家，只有输家，事实是什么？",
        "docid": "J3HK1QV205524QHN",
        "url": "https://www.163.com/dy/article/J3HK1QV205524QHN.html"
    },
    {
        "title": "楼市将走向何方？房地产大佬冯仑一番话，无意中揭开真相！",
        "docid": "VG30M9FI6",
        "url": "https://www.163.com/dy/article/VG30M9FI6.html"
    },
    {
        "title": "房地产凭什么能够成为国民经济的支柱 ",
        "docid": "VG30OISSH",
        "url": "https://www.163.com/dy/article/VG30OISSH.html"
    },
    {
        "title": "两亿农民工没买房，代表房地产有希望？",
        "docid": "VR30MUBUP",
        "url": "https://www.163.com/dy/article/VR30MUBUP.html"
    },
    {
        "title": "第三十七期  新房设计如何布局 下",
        "docid": "VZ2U44JRM",
        "url": "https://www.163.com/dy/article/VZ2U44JRM.html"
    },
    {
        "title": "购房7天无理由退定？长沙发《通知》鼓励推行",
        "docid": "VF30J8T5D",
        "url": "https://www.163.com/dy/article/VF30J8T5D.html"
    },
    {
        "title": "疑因房价骤降大闹 房价降到底是好事还是坏事？",
        "docid": "VF2U2H1RB",
        "url": "https://www.163.com/dy/article/VF2U2H1RB.html"
    },
    {
        "title": "比住宅更隐形巨雷：商业地产！",
        "docid": "J3UL6EDM05561A6X",
        "url": "https://www.163.com/dy/article/J3UL6EDM05561A6X.html"
    },
    {
        "title": "坐在马桶上炒菜？四川奇葩“撇火药房子”火了！",
        "docid": "VT30OHSJ4",
        "url": "https://www.163.com/dy/article/VT30OHSJ4.html"
    },
    {
        "title": "有天有地、价格合理，这样的房子你喜欢嘛",
        "docid": "VO30JJ7N4",
        "url": "https://www.163.com/dy/article/VO30JJ7N4.html"
    },
    {
        "title": "金价飙升、房价下探：历史告诉我们什么？",
        "docid": "VN30J5SUT",
        "url": "https://www.163.com/dy/article/VN30J5SUT.html"
    },
    {
        "title": "机构：5月一线城市找房热度环比上涨7%  快报",
        "docid": "VP2U3HVAP",
        "url": "https://www.163.com/dy/article/VP2U3HVAP.html"
    },
    {
        "title": "买房贪便宜，不慎踩了坑，后悔一辈子",
        "docid": "VV2U2TKDP",
        "url": "https://www.163.com/dy/article/VV2U2TKDP.html"
    },
    {
        "title": "主城区的湖景别墅70年产权190-280平",
        "docid": "VV30BRK5H",
        "url": "https://www.163.com/dy/article/VV30BRK5H.html"
    },
    {
        "title": "打工买房6000多跌到2000多，韭菜连根割真心疼，物业费都不想交",
        "docid": "VG30NE30F",
        "url": "https://www.163.com/dy/article/VG30NE30F.html"
    },
    {
        "title": "花几百万买了房子，涨价后开发商要收回(下)",
        "docid": "VP2J83174",
        "url": "https://www.163.com/dy/article/VP2J83174.html"
    },
    {
        "title": "买新房我们应该注意什么？",
        "docid": "VG303L45M",
        "url": "https://www.163.com/dy/article/VG303L45M.html"
    },
    {
        "title": "恭喜粉丝通过我出的方案成功拿回返佣",
        "docid": "J3HMMOS0055687IG",
        "url": "https://www.163.com/dy/article/J3HMMOS0055687IG.html"
    },
    {
        "title": "更好发挥住房公积金保障作用",
        "docid": "J3UMU6CV0514R9KQ",
        "url": "https://www.163.com/dy/article/J3UMU6CV0514R9KQ.html"
    },
    {
        "title": "越来越多人不买高楼层户型了，有钱人都知道，后悔我家买错了",
        "docid": "J3HL526I0540B07R",
        "url": "https://www.163.com/dy/article/J3HL526I0540B07R.html"
    },
    {
        "title": "年收入50万VS两套房产：寒门青年如何弯道超车？",
        "docid": "VF2JTOV4R",
        "url": "https://www.163.com/dy/article/VF2JTOV4R.html"
    },
    {
        "title": "三十年后你的房子可能是建筑垃圾",
        "docid": "VN2VS7T0O",
        "url": "https://www.163.com/dy/article/VN2VS7T0O.html"
    },
    {
        "title": "远山近水皆在眼前，这样的院子我相信您也会喜欢",
        "docid": "VS2VTLC5U",
        "url": "https://www.163.com/dy/article/VS2VTLC5U.html"
    },
    {
        "title": "首付15%是鸡肋吗是你想得太简单了",
        "docid": "VN2U64VS3",
        "url": "https://www.163.com/dy/article/VN2U64VS3.html"
    },
    {
        "title": "商业街升级改造引发商户质疑，是福是祸？",
        "docid": "VO2VP2CMK",
        "url": "https://www.163.com/dy/article/VO2VP2CMK.html"
    },
    {
        "title": "房地产的终极目标是啥？",
        "docid": "VW30K17IJ",
        "url": "https://www.163.com/dy/article/VW30K17IJ.html"
    },
    {
        "title": "房价必须要上涨，暴跌带来的后果和痛苦，远超你能承受的",
        "docid": "VG2VQ32DI",
        "url": "https://www.163.com/dy/article/VG2VQ32DI.html"
    },
    {
        "title": "房地产逻辑大变革，“刚需房”退出历史舞台，背后的深意和趋势！",
        "docid": "J3MQA65U0552CA2P",
        "url": "https://www.163.com/dy/article/J3MQA65U0552CA2P.html"
    },
    {
        "title": "重磅利好！机构：全国找房热度环比上涨，购房者信心环比上涨5.3%",
        "docid": "J3TUUDOL05562DLL",
        "url": "https://www.163.com/dy/article/J3TUUDOL05562DLL.html"
    },
    {
        "title": "武汉盘龙城楼盘坤合云海城备案均价约11304元/平，上涨594元/平！",
        "docid": "J3SCIHJU055616ZT",
        "url": "https://www.163.com/dy/article/J3SCIHJU055616ZT.html"
    },
    {
        "title": "雅居乐集团前5月预售金额同比减少66.8% 单月减少六成",
        "docid": "J3TNMLUO05562SCF",
        "url": "https://www.163.com/dy/article/J3TNMLUO05562SCF.html"
    },
    {
        "title": "易闻天下丨武汉两区楼市公告，甘露山雪世界新动态",
        "docid": "J3OGM2NV05567SKQ",
        "url": "https://www.163.com/dy/article/J3OGM2NV05567SKQ.html"
    },
    {
        "title": "武汉东西湖区：人才买首套新房最高补助200万元，支持企业给人才筹集购房首付款",
        "docid": "J3PHH99Q0514R9P4",
        "url": "https://www.163.com/dy/article/J3PHH99Q0514R9P4.html"
    },
    {
        "title": "武汉名校遍地开分校，提醒你，别上头",
        "docid": "J3OFH82J0553TDVP",
        "url": "https://www.163.com/dy/article/J3OFH82J0553TDVP.html"
    },
    {
        "title": "三年前买小产权房的贷款30W即将到期，月供1.5w，活得真是累",
        "docid": "J3U492HU0553TDXU",
        "url": "https://www.163.com/dy/article/J3U492HU0553TDXU.html"
    },
    {
        "title": "新房成交量明显提升，购二套房居民增多，楼市迎来拐点了吗",
        "docid": "J3RRHAK40519B623",
        "url": "https://www.163.com/dy/article/J3RRHAK40519B623.html"
    },
    {
        "title": "美国经济恐出大事！美联储“利率过高”压制房地产市场 《华尔街日报》：开发商资金敲响警钟",
        "docid": "J3TN875O05566YXD",
        "url": "https://www.163.com/dy/article/J3TN875O05566YXD.html"
    },
    {
        "title": "投资者签证要落地了！日本正式宣布设立“四大经济特区”，有钱就能拿身份的一天到来了吗",
        "docid": "J3UPH40005359JWY",
        "url": "https://www.163.com/dy/article/J3UPH40005359JWY.html"
    },
    {
        "title": "东京池袋商圈满租一栋楼，新耐震RC造，土地面积143㎡，山手线车站560米！",
        "docid": "J3UPGGNQ05359JWY",
        "url": "https://www.163.com/dy/article/J3UPGGNQ05359JWY.html"
    },
    {
        "title": "传马云领导的云锋基金拟斥资1000亿日元进军日本房地产：现在是投资日本的黄金期吗？",
        "docid": "J3UPGQ5Q0519AFU3",
        "url": "https://www.163.com/dy/article/J3UPGQ5Q0519AFU3.html"
    },
    {
        "title": "武汉盘龙城楼盘坤合云海城备案均价约11304元/平，上涨594元/平！",
        "docid": "J3SCIHJU055616ZT",
        "url": "https://www.163.com/dy/article/J3SCIHJU055616ZT.html"
    },
    {
        "title": "雅居乐集团(03383.HK)5月预售额合计16.5亿人民币",
        "docid": "J3TP120A0519QIKK",
        "url": "https://www.163.com/dy/article/J3TP120A0519QIKK.html"
    },
    {
        "title": "易闻天下丨武汉两区楼市公告，甘露山雪世界新动态",
        "docid": "J3OGM2NV05567SKQ",
        "url": "https://www.163.com/dy/article/J3OGM2NV05567SKQ.html"
    },
    {
        "title": "武汉东西湖区：人才买首套新房最高补助200万元，支持企业给人才筹集购房首付款",
        "docid": "J3PHH99Q0514R9P4",
        "url": "https://www.163.com/dy/article/J3PHH99Q0514R9P4.html"
    },
    {
        "title": "武汉名校遍地开分校，提醒你，别上头",
        "docid": "J3OFH82J0553TDVP",
        "url": "https://www.163.com/dy/article/J3OFH82J0553TDVP.html"
    },
    {
        "title": "新房成交量明显提升，购二套房居民增多，楼市迎来拐点了吗",
        "docid": "J3RRHAK40519B623",
        "url": "https://www.163.com/dy/article/J3RRHAK40519B623.html"
    },
    {
        "title": "全国超70城支持住房“以旧换新”;宝马价格“腰斩”;云南白药案波及面扩大;高铁新增“优选一等座”",
        "docid": "J3U932I705119LB9",
        "url": "https://www.163.com/dy/article/J3U932I705119LB9.html"
    },
    {
        "title": "利率低至2.8%？有人想置换存量房贷，但我劝你别冲动",
        "docid": "J3UR9MFS0535AGRM",
        "url": "https://www.163.com/dy/article/J3UR9MFS0535AGRM.html"
    },
    {
        "title": "加拿大8孩妈妈房贷月供几乎翻倍！丈夫每周要打工70小时",
        "docid": "J3UBGJHA0552QDEA",
        "url": "https://www.163.com/dy/article/J3UBGJHA0552QDEA.html"
    },
    {
        "title": "刚刚！这家明星高管创业4年的公司，上热搜了！",
        "docid": "J3UR3SSJ0553PD9U",
        "url": "https://www.163.com/dy/article/J3UR3SSJ0553PD9U.html"
    },
    {
        "title": "不同身份买家投资澳洲房产的区别？海外人士/TR临居/PR永居/公民",
        "docid": "J3U8HPBR05568B9T",
        "url": "https://www.163.com/dy/article/J3U8HPBR05568B9T.html"
    },
    {
        "title": "抵押贷款利率居高不下 美国住房抵押贷款申请创4月初来最大降幅",
        "docid": "J3URPOQ405198UNI",
        "url": "https://www.163.com/dy/article/J3URPOQ405198UNI.html"
    },
    {
        "title": "房贷断供了会有什么后果",
        "docid": "J3UJNMLQ0539E7PD",
        "url": "https://www.163.com/dy/article/J3UJNMLQ0539E7PD.html"
    },
    {
        "title": "为什么中国的房价不敢降下来呢？",
        "docid": "J3UNP3J80553K5ZV",
        "url": "https://www.163.com/dy/article/J3UNP3J80553K5ZV.html"
    },
    {
        "title": "不断有一线城市放开限购：它刺激的是什么？",
        "docid": "J3UQ6SE705538DP3",
        "url": "https://www.163.com/dy/article/J3UQ6SE705538DP3.html"
    },
    {
        "title": "东西湖旧住宅楼如何“梯”升幸福感？",
        "docid": "J3UGKAFV0535LAX2",
        "url": "https://www.163.com/dy/article/J3UGKAFV0535LAX2.html"
    },
    {
        "title": "官方打响以成本价收购商品房“第一枪”，开发商：已经很好了",
        "docid": "VG30V7SK4",
        "url": "https://www.163.com/dy/article/VG30V7SK4.html"
    },
    {
        "title": "卖不动！加拿大温哥华5月房屋销量跌了近两成！基准楼价涨到这数",
        "docid": "J3UBJJH90552QDEA",
        "url": "https://www.163.com/dy/article/J3UBJJH90552QDEA.html"
    },
    {
        "title": "美国旧金山豪华公寓只卖$35万美元！有人捡漏有人撤离",
        "docid": "J3UBS6NV0552QDEA",
        "url": "https://www.163.com/dy/article/J3UBS6NV0552QDEA.html"
    },
    {
        "title": "众人都想返乡盖别墅，每逢过年的时候，在亲朋面前会特别有面子",
        "docid": "J3UU8C170535KYBM",
        "url": "https://www.163.com/dy/article/J3UU8C170535KYBM.html"
    },
    {
        "title": "强势的边户邻居，拆连廊护栏装鞋柜，买房遇到这样的人真难受！",
        "docid": "J3UTI1JO0520K44K",
        "url": "https://www.163.com/dy/article/J3UTI1JO0520K44K.html"
    },
    {
        "title": "白人律师在加拿大上班！买房住在美国！分分钟省下上百万",
        "docid": "J3U9QG1H0552QDEA",
        "url": "https://www.163.com/dy/article/J3U9QG1H0552QDEA.html"
    },
    {
        "title": "正荣地产：5月合约销售金额约5.96亿元",
        "docid": "J3UTUS1N0534A4SC",
        "url": "https://www.163.com/dy/article/J3UTUS1N0534A4SC.html"
    },
    {
        "title": "为何这个房子一直无人问津？",
        "docid": "VI30VEB3C",
        "url": "https://www.163.com/dy/article/VI30VEB3C.html"
    },
    {
        "title": "在昌南买房，得房率90%，是怎样的体验？",
        "docid": "VG30SV40D",
        "url": "https://www.163.com/dy/article/VG30SV40D.html"
    },
    {
        "title": "首付15%的意义，和房价涨跌的逻辑",
        "docid": "VW2JI2UAA",
        "url": "https://www.163.com/dy/article/VW2JI2UAA.html"
    },
    {
        "title": "房地产倒闭潮来了吗？未来中国的房子将会出现断崖式下跌",
        "docid": "VG311O1K8",
        "url": "https://www.163.com/dy/article/VG311O1K8.html"
    },
    {
        "title": "近日高层释放的两大重磅信号无疑是值得深入解读的重要信息。",
        "docid": "J3UNLHKG0553K5ZV",
        "url": "https://www.163.com/dy/article/J3UNLHKG0553K5ZV.html"
    },
    {
        "title": "万科突发！全数偿付，明天打款 | 快讯",
        "docid": "J3UV9S100512D03F",
        "url": "https://www.163.com/dy/article/J3UV9S100512D03F.html"
    },
    {
        "title": "买房吃亏的人太多！这样的楼盘总有人选错，认真点专业点少走弯路",
        "docid": "VB3149JHT",
        "url": "https://www.163.com/dy/article/VB3149JHT.html"
    },
    {
        "title": "一楼的房子千万不要买！",
        "docid": "VG314S9SG",
        "url": "https://www.163.com/dy/article/VG314S9SG.html"
    },
    {
        "title": "专家没有忽悠成功！首付15%，楼市没有起飞，老百姓变聪明了",
        "docid": "VZ3149NOO",
        "url": "https://www.163.com/dy/article/VZ3149NOO.html"
    },
    {
        "title": "装修的第一件事要干啥？小伙房子还没开始动工，先花出去3600多",
        "docid": "VL2JVLLER",
        "url": "https://www.163.com/dy/article/VL2JVLLER.html"
    },
    {
        "title": "佘山别墅大跳水，有人惊喜有人惊吓？",
        "docid": "VS2JTERVC",
        "url": "https://www.163.com/dy/article/VS2JTERVC.html"
    },
    {
        "title": "不论我们是否愿意承认，这一轮的房价下跌，损失更大的还是穷人",
        "docid": "VG310RURI",
        "url": "https://www.163.com/dy/article/VG310RURI.html"
    },
    {
        "title": "房企不敢积极拿地，跟购房者同命相连",
        "docid": "VJ314T7O4",
        "url": "https://www.163.com/dy/article/VJ314T7O4.html"
    },
    {
        "title": "VILLA ONE ~ 山墅一生 长沙豪宅，山居易得",
        "docid": "VN2U1POBQ",
        "url": "https://www.163.com/dy/article/VN2U1POBQ.html"
    },
    {
        "title": "带堂屋的高颜值别墅，老家有这栋房子的人，在村里一定很风光吧！",
        "docid": "J3V1RMRS0535LAX2",
        "url": "https://www.163.com/dy/article/J3V1RMRS0535LAX2.html"
    },
    {
        "title": "优秀的209.8平米户型是什么格局?",
        "docid": "J3V1TGEJ0535LAX2",
        "url": "https://www.163.com/dy/article/J3V1TGEJ0535LAX2.html"
    },
    {
        "title": "如何选择合适的居住方式？",
        "docid": "J3I1ID210532D0CK",
        "url": "https://www.163.com/dy/article/J3I1ID210532D0CK.html"
    },
    {
        "title": "中交地产为 3 家项目公司提供财务资助不超过2.4亿元",
        "docid": "J3V0NV210512D3VJ",
        "url": "https://www.163.com/dy/article/J3V0NV210512D3VJ.html"
    },
    {
        "title": "讲真，千万豪宅户型，真的是越来越差劲了",
        "docid": "J3V0E1KM0515U60S",
        "url": "https://www.163.com/dy/article/J3V0E1KM0515U60S.html"
    },
    {
        "title": "评论区说说，你认为第20个国家级新区会落子哪个城市？",
        "docid": "VJ315BPKL",
        "url": "https://www.163.com/dy/article/VJ315BPKL.html"
    },
    {
        "title": "低调的央企地产，融通地产",
        "docid": "VR2UJI4UK",
        "url": "https://www.163.com/dy/article/VR2UJI4UK.html"
    },
    {
        "title": "大多数棋牌室只是披着自助的外壳",
        "docid": "VX2GTROGA",
        "url": "https://www.163.com/dy/article/VX2GTROGA.html"
    },
    {
        "title": "中国房价：暴涨暴跌，横盘无望",
        "docid": "VW317EUTR",
        "url": "https://www.163.com/dy/article/VW317EUTR.html"
    },
    {
        "title": "楼层差价，可能是冤枉钱！有些买房人被割韭菜，卖二手房差价变小",
        "docid": "VB311C0EQ",
        "url": "https://www.163.com/dy/article/VB311C0EQ.html"
    },
    {
        "title": "本息合计6.13亿美元！万科公告：明天全数偿付",
        "docid": "J3UP9IBH0512B07B",
        "url": "https://www.163.com/dy/article/J3UP9IBH0512B07B.html"
    },
    {
        "title": "1+1模式复式居住方案：三代同堂的创新居住新选择",
        "docid": "J3I1GEO30532D0CK",
        "url": "https://www.163.com/dy/article/J3I1GEO30532D0CK.html"
    },
    {
        "title": "陆挺：中国房地产的3个下降螺旋，经济复苏的希望在哪里？",
        "docid": "J3V2DACR0519IGF7",
        "url": "https://www.163.com/dy/article/J3V2DACR0519IGF7.html"
    },
    {
        "title": "5月14城二手住宅成交量小幅回落，同比降幅收窄，北上深同比齐升",
        "docid": "J3V2GBBN0550EWRZ",
        "url": "https://www.163.com/dy/article/J3V2GBBN0550EWRZ.html"
    },
    {
        "title": "武汉盘龙城楼盘坤合云海城备案均价约11304元/平，上涨594元/平！",
        "docid": "J3SCIHJU055616ZT",
        "url": "https://www.163.com/dy/article/J3SCIHJU055616ZT.html"
    },
    {
        "title": "易闻天下丨武汉两区楼市公告，甘露山雪世界新动态",
        "docid": "J3OGM2NV05567SKQ",
        "url": "https://www.163.com/dy/article/J3OGM2NV05567SKQ.html"
    },
    {
        "title": "武汉东西湖区：人才买首套新房最高补助200万元，支持企业给人才筹集购房首付款",
        "docid": "J3PHH99Q0514R9P4",
        "url": "https://www.163.com/dy/article/J3PHH99Q0514R9P4.html"
    },
    {
        "title": "武汉名校遍地开分校，提醒你，别上头",
        "docid": "J3OFH82J0553TDVP",
        "url": "https://www.163.com/dy/article/J3OFH82J0553TDVP.html"
    },
    {
        "title": "新房成交量明显提升，购二套房居民增多，楼市迎来拐点了吗",
        "docid": "J3RRHAK40519B623",
        "url": "https://www.163.com/dy/article/J3RRHAK40519B623.html"
    },
    {
        "title": "二手房的“抛售”愈演愈烈，行内人士：我们在创造一个人类的奇迹",
        "docid": "J3TV9MMQ0519GBC0",
        "url": "https://www.163.com/dy/article/J3TV9MMQ0519GBC0.html"
    }
]