[
    {
        "title": "武汉市一栋豪华独栋别墅拍卖，6个富豪疯狂抬价128次1425万成交",
        "docid": "IRJ6R3NN05564G35",
        "url": "https://www.163.com/dy/article/IRJ6R3NN05564G35.html"
    },
    {
        "title": "这个厉害了！或成为2024拯救武汉楼市的杀手锏！",
        "docid": "IRK2MU5N0553TEQM",
        "url": "https://www.163.com/dy/article/IRK2MU5N0553TEQM.html"
    },
    {
        "title": "有人把“中国房价最低的30个城市”整理好了，收藏看看吧",
        "docid": "IRGVIC1I0540MBU3",
        "url": "https://www.163.com/dy/article/IRGVIC1I0540MBU3.html"
    },
    {
        "title": "0人报名！西海岸知名烂尾楼再度流拍，7.31亿无人问津！",
        "docid": "IRIRLOB80514ET7F",
        "url": "https://www.163.com/dy/article/IRIRLOB80514ET7F.html"
    },
    {
        "title": "买房一定不要挑这种户型了，我家贪便宜买错，入住才知悔断肠子",
        "docid": "IRG436BK05565W3N",
        "url": "https://www.163.com/dy/article/IRG436BK05565W3N.html"
    },
    {
        "title": "房地产最终会以什么样方式收场?",
        "docid": "IRK7IV01055616ZT",
        "url": "https://www.163.com/dy/article/IRK7IV01055616ZT.html"
    },
    {
        "title": "二手房收房步骤你理清了没？",
        "docid": "IRGGC7QS05565UDU",
        "url": "https://www.163.com/dy/article/IRGGC7QS05565UDU.html"
    },
    {
        "title": "一二线城市买房应该在哪里选址？",
        "docid": "IRIC4KNG055669HQ",
        "url": "https://www.163.com/dy/article/IRIC4KNG055669HQ.html"
    },
    {
        "title": "全球房价排名，还是我们厉害！",
        "docid": "IRICH6RN0553RLII",
        "url": "https://www.163.com/dy/article/IRICH6RN0553RLII.html"
    },
    {
        "title": "第一次买房没经验！买房要懂“4要看”与“3不要”，避免入坑！",
        "docid": "IRHOICOS0556124M",
        "url": "https://www.163.com/dy/article/IRHOICOS0556124M.html"
    },
    {
        "title": "90后出生的人是不是永远无法买得起一线城市核心区域的房子？",
        "docid": "IRIBNMFM055669HQ",
        "url": "https://www.163.com/dy/article/IRIBNMFM055669HQ.html"
    },
    {
        "title": "买房为什么不要选顶楼？后果你承受不起！",
        "docid": "IRKGIUAQ055669HQ",
        "url": "https://www.163.com/dy/article/IRKGIUAQ055669HQ.html"
    },
    {
        "title": "交房时万万要仔细验收，特别是这几处，开发商最怕被检查出问题",
        "docid": "IRGD7K2L05565W3N",
        "url": "https://www.163.com/dy/article/IRGD7K2L05565W3N.html"
    },
    {
        "title": "买房碰到这种房子赶紧买，有钱人都排队抢着买，真后悔我家错过了",
        "docid": "IRGCFQDG05565W3N",
        "url": "https://www.163.com/dy/article/IRGCFQDG05565W3N.html"
    },
    {
        "title": "未来的高楼会如何？或许会变成贫民窟？",
        "docid": "IRA527NT0553RHO2",
        "url": "https://www.163.com/dy/article/IRA527NT0553RHO2.html"
    },
    {
        "title": "白名单来了，楼市得救了？别再次误判，房产2个信号或大概率事件",
        "docid": "IRH8UOV50553TDTY",
        "url": "https://www.163.com/dy/article/IRH8UOV50553TDTY.html"
    },
    {
        "title": "真后悔啊！前几年为什么要买房？",
        "docid": "IRD7BPK30553YGEK",
        "url": "https://www.163.com/dy/article/IRD7BPK30553YGEK.html"
    },
    {
        "title": "买了精装房，趁早解决这些小隐患！",
        "docid": "IRJ1TFVP0520B5DI",
        "url": "https://www.163.com/dy/article/IRJ1TFVP0520B5DI.html"
    },
    {
        "title": "房子现在确实不好卖了，虽然没降价，但真的是有价无市！",
        "docid": "IRGHQH5V05564Z4P",
        "url": "https://www.163.com/dy/article/IRGHQH5V05564Z4P.html"
    },
    {
        "title": "为什么越来越多人直接入住毛坯房？听过来人的话，后悔我家装早了",
        "docid": "IRG2359I05565W3N",
        "url": "https://www.163.com/dy/article/IRG2359I05565W3N.html"
    },
    {
        "title": "聪明的人一定不买这十种房子！咱买房的时候咋没人告诉我呢？",
        "docid": "IRKE8JTV0540MBU3",
        "url": "https://www.163.com/dy/article/IRKE8JTV0540MBU3.html"
    },
    {
        "title": "买房买几层好？售楼小姐告诉你这些楼层买了必后悔！",
        "docid": "IRKJ30I9055669HQ",
        "url": "https://www.163.com/dy/article/IRKJ30I9055669HQ.html"
    },
    {
        "title": "怎么买到好房子？买南、买边、买三、避开4个楼层，会买到好房子",
        "docid": "IRDNVUKO0535BC2F",
        "url": "https://www.163.com/dy/article/IRDNVUKO0535BC2F.html"
    },
    {
        "title": "为什么有钱人都爱买一楼房子？一听售楼人员说的话，才知我家选错",
        "docid": "IRG0B2VR05565W3N",
        "url": "https://www.163.com/dy/article/IRG0B2VR05565W3N.html"
    },
    {
        "title": "买房子不要挑大户型了，有钱人现在都流行选这种，后悔我家挑错了",
        "docid": "IRGBAR9F05565W3N",
        "url": "https://www.163.com/dy/article/IRGBAR9F05565W3N.html"
    },
    {
        "title": "2024年起，多省加快推进“现房销售”，专家表示：机遇与挑战并存",
        "docid": "IRAJ44C40536UOB3",
        "url": "https://www.163.com/dy/article/IRAJ44C40536UOB3.html"
    },
    {
        "title": "房地产专家吴晓求：房地产是世界上最牛的剥削手段！为什么？",
        "docid": "IRKFH3SB0553TDTY",
        "url": "https://www.163.com/dy/article/IRKFH3SB0553TDTY.html"
    },
    {
        "title": "买了三套房我终于明白，买房最好的时机就是找到笋盘",
        "docid": "IRIE20LU055669HQ",
        "url": "https://www.163.com/dy/article/IRIE20LU055669HQ.html"
    },
    {
        "title": "买房最不该选这种户型了，好多人贪便宜，入住后就知有多懊悔了",
        "docid": "IRGCCSEI05565W3N",
        "url": "https://www.163.com/dy/article/IRGCCSEI05565W3N.html"
    },
    {
        "title": "谜！太多小区100+套二手房挂牌在售，90%清水房，接盘侠在哪里？",
        "docid": "IRJ0OA1B0553A9YO",
        "url": "https://www.163.com/dy/article/IRJ0OA1B0553A9YO.html"
    },
    {
        "title": "售楼小姐说漏嘴：买房万万要选这一楼层，住过就知有多划算了",
        "docid": "IRKDBR2G05565W3N",
        "url": "https://www.163.com/dy/article/IRKDBR2G05565W3N.html"
    },
    {
        "title": "推动澳洲房价上涨的主要因素有哪些？",
        "docid": "IRG4TB5I053661TJ",
        "url": "https://www.163.com/dy/article/IRG4TB5I053661TJ.html"
    },
    {
        "title": "一线城市为什么房子仍然这么火热？",
        "docid": "IRICF5DR055669HQ",
        "url": "https://www.163.com/dy/article/IRICF5DR055669HQ.html"
    },
    {
        "title": "买房之后，如果只有我一个人可能就过不下去了",
        "docid": "IRKI8TA2055669HQ",
        "url": "https://www.163.com/dy/article/IRKI8TA2055669HQ.html"
    },
    {
        "title": "为什么说宁愿买中心城区小户型，也不买郊区大户型？",
        "docid": "IRIEQM3M055616ZT",
        "url": "https://www.163.com/dy/article/IRIEQM3M055616ZT.html"
    },
    {
        "title": "买房万万不要买双卫生间户型，有钱人白送都不要，费钱占地不实用",
        "docid": "IRG4MDSU05565W3N",
        "url": "https://www.163.com/dy/article/IRG4MDSU05565W3N.html"
    },
    {
        "title": "世界各国30年房贷利率情况！",
        "docid": "IRICD2SJ0553RLII",
        "url": "https://www.163.com/dy/article/IRICD2SJ0553RLII.html"
    },
    {
        "title": "售楼小姐说漏嘴：碰到这种房子借钱也要买下来，早入手都赚了",
        "docid": "IRDMD93S05565UDW",
        "url": "https://www.163.com/dy/article/IRDMD93S05565UDW.html"
    },
    {
        "title": "农村自建房万万不要有这些现象，有钱人老早就懂，小心有钱也住穷",
        "docid": "IRGFJOTB05565W3N",
        "url": "https://www.163.com/dy/article/IRGFJOTB05565W3N.html"
    },
    {
        "title": "售楼表姐透露：一栋楼不管有多少楼层，买房选这几层准不会出错的",
        "docid": "IRKF70M105565W3N",
        "url": "https://www.163.com/dy/article/IRKF70M105565W3N.html"
    },
    {
        "title": "澳研究机构：澳大利亚独栋房屋和公寓楼差价创新高",
        "docid": "IRDT70HU0530QRMB",
        "url": "https://www.163.com/dy/article/IRDT70HU0530QRMB.html"
    },
    {
        "title": "2024年是“降价卖房”还是“抓紧买房”？王健林一语道破问题本质",
        "docid": "IRGHIAS205563SS0",
        "url": "https://www.163.com/dy/article/IRGHIAS205563SS0.html"
    },
    {
        "title": "买房一楼和顶楼哪一层好？听售楼闺蜜的话，才知我家选错了",
        "docid": "IRG4BTMP05565W3N",
        "url": "https://www.163.com/dy/article/IRG4BTMP05565W3N.html"
    },
    {
        "title": "悉尼，墨尔本首次买房者都成中年！太贵了，悉尼别墅门槛已达100万，普通人买家被迫出局！",
        "docid": "IRJVM8V905199N88",
        "url": "https://www.163.com/dy/article/IRJVM8V905199N88.html"
    },
    {
        "title": "二手房验收，你绝对不能忽略的小细节",
        "docid": "IRHU0SCM05565UDU",
        "url": "https://www.163.com/dy/article/IRHU0SCM05565UDU.html"
    },
    {
        "title": "20套超有逼格的三层现代简约自建房别墅,建栋绝对万里挑一好户型",
        "docid": "IRJF38290556124M",
        "url": "https://www.163.com/dy/article/IRJF38290556124M.html"
    },
    {
        "title": "为什么现在买房都不选大户型？听内行人说出内情，才知我家挑错了",
        "docid": "IRG0NCH605565W3N",
        "url": "https://www.163.com/dy/article/IRG0NCH605565W3N.html"
    },
    {
        "title": "串串房千万不要碰，别名白血病套餐房，买房的钱都没有看病的钱多",
        "docid": "IRJUG4O20540MBU3",
        "url": "https://www.163.com/dy/article/IRJUG4O20540MBU3.html"
    },
    {
        "title": "头部房企大平层豪宅，杀疯了",
        "docid": "IRK76CE905158B67",
        "url": "https://www.163.com/dy/article/IRK76CE905158B67.html"
    },
    {
        "title": "权威机构公布数据，二手房“春天”来了？2024年买房要改变思维了",
        "docid": "IRKD9E3O055616ZT",
        "url": "https://www.163.com/dy/article/IRKD9E3O055616ZT.html"
    },
    {
        "title": "两款相当美妙的居家户型，很难选择吧?",
        "docid": "IRE8NS290556124M",
        "url": "https://www.163.com/dy/article/IRE8NS290556124M.html"
    },
    {
        "title": "一个做了十年的老中介，揭秘二手房交易内幕！",
        "docid": "IRIBTDSK055669HQ",
        "url": "https://www.163.com/dy/article/IRIBTDSK055669HQ.html"
    },
    {
        "title": "房地产市场未来会怎么发展呢？现在适合买房子吗？",
        "docid": "IRKEU3300553RHO2",
        "url": "https://www.163.com/dy/article/IRKEU3300553RHO2.html"
    },
    {
        "title": "买了房之后，心里拥有了前所未有的踏实感",
        "docid": "IRIE2O22055669HQ",
        "url": "https://www.163.com/dy/article/IRIE2O22055669HQ.html"
    },
    {
        "title": "开发商预言：未来10年，二三十层高层住宅，不得不面临3大困境",
        "docid": "IRG0V6RP05536P04",
        "url": "https://www.163.com/dy/article/IRG0V6RP05536P04.html"
    },
    {
        "title": "顶层的房子可以买吗？房子入住了2年，说说我的真实感受",
        "docid": "IRG460UB055669HQ",
        "url": "https://www.163.com/dy/article/IRG460UB055669HQ.html"
    },
    {
        "title": "售楼小姐说漏嘴：有钱人买房都抢着入手这一层，聪明人老早就知道",
        "docid": "IRKDU38U05565W3N",
        "url": "https://www.163.com/dy/article/IRKDU38U05565W3N.html"
    },
    {
        "title": "宁愿花钱在农村盖房子，也不会去城市买房子，只因一点！",
        "docid": "IRJL4BBD05565V2J",
        "url": "https://www.163.com/dy/article/IRJL4BBD05565V2J.html"
    },
    {
        "title": "售楼经理透露：买房要注意这4点，有钱人都会尽量避开！",
        "docid": "IRATH3SV0540FQWZ",
        "url": "https://www.163.com/dy/article/IRATH3SV0540FQWZ.html"
    },
    {
        "title": "不出意外的话，三月开始，这4样商品要大降价，大伙提前做好准备",
        "docid": "IRKF2G950553TB9L",
        "url": "https://www.163.com/dy/article/IRKF2G950553TB9L.html"
    },
    {
        "title": "10年售楼小姐忠告，买房千万不要买高层，聪明人都买这一层！",
        "docid": "IRIAF29J055669HQ",
        "url": "https://www.163.com/dy/article/IRIAF29J055669HQ.html"
    },
    {
        "title": "这样优雅的户型，真是让人不得不爱",
        "docid": "IRJVKRMI0553TDVP",
        "url": "https://www.163.com/dy/article/IRJVKRMI0553TDVP.html"
    },
    {
        "title": "悉尼华人废弃豪宅挂牌，售价有超$1000万！因太破旧成TikTok热门",
        "docid": "IRG5V9LJ0553TDVP",
        "url": "https://www.163.com/dy/article/IRG5V9LJ0553TDVP.html"
    },
    {
        "title": "两层带地下室的农村别墅，停车储物都方便，建房就要与众不同",
        "docid": "IRJECQDE0545PEDS",
        "url": "https://www.163.com/dy/article/IRJECQDE0545PEDS.html"
    },
    {
        "title": "5年后，这4类小区或将沦为“贫民窟”？懂行的人已在筹划脱身",
        "docid": "IRJ5I3V2055616ZT",
        "url": "https://www.163.com/dy/article/IRJ5I3V2055616ZT.html"
    },
    {
        "title": "售楼经理说漏嘴：这种阳台聪明人都不会买，很多人刚买完就后悔了",
        "docid": "IRKER4M205565W3N",
        "url": "https://www.163.com/dy/article/IRKER4M205565W3N.html"
    },
    {
        "title": "其实用不了20年，高层和低层住宅的差距就很明显，别不信！",
        "docid": "IRFU7AVU0520K44K",
        "url": "https://www.163.com/dy/article/IRFU7AVU0520K44K.html"
    },
    {
        "title": "一线城市拥有大多房产的其实是这些人",
        "docid": "IRICHDUV055669HQ",
        "url": "https://www.163.com/dy/article/IRICHDUV055669HQ.html"
    },
    {
        "title": "“通胀潮”要来？央行明确，提前做准备：手握“两样”东西不慌！",
        "docid": "IRDHUPFR05359WBS",
        "url": "https://www.163.com/dy/article/IRDHUPFR05359WBS.html"
    },
    {
        "title": "15套兄弟双拼别墅，外观对称大气，布局实用，节约建房成本更气派",
        "docid": "IRJIQAES0553TEV3",
        "url": "https://www.163.com/dy/article/IRJIQAES0553TEV3.html"
    },
    {
        "title": "未来几年，有哪几类房产可能会消失呢？",
        "docid": "IRKEVHND0553RHO2",
        "url": "https://www.163.com/dy/article/IRKEVHND0553RHO2.html"
    },
    {
        "title": "比房价下跌更难受的4件事，正在全国各大城市逐步上演，谨慎对待",
        "docid": "IRKDTF100553TDXU",
        "url": "https://www.163.com/dy/article/IRKDTF100553TDXU.html"
    },
    {
        "title": "买房怕风水太差倒大霉？看这七点绝不会买错",
        "docid": "IRKOMS24055669HQ",
        "url": "https://www.163.com/dy/article/IRKOMS24055669HQ.html"
    },
    {
        "title": "多伦多半独立屋卖不掉挂牌月租$15,000！年花19w能买房+私人司机",
        "docid": "IRE1I00V055616ZT",
        "url": "https://www.163.com/dy/article/IRE1I00V055616ZT.html"
    },
    {
        "title": "取消日本永住资格的理由又新增了？别恐慌，大部分人都将不受影响",
        "docid": "IRGECNAM05359JWY",
        "url": "https://www.163.com/dy/article/IRGECNAM05359JWY.html"
    },
    {
        "title": "买房一步步来，不要好高骛远",
        "docid": "IRKF0K83055669HQ",
        "url": "https://www.163.com/dy/article/IRKF0K83055669HQ.html"
    },
    {
        "title": "万达婚房杜粉冷饭热炒！柴桑细说购买经过，网友：小熊毁保密协议",
        "docid": "IRH8GPB40540MBU3",
        "url": "https://www.163.com/dy/article/IRH8GPB40540MBU3.html"
    },
    {
        "title": "买房别高兴太早：选楼层别错过这三个地方，小心骗光你的血汗钱！",
        "docid": "IRKKVP7N055669HQ",
        "url": "https://www.163.com/dy/article/IRKKVP7N055669HQ.html"
    },
    {
        "title": "买房时不要全部相信售楼员的话，这些小知识你一定得懂得",
        "docid": "IRKPV0IE055669HQ",
        "url": "https://www.163.com/dy/article/IRKPV0IE055669HQ.html"
    },
    {
        "title": "加拿大楼市卷疯了！降价38万8！还有送保时捷和特斯拉",
        "docid": "IRGM5I6E0552QDEA",
        "url": "https://www.163.com/dy/article/IRGM5I6E0552QDEA.html"
    },
    {
        "title": "到底是租房还是买房？一个广漂告诉你还是买房好！",
        "docid": "IRIATR2S055669HQ",
        "url": "https://www.163.com/dy/article/IRIATR2S055669HQ.html"
    }
]