[
    {
        "title": "小区改造终于动工了！第一步，先拆护窗，这个是强制性的",
        "docid": "J150LGBS05565R9C",
        "url": "https://www.163.com/dy/article/J150LGBS05565R9C.html"
    },
    {
        "title": "大城兑现时，真改善选天曜 三期终藏B6#加推",
        "docid": "J0MTCS94020998HG",
        "url": "https://www.163.com/dy/article/J0MTCS94020998HG.html"
    },
    {
        "title": "买房时，首选这4个“黄金楼层”，内行人抢着买！别听销售忽悠",
        "docid": "J0KRES09054057BR",
        "url": "https://www.163.com/dy/article/J0KRES09054057BR.html"
    },
    {
        "title": "别嫌二手房“旧”，这3大优势，有些人不懂，内行人正暗暗下手",
        "docid": "J0NAPLF50540SN7V",
        "url": "https://www.163.com/dy/article/J0NAPLF50540SN7V.html"
    },
    {
        "title": "世界武昌湾，滨水新天地",
        "docid": "J0S9NCG5020998HG",
        "url": "https://www.163.com/dy/article/J0S9NCG5020998HG.html"
    },
    {
        "title": "老房子受欢迎了，中央明确定调整：明年起这两类人会受益良多？",
        "docid": "VC076DSPF",
        "url": "https://www.163.com/dy/article/VC076DSPF.html"
    },
    {
        "title": "第三轮房地产救市开启，有房的快卖没房的快买就是这么魔性",
        "docid": "VJ071H4H6",
        "url": "https://www.163.com/dy/article/VJ071H4H6.html"
    },
    {
        "title": "二房东把房子改成了4个套房，119平米三房；百日百房第61天",
        "docid": "VA04B68NC",
        "url": "https://www.163.com/dy/article/VA04B68NC.html"
    },
    {
        "title": "重磅会议谈房地产市场 该如何解读",
        "docid": "VS074AUDJ",
        "url": "https://www.163.com/dy/article/VS074AUDJ.html"
    },
    {
        "title": "深度剖析！保利和著这套163㎡，凭什么轰动整个桂城",
        "docid": "J0O19ECK053571DT",
        "url": "https://www.163.com/dy/article/J0O19ECK053571DT.html"
    },
    {
        "title": "大城兑现时，真改善选天曜 三期终藏B6#加推",
        "docid": "J0MTCS94020998HG",
        "url": "https://www.163.com/dy/article/J0MTCS94020998HG.html"
    },
    {
        "title": "武汉房价跌了两年多，武汉刚需购房者依旧继续在武汉买房",
        "docid": "J0UK5P980535JMSP",
        "url": "https://www.163.com/dy/article/J0UK5P980535JMSP.html"
    },
    {
        "title": "这是奢华的641.42平米户型吗?",
        "docid": "J0LDLP9T0553TB8M",
        "url": "https://www.163.com/dy/article/J0LDLP9T0553TB8M.html"
    },
    {
        "title": "世界武昌湾，滨水新天地",
        "docid": "J0S9NCG5020998HG",
        "url": "https://www.163.com/dy/article/J0S9NCG5020998HG.html"
    },
    {
        "title": "远洋建管签约武汉光谷万和竞界项目",
        "docid": "J122OEEH0553YQAZ",
        "url": "https://www.163.com/dy/article/J122OEEH0553YQAZ.html"
    },
    {
        "title": "42054万元！杉杉奥莱如约沌口拿地！",
        "docid": "J150CT7U05149MGC",
        "url": "https://www.163.com/dy/article/J150CT7U05149MGC.html"
    },
    {
        "title": "天花板的园林配置，坐在家里也能闻花香？",
        "docid": "J0MSRK2B05567SKQ",
        "url": "https://www.163.com/dy/article/J0MSRK2B05567SKQ.html"
    },
    {
        "title": "这个片区，贵的盘反而卖得好！",
        "docid": "J0U8EA03055616ZT",
        "url": "https://www.163.com/dy/article/J0U8EA03055616ZT.html"
    },
    {
        "title": "官宣！王石放弃万科的1000万年薪了",
        "docid": "J153QA2Q0553TDVP",
        "url": "https://www.163.com/dy/article/J153QA2Q0553TDVP.html"
    },
    {
        "title": "大城兑现时，真改善选天曜 三期终藏B6#加推",
        "docid": "J0MTCS94020998HG",
        "url": "https://www.163.com/dy/article/J0MTCS94020998HG.html"
    },
    {
        "title": "楼市“去库存”：新语境，老目标",
        "docid": "J153308F05198JD9",
        "url": "https://www.163.com/dy/article/J153308F05198JD9.html"
    },
    {
        "title": "库存压力大的城市要暂停新增商品住宅用地出让",
        "docid": "J153RUJO0514R9KQ",
        "url": "https://www.163.com/dy/article/J153RUJO0514R9KQ.html"
    },
    {
        "title": "世界武昌湾，滨水新天地",
        "docid": "J0S9NCG5020998HG",
        "url": "https://www.163.com/dy/article/J0S9NCG5020998HG.html"
    },
    {
        "title": "沉重的房租是门面转让的根本原因吗",
        "docid": "J0JK6ICA0553TDTY",
        "url": "https://www.163.com/dy/article/J0JK6ICA0553TDTY.html"
    },
    {
        "title": "许家印！荒唐奢靡生活堪称奇葩！14项要求，骚规定，让人望尘莫及",
        "docid": "J0JJNECB0552F71X",
        "url": "https://www.163.com/dy/article/J0JJNECB0552F71X.html"
    },
    {
        "title": "第一批搬去新加坡的国内中产，今年已经破产了",
        "docid": "J153VJVU05561281",
        "url": "https://www.163.com/dy/article/J153VJVU05561281.html"
    },
    {
        "title": "李嘉诚预言成真：多套房产持有者或将陷入3大困境",
        "docid": "VW079QU0L",
        "url": "https://www.163.com/dy/article/VW079QU0L.html"
    },
    {
        "title": "你们家乡的县城房价已经多少了？网友:房价跌破我不配，洗洗睡吧",
        "docid": "J154MVGE0553TDXU",
        "url": "https://www.163.com/dy/article/J154MVGE0553TDXU.html"
    },
    {
        "title": "大城兑现时，真改善选天曜 三期终藏B6#加推",
        "docid": "J0MTCS94020998HG",
        "url": "https://www.163.com/dy/article/J0MTCS94020998HG.html"
    },
    {
        "title": "中建一局地产：请员工退还7年前的高额奖金",
        "docid": "J153J9JL05563TCH",
        "url": "https://www.163.com/dy/article/J153J9JL05563TCH.html"
    },
    {
        "title": "经济学家向松祚称：房价未来还会继续下跌，自己也不知道房价的底在哪里。",
        "docid": "VZ04OM82G",
        "url": "https://www.163.com/dy/article/VZ04OM82G.html"
    },
    {
        "title": "世界武昌湾，滨水新天地",
        "docid": "J0S9NCG5020998HG",
        "url": "https://www.163.com/dy/article/J0S9NCG5020998HG.html"
    },
    {
        "title": "299订的酒店，临时涨到1299？这谁能受得了啊？",
        "docid": "VZ07ATM8O",
        "url": "https://www.163.com/dy/article/VZ07ATM8O.html"
    },
    {
        "title": "何学林: 拯救房地产 我来支个招",
        "docid": "VS070QMKE",
        "url": "https://www.163.com/dy/article/VS070QMKE.html"
    },
    {
        "title": "罚你今后必定住上别墅豪宅！认罚扣666 发家致富计划",
        "docid": "VC0792F9A",
        "url": "https://www.163.com/dy/article/VC0792F9A.html"
    },
    {
        "title": "日本空置住宅率创历史新高 每7户空1户",
        "docid": "VF078LA8D",
        "url": "https://www.163.com/dy/article/VF078LA8D.html"
    },
    {
        "title": "值得争抢的户型有哪些？快来看，别等事后遗憾！",
        "docid": "J0I6DMIE0540H6M7",
        "url": "https://www.163.com/dy/article/J0I6DMIE0540H6M7.html"
    },
    {
        "title": "大城兑现时，真改善选天曜 三期终藏B6#加推",
        "docid": "J0MTCS94020998HG",
        "url": "https://www.163.com/dy/article/J0MTCS94020998HG.html"
    },
    {
        "title": "去年高价出售房子的那些人，现在都后悔了？有业主抱怨：损失大了",
        "docid": "J0KJO3BV0540A6F8",
        "url": "https://www.163.com/dy/article/J0KJO3BV0540A6F8.html"
    },
    {
        "title": "这样楼层，千万千万要慎重！买了很可能后悔，私密性差噪音也很大",
        "docid": "VB0751A6G",
        "url": "https://www.163.com/dy/article/VB0751A6G.html"
    },
    {
        "title": "世界武昌湾，滨水新天地",
        "docid": "J0S9NCG5020998HG",
        "url": "https://www.163.com/dy/article/J0S9NCG5020998HG.html"
    },
    {
        "title": "龙泉驿区、简阳市、东部新区：成都放开限购后的新机遇",
        "docid": "VW07C3N1A",
        "url": "https://www.163.com/dy/article/VW07C3N1A.html"
    },
    {
        "title": "600万买的房子280万想卖都卖不掉，降成这样了，都没有人要",
        "docid": "VY04N9L2C",
        "url": "https://www.163.com/dy/article/VY04N9L2C.html"
    },
    {
        "title": "贪便宜买了个2楼，住进去不到1个月就后悔了，说说低楼层的通病",
        "docid": "VY06PTN7N",
        "url": "https://www.163.com/dy/article/VY06PTN7N.html"
    },
    {
        "title": "新中式装修的双拼别墅！满屋尽是真石材，1560万观湖望山大宅范儿",
        "docid": "VB07A7P0I",
        "url": "https://www.163.com/dy/article/VB07A7P0I.html"
    },
    {
        "title": "“二次房改”已经来临了？北大教授提出新方案，两类人将从中受益",
        "docid": "J0LDVLTU0535BC2F",
        "url": "https://www.163.com/dy/article/J0LDVLTU0535BC2F.html"
    },
    {
        "title": "大城兑现时，真改善选天曜 三期终藏B6#加推",
        "docid": "J0MTCS94020998HG",
        "url": "https://www.163.com/dy/article/J0MTCS94020998HG.html"
    },
    {
        "title": "著名房地产公司调查：无惧税收变化，加拿大度假屋房主继续“捂盘”",
        "docid": "J1595Q1305566YXF",
        "url": "https://www.163.com/dy/article/J1595Q1305566YXF.html"
    },
    {
        "title": "著名房地产公司调查：无惧税收变化，加拿大度假屋房主继续“捂盘”",
        "docid": "J1595Q4F05566YXC",
        "url": "https://www.163.com/dy/article/J1595Q4F05566YXC.html"
    },
    {
        "title": "世界武昌湾，滨水新天地",
        "docid": "J0S9NCG5020998HG",
        "url": "https://www.163.com/dy/article/J0S9NCG5020998HG.html"
    },
    {
        "title": "二手的别墅，是不是带刺的玫瑰？",
        "docid": "IUC322EQ0535WDMF",
        "url": "https://www.163.com/dy/article/IUC322EQ0535WDMF.html"
    },
    {
        "title": "著名房地产公司调查：无惧税收变化，加拿大度假屋房主继续“捂盘”",
        "docid": "J1595Q4C05566YXD",
        "url": "https://www.163.com/dy/article/J1595Q4C05566YXD.html"
    },
    {
        "title": "武汉房价跌了两年多，武汉刚需购房者依旧继续在武汉买房",
        "docid": "J0UK5P980535JMSP",
        "url": "https://www.163.com/dy/article/J0UK5P980535JMSP.html"
    },
    {
        "title": "远洋建管签约武汉光谷万和竞界项目",
        "docid": "J122OEEH0553YQAZ",
        "url": "https://www.163.com/dy/article/J122OEEH0553YQAZ.html"
    },
    {
        "title": "武汉房价跌了两年多，武汉刚需购房者依旧继续在武汉买房",
        "docid": "J0UK5P980535JMSP",
        "url": "https://www.163.com/dy/article/J0UK5P980535JMSP.html"
    },
    {
        "title": "大城兑现时，真改善选天曜 三期终藏B6#加推",
        "docid": "J0MTCS94020998HG",
        "url": "https://www.163.com/dy/article/J0MTCS94020998HG.html"
    },
    {
        "title": "远洋建管签约武汉光谷万和竞界项目",
        "docid": "J122OEEH0553YQAZ",
        "url": "https://www.163.com/dy/article/J122OEEH0553YQAZ.html"
    },
    {
        "title": "42054万元！杉杉奥莱如约沌口拿地！",
        "docid": "J150CT7U05149MGC",
        "url": "https://www.163.com/dy/article/J150CT7U05149MGC.html"
    },
    {
        "title": "世界武昌湾，滨水新天地",
        "docid": "J0S9NCG5020998HG",
        "url": "https://www.163.com/dy/article/J0S9NCG5020998HG.html"
    },
    {
        "title": "这个片区，贵的盘反而卖得好！",
        "docid": "J0U8EA03055616ZT",
        "url": "https://www.163.com/dy/article/J0U8EA03055616ZT.html"
    },
    {
        "title": "天花板的园林配置，坐在家里也能闻花香？",
        "docid": "J0MSRK2B05567SKQ",
        "url": "https://www.163.com/dy/article/J0MSRK2B05567SKQ.html"
    },
    {
        "title": "武汉房价六连跌，四万炒房客被套武汉楼市，武汉楼市4月分析",
        "docid": "J0V3E8E30535JMSP",
        "url": "https://www.163.com/dy/article/J0V3E8E30535JMSP.html"
    },
    {
        "title": "房价连跌三年，依旧是有很多人看好北京、上海的房地产",
        "docid": "J0N8241H0535JMSP",
        "url": "https://www.163.com/dy/article/J0N8241H0535JMSP.html"
    },
    {
        "title": "武汉房价跌了两年多，武汉刚需购房者依旧继续在武汉买房",
        "docid": "J0UK5P980535JMSP",
        "url": "https://www.163.com/dy/article/J0UK5P980535JMSP.html"
    },
    {
        "title": "大城兑现时，真改善选天曜 三期终藏B6#加推",
        "docid": "J0MTCS94020998HG",
        "url": "https://www.163.com/dy/article/J0MTCS94020998HG.html"
    },
    {
        "title": "远洋建管签约武汉光谷万和竞界项目",
        "docid": "J122OEEH0553YQAZ",
        "url": "https://www.163.com/dy/article/J122OEEH0553YQAZ.html"
    },
    {
        "title": "42054万元！杉杉奥莱如约沌口拿地！",
        "docid": "J150CT7U05149MGC",
        "url": "https://www.163.com/dy/article/J150CT7U05149MGC.html"
    },
    {
        "title": "世界武昌湾，滨水新天地",
        "docid": "J0S9NCG5020998HG",
        "url": "https://www.163.com/dy/article/J0S9NCG5020998HG.html"
    },
    {
        "title": "天花板的园林配置，坐在家里也能闻花香？",
        "docid": "J0MSRK2B05567SKQ",
        "url": "https://www.163.com/dy/article/J0MSRK2B05567SKQ.html"
    },
    {
        "title": "这个片区，贵的盘反而卖得好！",
        "docid": "J0U8EA03055616ZT",
        "url": "https://www.163.com/dy/article/J0U8EA03055616ZT.html"
    },
    {
        "title": "武汉房价六连跌，四万炒房客被套武汉楼市，武汉楼市4月分析",
        "docid": "J0V3E8E30535JMSP",
        "url": "https://www.163.com/dy/article/J0V3E8E30535JMSP.html"
    },
    {
        "title": "2024年1-4月中国房地产企业销售业绩排行榜",
        "docid": "J11VBGP10553TB9L",
        "url": "https://www.163.com/dy/article/J11VBGP10553TB9L.html"
    },
    {
        "title": "远洋建管签约武汉光谷万和竞界项目",
        "docid": "J122OEEH0553YQAZ",
        "url": "https://www.163.com/dy/article/J122OEEH0553YQAZ.html"
    },
    {
        "title": "大城兑现时，真改善选天曜 三期终藏B6#加推",
        "docid": "J0MTCS94020998HG",
        "url": "https://www.163.com/dy/article/J0MTCS94020998HG.html"
    },
    {
        "title": "42054万元！杉杉奥莱如约沌口拿地！",
        "docid": "J150CT7U05149MGC",
        "url": "https://www.163.com/dy/article/J150CT7U05149MGC.html"
    },
    {
        "title": "这个片区，贵的盘反而卖得好！",
        "docid": "J0U8EA03055616ZT",
        "url": "https://www.163.com/dy/article/J0U8EA03055616ZT.html"
    },
    {
        "title": "世界武昌湾，滨水新天地",
        "docid": "J0S9NCG5020998HG",
        "url": "https://www.163.com/dy/article/J0S9NCG5020998HG.html"
    },
    {
        "title": "天花板的园林配置，坐在家里也能闻花香？",
        "docid": "J0MSRK2B05567SKQ",
        "url": "https://www.163.com/dy/article/J0MSRK2B05567SKQ.html"
    },
    {
        "title": "武汉房价六连跌，四万炒房客被套武汉楼市，武汉楼市4月分析",
        "docid": "J0V3E8E30535JMSP",
        "url": "https://www.163.com/dy/article/J0V3E8E30535JMSP.html"
    },
    {
        "title": "武汉杉杉奥特莱斯购物广场拿地成功！",
        "docid": "J13PFU3F0534SV3Y",
        "url": "https://www.163.com/dy/article/J13PFU3F0534SV3Y.html"
    },
    {
        "title": "2024年重磅！二手房去库存战打响",
        "docid": "J14N4LE105563SS0",
        "url": "https://www.163.com/dy/article/J14N4LE105563SS0.html"
    },
    {
        "title": "聪明人为何避开高层住宅？内行人士揭秘，幸好提前了解！",
        "docid": "J0O6OOUK05258H6P",
        "url": "https://www.163.com/dy/article/J0O6OOUK05258H6P.html"
    },
    {
        "title": "大城兑现时，真改善选天曜 三期终藏B6#加推",
        "docid": "J0MTCS94020998HG",
        "url": "https://www.163.com/dy/article/J0MTCS94020998HG.html"
    },
    {
        "title": "发现了没有，不知不觉方向变了，一部分人觉醒了。",
        "docid": "J0K1J1GV055640VF",
        "url": "https://www.163.com/dy/article/J0K1J1GV055640VF.html"
    },
    {
        "title": "武汉房价跌了两年多，武汉刚需购房者依旧继续在武汉买房",
        "docid": "J0UK5P980535JMSP",
        "url": "https://www.163.com/dy/article/J0UK5P980535JMSP.html"
    },
    {
        "title": "世界武昌湾，滨水新天地",
        "docid": "J0S9NCG5020998HG",
        "url": "https://www.163.com/dy/article/J0S9NCG5020998HG.html"
    },
    {
        "title": "远洋建管签约武汉光谷万和竞界项目",
        "docid": "J122OEEH0553YQAZ",
        "url": "https://www.163.com/dy/article/J122OEEH0553YQAZ.html"
    },
    {
        "title": "42054万元！杉杉奥莱如约沌口拿地！",
        "docid": "J150CT7U05149MGC",
        "url": "https://www.163.com/dy/article/J150CT7U05149MGC.html"
    },
    {
        "title": "这个片区，贵的盘反而卖得好！",
        "docid": "J0U8EA03055616ZT",
        "url": "https://www.163.com/dy/article/J0U8EA03055616ZT.html"
    },
    {
        "title": "天花板的园林配置，坐在家里也能闻花香？",
        "docid": "J0MSRK2B05567SKQ",
        "url": "https://www.163.com/dy/article/J0MSRK2B05567SKQ.html"
    },
    {
        "title": "一手撑起的“支柱”，另一手却在“挤水分”，房地产未来何去何从",
        "docid": "J0KOQP9J05536P04",
        "url": "https://www.163.com/dy/article/J0KOQP9J05536P04.html"
    },
    {
        "title": "大城兑现时，真改善选天曜 三期终藏B6#加推",
        "docid": "J0MTCS94020998HG",
        "url": "https://www.163.com/dy/article/J0MTCS94020998HG.html"
    },
    {
        "title": "“9楼是特殊楼层，一般人不能住”，到底是什么意思？并非迷信",
        "docid": "J0NVCT9505567IYR",
        "url": "https://www.163.com/dy/article/J0NVCT9505567IYR.html"
    },
    {
        "title": "武汉房价跌了两年多，武汉刚需购房者依旧继续在武汉买房",
        "docid": "J0UK5P980535JMSP",
        "url": "https://www.163.com/dy/article/J0UK5P980535JMSP.html"
    },
    {
        "title": "世界武昌湾，滨水新天地",
        "docid": "J0S9NCG5020998HG",
        "url": "https://www.163.com/dy/article/J0S9NCG5020998HG.html"
    },
    {
        "title": "远洋建管签约武汉光谷万和竞界项目",
        "docid": "J122OEEH0553YQAZ",
        "url": "https://www.163.com/dy/article/J122OEEH0553YQAZ.html"
    },
    {
        "title": "42054万元！杉杉奥莱如约沌口拿地！",
        "docid": "J150CT7U05149MGC",
        "url": "https://www.163.com/dy/article/J150CT7U05149MGC.html"
    },
    {
        "title": "天花板的园林配置，坐在家里也能闻花香？",
        "docid": "J0MSRK2B05567SKQ",
        "url": "https://www.163.com/dy/article/J0MSRK2B05567SKQ.html"
    },
    {
        "title": "这个片区，贵的盘反而卖得好！",
        "docid": "J0U8EA03055616ZT",
        "url": "https://www.163.com/dy/article/J0U8EA03055616ZT.html"
    },
    {
        "title": "武汉房价跌了两年多，武汉刚需购房者依旧继续在武汉买房",
        "docid": "J0UK5P980535JMSP",
        "url": "https://www.163.com/dy/article/J0UK5P980535JMSP.html"
    },
    {
        "title": "大城兑现时，真改善选天曜 三期终藏B6#加推",
        "docid": "J0MTCS94020998HG",
        "url": "https://www.163.com/dy/article/J0MTCS94020998HG.html"
    },
    {
        "title": "远洋建管签约武汉光谷万和竞界项目",
        "docid": "J122OEEH0553YQAZ",
        "url": "https://www.163.com/dy/article/J122OEEH0553YQAZ.html"
    },
    {
        "title": "42054万元！杉杉奥莱如约沌口拿地！",
        "docid": "J150CT7U05149MGC",
        "url": "https://www.163.com/dy/article/J150CT7U05149MGC.html"
    },
    {
        "title": "世界武昌湾，滨水新天地",
        "docid": "J0S9NCG5020998HG",
        "url": "https://www.163.com/dy/article/J0S9NCG5020998HG.html"
    },
    {
        "title": "这个片区，贵的盘反而卖得好！",
        "docid": "J0U8EA03055616ZT",
        "url": "https://www.163.com/dy/article/J0U8EA03055616ZT.html"
    },
    {
        "title": "天花板的园林配置，坐在家里也能闻花香？",
        "docid": "J0MSRK2B05567SKQ",
        "url": "https://www.163.com/dy/article/J0MSRK2B05567SKQ.html"
    },
    {
        "title": "武汉房价六连跌，四万炒房客被套武汉楼市，武汉楼市4月分析",
        "docid": "J0V3E8E30535JMSP",
        "url": "https://www.163.com/dy/article/J0V3E8E30535JMSP.html"
    },
    {
        "title": "武汉杉杉奥特莱斯购物广场拿地成功！",
        "docid": "J13PFU3F0534SV3Y",
        "url": "https://www.163.com/dy/article/J13PFU3F0534SV3Y.html"
    },
    {
        "title": "全现金交易增加，推动美国高端房屋价格上涨",
        "docid": "J15LMB320552JRS3",
        "url": "https://www.163.com/dy/article/J15LMB320552JRS3.html"
    },
    {
        "title": "大城兑现时，真改善选天曜 三期终藏B6#加推",
        "docid": "J0MTCS94020998HG",
        "url": "https://www.163.com/dy/article/J0MTCS94020998HG.html"
    },
    {
        "title": "武汉房价跌了两年多，武汉刚需购房者依旧继续在武汉买房",
        "docid": "J0UK5P980535JMSP",
        "url": "https://www.163.com/dy/article/J0UK5P980535JMSP.html"
    },
    {
        "title": "远洋建管签约武汉光谷万和竞界项目",
        "docid": "J122OEEH0553YQAZ",
        "url": "https://www.163.com/dy/article/J122OEEH0553YQAZ.html"
    },
    {
        "title": "世界武昌湾，滨水新天地",
        "docid": "J0S9NCG5020998HG",
        "url": "https://www.163.com/dy/article/J0S9NCG5020998HG.html"
    },
    {
        "title": "42054万元！杉杉奥莱如约沌口拿地！",
        "docid": "J150CT7U05149MGC",
        "url": "https://www.163.com/dy/article/J150CT7U05149MGC.html"
    },
    {
        "title": "这个片区，贵的盘反而卖得好！",
        "docid": "J0U8EA03055616ZT",
        "url": "https://www.163.com/dy/article/J0U8EA03055616ZT.html"
    },
    {
        "title": "天花板的园林配置，坐在家里也能闻花香？",
        "docid": "J0MSRK2B05567SKQ",
        "url": "https://www.163.com/dy/article/J0MSRK2B05567SKQ.html"
    },
    {
        "title": "武汉房价六连跌，四万炒房客被套武汉楼市，武汉楼市4月分析",
        "docid": "J0V3E8E30535JMSP",
        "url": "https://www.163.com/dy/article/J0V3E8E30535JMSP.html"
    },
    {
        "title": "远洋建管签约武汉光谷万和竞界项目",
        "docid": "J122OEEH0553YQAZ",
        "url": "https://www.163.com/dy/article/J122OEEH0553YQAZ.html"
    },
    {
        "title": "大城兑现时，真改善选天曜 三期终藏B6#加推",
        "docid": "J0MTCS94020998HG",
        "url": "https://www.163.com/dy/article/J0MTCS94020998HG.html"
    },
    {
        "title": "42054万元！杉杉奥莱如约沌口拿地！",
        "docid": "J150CT7U05149MGC",
        "url": "https://www.163.com/dy/article/J150CT7U05149MGC.html"
    },
    {
        "title": "这个片区，贵的盘反而卖得好！",
        "docid": "J0U8EA03055616ZT",
        "url": "https://www.163.com/dy/article/J0U8EA03055616ZT.html"
    },
    {
        "title": "世界武昌湾，滨水新天地",
        "docid": "J0S9NCG5020998HG",
        "url": "https://www.163.com/dy/article/J0S9NCG5020998HG.html"
    },
    {
        "title": "天花板的园林配置，坐在家里也能闻花香？",
        "docid": "J0MSRK2B05567SKQ",
        "url": "https://www.163.com/dy/article/J0MSRK2B05567SKQ.html"
    },
    {
        "title": "武汉房价六连跌，四万炒房客被套武汉楼市，武汉楼市4月分析",
        "docid": "J0V3E8E30535JMSP",
        "url": "https://www.163.com/dy/article/J0V3E8E30535JMSP.html"
    },
    {
        "title": "武汉杉杉奥特莱斯购物广场拿地成功！",
        "docid": "J13PFU3F0534SV3Y",
        "url": "https://www.163.com/dy/article/J13PFU3F0534SV3Y.html"
    },
    {
        "title": "可能，楼市要做最后一次核弹级救市了！",
        "docid": "J15M24Q50556124M",
        "url": "https://www.163.com/dy/article/J15M24Q50556124M.html"
    },
    {
        "title": "远洋建管签约武汉光谷万和竞界项目",
        "docid": "J122OEEH0553YQAZ",
        "url": "https://www.163.com/dy/article/J122OEEH0553YQAZ.html"
    },
    {
        "title": "大城兑现时，真改善选天曜 三期终藏B6#加推",
        "docid": "J0MTCS94020998HG",
        "url": "https://www.163.com/dy/article/J0MTCS94020998HG.html"
    },
    {
        "title": "42054万元！杉杉奥莱如约沌口拿地！",
        "docid": "J150CT7U05149MGC",
        "url": "https://www.163.com/dy/article/J150CT7U05149MGC.html"
    },
    {
        "title": "这个片区，贵的盘反而卖得好！",
        "docid": "J0U8EA03055616ZT",
        "url": "https://www.163.com/dy/article/J0U8EA03055616ZT.html"
    },
    {
        "title": "世界武昌湾，滨水新天地",
        "docid": "J0S9NCG5020998HG",
        "url": "https://www.163.com/dy/article/J0S9NCG5020998HG.html"
    },
    {
        "title": "天花板的园林配置，坐在家里也能闻花香？",
        "docid": "J0MSRK2B05567SKQ",
        "url": "https://www.163.com/dy/article/J0MSRK2B05567SKQ.html"
    },
    {
        "title": "武汉房价六连跌，四万炒房客被套武汉楼市，武汉楼市4月分析",
        "docid": "J0V3E8E30535JMSP",
        "url": "https://www.163.com/dy/article/J0V3E8E30535JMSP.html"
    },
    {
        "title": "武汉杉杉奥特莱斯购物广场拿地成功！",
        "docid": "J13PFU3F0534SV3Y",
        "url": "https://www.163.com/dy/article/J13PFU3F0534SV3Y.html"
    },
    {
        "title": "光谷北辰当代优+对面，武汉艳阳天拿下这块地！",
        "docid": "J13P5SBK0534CYN4",
        "url": "https://www.163.com/dy/article/J13P5SBK0534CYN4.html"
    },
    {
        "title": "自然资源部发文，多地供地节奏或有变",
        "docid": "J15QO2I705159A0N",
        "url": "https://www.163.com/dy/article/J15QO2I705159A0N.html"
    },
    {
        "title": "大城兑现时，真改善选天曜 三期终藏B6#加推",
        "docid": "J0MTCS94020998HG",
        "url": "https://www.163.com/dy/article/J0MTCS94020998HG.html"
    },
    {
        "title": "上海限购即将解除；古北壹号公馆即将清盘，带你走进真实现场！",
        "docid": "J0LH251P0556757N",
        "url": "https://www.163.com/dy/article/J0LH251P0556757N.html"
    },
    {
        "title": "不是没有生育能力 是生不起、养不起了    其实说的是楼市",
        "docid": "VC07FTVII",
        "url": "https://www.163.com/dy/article/VC07FTVII.html"
    },
    {
        "title": "世界武昌湾，滨水新天地",
        "docid": "J0S9NCG5020998HG",
        "url": "https://www.163.com/dy/article/J0S9NCG5020998HG.html"
    },
    {
        "title": "美联物业：购买力持续消耗4月香港楼市二手交投显著降温  快报",
        "docid": "VP053D8AF",
        "url": "https://www.163.com/dy/article/VP053D8AF.html"
    },
    {
        "title": "远洋建管签约武汉光谷万和竞界项目为电竞中心配套住宅区  快报",
        "docid": "VP04LV6FD",
        "url": "https://www.163.com/dy/article/VP04LV6FD.html"
    },
    {
        "title": "央行：一季度末人民币房地产开发贷款余额13.76万亿元同比增长1.7%  快报",
        "docid": "VP053VQ08",
        "url": "https://www.163.com/dy/article/VP053VQ08.html"
    },
    {
        "title": "努力保住自己的房子  努力保住自己的房子",
        "docid": "VP04V7P5O",
        "url": "https://www.163.com/dy/article/VP04V7P5O.html"
    },
    {
        "title": "央企地产的一个朋友在职16年也被裁了，赔偿2n+1，瞬间喜提一套房",
        "docid": "J0K9PFCE0553TF8W",
        "url": "https://www.163.com/dy/article/J0K9PFCE0553TF8W.html"
    },
    {
        "title": "大城兑现时，真改善选天曜 三期终藏B6#加推",
        "docid": "J0MTCS94020998HG",
        "url": "https://www.163.com/dy/article/J0MTCS94020998HG.html"
    },
    {
        "title": "我的铺面倒闭了，房东却向我哭诉她比我还惨",
        "docid": "J15L3BPK0553TDVP",
        "url": "https://www.163.com/dy/article/J15L3BPK0553TDVP.html"
    },
    {
        "title": "物业公司年收入排名情况出炉！",
        "docid": "J0JSL8C80553YGEK",
        "url": "https://www.163.com/dy/article/J0JSL8C80553YGEK.html"
    },
    {
        "title": "世界武昌湾，滨水新天地",
        "docid": "J0S9NCG5020998HG",
        "url": "https://www.163.com/dy/article/J0S9NCG5020998HG.html"
    },
    {
        "title": "武汉房价跌了两年多，武汉刚需购房者依旧继续在武汉买房",
        "docid": "J0UK5P980535JMSP",
        "url": "https://www.163.com/dy/article/J0UK5P980535JMSP.html"
    },
    {
        "title": "远洋建管签约武汉光谷万和竞界项目",
        "docid": "J122OEEH0553YQAZ",
        "url": "https://www.163.com/dy/article/J122OEEH0553YQAZ.html"
    },
    {
        "title": "42054万元！杉杉奥莱如约沌口拿地！",
        "docid": "J150CT7U05149MGC",
        "url": "https://www.163.com/dy/article/J150CT7U05149MGC.html"
    },
    {
        "title": "这个片区，贵的盘反而卖得好！",
        "docid": "J0U8EA03055616ZT",
        "url": "https://www.163.com/dy/article/J0U8EA03055616ZT.html"
    },
    {
        "title": "地产人跳槽，盯住这10家房企",
        "docid": "J15SHSCB05158B67",
        "url": "https://www.163.com/dy/article/J15SHSCB05158B67.html"
    },
    {
        "title": "大城兑现时，真改善选天曜 三期终藏B6#加推",
        "docid": "J0MTCS94020998HG",
        "url": "https://www.163.com/dy/article/J0MTCS94020998HG.html"
    },
    {
        "title": "两夫妻买下了整栋小区楼，上下打通变一家，原来这才是有钱人",
        "docid": "J15MDDEF0553TB8M",
        "url": "https://www.163.com/dy/article/J15MDDEF0553TB8M.html"
    },
    {
        "title": "烂尾楼在欧美国家属于开发商诈骗买房人几千万上亿房款，直接判死刑",
        "docid": "J0M5LBE50553TDTY",
        "url": "https://www.163.com/dy/article/J0M5LBE50553TDTY.html"
    },
    {
        "title": "世界武昌湾，滨水新天地",
        "docid": "J0S9NCG5020998HG",
        "url": "https://www.163.com/dy/article/J0S9NCG5020998HG.html"
    },
    {
        "title": "五一假期，武汉一栋别墅一套江景豪宅拍卖，3961万成交，还便宜了",
        "docid": "J15UNE1O05564G35",
        "url": "https://www.163.com/dy/article/J15UNE1O05564G35.html"
    },
    {
        "title": "去库存大战打响，房价还能涨回去吗？",
        "docid": "J15UA1VS0552HI5G",
        "url": "https://www.163.com/dy/article/J15UA1VS0552HI5G.html"
    },
    {
        "title": "2万亿的城市彻底裸奔，但问题是..........",
        "docid": "J15SFK5V055614NP",
        "url": "https://www.163.com/dy/article/J15SFK5V055614NP.html"
    },
    {
        "title": "实体店倒闭了，有些房东却很高兴，他们可以得到什么好处？",
        "docid": "J15M89DD05566SC9",
        "url": "https://www.163.com/dy/article/J15M89DD05566SC9.html"
    },
    {
        "title": "沌口核心区这个楼盘项目公示！",
        "docid": "J160LPTK0534SV3Y",
        "url": "https://www.163.com/dy/article/J160LPTK0534SV3Y.html"
    },
    {
        "title": "大城兑现时，真改善选天曜 三期终藏B6#加推",
        "docid": "J0MTCS94020998HG",
        "url": "https://www.163.com/dy/article/J0MTCS94020998HG.html"
    },
    {
        "title": "(鲁能泰山9号) 售楼处：出大事了！优劣势分析",
        "docid": "J0MSC7QJ05565VIU",
        "url": "https://www.163.com/dy/article/J0MSC7QJ05565VIU.html"
    },
    {
        "title": "365平米极尽奢华的大平层户型，成功人士标配大宅",
        "docid": "J0ONSLSL0553TB9L",
        "url": "https://www.163.com/dy/article/J0ONSLSL0553TB9L.html"
    },
    {
        "title": "世界武昌湾，滨水新天地",
        "docid": "J0S9NCG5020998HG",
        "url": "https://www.163.com/dy/article/J0S9NCG5020998HG.html"
    },
    {
        "title": "222平米空中四合院户型，生活原来可以如此美妙",
        "docid": "J15M4QG70553TB8M",
        "url": "https://www.163.com/dy/article/J15M4QG70553TB8M.html"
    },
    {
        "title": "五年以后，这三类房子将一文不值，你知道吧？内行人开始抛售",
        "docid": "VS081DFGM",
        "url": "https://www.163.com/dy/article/VS081DFGM.html"
    },
    {
        "title": "为什么很多老板，都喜欢回家建房？ ",
        "docid": "VD085CPD5",
        "url": "https://www.163.com/dy/article/VD085CPD5.html"
    },
    {
        "title": "第一次买房没经验，刚搬进来就后悔了，被凸出的中间户严重遮光",
        "docid": "VP07UTF5R",
        "url": "https://www.163.com/dy/article/VP07UTF5R.html"
    },
    {
        "title": "楼市“去库存”，房价会涨吗？",
        "docid": "J15VUO6605358KE1",
        "url": "https://www.163.com/dy/article/J15VUO6605358KE1.html"
    },
    {
        "title": "大城兑现时，真改善选天曜 三期终藏B6#加推",
        "docid": "J0MTCS94020998HG",
        "url": "https://www.163.com/dy/article/J0MTCS94020998HG.html"
    },
    {
        "title": "楼市大消息！南京、无锡、中山齐出招！",
        "docid": "J160EQI8053469RG",
        "url": "https://www.163.com/dy/article/J160EQI8053469RG.html"
    },
    {
        "title": "时隔10年“去库存”重现，房价还会翻倍涨吗？",
        "docid": "J15VO6KP05199A0B",
        "url": "https://www.163.com/dy/article/J15VO6KP05199A0B.html"
    },
    {
        "title": "世界武昌湾，滨水新天地",
        "docid": "J0S9NCG5020998HG",
        "url": "https://www.163.com/dy/article/J0S9NCG5020998HG.html"
    },
    {
        "title": "别总纠结房价，更可怕的事来了，这些城市房价下降后房子卖不掉？",
        "docid": "VC080C3RS",
        "url": "https://www.163.com/dy/article/VC080C3RS.html"
    },
    {
        "title": "房价会暴跌还是暴涨？郎咸平说出了大实话，听完感觉豁然开朗！",
        "docid": "VW07VPJQP",
        "url": "https://www.163.com/dy/article/VW07VPJQP.html"
    },
    {
        "title": "3室1厅8.8万一套，新房主买完当天入住，干干净净真的太省心了！",
        "docid": "VN080S00K",
        "url": "https://www.163.com/dy/article/VN080S00K.html"
    },
    {
        "title": "3室1厅8.8万一套，新房主买完当天入住，干干净净真的太省心了！",
        "docid": "VF07VQ293",
        "url": "https://www.163.com/dy/article/VF07VQ293.html"
    },
    {
        "title": "“还房贷”记住别犯这“4个”错误，白白损失一笔钱，别忘了",
        "docid": "J0JVJDPL0540SN7V",
        "url": "https://www.163.com/dy/article/J0JVJDPL0540SN7V.html"
    },
    {
        "title": "大城兑现时，真改善选天曜 三期终藏B6#加推",
        "docid": "J0MTCS94020998HG",
        "url": "https://www.163.com/dy/article/J0MTCS94020998HG.html"
    },
    {
        "title": "2024年：北上广住宅市场的现状与未来趋势",
        "docid": "J1466EVA0556124M",
        "url": "https://www.163.com/dy/article/J1466EVA0556124M.html"
    },
    {
        "title": "房价会暴跌还是暴涨？郎咸平说出了大实话，听完感觉豁然开朗！",
        "docid": "VF080RJD6",
        "url": "https://www.163.com/dy/article/VF080RJD6.html"
    },
    {
        "title": "世界武昌湾，滨水新天地",
        "docid": "J0S9NCG5020998HG",
        "url": "https://www.163.com/dy/article/J0S9NCG5020998HG.html"
    },
    {
        "title": "一场史无前例的卖房潮来了，我建议不要跟风卖房，别倒在黎明前",
        "docid": "VY06NS5UM",
        "url": "https://www.163.com/dy/article/VY06NS5UM.html"
    },
    {
        "title": "第一次买房没经验，刚搬进来就后悔了，被凸出的中间户严重遮光",
        "docid": "VX07VV7M9",
        "url": "https://www.163.com/dy/article/VX07VV7M9.html"
    },
    {
        "title": "又又顶不住了 白云刚需必对比项目",
        "docid": "VJ05LE8N2",
        "url": "https://www.163.com/dy/article/VJ05LE8N2.html"
    },
    {
        "title": "什么是AR建房，手指一点就看到房子，照着影像去盖房",
        "docid": "VHVHC30UI",
        "url": "https://www.163.com/dy/article/VHVHC30UI.html"
    },
    {
        "title": "房子终于卖了，心在滴血，80万打水漂了",
        "docid": "J164ULTN05566SC9",
        "url": "https://www.163.com/dy/article/J164ULTN05566SC9.html"
    },
    {
        "title": "大城兑现时，真改善选天曜 三期终藏B6#加推",
        "docid": "J0MTCS94020998HG",
        "url": "https://www.163.com/dy/article/J0MTCS94020998HG.html"
    },
    {
        "title": "日本空屋数高达900万户！空屋率13%",
        "docid": "J164DQTS05563VVV",
        "url": "https://www.163.com/dy/article/J164DQTS05563VVV.html"
    },
    {
        "title": "为啥西边户成了“香饽饽”？入住3年，说说大实话，太真实了",
        "docid": "J164CDCT0553TDXU",
        "url": "https://www.163.com/dy/article/J164CDCT0553TDXU.html"
    },
    {
        "title": "世界武昌湾，滨水新天地",
        "docid": "J0S9NCG5020998HG",
        "url": "https://www.163.com/dy/article/J0S9NCG5020998HG.html"
    },
    {
        "title": "全线下跌，彻底凉凉的节奏，跌幅不断扩大，买房人要注意了！",
        "docid": "J13TGURH05567HWG",
        "url": "https://www.163.com/dy/article/J13TGURH05567HWG.html"
    },
    {
        "title": "比房地产更可怕的危机或已经出现",
        "docid": "J164P78D0545ASQR",
        "url": "https://www.163.com/dy/article/J164P78D0545ASQR.html"
    },
    {
        "title": "潘向东：一线城市跌幅超过三线，房价见底了吗？",
        "docid": "VY03CC17Q",
        "url": "https://www.163.com/dy/article/VY03CC17Q.html"
    },
    {
        "title": "老乡，你家要有宅基地，你会盖房吗？",
        "docid": "VW089DEI0",
        "url": "https://www.163.com/dy/article/VW089DEI0.html"
    },
    {
        "title": "重启去库存！！！有人认错了？",
        "docid": "J1664DDO0553TEQM",
        "url": "https://www.163.com/dy/article/J1664DDO0553TEQM.html"
    },
    {
        "title": "大城兑现时，真改善选天曜 三期终藏B6#加推",
        "docid": "J0MTCS94020998HG",
        "url": "https://www.163.com/dy/article/J0MTCS94020998HG.html"
    },
    {
        "title": "买房买顶楼和西户没什么不好的，并非价格好的楼层就一定好",
        "docid": "J0JVOHF10540SN7V",
        "url": "https://www.163.com/dy/article/J0JVOHF10540SN7V.html"
    },
    {
        "title": "李嘉诚预言再现神准：中国家庭坐拥两套房，为何逃不过这三大困境",
        "docid": "J0KIAHTL05567338",
        "url": "https://www.163.com/dy/article/J0KIAHTL05567338.html"
    },
    {
        "title": "世界武昌湾，滨水新天地",
        "docid": "J0S9NCG5020998HG",
        "url": "https://www.163.com/dy/article/J0S9NCG5020998HG.html"
    },
    {
        "title": "时隔10年“去库存”重现，房价还会翻倍涨吗？",
        "docid": "J165TLC105562JCU",
        "url": "https://www.163.com/dy/article/J165TLC105562JCU.html"
    },
    {
        "title": "老房加装电梯不用争了！新规下，这类人有福了",
        "docid": "J13JKEQ7055640VF",
        "url": "https://www.163.com/dy/article/J13JKEQ7055640VF.html"
    },
    {
        "title": "哪些东西在国内很贵，在马来西亚却很便宜？",
        "docid": "J16697L505565N5Y",
        "url": "https://www.163.com/dy/article/J16697L505565N5Y.html"
    },
    {
        "title": "影响所有人的八大泡沫正在破灭",
        "docid": "J165F6M20545ASQR",
        "url": "https://www.163.com/dy/article/J165F6M20545ASQR.html"
    },
    {
        "title": "重磅！自然资源部发文，事关住宅供地",
        "docid": "J16877LB0553TEV3",
        "url": "https://www.163.com/dy/article/J16877LB0553TEV3.html"
    },
    {
        "title": "大城兑现时，真改善选天曜 三期终藏B6#加推",
        "docid": "J0MTCS94020998HG",
        "url": "https://www.163.com/dy/article/J0MTCS94020998HG.html"
    },
    {
        "title": "73岁王石的取与舍：放弃千万退休金，赢得“娇妻”打气",
        "docid": "J166QF0905566LWT",
        "url": "https://www.163.com/dy/article/J166QF0905566LWT.html"
    },
    {
        "title": "多地施行楼市新政，将如何影响房地产市场？业内人士解读→",
        "docid": "J168BJ2F051282UI",
        "url": "https://www.163.com/dy/article/J168BJ2F051282UI.html"
    },
    {
        "title": "世界武昌湾，滨水新天地",
        "docid": "J0S9NCG5020998HG",
        "url": "https://www.163.com/dy/article/J0S9NCG5020998HG.html"
    },
    {
        "title": "警惕！有人在专门骗中国穷人买房！",
        "docid": "J167HH9U0552F71X",
        "url": "https://www.163.com/dy/article/J167HH9U0552F71X.html"
    },
    {
        "title": "2024年卖掉房子，是“明智”还是“愚蠢”？内行人一语道破",
        "docid": "J0O4AMNM0556732K",
        "url": "https://www.163.com/dy/article/J0O4AMNM0556732K.html"
    },
    {
        "title": "比房地产更可怕的危机或已经出现",
        "docid": "VS08BFHIF",
        "url": "https://www.163.com/dy/article/VS08BFHIF.html"
    },
    {
        "title": "参观朋友的新房，媳妇看完后不舍得走了，花16万装成这样太值了",
        "docid": "VF0843TRQ",
        "url": "https://www.163.com/dy/article/VF0843TRQ.html"
    },
    {
        "title": "东京世田谷区45万公寓，车站560米，招财猫发祥地豪德寺旁，电车直达新宿、三轩茶屋！",
        "docid": "J16B6BRK05359JWY",
        "url": "https://www.163.com/dy/article/J16B6BRK05359JWY.html"
    },
    {
        "title": "大城兑现时，真改善选天曜 三期终藏B6#加推",
        "docid": "J0MTCS94020998HG",
        "url": "https://www.163.com/dy/article/J0MTCS94020998HG.html"
    },
    {
        "title": "房价大跌一定会有“征兆”，如果你所在城市出现4个现象，买房吧",
        "docid": "J16AN3430556124M",
        "url": "https://www.163.com/dy/article/J16AN3430556124M.html"
    },
    {
        "title": "听一句劝，“这6个烂户型”买了就踩坑，不好住还不好卖",
        "docid": "J16AVC3E0520AAO5",
        "url": "https://www.163.com/dy/article/J16AVC3E0520AAO5.html"
    },
    {
        "title": "世界武昌湾，滨水新天地",
        "docid": "J0S9NCG5020998HG",
        "url": "https://www.163.com/dy/article/J0S9NCG5020998HG.html"
    },
    {
        "title": "买菜大妈一番话，道破“楼市真相”，众人坦言：多数人都没她清醒",
        "docid": "J0OOCBO60556124M",
        "url": "https://www.163.com/dy/article/J0OOCBO60556124M.html"
    },
    {
        "title": "买二手房怎么操作才安全？9个步骤让你放心买房，小心驶得万年船",
        "docid": "J0V0J6PS054057BR",
        "url": "https://www.163.com/dy/article/J0V0J6PS054057BR.html"
    },
    {
        "title": "这一层房子千万别买，开发商都进行打折出售，住进去就贬值了！",
        "docid": "J16A6FHA05566SC9",
        "url": "https://www.163.com/dy/article/J16A6FHA05566SC9.html"
    },
    {
        "title": "消化存量房产来了，又是一波“去库存”？",
        "docid": "VV08A2D3H",
        "url": "https://www.163.com/dy/article/VV08A2D3H.html"
    },
    {
        "title": "396.85平米的奢华户型",
        "docid": "J16B9PVE0553TB8M",
        "url": "https://www.163.com/dy/article/J16B9PVE0553TB8M.html"
    },
    {
        "title": "大城兑现时，真改善选天曜 三期终藏B6#加推",
        "docid": "J0MTCS94020998HG",
        "url": "https://www.163.com/dy/article/J0MTCS94020998HG.html"
    },
    {
        "title": "来不及等开盘了，市场深夜突发王炸消息，下周市场将发生巨变",
        "docid": "J16BJMUQ0556601Q",
        "url": "https://www.163.com/dy/article/J16BJMUQ0556601Q.html"
    },
    {
        "title": "这3个地段的房子，开发商优惠卖，也不要，麻烦多",
        "docid": "J0I6DGCA0540SN7V",
        "url": "https://www.163.com/dy/article/J0I6DGCA0540SN7V.html"
    },
    {
        "title": "世界武昌湾，滨水新天地",
        "docid": "J0S9NCG5020998HG",
        "url": "https://www.163.com/dy/article/J0S9NCG5020998HG.html"
    },
    {
        "title": "武汉4000㎡菜市场开在了地铁站 菜市场开在地铁站里是什么情景？湖北武汉地铁洪山广场站近4000平方",
        "docid": "VF08GM4A5",
        "url": "https://www.163.com/dy/article/VF08GM4A5.html"
    },
    {
        "title": "房地产垮了，老百姓会没饭吃吗？",
        "docid": "VW08C564C",
        "url": "https://www.163.com/dy/article/VW08C564C.html"
    },
    {
        "title": "如果房价一直跌下去会怎么样？",
        "docid": "VR08DIOFL",
        "url": "https://www.163.com/dy/article/VR08DIOFL.html"
    },
    {
        "title": "地砖一定越大越好吗？带你实地看看最具性价比规格地砖铺贴效果！",
        "docid": "VN083S2JA",
        "url": "https://www.163.com/dy/article/VN083S2JA.html"
    },
    {
        "title": "严选好房，给利MAX，网易房产武汉医护购房专享福利来袭！",
        "docid": "J0SMKSV505567SKQ",
        "url": "https://www.163.com/dy/article/J0SMKSV505567SKQ.html"
    },
    {
        "title": "大城兑现时，真改善选天曜 三期终藏B6#加推",
        "docid": "J0MTCS94020998HG",
        "url": "https://www.163.com/dy/article/J0MTCS94020998HG.html"
    },
    {
        "title": "地产人跳槽，盯住这10家房企",
        "docid": "J15UGPM80553TDVP",
        "url": "https://www.163.com/dy/article/J15UGPM80553TDVP.html"
    },
    {
        "title": "重磅消息！全国即将解除限购政策；五个院子的别墅火爆认购中！",
        "docid": "J158LF600556757N",
        "url": "https://www.163.com/dy/article/J158LF600556757N.html"
    },
    {
        "title": "世界武昌湾，滨水新天地",
        "docid": "J0S9NCG5020998HG",
        "url": "https://www.163.com/dy/article/J0S9NCG5020998HG.html"
    },
    {
        "title": "武汉经开区将新增一购物中心",
        "docid": "J11UVF5H0556124M",
        "url": "https://www.163.com/dy/article/J11UVF5H0556124M.html"
    },
    {
        "title": "重磅！这类城市，应暂停新增商品住宅用地出让",
        "docid": "J14Q7PHG053469RG",
        "url": "https://www.163.com/dy/article/J14Q7PHG053469RG.html"
    },
    {
        "title": "远洋建管签约武汉光谷万和竞界项目",
        "docid": "J122OEEH0553YQAZ",
        "url": "https://www.163.com/dy/article/J122OEEH0553YQAZ.html"
    },
    {
        "title": "42054万元！杉杉奥莱如约沌口拿地！",
        "docid": "J150CT7U05149MGC",
        "url": "https://www.163.com/dy/article/J150CT7U05149MGC.html"
    },
    {
        "title": "买房后，要不要买车位？",
        "docid": "J16DN3IO0535PKJN",
        "url": "https://www.163.com/dy/article/J16DN3IO0535PKJN.html"
    },
    {
        "title": "大城兑现时，真改善选天曜 三期终藏B6#加推",
        "docid": "J0MTCS94020998HG",
        "url": "https://www.163.com/dy/article/J0MTCS94020998HG.html"
    },
    {
        "title": "带院的一楼不能买？自住6年的我亲自告诉你，胡扯！利大于弊",
        "docid": "J0KS2ISF054057BR",
        "url": "https://www.163.com/dy/article/J0KS2ISF054057BR.html"
    },
    {
        "title": "房产税要来了！每套房每年还要交税吗?房价会跌吗?",
        "docid": "J16DHNUK0535PKJN",
        "url": "https://www.163.com/dy/article/J16DHNUK0535PKJN.html"
    },
    {
        "title": "世界武昌湾，滨水新天地",
        "docid": "J0S9NCG5020998HG",
        "url": "https://www.163.com/dy/article/J0S9NCG5020998HG.html"
    },
    {
        "title": "2024年，房地产上涨！",
        "docid": "J16DPR3C0535PKJN",
        "url": "https://www.163.com/dy/article/J16DPR3C0535PKJN.html"
    },
    {
        "title": "机构：4月百城二手住宅价格继续下探，深圳、成都等成交量环比增长",
        "docid": "J16GEEOU0514R9P4",
        "url": "https://www.163.com/dy/article/J16GEEOU0514R9P4.html"
    },
    {
        "title": "专家预测：房价将涨五倍！“有2套房子的人”需要做好这三个准备",
        "docid": "J16DF32S0535PKJN",
        "url": "https://www.163.com/dy/article/J16DF32S0535PKJN.html"
    },
    {
        "title": "房地产报建议:房企可自主降价!之前高价买房的人怎么办?",
        "docid": "J16DK1TH0535PKJN",
        "url": "https://www.163.com/dy/article/J16DK1TH0535PKJN.html"
    },
    {
        "title": "如何选择一套好的房子 聪明人都会看 无论在忙都要看",
        "docid": "J0K30SS90540KLAM",
        "url": "https://www.163.com/dy/article/J0K30SS90540KLAM.html"
    },
    {
        "title": "大城兑现时，真改善选天曜 三期终藏B6#加推",
        "docid": "J0MTCS94020998HG",
        "url": "https://www.163.com/dy/article/J0MTCS94020998HG.html"
    },
    {
        "title": "涨价去库存，回来袭吗？",
        "docid": "VJ08I6H3E",
        "url": "https://www.163.com/dy/article/VJ08I6H3E.html"
    },
    {
        "title": "又一个特大省会房价“落网”，上级快来拯救我们，真活不下去了！",
        "docid": "VP08MPE11",
        "url": "https://www.163.com/dy/article/VP08MPE11.html"
    },
    {
        "title": "世界武昌湾，滨水新天地",
        "docid": "J0S9NCG5020998HG",
        "url": "https://www.163.com/dy/article/J0S9NCG5020998HG.html"
    },
    {
        "title": "成功签约！大学城筑巢引凤，潭房托起优居梦。",
        "docid": "VR07G7GD4",
        "url": "https://www.163.com/dy/article/VR07G7GD4.html"
    },
    {
        "title": "2024年找对象有车有房已经过时了，现在需要新三样",
        "docid": "VX087KMML",
        "url": "https://www.163.com/dy/article/VX087KMML.html"
    },
    {
        "title": "京津同日放松限购楼市迎重磅利好：限购放宽，购房更自由",
        "docid": "VF089MACG",
        "url": "https://www.163.com/dy/article/VF089MACG.html"
    },
    {
        "title": "房地产不行了？别急，中国还有一个杀手锏",
        "docid": "VS08HAMAP",
        "url": "https://www.163.com/dy/article/VS08HAMAP.html"
    },
    {
        "title": "好消息：今年楼市小阳春后，不会像去年那样跳水",
        "docid": "J16HE16P05566SC9",
        "url": "https://www.163.com/dy/article/J16HE16P05566SC9.html"
    },
    {
        "title": "大城兑现时，真改善选天曜 三期终藏B6#加推",
        "docid": "J0MTCS94020998HG",
        "url": "https://www.163.com/dy/article/J0MTCS94020998HG.html"
    },
    {
        "title": "郁亮：2年时间变身一个“新万科”",
        "docid": "J16GCI4805567IYR",
        "url": "https://www.163.com/dy/article/J16GCI4805567IYR.html"
    },
    {
        "title": "重启去库存！有人认错了？",
        "docid": "J16G9BFU05567IYR",
        "url": "https://www.163.com/dy/article/J16G9BFU05567IYR.html"
    },
    {
        "title": "世界武昌湾，滨水新天地",
        "docid": "J0S9NCG5020998HG",
        "url": "https://www.163.com/dy/article/J0S9NCG5020998HG.html"
    },
    {
        "title": "我国经济或许被4亿房奴拖垮？黄奇帆一针见血指出消费力不如印度",
        "docid": "J16GAR4C05567IYR",
        "url": "https://www.163.com/dy/article/J16GAR4C05567IYR.html"
    },
    {
        "title": "漫画｜行业协会商会自身建设指南",
        "docid": "J16H28GI0553TB8M",
        "url": "https://www.163.com/dy/article/J16H28GI0553TB8M.html"
    },
    {
        "title": "买房时这三层，千万不要买",
        "docid": "VR08P5ACJ",
        "url": "https://www.163.com/dy/article/VR08P5ACJ.html"
    },
    {
        "title": "房子再大，也不要把药品放在，这6个地方",
        "docid": "VR08NF0P0",
        "url": "https://www.163.com/dy/article/VR08NF0P0.html"
    },
    {
        "title": "再过几年，房价会跌到一线2万二线8千三四线3千？住建部发声定调",
        "docid": "J16JH1UC05567IYR",
        "url": "https://www.163.com/dy/article/J16JH1UC05567IYR.html"
    },
    {
        "title": "大城兑现时，真改善选天曜 三期终藏B6#加推",
        "docid": "J0MTCS94020998HG",
        "url": "https://www.163.com/dy/article/J0MTCS94020998HG.html"
    },
    {
        "title": "信达地产：品质交付书写硬核产品兑现力",
        "docid": "J16L4QTP05566UTT",
        "url": "https://www.163.com/dy/article/J16L4QTP05566UTT.html"
    },
    {
        "title": "官方售楼电话「古北壹号行政公馆」古北封藏之作，上流社会社交场",
        "docid": "J0P8UQH605567507",
        "url": "https://www.163.com/dy/article/J0P8UQH605567507.html"
    },
    {
        "title": "世界武昌湾，滨水新天地",
        "docid": "J0S9NCG5020998HG",
        "url": "https://www.163.com/dy/article/J0S9NCG5020998HG.html"
    },
    {
        "title": "限完放放完限，放放限限无穷尽也",
        "docid": "VJ0688ILB",
        "url": "https://www.163.com/dy/article/VJ0688ILB.html"
    },
    {
        "title": "现在房子是租的，一家三口租房住",
        "docid": "VF08PHM4C",
        "url": "https://www.163.com/dy/article/VF08PHM4C.html"
    },
    {
        "title": "经济日报：因城施策促房地产市场平稳发展  快报",
        "docid": "VP0663393",
        "url": "https://www.163.com/dy/article/VP0663393.html"
    },
    {
        "title": "房子70年产权到期后还是你的吗？",
        "docid": "VN08P4VHH",
        "url": "https://www.163.com/dy/article/VN08P4VHH.html"
    },
    {
        "title": "42054万元！杉杉奥莱如约沌口拿地！",
        "docid": "J150CT7U05149MGC",
        "url": "https://www.163.com/dy/article/J150CT7U05149MGC.html"
    },
    {
        "title": "大城兑现时，真改善选天曜 三期终藏B6#加推",
        "docid": "J0MTCS94020998HG",
        "url": "https://www.163.com/dy/article/J0MTCS94020998HG.html"
    },
    {
        "title": "天花板的园林配置，坐在家里也能闻花香？",
        "docid": "J0MSRK2B05567SKQ",
        "url": "https://www.163.com/dy/article/J0MSRK2B05567SKQ.html"
    },
    {
        "title": "中指研究院：4月百城二手住宅价格继续下探 深圳、成都等成交量环比增长",
        "docid": "J16GLBK505198CJN",
        "url": "https://www.163.com/dy/article/J16GLBK505198CJN.html"
    },
    {
        "title": "世界武昌湾，滨水新天地",
        "docid": "J0S9NCG5020998HG",
        "url": "https://www.163.com/dy/article/J0S9NCG5020998HG.html"
    },
    {
        "title": "武汉房价六连跌，四万炒房客被套武汉楼市，武汉楼市4月分析",
        "docid": "J0V3E8E30535JMSP",
        "url": "https://www.163.com/dy/article/J0V3E8E30535JMSP.html"
    },
    {
        "title": "新一轮楼市去库存开始了，房价还能涨吗？",
        "docid": "J16G7P2205567IYR",
        "url": "https://www.163.com/dy/article/J16G7P2205567IYR.html"
    },
    {
        "title": "空中花园！沌口C位第四代住宅横空出世公示中！",
        "docid": "J12CFDN905149MGC",
        "url": "https://www.163.com/dy/article/J12CFDN905149MGC.html"
    },
    {
        "title": "光谷北辰当代优+对面，武汉艳阳天拿下这块地！",
        "docid": "J13P5SBK0534CYN4",
        "url": "https://www.163.com/dy/article/J13P5SBK0534CYN4.html"
    },
    {
        "title": "楼市大揭秘！二手房成交13354套，下跌6.48%，不用急着买房",
        "docid": "J16NCPT205562DLL",
        "url": "https://www.163.com/dy/article/J16NCPT205562DLL.html"
    },
    {
        "title": "大城兑现时，真改善选天曜 三期终藏B6#加推",
        "docid": "J0MTCS94020998HG",
        "url": "https://www.163.com/dy/article/J0MTCS94020998HG.html"
    },
    {
        "title": "自然资源部一声令下，全国几百个城市的财政局长集体哭晕了",
        "docid": "J16OSRF30556544R",
        "url": "https://www.163.com/dy/article/J16OSRF30556544R.html"
    },
    {
        "title": "未来三年房地产将呈现三大趋势",
        "docid": "VS08UG3C9",
        "url": "https://www.163.com/dy/article/VS08UG3C9.html"
    },
    {
        "title": "世界武昌湾，滨水新天地",
        "docid": "J0S9NCG5020998HG",
        "url": "https://www.163.com/dy/article/J0S9NCG5020998HG.html"
    },
    {
        "title": "揭秘那些不为人知“养老骗局”，揭秘以房养老骗局如何坑老人的",
        "docid": "VE08SBBRT",
        "url": "https://www.163.com/dy/article/VE08SBBRT.html"
    },
    {
        "title": "当年人才引进落户真的很难，各种压力接踵而来真的想放弃",
        "docid": "VA08U1VNK",
        "url": "https://www.163.com/dy/article/VA08U1VNK.html"
    },
    {
        "title": "自建房5个省钱黄金口诀，能省下不少钱，建议收藏！",
        "docid": "VG08TKM2C",
        "url": "https://www.163.com/dy/article/VG08TKM2C.html"
    },
    {
        "title": "2024年买房，不要再去研究房价了，这3点足够！",
        "docid": "VA08SEOOK",
        "url": "https://www.163.com/dy/article/VA08SEOOK.html"
    },
    {
        "title": "武汉经开区将新增一购物中心",
        "docid": "J11UVF5H0556124M",
        "url": "https://www.163.com/dy/article/J11UVF5H0556124M.html"
    },
    {
        "title": "大城兑现时，真改善选天曜 三期终藏B6#加推",
        "docid": "J0MTCS94020998HG",
        "url": "https://www.163.com/dy/article/J0MTCS94020998HG.html"
    },
    {
        "title": "远洋建管签约武汉光谷万和竞界项目",
        "docid": "J122OEEH0553YQAZ",
        "url": "https://www.163.com/dy/article/J122OEEH0553YQAZ.html"
    },
    {
        "title": "42054万元！杉杉奥莱如约沌口拿地！",
        "docid": "J150CT7U05149MGC",
        "url": "https://www.163.com/dy/article/J150CT7U05149MGC.html"
    },
    {
        "title": "世界武昌湾，滨水新天地",
        "docid": "J0S9NCG5020998HG",
        "url": "https://www.163.com/dy/article/J0S9NCG5020998HG.html"
    },
    {
        "title": "天花板的园林配置，坐在家里也能闻花香？",
        "docid": "J0MSRK2B05567SKQ",
        "url": "https://www.163.com/dy/article/J0MSRK2B05567SKQ.html"
    },
    {
        "title": "这是一款纯正的199平米豪华户型吗?",
        "docid": "J14MQCSI0553TEV3",
        "url": "https://www.163.com/dy/article/J14MQCSI0553TEV3.html"
    },
    {
        "title": "万科郁亮：未来万科将聚焦综合住区开发、物业服务、租赁公寓三大优势主业",
        "docid": "J11TMR0K05199NPP",
        "url": "https://www.163.com/dy/article/J11TMR0K05199NPP.html"
    },
    {
        "title": "专题 | 资金推动下“两旧一村”改造落地进程及影响",
        "docid": "J12B5MFG0535A6CE",
        "url": "https://www.163.com/dy/article/J12B5MFG0535A6CE.html"
    },
    {
        "title": "这几类家庭，未来几年有可能被“淘汰”，活下去很难",
        "docid": "J0IDRJL005564TV0",
        "url": "https://www.163.com/dy/article/J0IDRJL005564TV0.html"
    },
    {
        "title": "大城兑现时，真改善选天曜 三期终藏B6#加推",
        "docid": "J0MTCS94020998HG",
        "url": "https://www.163.com/dy/article/J0MTCS94020998HG.html"
    },
    {
        "title": "疯狂抛售二手房！2004年房价触底，2025年房价涨，房地产股票反转",
        "docid": "J16RCK2G055616ZT",
        "url": "https://www.163.com/dy/article/J16RCK2G055616ZT.html"
    },
    {
        "title": "终于有人把“公积金等级”，整理出来了，看完涨知识了。",
        "docid": "J0PG9MT90553TB8M",
        "url": "https://www.163.com/dy/article/J0PG9MT90553TB8M.html"
    },
    {
        "title": "世界武昌湾，滨水新天地",
        "docid": "J0S9NCG5020998HG",
        "url": "https://www.163.com/dy/article/J0S9NCG5020998HG.html"
    },
    {
        "title": "房价不可能跌，理由及原因！房价不能下跌的凶手",
        "docid": "VK0902C9E",
        "url": "https://www.163.com/dy/article/VK0902C9E.html"
    },
    {
        "title": "暂停卖地 暂停宅地出让，终于来了！而下一波去库存就在路上",
        "docid": "VF08TCOO9",
        "url": "https://www.163.com/dy/article/VF08TCOO9.html"
    },
    {
        "title": "该不该卖房子要理清三点",
        "docid": "VR090RT6K",
        "url": "https://www.163.com/dy/article/VR090RT6K.html"
    },
    {
        "title": "老旧房子加装电梯后，低楼层住户全后悔，100万房子跌到40万左右",
        "docid": "VY063ANFL",
        "url": "https://www.163.com/dy/article/VY063ANFL.html"
    },
    {
        "title": "房地产业，当务之急是救市还是善后",
        "docid": "J16S3EIE0553TDTY",
        "url": "https://www.163.com/dy/article/J16S3EIE0553TDTY.html"
    },
    {
        "title": "大城兑现时，真改善选天曜 三期终藏B6#加推",
        "docid": "J0MTCS94020998HG",
        "url": "https://www.163.com/dy/article/J0MTCS94020998HG.html"
    },
    {
        "title": "金融专家：房价下跌27%才合理！央媒“8字”回应明年或继续贬值潮",
        "docid": "J16U91G80553TDXU",
        "url": "https://www.163.com/dy/article/J16U91G80553TDXU.html"
    },
    {
        "title": "房价还有可能回到十年前吗？",
        "docid": "J0L4TS5A0553VNKO",
        "url": "https://www.163.com/dy/article/J0L4TS5A0553VNKO.html"
    },
    {
        "title": "世界武昌湾，滨水新天地",
        "docid": "J0S9NCG5020998HG",
        "url": "https://www.163.com/dy/article/J0S9NCG5020998HG.html"
    },
    {
        "title": "重磅突发！官方发文：暂停新增商品住宅用地出让！常州在列......",
        "docid": "J16TKUVP0535QL75",
        "url": "https://www.163.com/dy/article/J16TKUVP0535QL75.html"
    },
    {
        "title": "历史轮回：事隔八年，重启房产去库存！",
        "docid": "VO061P4E3",
        "url": "https://www.163.com/dy/article/VO061P4E3.html"
    },
    {
        "title": "泰国自建房终于完工啦，泰国建房一定要注意这几点，期待新房开箱",
        "docid": "VF0925PQO",
        "url": "https://www.163.com/dy/article/VF0925PQO.html"
    },
    {
        "title": "200万的房子被法拍了60万，贷款买房后悔莫及，所有积蓄都成空！",
        "docid": "VY08KD0ES",
        "url": "https://www.163.com/dy/article/VY08KD0ES.html"
    },
    {
        "title": "武汉经开区将新增一购物中心",
        "docid": "J11UVF5H0556124M",
        "url": "https://www.163.com/dy/article/J11UVF5H0556124M.html"
    },
    {
        "title": "大城兑现时，真改善选天曜 三期终藏B6#加推",
        "docid": "J0MTCS94020998HG",
        "url": "https://www.163.com/dy/article/J0MTCS94020998HG.html"
    },
    {
        "title": "远洋建管签约武汉光谷万和竞界项目",
        "docid": "J122OEEH0553YQAZ",
        "url": "https://www.163.com/dy/article/J122OEEH0553YQAZ.html"
    },
    {
        "title": "42054万元！杉杉奥莱如约沌口拿地！",
        "docid": "J150CT7U05149MGC",
        "url": "https://www.163.com/dy/article/J150CT7U05149MGC.html"
    },
    {
        "title": "世界武昌湾，滨水新天地",
        "docid": "J0S9NCG5020998HG",
        "url": "https://www.163.com/dy/article/J0S9NCG5020998HG.html"
    },
    {
        "title": "天花板的园林配置，坐在家里也能闻花香？",
        "docid": "J0MSRK2B05567SKQ",
        "url": "https://www.163.com/dy/article/J0MSRK2B05567SKQ.html"
    },
    {
        "title": "湖北第一批智慧小区建设试点名单公布，武汉这些小区入选",
        "docid": "J12RIV7R0553TB9L",
        "url": "https://www.163.com/dy/article/J12RIV7R0553TB9L.html"
    },
    {
        "title": "武汉最无奈的城中村：10万打工者蜗居处，拆迁却遥遥无期",
        "docid": "J0RBDFTO05566SC9",
        "url": "https://www.163.com/dy/article/J0RBDFTO05566SC9.html"
    },
    {
        "title": "五一假期，武汉一栋别墅一套江景豪宅拍卖，3961万成交，还便宜了",
        "docid": "J15UNE1O05564G35",
        "url": "https://www.163.com/dy/article/J15UNE1O05564G35.html"
    },
    {
        "title": "五一假期不休息，南京无锡再度救市不停歇",
        "docid": "J16UIDF50553TB9L",
        "url": "https://www.163.com/dy/article/J16UIDF50553TB9L.html"
    },
    {
        "title": "大城兑现时，真改善选天曜 三期终藏B6#加推",
        "docid": "J0MTCS94020998HG",
        "url": "https://www.163.com/dy/article/J0MTCS94020998HG.html"
    },
    {
        "title": "专家：导致房地产危机迟迟不能解决的原因找到了，就是百姓不买房",
        "docid": "J0PCD8AO0556135L",
        "url": "https://www.163.com/dy/article/J0PCD8AO0556135L.html"
    },
    {
        "title": "蓝惠首府：一波刚平，一波又起",
        "docid": "J0PAGSA20534EOPO",
        "url": "https://www.163.com/dy/article/J0PAGSA20534EOPO.html"
    },
    {
        "title": "世界武昌湾，滨水新天地",
        "docid": "J0S9NCG5020998HG",
        "url": "https://www.163.com/dy/article/J0S9NCG5020998HG.html"
    },
    {
        "title": "土地、房屋确权已经完成，为什么不发证？3大难题摆在眼前",
        "docid": "J16VK9JS0553TB8M",
        "url": "https://www.163.com/dy/article/J16VK9JS0553TB8M.html"
    },
    {
        "title": "去库存的第一个大招来了！73岁的王石要吃软饭了？",
        "docid": "J16VEM7A055616ZT",
        "url": "https://www.163.com/dy/article/J16VEM7A055616ZT.html"
    },
    {
        "title": "买房前后，你的生活有什么差别？网友：换卫生巾从三小时到八小时",
        "docid": "J16VPHB20553T94S",
        "url": "https://www.163.com/dy/article/J16VPHB20553T94S.html"
    },
    {
        "title": "《公路收费强盗逻辑，优待免费扩围通行》",
        "docid": "VK08ON1O0",
        "url": "https://www.163.com/dy/article/VK08ON1O0.html"
    },
    {
        "title": "房东不给开发票，财务要如何入账",
        "docid": "J1721UOM0553TENB",
        "url": "https://www.163.com/dy/article/J1721UOM0553TENB.html"
    },
    {
        "title": "大城兑现时，真改善选天曜 三期终藏B6#加推",
        "docid": "J0MTCS94020998HG",
        "url": "https://www.163.com/dy/article/J0MTCS94020998HG.html"
    },
    {
        "title": "严选好房，给利MAX，网易房产武汉医护购房专享福利来袭！",
        "docid": "J0SMKSV505567SKQ",
        "url": "https://www.163.com/dy/article/J0SMKSV505567SKQ.html"
    },
    {
        "title": "转载 | 地产黑马？白衣骑士？这家房企在“保交付”之上更加“保品质”",
        "docid": "J16VII8K0515AR2V",
        "url": "https://www.163.com/dy/article/J16VII8K0515AR2V.html"
    },
    {
        "title": "世界武昌湾，滨水新天地",
        "docid": "J0S9NCG5020998HG",
        "url": "https://www.163.com/dy/article/J0S9NCG5020998HG.html"
    },
    {
        "title": "武汉经开区将新增一购物中心",
        "docid": "J11UVF5H0556124M",
        "url": "https://www.163.com/dy/article/J11UVF5H0556124M.html"
    },
    {
        "title": "远洋建管签约武汉光谷万和竞界项目",
        "docid": "J122OEEH0553YQAZ",
        "url": "https://www.163.com/dy/article/J122OEEH0553YQAZ.html"
    },
    {
        "title": "42054万元！杉杉奥莱如约沌口拿地！",
        "docid": "J150CT7U05149MGC",
        "url": "https://www.163.com/dy/article/J150CT7U05149MGC.html"
    },
    {
        "title": "天花板的园林配置，坐在家里也能闻花香？",
        "docid": "J0MSRK2B05567SKQ",
        "url": "https://www.163.com/dy/article/J0MSRK2B05567SKQ.html"
    },
    {
        "title": "美的置业：1-4月合同销售金额约136.2亿元",
        "docid": "J174MSQT0534A4SC",
        "url": "https://www.163.com/dy/article/J174MSQT0534A4SC.html"
    },
    {
        "title": "大城兑现时，真改善选天曜 三期终藏B6#加推",
        "docid": "J0MTCS94020998HG",
        "url": "https://www.163.com/dy/article/J0MTCS94020998HG.html"
    },
    {
        "title": "未来5年，存款和房产或将“贬值”，这3样最值钱，看看你有几样？",
        "docid": "J0Q10I1I05563G28",
        "url": "https://www.163.com/dy/article/J0Q10I1I05563G28.html"
    },
    {
        "title": "这回整大了！新一轮楼市风暴来了！",
        "docid": "VC09B1QNV",
        "url": "https://www.163.com/dy/article/VC09B1QNV.html"
    },
    {
        "title": "世界武昌湾，滨水新天地",
        "docid": "J0S9NCG5020998HG",
        "url": "https://www.163.com/dy/article/J0S9NCG5020998HG.html"
    },
    {
        "title": "住一楼洋房的烦恼，谁懂啊？",
        "docid": "VF09766IV",
        "url": "https://www.163.com/dy/article/VF09766IV.html"
    },
    {
        "title": "清华李稻葵：做好这三件事有望年底走出困境，不能假设房价永远涨",
        "docid": "VA09A4GVQ",
        "url": "https://www.163.com/dy/article/VA09A4GVQ.html"
    },
    {
        "title": "去年高位的时候不出，现在想卖，降价才能体现他的诚意",
        "docid": "VU08ODD13",
        "url": "https://www.163.com/dy/article/VU08ODD13.html"
    },
    {
        "title": "消化存量房产，又一波“去库存”，救得起来吗？",
        "docid": "VM097VQ77",
        "url": "https://www.163.com/dy/article/VM097VQ77.html"
    },
    {
        "title": "理想化的大平层户型，客厅开间近15米，主卧室开间8米",
        "docid": "J0OQM0BI0553TB9L",
        "url": "https://www.163.com/dy/article/J0OQM0BI0553TB9L.html"
    },
    {
        "title": "大城兑现时，真改善选天曜 三期终藏B6#加推",
        "docid": "J0MTCS94020998HG",
        "url": "https://www.163.com/dy/article/J0MTCS94020998HG.html"
    },
    {
        "title": "6年前380万买的商铺，你猜猜现在价值多少钱？简直不敢相信！",
        "docid": "VM098CV9E",
        "url": "https://www.163.com/dy/article/VM098CV9E.html"
    },
    {
        "title": "5年降价18次最终94平93万卖出燕郊房产每平9800元落袋为安",
        "docid": "VC094N4QC",
        "url": "https://www.163.com/dy/article/VC094N4QC.html"
    },
    {
        "title": "世界武昌湾，滨水新天地",
        "docid": "J0S9NCG5020998HG",
        "url": "https://www.163.com/dy/article/J0S9NCG5020998HG.html"
    },
    {
        "title": "老百姓在自己家宅基地盖房子都不行？",
        "docid": "VD09BQJGV",
        "url": "https://www.163.com/dy/article/VD09BQJGV.html"
    },
    {
        "title": "森林野墅（第一季）：360° 环绕式露台，小房子可能偷来大空间",
        "docid": "VP08S6AKK",
        "url": "https://www.163.com/dy/article/VP08S6AKK.html"
    },
    {
        "title": "阿祖法336期，康特为母亲新房铺设纱布，既防尘又美观",
        "docid": "VF089JFB7",
        "url": "https://www.163.com/dy/article/VF089JFB7.html"
    },
    {
        "title": "房地产重磅转折，第二次“拆迁”潮很可能就要来了！",
        "docid": "VI097MDMK",
        "url": "https://www.163.com/dy/article/VI097MDMK.html"
    },
    {
        "title": "太震惊了，到底是哪些人在降价卖房呢，真的是炒房客吗？",
        "docid": "J176O2KQ05567HWG",
        "url": "https://www.163.com/dy/article/J176O2KQ05567HWG.html"
    },
    {
        "title": "大城兑现时，真改善选天曜 三期终藏B6#加推",
        "docid": "J0MTCS94020998HG",
        "url": "https://www.163.com/dy/article/J0MTCS94020998HG.html"
    },
    {
        "title": "房贷10年和20年多大区别？内部员工说完，才知好多人被“坑”了",
        "docid": "J0I6C1CK0540SN7V",
        "url": "https://www.163.com/dy/article/J0I6C1CK0540SN7V.html"
    },
    {
        "title": "买房时，“一次性付清”和“还贷30年”，区别有多大？幸亏早知道",
        "docid": "J1788TGC0539SQ59",
        "url": "https://www.163.com/dy/article/J1788TGC0539SQ59.html"
    },
    {
        "title": "世界武昌湾，滨水新天地",
        "docid": "J0S9NCG5020998HG",
        "url": "https://www.163.com/dy/article/J0S9NCG5020998HG.html"
    },
    {
        "title": "七宅一空 日本空宅率创纪录",
        "docid": "J176SGV605346RC6",
        "url": "https://www.163.com/dy/article/J176SGV605346RC6.html"
    },
    {
        "title": "哪个MALL“最赚钱”？华润置地租金收入最新披露！",
        "docid": "J177LT2N05158BF0",
        "url": "https://www.163.com/dy/article/J177LT2N05158BF0.html"
    },
    {
        "title": "七宅一空 日本空宅率创纪录",
        "docid": "VK09CS1EM",
        "url": "https://www.163.com/dy/article/VK09CS1EM.html"
    },
    {
        "title": "好消息！房龄超过20年的步梯房，3类房子或将拆迁",
        "docid": "VW09CR4SA",
        "url": "https://www.163.com/dy/article/VW09CR4SA.html"
    },
    {
        "title": "年轻人排队还房贷，却被告知要等 3 个月。",
        "docid": "J0Q9N5HD0553VNKO",
        "url": "https://www.163.com/dy/article/J0Q9N5HD0553VNKO.html"
    },
    {
        "title": "大城兑现时，真改善选天曜 三期终藏B6#加推",
        "docid": "J0MTCS94020998HG",
        "url": "https://www.163.com/dy/article/J0MTCS94020998HG.html"
    },
    {
        "title": "终于知道，为什么各地要求老破小的多层加装电梯，目的非常明确",
        "docid": "J0PNBH4S0519GBC0",
        "url": "https://www.163.com/dy/article/J0PNBH4S0519GBC0.html"
    },
    {
        "title": "严选好房，给利MAX，网易房产武汉医护购房专享福利来袭！",
        "docid": "J0SMKSV505567SKQ",
        "url": "https://www.163.com/dy/article/J0SMKSV505567SKQ.html"
    },
    {
        "title": "世界武昌湾，滨水新天地",
        "docid": "J0S9NCG5020998HG",
        "url": "https://www.163.com/dy/article/J0S9NCG5020998HG.html"
    },
    {
        "title": "武汉经开区将新增一购物中心",
        "docid": "J11UVF5H0556124M",
        "url": "https://www.163.com/dy/article/J11UVF5H0556124M.html"
    },
    {
        "title": "远洋建管签约武汉光谷万和竞界项目",
        "docid": "J122OEEH0553YQAZ",
        "url": "https://www.163.com/dy/article/J122OEEH0553YQAZ.html"
    },
    {
        "title": "42054万元！杉杉奥莱如约沌口拿地！",
        "docid": "J150CT7U05149MGC",
        "url": "https://www.163.com/dy/article/J150CT7U05149MGC.html"
    },
    {
        "title": "天花板的园林配置，坐在家里也能闻花香？",
        "docid": "J0MSRK2B05567SKQ",
        "url": "https://www.163.com/dy/article/J0MSRK2B05567SKQ.html"
    },
    {
        "title": "说一下房地产以旧换新的真相，我估计没人跟你说这些。",
        "docid": "J0NO1CR70553K5ZV",
        "url": "https://www.163.com/dy/article/J0NO1CR70553K5ZV.html"
    },
    {
        "title": "大城兑现时，真改善选天曜 三期终藏B6#加推",
        "docid": "J0MTCS94020998HG",
        "url": "https://www.163.com/dy/article/J0MTCS94020998HG.html"
    },
    {
        "title": "突发！40多年老牌房企拟退出地产开发业务！",
        "docid": "J178RBPA0515DC4C",
        "url": "https://www.163.com/dy/article/J178RBPA0515DC4C.html"
    },
    {
        "title": "金融专家：房价下跌27%才合理！央媒8字回应，明年或继续贬值潮！",
        "docid": "J153HM4S0535BC2F",
        "url": "https://www.163.com/dy/article/J153HM4S0535BC2F.html"
    },
    {
        "title": "世界武昌湾，滨水新天地",
        "docid": "J0S9NCG5020998HG",
        "url": "https://www.163.com/dy/article/J0S9NCG5020998HG.html"
    },
    {
        "title": "公积金留到退休也不错。不知不觉间公积金积攒了55万，买房也没用",
        "docid": "J151656J0553EANU",
        "url": "https://www.163.com/dy/article/J151656J0553EANU.html"
    },
    {
        "title": "房产证不管写谁的名字，已经不重要了？这4条新规建议提前了解",
        "docid": "J168FCMJ05536P04",
        "url": "https://www.163.com/dy/article/J168FCMJ05536P04.html"
    },
    {
        "title": "成都长沙放出救市大招，手里无“牌”的青岛还有逆袭的机会吗？",
        "docid": "J17APH9C0553TB8M",
        "url": "https://www.163.com/dy/article/J17APH9C0553TB8M.html"
    },
    {
        "title": "房产证上，写谁的名字最好？收藏起来看看吧",
        "docid": "J179ESMJ0553TB9L",
        "url": "https://www.163.com/dy/article/J179ESMJ0553TB9L.html"
    },
    {
        "title": "美债先崩还是中国房地产先崩？中美决战时刻终于来临了。",
        "docid": "J17BJKSE055656AO",
        "url": "https://www.163.com/dy/article/J17BJKSE055656AO.html"
    },
    {
        "title": "大城兑现时，真改善选天曜 三期终藏B6#加推",
        "docid": "J0MTCS94020998HG",
        "url": "https://www.163.com/dy/article/J0MTCS94020998HG.html"
    },
    {
        "title": "为什么房价下跌是新一轮财富的重新洗牌呢？",
        "docid": "J17ATL810553GD76",
        "url": "https://www.163.com/dy/article/J17ATL810553GD76.html"
    },
    {
        "title": "横琴玺【官方网站】华发横琴玺售楼中心发布_华发横琴玺指定电话",
        "docid": "J0QB4KPV055644UJ",
        "url": "https://www.163.com/dy/article/J0QB4KPV055644UJ.html"
    },
    {
        "title": "世界武昌湾，滨水新天地",
        "docid": "J0S9NCG5020998HG",
        "url": "https://www.163.com/dy/article/J0S9NCG5020998HG.html"
    },
    {
        "title": "卖掉一楼的房子，换成顶楼后，才发现一楼是智商税，太真实了",
        "docid": "J168QHDB05536P04",
        "url": "https://www.163.com/dy/article/J168QHDB05536P04.html"
    },
    {
        "title": "2024年起，持有两套房产的人，要做好3个准备，很多人还未察觉",
        "docid": "J168A0PB05536P04",
        "url": "https://www.163.com/dy/article/J168A0PB05536P04.html"
    },
    {
        "title": "未来几年，现金才是手中的硬通货？行长透露：要做过苦日子准备了",
        "docid": "J0N8N9A20535BC2F",
        "url": "https://www.163.com/dy/article/J0N8N9A20535BC2F.html"
    },
    {
        "title": "如果你真的想让自己的房子快速卖掉，一定要做到以下几点：",
        "docid": "J17BQ5L50553K5ZV",
        "url": "https://www.163.com/dy/article/J17BQ5L50553K5ZV.html"
    },
    {
        "title": "留学生实惨！$950在加拿大多伦多能租到什么房？现在只有一个帐篷",
        "docid": "J0QB3VT60552QDEA",
        "url": "https://www.163.com/dy/article/J0QB3VT60552QDEA.html"
    },
    {
        "title": "大城兑现时，真改善选天曜 三期终藏B6#加推",
        "docid": "J0MTCS94020998HG",
        "url": "https://www.163.com/dy/article/J0MTCS94020998HG.html"
    },
    {
        "title": "房子划入拆迁红线，法律视角下的拆迁时间线！",
        "docid": "J17DTLEP0532AYDR",
        "url": "https://www.163.com/dy/article/J17DTLEP0532AYDR.html"
    },
    {
        "title": "相当雅致的236.85平米户型",
        "docid": "J17E862K0553TEQM",
        "url": "https://www.163.com/dy/article/J17E862K0553TEQM.html"
    },
    {
        "title": "世界武昌湾，滨水新天地",
        "docid": "J0S9NCG5020998HG",
        "url": "https://www.163.com/dy/article/J0S9NCG5020998HG.html"
    },
    {
        "title": "继续聊聊我在日本买房的琐事。房子挂的是1890万日元",
        "docid": "J0QDKK6I055653YJ",
        "url": "https://www.163.com/dy/article/J0QDKK6I055653YJ.html"
    },
    {
        "title": "绿地控股：一季度净利润8203.24万，下降95.88%，买房人怎么看？",
        "docid": "J17DPC4L05566C1Z",
        "url": "https://www.163.com/dy/article/J17DPC4L05566C1Z.html"
    },
    {
        "title": "房地产的时代已经落幕了，能忍住没买房的都是高人。",
        "docid": "J0OODO9S055616ZT",
        "url": "https://www.163.com/dy/article/J0OODO9S055616ZT.html"
    },
    {
        "title": "为什么中国房地产房价的未来一定会上涨，而且可能会翻倍呢？",
        "docid": "J17ASA7N0553GD76",
        "url": "https://www.163.com/dy/article/J17ASA7N0553GD76.html"
    },
    {
        "title": "物业真要取消？央媒30字表态！新政策下，3笔费用大家需要知晓",
        "docid": "J14R08PG0535BC2F",
        "url": "https://www.163.com/dy/article/J14R08PG0535BC2F.html"
    },
    {
        "title": "大城兑现时，真改善选天曜 三期终藏B6#加推",
        "docid": "J0MTCS94020998HG",
        "url": "https://www.163.com/dy/article/J0MTCS94020998HG.html"
    },
    {
        "title": "房价下降，你们这些穷人不要幸灾乐祸",
        "docid": "J17BVCMF0553K5ZV",
        "url": "https://www.163.com/dy/article/J17BVCMF0553K5ZV.html"
    },
    {
        "title": "中海地产地下车库成本控制 -房地产",
        "docid": "J17BM2980553TB9L",
        "url": "https://www.163.com/dy/article/J17BM2980553TB9L.html"
    },
    {
        "title": "世界武昌湾，滨水新天地",
        "docid": "J0S9NCG5020998HG",
        "url": "https://www.163.com/dy/article/J0S9NCG5020998HG.html"
    },
    {
        "title": "时隔8年再提楼市去库存，这次有点不一样",
        "docid": "J17ARRHT0519WQ7F",
        "url": "https://www.163.com/dy/article/J17ARRHT0519WQ7F.html"
    },
    {
        "title": "周浦南四高社区，中虹佳苑精装修一房；百日百房第63天",
        "docid": "VA09GPKA6",
        "url": "https://www.163.com/dy/article/VA09GPKA6.html"
    },
    {
        "title": "六年前花18100一平在武汉买的房，如今卖掉要赔多少？一算吓一跳",
        "docid": "VW09G7KHT",
        "url": "https://www.163.com/dy/article/VW09G7KHT.html"
    },
    {
        "title": "脚踏实地才能安家立业，为努力打拼的劳动人民点赞",
        "docid": "VE09F0JID",
        "url": "https://www.163.com/dy/article/VE09F0JID.html"
    },
    {
        "title": "终于发现：二手房中介是怎么让你的房价越来越低的",
        "docid": "J0QDQ9D005566SC9",
        "url": "https://www.163.com/dy/article/J0QDQ9D005566SC9.html"
    },
    {
        "title": "大城兑现时，真改善选天曜 三期终藏B6#加推",
        "docid": "J0MTCS94020998HG",
        "url": "https://www.163.com/dy/article/J0MTCS94020998HG.html"
    },
    {
        "title": "总价350万以上，怎么买房？",
        "docid": "J17J03P90553TDXU",
        "url": "https://www.163.com/dy/article/J17J03P90553TDXU.html"
    },
    {
        "title": "认知 未来十五年，房产会是什么样子？ 思维  l",
        "docid": "VC09LIPBA",
        "url": "https://www.163.com/dy/article/VC09LIPBA.html"
    },
    {
        "title": "世界武昌湾，滨水新天地",
        "docid": "J0S9NCG5020998HG",
        "url": "https://www.163.com/dy/article/J0S9NCG5020998HG.html"
    },
    {
        "title": "拯救中国房地产最牛的一招来啦！",
        "docid": "VF09G835E",
        "url": "https://www.163.com/dy/article/VF09G835E.html"
    },
    {
        "title": "现在是不是别墅不值钱了，两百多万的别墅居然豪华到这种地步",
        "docid": "VC09G8ATA",
        "url": "https://www.163.com/dy/article/VC09G8ATA.html"
    },
    {
        "title": "「女子耗时5年，降价18次，3折卖掉燕郊的房子：邻居会骂死我」2024年4月，王静终于卖掉了河北燕郊",
        "docid": "VF09GDEB1",
        "url": "https://www.163.com/dy/article/VF09GDEB1.html"
    },
    {
        "title": "为什么不敢让现在的房价降下来……",
        "docid": "VI09KGAQH",
        "url": "https://www.163.com/dy/article/VI09KGAQH.html"
    }
]