[
    {
        "title": "土拍预告丨4月29日5城15宗地块挂牌截止，其中涉宅用地7宗",
        "docid": "J0SVGG2L0556124M",
        "url": "https://www.163.com/dy/article/J0SVGG2L0556124M.html"
    },
    {
        "title": "大城兑现时，真改善选天曜 三期终藏B6#加推",
        "docid": "J0MTCS94020998HG",
        "url": "https://www.163.com/dy/article/J0MTCS94020998HG.html"
    },
    {
        "title": "美国委托书海牙认证，轻松出售国内房产！",
        "docid": "J0SUIQ910553CJTV",
        "url": "https://www.163.com/dy/article/J0SUIQ910553CJTV.html"
    },
    {
        "title": "2024年4月29日房产早参 #楼市资讯 #房产早参",
        "docid": "J0SUUN4F0512B07B",
        "url": "https://www.163.com/dy/article/J0SUUN4F0512B07B.html"
    },
    {
        "title": "比房地产爆雷更可怕，涉及千家万户，人们浑然不知",
        "docid": "VFVOKRMU4",
        "url": "https://www.163.com/dy/article/VFVOKRMU4.html"
    },
    {
        "title": "100万的房子，涨到了500万！",
        "docid": "VFVP2RK09",
        "url": "https://www.163.com/dy/article/VFVP2RK09.html"
    },
    {
        "title": "据透漏，房子3300平，花园4500平价值8个亿！",
        "docid": "VRVSBN15A",
        "url": "https://www.163.com/dy/article/VRVSBN15A.html"
    },
    {
        "title": "中产返贫与楼市#热门 #原创#楼市房产 #房价下降",
        "docid": "VCVP4NL2T",
        "url": "https://www.163.com/dy/article/VCVP4NL2T.html"
    },
    {
        "title": "电梯房一定要买高层吗？",
        "docid": "VWVJGOAE5",
        "url": "https://www.163.com/dy/article/VWVJGOAE5.html"
    },
    {
        "title": "预言恒大暴雷的华尔街狂人，狂吹中国楼市，外资抄底要来了？",
        "docid": "VVVPCDMJO",
        "url": "https://www.163.com/dy/article/VVVPCDMJO.html"
    },
    {
        "title": "前两年冲动买房的人怎么样了?看看网友怎么说的吧~",
        "docid": "J0SMHGLO0553TB9L",
        "url": "https://www.163.com/dy/article/J0SMHGLO0553TB9L.html"
    },
    {
        "title": "大城兑现时，真改善选天曜 三期终藏B6#加推",
        "docid": "J0MTCS94020998HG",
        "url": "https://www.163.com/dy/article/J0MTCS94020998HG.html"
    },
    {
        "title": "专家赵秀池：房价下跌影响购房意愿，持续下跌不涨是一个大问题！",
        "docid": "J0T6CU890552F71X",
        "url": "https://www.163.com/dy/article/J0T6CU890552F71X.html"
    },
    {
        "title": "《城中之城》剧本策划夏心愉：“名单制管理”下的地产畸形生态",
        "docid": "J0TAF1B40519D8T4",
        "url": "https://www.163.com/dy/article/J0TAF1B40519D8T4.html"
    },
    {
        "title": "独栋大宅（第一季）：200m²恒温泳池，4300万一线球场视野",
        "docid": "VSVM87VT9",
        "url": "https://www.163.com/dy/article/VSVM87VT9.html"
    },
    {
        "title": "假如房价跌到2000，你会选择买房子吗",
        "docid": "VIVIES4DH",
        "url": "https://www.163.com/dy/article/VIVIES4DH.html"
    },
    {
        "title": "独栋大宅（第六季）：2000万装修的大别墅，侧花园还藏着惊喜空间",
        "docid": "VSVOJ3CIG",
        "url": "https://www.163.com/dy/article/VSVOJ3CIG.html"
    },
    {
        "title": "从最初180现在降到125万，还要来还价",
        "docid": "VZVO0NFCM",
        "url": "https://www.163.com/dy/article/VZVO0NFCM.html"
    },
    {
        "title": "马树山的豪宅体现在哪里？",
        "docid": "VVVV63MUG",
        "url": "https://www.163.com/dy/article/VVVV63MUG.html"
    },
    {
        "title": "很多人悟了，只要不买房，什么都买得起。",
        "docid": "VDVHOBOV0",
        "url": "https://www.163.com/dy/article/VDVHOBOV0.html"
    },
    {
        "title": "中国时尚豪宅  D10天系春季新品发布SHOW圆满举办",
        "docid": "J0TCJTB805566SC9",
        "url": "https://www.163.com/dy/article/J0TCJTB805566SC9.html"
    },
    {
        "title": "大城兑现时，真改善选天曜 三期终藏B6#加推",
        "docid": "J0MTCS94020998HG",
        "url": "https://www.163.com/dy/article/J0MTCS94020998HG.html"
    },
    {
        "title": "任泽平的三个建议：真的能改变房地产的趋势吗？",
        "docid": "J0T650JL05538DP3",
        "url": "https://www.163.com/dy/article/J0T650JL05538DP3.html"
    },
    {
        "title": "房价真的太高了！房价逻辑，独家分析",
        "docid": "VJVSNMCTN",
        "url": "https://www.163.com/dy/article/VJVSNMCTN.html"
    },
    {
        "title": "这一次，恐怕轮到开发商睡不着了！这一切来得太快了",
        "docid": "VFVR3SN4V",
        "url": "https://www.163.com/dy/article/VFVR3SN4V.html"
    },
    {
        "title": "武钢老职工的家属院，在这里留下了武钢子女的酸甜苦辣",
        "docid": "VSVVHAL04",
        "url": "https://www.163.com/dy/article/VSVVHAL04.html"
    },
    {
        "title": "趁安装师傅还没到，带大家看看新房装修的大体情况，付出是值得的",
        "docid": "VCVTJ6L84",
        "url": "https://www.163.com/dy/article/VCVTJ6L84.html"
    },
    {
        "title": "“房价如葱”预言或成真？2024年房价相较巅峰已下跌23%",
        "docid": "VJVOVLV8F",
        "url": "https://www.163.com/dy/article/VJVOVLV8F.html"
    },
    {
        "title": "一个亲戚跪在我面前，要求用我的房产证抵押贷款，不答应就不起来",
        "docid": "VLVLQPC7T",
        "url": "https://www.163.com/dy/article/VLVLQPC7T.html"
    },
    {
        "title": "老楼房加装电梯三，若干年以后的安全问题，谁负责，会有纸片人吗",
        "docid": "VJVN5VKTL",
        "url": "https://www.163.com/dy/article/VJVN5VKTL.html"
    },
    {
        "title": "加州惊天房价：35平小屋售价1230万！遭买家抢购",
        "docid": "J0T3MEQG0553TEV3",
        "url": "https://www.163.com/dy/article/J0T3MEQG0553TEV3.html"
    },
    {
        "title": "大城兑现时，真改善选天曜 三期终藏B6#加推",
        "docid": "J0MTCS94020998HG",
        "url": "https://www.163.com/dy/article/J0MTCS94020998HG.html"
    },
    {
        "title": "“名单制管理”下的地产畸形生态 |《城中之城》策划大揭秘（四）",
        "docid": "J0TAJ3RF0519D8T4",
        "url": "https://www.163.com/dy/article/J0TAJ3RF0519D8T4.html"
    },
    {
        "title": "高房价带来的恶果，比预期要严重得多，5个问题已经显现！",
        "docid": "VRVVHPC9U",
        "url": "https://www.163.com/dy/article/VRVVHPC9U.html"
    },
    {
        "title": "二哥花60多万买的房子，大家来帮忙看看值不值得，",
        "docid": "VFVMB2UBH",
        "url": "https://www.163.com/dy/article/VFVMB2UBH.html"
    },
    {
        "title": "我1000平大别墅终于开始装修了，一个月完成硬装进度条50%",
        "docid": "VCVK69QA5",
        "url": "https://www.163.com/dy/article/VCVK69QA5.html"
    },
    {
        "title": "孟晓苏说，房子如果涨钱，也是实现共同富裕的一个手段",
        "docid": "VSVNGNNFS",
        "url": "https://www.163.com/dy/article/VSVNGNNFS.html"
    },
    {
        "title": "哇，这是我梦中的别墅啊！",
        "docid": "VSVHTB9NA",
        "url": "https://www.163.com/dy/article/VSVHTB9NA.html"
    },
    {
        "title": "别再唱空房价了，长期看这10个城市房价涨的嗷嗷叫！",
        "docid": "VOVV1OL99",
        "url": "https://www.163.com/dy/article/VOVV1OL99.html"
    },
    {
        "title": "富人区如今却成鬼城！价值百万别墅荒废无人，背后真相如何？",
        "docid": "VIVEGBR51",
        "url": "https://www.163.com/dy/article/VIVEGBR51.html"
    },
    {
        "title": "荷兰房价大涨! 交易量也增长了! 这个城市房价涨幅最大",
        "docid": "J0TEB6VM055347SA",
        "url": "https://www.163.com/dy/article/J0TEB6VM055347SA.html"
    },
    {
        "title": "大城兑现时，真改善选天曜 三期终藏B6#加推",
        "docid": "J0MTCS94020998HG",
        "url": "https://www.163.com/dy/article/J0MTCS94020998HG.html"
    },
    {
        "title": "买房故事丨高杠杆投资“割肉”离场，入手上海“老破中”后我踏实了",
        "docid": "J0TDUVB70553TDVP",
        "url": "https://www.163.com/dy/article/J0TDUVB70553TDVP.html"
    },
    {
        "title": "成都8年限购时代结束 专家：解除限购政策“一步到位”",
        "docid": "J0SRSITR0514D3UH",
        "url": "https://www.163.com/dy/article/J0SRSITR0514D3UH.html"
    },
    {
        "title": "后悔贷款买房了，最终还是断供了，被法拍了，多年积蓄化作一场空",
        "docid": "VYVNAJ7IF",
        "url": "https://www.163.com/dy/article/VYVNAJ7IF.html"
    },
    {
        "title": "不适应美国生活的乳山银滩北京大姐，为建适老公寓提建议",
        "docid": "VCVNR9FIP",
        "url": "https://www.163.com/dy/article/VCVNR9FIP.html"
    },
    {
        "title": "上海北京开始出现洗房，很多父母都慌了，不少家庭都受到了影响",
        "docid": "VJVIF392N",
        "url": "https://www.163.com/dy/article/VJVIF392N.html"
    },
    {
        "title": "不敢回村，家家都是别墅",
        "docid": "VPVTICONB",
        "url": "https://www.163.com/dy/article/VPVTICONB.html"
    },
    {
        "title": "有人说未来房子免费送，日本已在免费送，你会相信吗？",
        "docid": "VUVNAPIM8",
        "url": "https://www.163.com/dy/article/VUVNAPIM8.html"
    },
    {
        "title": "日本隐形拆楼法，不爆破不倒塌，从上到下吃掉40层大厦！",
        "docid": "VJVH68SE9",
        "url": "https://www.163.com/dy/article/VJVH68SE9.html"
    },
    {
        "title": "2024年，这类房子将变得抢手！",
        "docid": "J0TFUOHB0556124M",
        "url": "https://www.163.com/dy/article/J0TFUOHB0556124M.html"
    },
    {
        "title": "大城兑现时，真改善选天曜 三期终藏B6#加推",
        "docid": "J0MTCS94020998HG",
        "url": "https://www.163.com/dy/article/J0MTCS94020998HG.html"
    },
    {
        "title": "房产丨成都取消限购；碧桂园无法发出2023年报；韩国乐天退出中国市场",
        "docid": "J0TBFSNR055650O5",
        "url": "https://www.163.com/dy/article/J0TBFSNR055650O5.html"
    },
    {
        "title": "有人在疯狂收购老旧小区顶楼？内行人：里面的商机，许多人都不懂",
        "docid": "VUVVEFNJM",
        "url": "https://www.163.com/dy/article/VUVVEFNJM.html"
    },
    {
        "title": "楼市良言：今年卖房，悔肝断肠！",
        "docid": "VIVVKT1KU",
        "url": "https://www.163.com/dy/article/VIVVKT1KU.html"
    },
    {
        "title": "千万不要轻易卖掉手里的房子，再买回来就难了，后悔来不及",
        "docid": "VFVJA01NR",
        "url": "https://www.163.com/dy/article/VFVJA01NR.html"
    },
    {
        "title": "5年以后，一套100万买的房子能值多少钱？听听内行人怎么说",
        "docid": "VXVH6FJD0",
        "url": "https://www.163.com/dy/article/VXVH6FJD0.html"
    },
    {
        "title": "房价可以从50万涨到500万，为什么不能从500万跌回50万",
        "docid": "VRVDV9DL8",
        "url": "https://www.163.com/dy/article/VRVDV9DL8.html"
    },
    {
        "title": "弯腰捞鱼的一线湖墅，远山近水 2000m²花园，小龙虾多到拿来喂鸡",
        "docid": "VBVQCQR1E",
        "url": "https://www.163.com/dy/article/VBVQCQR1E.html"
    },
    {
        "title": "在大山里花1个亿建一座私人豪宅庄园，你见过吗？就连他们家管家住的独栋别墅都是我遥不可及的梦想 航拍 ",
        "docid": "VRVR5OJAP",
        "url": "https://www.163.com/dy/article/VRVR5OJAP.html"
    },
    {
        "title": "蓄势待发了！开发商称对《寂静岭2RE》表现充满信心",
        "docid": "J0TBDDAP0553TB8M",
        "url": "https://www.163.com/dy/article/J0TBDDAP0553TB8M.html"
    },
    {
        "title": "大城兑现时，真改善选天曜 三期终藏B6#加推",
        "docid": "J0MTCS94020998HG",
        "url": "https://www.163.com/dy/article/J0MTCS94020998HG.html"
    },
    {
        "title": "原报道 | 万科苦渡 困境资产、REITs救兵以及种种",
        "docid": "J0THIR340519D45U",
        "url": "https://www.163.com/dy/article/J0THIR340519D45U.html"
    },
    {
        "title": "2030年，100万现金和100万房产，哪个好？王健林与潘石屹说法一致",
        "docid": "VGVN510MO",
        "url": "https://www.163.com/dy/article/VGVN510MO.html"
    },
    {
        "title": "快冲！5月31日截止春招网申的国央企合集！5月31日截止春招网申的国央企合集！应届生握住春招最后的上",
        "docid": "VYVTOAQ7Q",
        "url": "https://www.163.com/dy/article/VYVTOAQ7Q.html"
    },
    {
        "title": "叔叔阿姨都喜欢住在市中心的别墅里",
        "docid": "VUVEOVBCH",
        "url": "https://www.163.com/dy/article/VUVEOVBCH.html"
    },
    {
        "title": "房地产是支柱产业是绑架的说法，救市意义不大，年轻人要理性买房",
        "docid": "VPVPJNILA",
        "url": "https://www.163.com/dy/article/VPVPJNILA.html"
    },
    {
        "title": "自己买的房子外墙到底可不可以敲掉？",
        "docid": "VSVVG85F5",
        "url": "https://www.163.com/dy/article/VSVVG85F5.html"
    },
    {
        "title": "越南地产巨骗为何覆灭 ",
        "docid": "VIVK37S1G",
        "url": "https://www.163.com/dy/article/VIVK37S1G.html"
    },
    {
        "title": "200万包给公司的乡村别墅看起来挺漂亮，最主要的是省时省心",
        "docid": "VFVVELJ87",
        "url": "https://www.163.com/dy/article/VFVVELJ87.html"
    },
    {
        "title": "赔钱狠心把房卖了，心痛亏了几十万，价格难以接受！",
        "docid": "VYVET8RUK",
        "url": "https://www.163.com/dy/article/VYVET8RUK.html"
    },
    {
        "title": "大城兑现时，真改善选天曜 三期终藏B6#加推",
        "docid": "J0MTCS94020998HG",
        "url": "https://www.163.com/dy/article/J0MTCS94020998HG.html"
    },
    {
        "title": "看着舒服最重要 买房那些事 抖音房产",
        "docid": "VFVEEHLGF",
        "url": "https://www.163.com/dy/article/VFVEEHLGF.html"
    },
    {
        "title": "不是我吹！这种户型，比多数人买的房子都好，四亭八当却有不足处",
        "docid": "VBVVB0Q4Q",
        "url": "https://www.163.com/dy/article/VBVVB0Q4Q.html"
    },
    {
        "title": "87年未婚，95年小伙已全款买房，我有点心动，一个人坐在公园考虑",
        "docid": "VIVI4QPE9",
        "url": "https://www.163.com/dy/article/VIVI4QPE9.html"
    },
    {
        "title": "能用_“宝可梦”代替石狮子，这一看就是90后的府邸",
        "docid": "VJVIM7SDQ",
        "url": "https://www.163.com/dy/article/VJVIM7SDQ.html"
    },
    {
        "title": "售楼处举办送房活动,参加后才发现满满套路",
        "docid": "VWVHRJ5PQ",
        "url": "https://www.163.com/dy/article/VWVHRJ5PQ.html"
    },
    {
        "title": "买这种小区，选楼层要小心，选错影响几十年！别等入住以后再后悔",
        "docid": "VBVSP8QVN",
        "url": "https://www.163.com/dy/article/VBVSP8QVN.html"
    },
    {
        "title": "为何越来越多的人，全都从高层住宅搬离？内行人：聪明人已经做了",
        "docid": "VMVF74DOQ",
        "url": "https://www.163.com/dy/article/VMVF74DOQ.html"
    },
    {
        "title": "房价回到1000_平，会发生什么呢？",
        "docid": "VYVT084DG",
        "url": "https://www.163.com/dy/article/VYVT084DG.html"
    },
    {
        "title": "没想到，原来住宅是有讲究的，不知道的收藏看看，涨知识了",
        "docid": "J0THSE740553VFLH",
        "url": "https://www.163.com/dy/article/J0THSE740553VFLH.html"
    },
    {
        "title": "大城兑现时，真改善选天曜 三期终藏B6#加推",
        "docid": "J0MTCS94020998HG",
        "url": "https://www.163.com/dy/article/J0MTCS94020998HG.html"
    },
    {
        "title": "整顿楼市，北方第一大省打响第一枪！房奴却说",
        "docid": "VCVVNJE68",
        "url": "https://www.163.com/dy/article/VCVVNJE68.html"
    },
    {
        "title": "为什么很多二线城市的老破小房屋价格那么坚挺#重庆买房",
        "docid": "VFVK58K7N",
        "url": "https://www.163.com/dy/article/VFVK58K7N.html"
    },
    {
        "title": "家豪华别墅，师父们用赤陶砖建造斜屋顶的技术，完工后太豪华了",
        "docid": "VPVEVK933",
        "url": "https://www.163.com/dy/article/VPVEVK933.html"
    },
    {
        "title": "石桥铺这样的洋房小区环境怎么样？",
        "docid": "VSVIB5JVD",
        "url": "https://www.163.com/dy/article/VSVIB5JVD.html"
    },
    {
        "title": "100万在中国能买多大的房子？",
        "docid": "VCVI5DS4V",
        "url": "https://www.163.com/dy/article/VCVI5DS4V.html"
    },
    {
        "title": "上万人弃城，留下大量空房，四川小城跌至4万一套房，无人问津！",
        "docid": "VNVIGD6K9",
        "url": "https://www.163.com/dy/article/VNVIGD6K9.html"
    },
    {
        "title": "民生关注 百姓关心的热门话题 民生百态 扎心语录 情感话题",
        "docid": "VFVEOB1VR",
        "url": "https://www.163.com/dy/article/VFVEOB1VR.html"
    },
    {
        "title": "什么是客户需要的好服务？",
        "docid": "VVVHOMQQ2",
        "url": "https://www.163.com/dy/article/VVVHOMQQ2.html"
    },
    {
        "title": "大规模的以旧换新，能让北京、深圳房价涨起来吗？",
        "docid": "J0SAHJMO0535JMSP",
        "url": "https://www.163.com/dy/article/J0SAHJMO0535JMSP.html"
    },
    {
        "title": "大城兑现时，真改善选天曜 三期终藏B6#加推",
        "docid": "J0MTCS94020998HG",
        "url": "https://www.163.com/dy/article/J0MTCS94020998HG.html"
    },
    {
        "title": "经济学家宋清辉：房地产周期是正常的市场经济现象",
        "docid": "IRN3K3TO05198H20",
        "url": "https://www.163.com/dy/article/IRN3K3TO05198H20.html"
    },
    {
        "title": "为了200平的露台，买下了这套2楼的电梯房，房子是越看越喜欢",
        "docid": "VFVJB2D1P",
        "url": "https://www.163.com/dy/article/VFVJB2D1P.html"
    },
    {
        "title": "真金白银省钱秘诀还是隐形经济陷阱？探秘提前还房贷的利与弊！",
        "docid": "VHVKNKNJG",
        "url": "https://www.163.com/dy/article/VHVKNKNJG.html"
    },
    {
        "title": "孟晓苏，房地产之父，为什么说现在的房子不用愁，加把劲就能卖完",
        "docid": "VCVMLARB2",
        "url": "https://www.163.com/dy/article/VCVMLARB2.html"
    },
    {
        "title": "现在买二手房的人呐是有多嚣张",
        "docid": "VAVH9UJH0",
        "url": "https://www.163.com/dy/article/VAVH9UJH0.html"
    },
    {
        "title": "你绝对不知道，这家物业竟然有007！",
        "docid": "VFVI3V6MT",
        "url": "https://www.163.com/dy/article/VFVI3V6MT.html"
    },
    {
        "title": "为什么我们总是感到很难？普通人做好过苦日子的准备吧！",
        "docid": "VDVH48A7M",
        "url": "https://www.163.com/dy/article/VDVH48A7M.html"
    },
    {
        "title": "上海北京上海洗房了，很多父母都慌了，不少家庭深受其害",
        "docid": "VWVMBNF8C",
        "url": "https://www.163.com/dy/article/VWVMBNF8C.html"
    },
    {
        "title": "房地产新政策来了！今日凌晨的四大消息冲击释放（4.29）！",
        "docid": "J0T5EF5D055670TC",
        "url": "https://www.163.com/dy/article/J0T5EF5D055670TC.html"
    },
    {
        "title": "大城兑现时，真改善选天曜 三期终藏B6#加推",
        "docid": "J0MTCS94020998HG",
        "url": "https://www.163.com/dy/article/J0MTCS94020998HG.html"
    },
    {
        "title": "从25楼换到4楼，4楼这个户型有些坑就没必要去踩，真有很大缺点！",
        "docid": "J0TEM3T50553TDVP",
        "url": "https://www.163.com/dy/article/J0TEM3T50553TDVP.html"
    },
    {
        "title": "房贷断供，妻离子散（一位房贷断供经历者的自述）",
        "docid": "J0SGEAE7055672K6",
        "url": "https://www.163.com/dy/article/J0SGEAE7055672K6.html"
    },
    {
        "title": "大规模的以旧换新，能让北京、深圳房价涨起来吗？",
        "docid": "J0SAHFNU0535JMSP",
        "url": "https://www.163.com/dy/article/J0SAHFNU0535JMSP.html"
    },
    {
        "title": "美国的一层别墅怎么可以这么好看？ 休斯顿房产，美国买房，美国 ",
        "docid": "VNVL73UQO",
        "url": "https://www.163.com/dy/article/VNVL73UQO.html"
    },
    {
        "title": "房子降价有什么后果？听听王健林十年前的观点！",
        "docid": "VWVMMUU88",
        "url": "https://www.163.com/dy/article/VWVMMUU88.html"
    },
    {
        "title": "离开大哥，房贷成为负担",
        "docid": "VDVO13UTN",
        "url": "https://www.163.com/dy/article/VDVO13UTN.html"
    },
    {
        "title": "森林大宅（第一季）：长条石镶嵌后现代外立面，2200万原木别墅",
        "docid": "VPVU6UAJ4",
        "url": "https://www.163.com/dy/article/VPVU6UAJ4.html"
    },
    {
        "title": "为了200平的露台，买下了这套2楼的电梯房，房子是越看越喜欢",
        "docid": "VFVJC5A41",
        "url": "https://www.163.com/dy/article/VFVJC5A41.html"
    },
    {
        "title": "房贷不良率突破3%，股权涉刑的成都银行，房地产暗雷仍在？",
        "docid": "J0TOK4SO0553TB9L",
        "url": "https://www.163.com/dy/article/J0TOK4SO0553TB9L.html"
    },
    {
        "title": "大城兑现时，真改善选天曜 三期终藏B6#加推",
        "docid": "J0MTCS94020998HG",
        "url": "https://www.163.com/dy/article/J0MTCS94020998HG.html"
    },
    {
        "title": "找不到形容词来描述这套房子，高层复式楼的霸气",
        "docid": "VUVMFKA6F",
        "url": "https://www.163.com/dy/article/VUVMFKA6F.html"
    },
    {
        "title": "许家印让数以万计的业主陷入困境，而恒大罚的那些款去哪里了",
        "docid": "VUVP1ODOE",
        "url": "https://www.163.com/dy/article/VUVP1ODOE.html"
    },
    {
        "title": "教授称我国房价或将持续暴涨，最新全国房价百强县，有你家乡没？",
        "docid": "VQVS65JOB",
        "url": "https://www.163.com/dy/article/VQVS65JOB.html"
    },
    {
        "title": "为什么说买电梯房，尽量不要买这3层？售楼经理不小心说漏嘴",
        "docid": "VXVLQT3IN",
        "url": "https://www.163.com/dy/article/VXVLQT3IN.html"
    },
    {
        "title": "央妈入场国债的正确解读，还是关注我吧，我靠谱",
        "docid": "VZVT3DBNN",
        "url": "https://www.163.com/dy/article/VZVT3DBNN.html"
    },
    {
        "title": "潘石屹：房地产泡沫的原因有两个，如何看房价过高？太真实",
        "docid": "VWVK9835S",
        "url": "https://www.163.com/dy/article/VWVK9835S.html"
    },
    {
        "title": "当年高位买房的人亏的惨吗？",
        "docid": "VAVJTJA43",
        "url": "https://www.163.com/dy/article/VAVJTJA43.html"
    },
    {
        "title": "为什么房价下跌了，却没人买房了呢？是没钱了还是房价还没跌到低谷呢",
        "docid": "VSVQGGO6E",
        "url": "https://www.163.com/dy/article/VSVQGGO6E.html"
    },
    {
        "title": "澳洲人购房预算大砍30%，房价仍持续上涨！维州在郊区铁路环线车站建七万套住房！",
        "docid": "J0TR1H5O05199N88",
        "url": "https://www.163.com/dy/article/J0TR1H5O05199N88.html"
    },
    {
        "title": "大城兑现时，真改善选天曜 三期终藏B6#加推",
        "docid": "J0MTCS94020998HG",
        "url": "https://www.163.com/dy/article/J0MTCS94020998HG.html"
    },
    {
        "title": "物业是服务业主的，而不是管理业主",
        "docid": "VSVH0O9OK",
        "url": "https://www.163.com/dy/article/VSVH0O9OK.html"
    },
    {
        "title": "买房这几个楼层千万别买",
        "docid": "VGVHC0099",
        "url": "https://www.163.com/dy/article/VGVHC0099.html"
    },
    {
        "title": "不交钱就不让农民种地 110来了又咋地？！",
        "docid": "VQVHKCN90",
        "url": "https://www.163.com/dy/article/VQVHKCN90.html"
    },
    {
        "title": "房子的唯一性如何去定义",
        "docid": "VUVFB8JGI",
        "url": "https://www.163.com/dy/article/VUVFB8JGI.html"
    },
    {
        "title": "房产频道《设计前沿》雷如松&骆图渊：探秘吴川五星酒店标杆！沉浸式体验娱乐综合体",
        "docid": "VEVKANVEQ",
        "url": "https://www.163.com/dy/article/VEVKANVEQ.html"
    },
    {
        "title": "买房重要资料，售楼部不肯公开，上面全秘密！担心垃圾房源卖不掉",
        "docid": "VBVV95P3E",
        "url": "https://www.163.com/dy/article/VBVV95P3E.html"
    },
    {
        "title": "准备回村建房的，快来看看这个户型吧",
        "docid": "VIVMTLS7J",
        "url": "https://www.163.com/dy/article/VIVMTLS7J.html"
    },
    {
        "title": "不再矜持，成都全面取消限购",
        "docid": "VDVUSSICH",
        "url": "https://www.163.com/dy/article/VDVUSSICH.html"
    },
    {
        "title": "两年前我在美国购买了一套价值400万的房子，现在还值多少钱？",
        "docid": "VFVKC6AFC",
        "url": "https://www.163.com/dy/article/VFVKC6AFC.html"
    },
    {
        "title": "大城兑现时，真改善选天曜 三期终藏B6#加推",
        "docid": "J0MTCS94020998HG",
        "url": "https://www.163.com/dy/article/J0MTCS94020998HG.html"
    },
    {
        "title": "等到五年后，一套100万的房子“值多少钱”听听内行人怎么说",
        "docid": "VSVNJGQES",
        "url": "https://www.163.com/dy/article/VSVNJGQES.html"
    },
    {
        "title": "新房拿钥匙，一定要先看三书一证一表",
        "docid": "VKVJM4E3B",
        "url": "https://www.163.com/dy/article/VKVJM4E3B.html"
    },
    {
        "title": "成都全面放开限购，大上海还能扛多久？不如一直这样",
        "docid": "VVVVB6IAT",
        "url": "https://www.163.com/dy/article/VVVVB6IAT.html"
    },
    {
        "title": "小区最差的位置，差到极点了！谁买谁吃亏，阳光差噪音大毫无视野",
        "docid": "VBVFR0U7I",
        "url": "https://www.163.com/dy/article/VBVFR0U7I.html"
    },
    {
        "title": "本港3月私宅售价指数按月回升1.1%结束10个月连跌的劣势  快报",
        "docid": "VPVP1PMMG",
        "url": "https://www.163.com/dy/article/VPVP1PMMG.html"
    },
    {
        "title": "好房子不会卖！差房子没人买！大城市的好房子有钱也买不到？",
        "docid": "VWVFJ5TD9",
        "url": "https://www.163.com/dy/article/VWVFJ5TD9.html"
    },
    {
        "title": "阿姨炫耀儿子厉害，买400万的房子，如今房贷还不起，有苦说不出",
        "docid": "VEVJC0JFU",
        "url": "https://www.163.com/dy/article/VEVJC0JFU.html"
    },
    {
        "title": "在美国，一家人住7年搬家5次，亲历每次房租变动，想住舒服太难了",
        "docid": "VZVVMOMH1",
        "url": "https://www.163.com/dy/article/VZVVMOMH1.html"
    },
    {
        "title": "在碧桂园鬼城躺平，拍视频被人找到敲门，地址泄露，以后必须注意",
        "docid": "VFVSKNR74",
        "url": "https://www.163.com/dy/article/VFVSKNR74.html"
    },
    {
        "title": "大城兑现时，真改善选天曜 三期终藏B6#加推",
        "docid": "J0MTCS94020998HG",
        "url": "https://www.163.com/dy/article/J0MTCS94020998HG.html"
    },
    {
        "title": "悉尼不同国籍人都生活在哪些区",
        "docid": "VFVISFFC9",
        "url": "https://www.163.com/dy/article/VFVISFFC9.html"
    },
    {
        "title": "真正的百年大宅，当属中式四合院别墅！",
        "docid": "VCVHTBLS5",
        "url": "https://www.163.com/dy/article/VCVHTBLS5.html"
    },
    {
        "title": "占地11亩厂房，荒废了是真可惜，假如给你，你会用来做什么",
        "docid": "VPVSEAUU3",
        "url": "https://www.163.com/dy/article/VPVSEAUU3.html"
    },
    {
        "title": "在非洲奋斗8年，用10万美金在非洲马拉维能买什么样的房子",
        "docid": "VIVIHLVR9",
        "url": "https://www.163.com/dy/article/VIVIHLVR9.html"
    },
    {
        "title": "沈腾家的豪宅到底有多豪？",
        "docid": "VSVQIFBUQ",
        "url": "https://www.163.com/dy/article/VSVQIFBUQ.html"
    },
    {
        "title": "能拿下这个房子的大佬，脚一抖整个东门的GDP都得少500个亿",
        "docid": "VPVIBQS49",
        "url": "https://www.163.com/dy/article/VPVIBQS49.html"
    },
    {
        "title": "据地铁口约460米，沉香苑90平2+1户型；百日百房第58天；",
        "docid": "VAVSJDM84",
        "url": "https://www.163.com/dy/article/VAVSJDM84.html"
    },
    {
        "title": "#买房 #学区房 #品质学区房 #买房 #如何看待未来房价走向",
        "docid": "VCVMGL3M0",
        "url": "https://www.163.com/dy/article/VCVMGL3M0.html"
    },
    {
        "title": "成都、南京等地推出楼市新政，“聪明资金”已行动",
        "docid": "J0U1USQ305198RSU",
        "url": "https://www.163.com/dy/article/J0U1USQ305198RSU.html"
    },
    {
        "title": "大城兑现时，真改善选天曜 三期终藏B6#加推",
        "docid": "J0MTCS94020998HG",
        "url": "https://www.163.com/dy/article/J0MTCS94020998HG.html"
    },
    {
        "title": "花200万买的50层超高层住宅，家住在100多米高空！像住在天上一样",
        "docid": "VYVJOD4L8",
        "url": "https://www.163.com/dy/article/VYVJOD4L8.html"
    },
    {
        "title": "国家房地产即将迎来黄金时代",
        "docid": "VSVV8KMFB",
        "url": "https://www.163.com/dy/article/VSVV8KMFB.html"
    },
    {
        "title": "因无法负担高额月供，各地出现免费送房！",
        "docid": "VIVR8SET8",
        "url": "https://www.163.com/dy/article/VIVR8SET8.html"
    },
    {
        "title": "专家又发话了：让农民进城买房勇做接盘侠",
        "docid": "VPVT0N1EN",
        "url": "https://www.163.com/dy/article/VPVT0N1EN.html"
    },
    {
        "title": "这样的物业有啥存在必要？",
        "docid": "VAVF32E7Q",
        "url": "https://www.163.com/dy/article/VAVF32E7Q.html"
    },
    {
        "title": "都说高层住宅三十年后是贫民窟，我认为不用三十年",
        "docid": "VRVMOGDDC",
        "url": "https://www.163.com/dy/article/VRVMOGDDC.html"
    },
    {
        "title": "经济学家左晓蕾：“房地产是中国支柱产业”是一种绑架的说法，世界上没有哪个国家将房地产视为支柱产业 ",
        "docid": "VAVN4GUJT",
        "url": "https://www.163.com/dy/article/VAVN4GUJT.html"
    },
    {
        "title": "北师大教授董藩：房地产是日不落行业，放开限制后买房都是贡献！",
        "docid": "VAVOMGESJ",
        "url": "https://www.163.com/dy/article/VAVOMGESJ.html"
    },
    {
        "title": "南海广佛新世界庄园洋房于2024年04月30日开盘 主推102~138㎡户型",
        "docid": "J0U54DI20553TEV3",
        "url": "https://www.163.com/dy/article/J0U54DI20553TEV3.html"
    },
    {
        "title": "大城兑现时，真改善选天曜 三期终藏B6#加推",
        "docid": "J0MTCS94020998HG",
        "url": "https://www.163.com/dy/article/J0MTCS94020998HG.html"
    },
    {
        "title": "见怪勿怪，60米阳台的大平层户型，直接把跑道搬回家！",
        "docid": "J0TTQGTF055616ZT",
        "url": "https://www.163.com/dy/article/J0TTQGTF055616ZT.html"
    },
    {
        "title": "三大利好来袭！A还会补涨",
        "docid": "J0U4IQSQ055281I1",
        "url": "https://www.163.com/dy/article/J0U4IQSQ055281I1.html"
    },
    {
        "title": "房价下跌后，新问题暴露出来了！普通老百姓生活也受影响！",
        "docid": "J0T3IORK0520K44K",
        "url": "https://www.163.com/dy/article/J0T3IORK0520K44K.html"
    },
    {
        "title": "命中有此一劫，实拍东北房价暴跌后的物价，专家闭嘴后啪啪打脸",
        "docid": "VR0041725",
        "url": "https://www.163.com/dy/article/VR0041725.html"
    },
    {
        "title": "女子独居168平花园洋房，屋里做早餐院里喝茶办公，一个人也挺好",
        "docid": "VZVUJ4UTR",
        "url": "https://www.163.com/dy/article/VZVUJ4UTR.html"
    },
    {
        "title": "专家说还有1.8亿农民工有购房需求",
        "docid": "VSVIG5MUL",
        "url": "https://www.163.com/dy/article/VSVIG5MUL.html"
    },
    {
        "title": "乡村自建美宅，山间独院的自然之境",
        "docid": "VGVV1NAM9",
        "url": "https://www.163.com/dy/article/VGVV1NAM9.html"
    },
    {
        "title": "看房两个月，最终全款拿下这套3个露台3个阳台的老破大",
        "docid": "VIVJ8MKVT",
        "url": "https://www.163.com/dy/article/VIVJ8MKVT.html"
    },
    {
        "title": "楼市出现“排队卖房”？2大因素影响下，房价走势逐渐“清楚了”",
        "docid": "J0TV9IDI05566SC9",
        "url": "https://www.163.com/dy/article/J0TV9IDI05566SC9.html"
    },
    {
        "title": "大城兑现时，真改善选天曜 三期终藏B6#加推",
        "docid": "J0MTCS94020998HG",
        "url": "https://www.163.com/dy/article/J0MTCS94020998HG.html"
    },
    {
        "title": "新型穷人正在席卷中国社会：有房子，身价千万，无家可归",
        "docid": "J0TT8ANB0553TEV3",
        "url": "https://www.163.com/dy/article/J0TT8ANB0553TEV3.html"
    },
    {
        "title": "教科书级别的四居户型，一个细节引起了争议",
        "docid": "J0TV1IV40553TEV3",
        "url": "https://www.163.com/dy/article/J0TV1IV40553TEV3.html"
    },
    {
        "title": "中国的房子，还会涨吗？",
        "docid": "J0U5CISQ055614NP",
        "url": "https://www.163.com/dy/article/J0U5CISQ055614NP.html"
    },
    {
        "title": "住房限购政策逐步退出市场，仅北上广深、杭州天津西安海南等地还在执行限购",
        "docid": "J0U68C160514R9P4",
        "url": "https://www.163.com/dy/article/J0U68C160514R9P4.html"
    },
    {
        "title": "聚势谋远，观点住房租赁大会探讨行业 “六个新”",
        "docid": "J0U5ME370514R9P4",
        "url": "https://www.163.com/dy/article/J0U5ME370514R9P4.html"
    },
    {
        "title": "命中有此一劫，实拍东北房价暴跌后的物价，专家闭嘴后啪啪打脸",
        "docid": "VP004FU66",
        "url": "https://www.163.com/dy/article/VP004FU66.html"
    },
    {
        "title": "直击烂尾楼背后的真相，令人震惊",
        "docid": "VF00BFM4B",
        "url": "https://www.163.com/dy/article/VF00BFM4B.html"
    },
    {
        "title": "左晓蕾：总说房地产是支柱那是绑架，建议年轻人买房不要总啃老！",
        "docid": "VAVTTRTAV",
        "url": "https://www.163.com/dy/article/VAVTTRTAV.html"
    },
    {
        "title": "这个片区，贵的盘反而卖得好！",
        "docid": "J0U8EA03055616ZT",
        "url": "https://www.163.com/dy/article/J0U8EA03055616ZT.html"
    },
    {
        "title": "大城兑现时，真改善选天曜 三期终藏B6#加推",
        "docid": "J0MTCS94020998HG",
        "url": "https://www.163.com/dy/article/J0MTCS94020998HG.html"
    },
    {
        "title": "为何搬离“1梯2户”的人逐渐增多？老户主透露出5大缺点",
        "docid": "J0TTV95D0553TB8M",
        "url": "https://www.163.com/dy/article/J0TTV95D0553TB8M.html"
    },
    {
        "title": "听说很多人喜欢的户型是这个样子？",
        "docid": "J0TVDVOE05566SC9",
        "url": "https://www.163.com/dy/article/J0TVDVOE05566SC9.html"
    },
    {
        "title": "地产人的薪酬现状，令人震惊",
        "docid": "J0U77FR90553TEQM",
        "url": "https://www.163.com/dy/article/J0U77FR90553TEQM.html"
    },
    {
        "title": "阿姨450万卖掉北京的破房子，花240万在北京边买别墅，值不值",
        "docid": "VI00BAJI0",
        "url": "https://www.163.com/dy/article/VI00BAJI0.html"
    },
    {
        "title": "万万没想到很多人看不上的低楼层，还有这种意想不到的好处。",
        "docid": "VGVEEUVM9",
        "url": "https://www.163.com/dy/article/VGVEEUVM9.html"
    },
    {
        "title": "10年后这三种小区将会被淘汰",
        "docid": "VFVFSL2EV",
        "url": "https://www.163.com/dy/article/VFVFSL2EV.html"
    },
    {
        "title": "【卢麒元】“房住不炒”是一项伟大的改革",
        "docid": "VNVMKR6VP",
        "url": "https://www.163.com/dy/article/VNVMKR6VP.html"
    },
    {
        "title": "3.5代住宅PK第四代住宅，到底哪种更有优势？差异小更公平合理吗",
        "docid": "VBVIDH4RL",
        "url": "https://www.163.com/dy/article/VBVIDH4RL.html"
    },
    {
        "title": "厦门房价，信号来势汹汹！",
        "docid": "J0TGGLTV055644RG",
        "url": "https://www.163.com/dy/article/J0TGGLTV055644RG.html"
    },
    {
        "title": "大城兑现时，真改善选天曜 三期终藏B6#加推",
        "docid": "J0MTCS94020998HG",
        "url": "https://www.163.com/dy/article/J0MTCS94020998HG.html"
    },
    {
        "title": "TOP30上市房企3月销售额：中国海外发展、华润置地、保利发展居前三",
        "docid": "J0U8GJA605198SGG",
        "url": "https://www.163.com/dy/article/J0U8GJA605198SGG.html"
    },
    {
        "title": "不要卖房，不要卖房，不要卖房，重要的事情说三遍",
        "docid": "VS00D8VDG",
        "url": "https://www.163.com/dy/article/VS00D8VDG.html"
    },
    {
        "title": "奇葩一幕，一楼在院子里搭棚，二楼直接在棚顶修花园，到底谁之过",
        "docid": "VFVOHSVBJ",
        "url": "https://www.163.com/dy/article/VFVOHSVBJ.html"
    },
    {
        "title": "都是洞花1000万买的房子漏水，派三剑客去检查房子情况",
        "docid": "VZVN3NEHN",
        "url": "https://www.163.com/dy/article/VZVN3NEHN.html"
    },
    {
        "title": "20年后陆家嘴的房子有人要吗？",
        "docid": "VZVM7AUHI",
        "url": "https://www.163.com/dy/article/VZVM7AUHI.html"
    },
    {
        "title": "一套院子做的很漂亮的独栋",
        "docid": "VNVIO8PLI",
        "url": "https://www.163.com/dy/article/VNVIO8PLI.html"
    },
    {
        "title": "房地产 步梯房 高层住宅 同城房产",
        "docid": "VWVNGP6TH",
        "url": "https://www.163.com/dy/article/VWVNGP6TH.html"
    },
    {
        "title": "凭什么让老百姓受委屈？一味的压低补偿能行吗？",
        "docid": "VVVM21CU9",
        "url": "https://www.163.com/dy/article/VVVM21CU9.html"
    },
    {
        "title": "2套以上房产的家庭，房产税或“这样”征",
        "docid": "J0UBDRA0055640VF",
        "url": "https://www.163.com/dy/article/J0UBDRA0055640VF.html"
    },
    {
        "title": "大城兑现时，真改善选天曜 三期终藏B6#加推",
        "docid": "J0MTCS94020998HG",
        "url": "https://www.163.com/dy/article/J0MTCS94020998HG.html"
    },
    {
        "title": "中国房地产最好的城市，也决定全面放开限购了",
        "docid": "J0UBTLBK05567C26",
        "url": "https://www.163.com/dy/article/J0UBTLBK05567C26.html"
    },
    {
        "title": "让炒房客有去无回的城市，也下场了！",
        "docid": "J0U73OHJ0552HI5G",
        "url": "https://www.163.com/dy/article/J0U73OHJ0552HI5G.html"
    },
    {
        "title": "保房价还是保生育率？聪明人说还是保命吧！",
        "docid": "VR00FSEF8",
        "url": "https://www.163.com/dy/article/VR00FSEF8.html"
    },
    {
        "title": "年轻人排队提前还房贷，银行：要预约，普遍要等两三个月",
        "docid": "VCVS5GTQ6",
        "url": "https://www.163.com/dy/article/VCVS5GTQ6.html"
    },
    {
        "title": "白居易五十多岁才在长安城买房",
        "docid": "VWVJNPS2U",
        "url": "https://www.163.com/dy/article/VWVJNPS2U.html"
    },
    {
        "title": "女子看中阁楼买别墅 结果收房时房顶却不翼而飞？",
        "docid": "VTVH5H3OF",
        "url": "https://www.163.com/dy/article/VTVH5H3OF.html"
    },
    {
        "title": "首付付了月供交了就没事了吗？",
        "docid": "VGVJTII5D",
        "url": "https://www.163.com/dy/article/VGVJTII5D.html"
    },
    {
        "title": "30多万买中环线私产房，就是乐呵",
        "docid": "VFVSIGE97",
        "url": "https://www.163.com/dy/article/VFVSIGE97.html"
    },
    {
        "title": "伦敦中心区豪华公寓稀缺加剧，大平层成海外买家投资新宠",
        "docid": "J0UCKMCH0514DPPR",
        "url": "https://www.163.com/dy/article/J0UCKMCH0514DPPR.html"
    },
    {
        "title": "大城兑现时，真改善选天曜 三期终藏B6#加推",
        "docid": "J0MTCS94020998HG",
        "url": "https://www.163.com/dy/article/J0MTCS94020998HG.html"
    },
    {
        "title": "理发店太难了，小区理发店6个月转让了3次，房东稳赚不赔让人羡慕",
        "docid": "J0F1SMHU05564OA1",
        "url": "https://www.163.com/dy/article/J0F1SMHU05564OA1.html"
    },
    {
        "title": "4.29早看点|成都全面取消住房限购，取消公证摇号选房",
        "docid": "J0UCJA1Q0515AF0E",
        "url": "https://www.163.com/dy/article/J0UCJA1Q0515AF0E.html"
    },
    {
        "title": "成都不限购 南京送户口 省会下场能救房价吗？",
        "docid": "J0UCRIKV05567O7O",
        "url": "https://www.163.com/dy/article/J0UCRIKV05567O7O.html"
    },
    {
        "title": "各业态物业项目精品投标书（打包下载49份标书）",
        "docid": "J0UCNMFT055615MY",
        "url": "https://www.163.com/dy/article/J0UCNMFT055615MY.html"
    },
    {
        "title": "【祥顺课堂】夫妻双方婚前都有住房贷款，婚后怎么享受住房贷款利息专项附加扣除？",
        "docid": "J0UAL6PN0519S9C9",
        "url": "https://www.163.com/dy/article/J0UAL6PN0519S9C9.html"
    },
    {
        "title": "南京重启购房落户 深圳发起以旧换新 一二三线城市“加码”优化楼市政策",
        "docid": "J0U8RT0A0552QJ47",
        "url": "https://www.163.com/dy/article/J0U8RT0A0552QJ47.html"
    },
    {
        "title": "房地产开发板块震荡拉升，南国置业3连板",
        "docid": "J0UCIB3B0534A4SC",
        "url": "https://www.163.com/dy/article/J0UCIB3B0534A4SC.html"
    },
    {
        "title": "这个户型你们发挥，你们定，有三个，这是第一个！",
        "docid": "VA00G7IMC",
        "url": "https://www.163.com/dy/article/VA00G7IMC.html"
    },
    {
        "title": "地产板块近10股涨停，多地推出楼市新政，释放宽松信号",
        "docid": "J0UEMR550519DDQ2",
        "url": "https://www.163.com/dy/article/J0UEMR550519DDQ2.html"
    },
    {
        "title": "大城兑现时，真改善选天曜 三期终藏B6#加推",
        "docid": "J0MTCS94020998HG",
        "url": "https://www.163.com/dy/article/J0MTCS94020998HG.html"
    },
    {
        "title": "2024年4月29日赢家楼市早报",
        "docid": "J0UDJT0R055676VQ",
        "url": "https://www.163.com/dy/article/J0UDJT0R055676VQ.html"
    },
    {
        "title": "房贷利率降至3%，房贷利率5.88%的人该怎么办？内行人：3种办法",
        "docid": "J0UCQCRU05566DVL",
        "url": "https://www.163.com/dy/article/J0UCQCRU05566DVL.html"
    },
    {
        "title": "房地产暴涨4%！中国版量化宽松来了？这是最大的误解",
        "docid": "J0U639IN0553USNO",
        "url": "https://www.163.com/dy/article/J0U639IN0553USNO.html"
    },
    {
        "title": "全力以赴拯救房地产！不惜一切代价！",
        "docid": "J0UDHJI20553TDTY",
        "url": "https://www.163.com/dy/article/J0UDHJI20553TDTY.html"
    },
    {
        "title": "4个豪宅项目回笼近450亿资金，房企有了新“Buff”？",
        "docid": "J0UC03IU0550WHYR",
        "url": "https://www.163.com/dy/article/J0UC03IU0550WHYR.html"
    },
    {
        "title": "近期地产，商业中高端职位（持续更新）",
        "docid": "J0UD2OKA05567NEL",
        "url": "https://www.163.com/dy/article/J0UD2OKA05567NEL.html"
    },
    {
        "title": "最高院：这种挂靠承包合同有效，发包人可据以追究对方违约责任！",
        "docid": "VUVMPAC0N",
        "url": "https://www.163.com/dy/article/VUVMPAC0N.html"
    },
    {
        "title": "有人说未来人口变少了以后房子不值钱了就是歪理",
        "docid": "VIVSB32D1",
        "url": "https://www.163.com/dy/article/VIVSB32D1.html"
    },
    {
        "title": "您交的物业费涵盖了哪些服务？",
        "docid": "J0UFK6C6055615MY",
        "url": "https://www.163.com/dy/article/J0UFK6C6055615MY.html"
    },
    {
        "title": "大城兑现时，真改善选天曜 三期终藏B6#加推",
        "docid": "J0MTCS94020998HG",
        "url": "https://www.163.com/dy/article/J0MTCS94020998HG.html"
    },
    {
        "title": "居民自筹资金换电梯，却卡在物业签约上，怎么办？丨我来帮你忙",
        "docid": "J0UA97GE0552F71X",
        "url": "https://www.163.com/dy/article/J0UA97GE0552F71X.html"
    },
    {
        "title": "深圳如果取消限购，房价会上涨么",
        "docid": "J0UAI0NK0519DP0A",
        "url": "https://www.163.com/dy/article/J0UAI0NK0519DP0A.html"
    },
    {
        "title": "“ 做生意最重要的不是有多少钱，而是要让别人相信你有多少钱”",
        "docid": "J0UFGJ8N0535FFBB",
        "url": "https://www.163.com/dy/article/J0UFGJ8N0535FFBB.html"
    },
    {
        "title": "银行不让人提前还房贷，难道有什么难言之隐？提前还贷有必要吗？",
        "docid": "VMVF5JKA8",
        "url": "https://www.163.com/dy/article/VMVF5JKA8.html"
    },
    {
        "title": "潘向东：日本给我们的启示，房产增值只是财富幻觉？",
        "docid": "VYVFBHEU4",
        "url": "https://www.163.com/dy/article/VYVFBHEU4.html"
    },
    {
        "title": "为100多平大露台买的电梯三楼，豪华欧式装修，太棒了",
        "docid": "VC00D24B0",
        "url": "https://www.163.com/dy/article/VC00D24B0.html"
    },
    {
        "title": "孟晓苏，房地产之父，认为资金不投入房地产，会转到日常用品",
        "docid": "VWVMIQGMK",
        "url": "https://www.163.com/dy/article/VWVMIQGMK.html"
    },
    {
        "title": "乡、政府可以干预村里的土地承包吗？",
        "docid": "VDVNUD7F6",
        "url": "https://www.163.com/dy/article/VDVNUD7F6.html"
    },
    {
        "title": "10年后，这种面积的房子最受欢迎？不仅住得舒服，还容易转手变现",
        "docid": "J0TDD91Q0535BC2F",
        "url": "https://www.163.com/dy/article/J0TDD91Q0535BC2F.html"
    },
    {
        "title": "大城兑现时，真改善选天曜 三期终藏B6#加推",
        "docid": "J0MTCS94020998HG",
        "url": "https://www.163.com/dy/article/J0MTCS94020998HG.html"
    },
    {
        "title": "2024年楼市新一轮大涨?是触底反弹还是昙花一现?网友评论一针见血",
        "docid": "J0UHQ1A70553TDVP",
        "url": "https://www.163.com/dy/article/J0UHQ1A70553TDVP.html"
    },
    {
        "title": "凉办！法拍房一直卖出去，债权人和房东都懵了！",
        "docid": "J0TATTTA05567JIU",
        "url": "https://www.163.com/dy/article/J0TATTTA05567JIU.html"
    },
    {
        "title": "超800多万的征信黑名单，打了谁的脸？",
        "docid": "J0UGIU730553TDVP",
        "url": "https://www.163.com/dy/article/J0UGIU730553TDVP.html"
    },
    {
        "title": "楼市见底？！看多唱多的风突然刮起来了",
        "docid": "J0UIQHS10553TB8M",
        "url": "https://www.163.com/dy/article/J0UIQHS10553TB8M.html"
    },
    {
        "title": "万科A涨停！地产板块全线飘红，龙头房企大幅反弹",
        "docid": "J0UI4UKI0553YQBK",
        "url": "https://www.163.com/dy/article/J0UI4UKI0553YQBK.html"
    },
    {
        "title": "优秀人才推荐（免费 持续更新中）",
        "docid": "J0UD1SD405567NEL",
        "url": "https://www.163.com/dy/article/J0UD1SD405567NEL.html"
    },
    {
        "title": "120万的房子／给70万离谱吗？",
        "docid": "VWVTRKEJ8",
        "url": "https://www.163.com/dy/article/VWVTRKEJ8.html"
    },
    {
        "title": "公积金贷款购房，你属于首套还是二套？",
        "docid": "VQVS5LMO0",
        "url": "https://www.163.com/dy/article/VQVS5LMO0.html"
    },
    {
        "title": "哪一类二手房，会越来越难卖？你家小区属于哪一类？",
        "docid": "J0HHH6SG0535WDMF",
        "url": "https://www.163.com/dy/article/J0HHH6SG0535WDMF.html"
    },
    {
        "title": "大城兑现时，真改善选天曜 三期终藏B6#加推",
        "docid": "J0MTCS94020998HG",
        "url": "https://www.163.com/dy/article/J0MTCS94020998HG.html"
    },
    {
        "title": "看到朋友13万3房入住小区的现状，我庆幸自己没有跟风",
        "docid": "J0UHM6BQ0553TB9L",
        "url": "https://www.163.com/dy/article/J0UHM6BQ0553TB9L.html"
    },
    {
        "title": "多地祭出楼市重磅大招 房地产板块“狂飙” 大龙地产等多股涨停【SMM快讯】",
        "docid": "J0UJCVJJ05566YXC",
        "url": "https://www.163.com/dy/article/J0UJCVJJ05566YXC.html"
    },
    {
        "title": "全中国99%的房子都已经放开限购了",
        "docid": "J0UISLQ005565B5C",
        "url": "https://www.163.com/dy/article/J0UISLQ005565B5C.html"
    },
    {
        "title": "南京重启购房落户 深圳发起以旧换新 一二三线城市“加码”优化楼市政策",
        "docid": "J0UGMLFO0514R9KE",
        "url": "https://www.163.com/dy/article/J0UGMLFO0514R9KE.html"
    },
    {
        "title": "栖园大院别墅 仙林中心板块栖园400平花园的别墅",
        "docid": "VN00BF4RH",
        "url": "https://www.163.com/dy/article/VN00BF4RH.html"
    },
    {
        "title": "第四代住宅，最大的缺点，买房千万不能忽视！住宅重要的隐私属性",
        "docid": "VBVQAO265",
        "url": "https://www.163.com/dy/article/VBVQAO265.html"
    },
    {
        "title": "住在31层，快抑郁了，着急想卖掉",
        "docid": "VFVT1MTND",
        "url": "https://www.163.com/dy/article/VFVT1MTND.html"
    },
    {
        "title": "【张捷财经】豪宅日光见证楼市的奢侈品分化",
        "docid": "VRVRTJAV3",
        "url": "https://www.163.com/dy/article/VRVRTJAV3.html"
    },
    {
        "title": "汪小菲抛售与大S婚房，6600万豪宅内部无死角曝光！网友：很壕~",
        "docid": "J0UL6P8V05188AIB",
        "url": "https://www.163.com/dy/article/J0UL6P8V05188AIB.html"
    },
    {
        "title": "大城兑现时，真改善选天曜 三期终藏B6#加推",
        "docid": "J0MTCS94020998HG",
        "url": "https://www.163.com/dy/article/J0MTCS94020998HG.html"
    },
    {
        "title": "占用公区：邻居不说是碍于情面，物业劝阻是职责所在，法律规定是红线底线！",
        "docid": "J0UFION1055615MY",
        "url": "https://www.163.com/dy/article/J0UFION1055615MY.html"
    },
    {
        "title": "明确！这个商业仍未开工建设",
        "docid": "J0ULL4BB0553TDTY",
        "url": "https://www.163.com/dy/article/J0ULL4BB0553TDTY.html"
    },
    {
        "title": "铺先生：正确的选址要具备什么特点？有这些特点才算对",
        "docid": "J0UL3SJ70553TB8M",
        "url": "https://www.163.com/dy/article/J0UL3SJ70553TB8M.html"
    },
    {
        "title": "房子直降40%，业主要求退差价！2024年房市继续贬值潮？高层表态",
        "docid": "J0T0BOE70535BC2F",
        "url": "https://www.163.com/dy/article/J0T0BOE70535BC2F.html"
    },
    {
        "title": "劳动节置业指南，这家开发商太有心了！",
        "docid": "J0ULC76H0553TDTY",
        "url": "https://www.163.com/dy/article/J0ULC76H0553TDTY.html"
    },
    {
        "title": "最近，大量地产人扎堆写回忆录了",
        "docid": "J0ULKPN90552F71X",
        "url": "https://www.163.com/dy/article/J0ULKPN90552F71X.html"
    },
    {
        "title": "多地晒2023年度住房公积金“成绩单” 惠及更多灵活就业人员",
        "docid": "J0UKONFT0550TYQ0",
        "url": "https://www.163.com/dy/article/J0UKONFT0550TYQ0.html"
    },
    {
        "title": "印度首富的豪宅，无限加层",
        "docid": "VSVLRQGSS",
        "url": "https://www.163.com/dy/article/VSVLRQGSS.html"
    },
    {
        "title": "多伦多掀违约潮！房贷拖欠率暴增71%！大批房屋降价抛售",
        "docid": "J0UN9SEL0553TDTY",
        "url": "https://www.163.com/dy/article/J0UN9SEL0553TDTY.html"
    },
    {
        "title": "大城兑现时，真改善选天曜 三期终藏B6#加推",
        "docid": "J0MTCS94020998HG",
        "url": "https://www.163.com/dy/article/J0MTCS94020998HG.html"
    },
    {
        "title": "发现没，现在越来越多的人开始后悔",
        "docid": "J0UMH5UC0553TEQM",
        "url": "https://www.163.com/dy/article/J0UMH5UC0553TEQM.html"
    },
    {
        "title": "太壮观！地产股无差别涨停，两大传闻流出",
        "docid": "J0ULUIA70552K0CA",
        "url": "https://www.163.com/dy/article/J0ULUIA70552K0CA.html"
    },
    {
        "title": "住房限购政策正逐步退出，全国已有35城放松限购",
        "docid": "J0UMT2200515AN84",
        "url": "https://www.163.com/dy/article/J0UMT2200515AN84.html"
    },
    {
        "title": "这辈子最后悔的决定就是在老家县城买两套房买房那些事",
        "docid": "VW00FE38U",
        "url": "https://www.163.com/dy/article/VW00FE38U.html"
    },
    {
        "title": "森林大宅（第三季）：满满原木风的地下室，最有意境的是私密餐厅",
        "docid": "VW009N7FI",
        "url": "https://www.163.com/dy/article/VW009N7FI.html"
    },
    {
        "title": "没有房贷的人太可怕了，看看怎么了？",
        "docid": "VOVI6HRNB",
        "url": "https://www.163.com/dy/article/VOVI6HRNB.html"
    },
    {
        "title": "西方房地产为何泡沫严重，每月还清帐单就赢了？",
        "docid": "VYVP2MSCS",
        "url": "https://www.163.com/dy/article/VYVP2MSCS.html"
    },
    {
        "title": "花光积蓄买新房，楼板六公分合理吗？",
        "docid": "VFVO4ITG3",
        "url": "https://www.163.com/dy/article/VFVO4ITG3.html"
    },
    {
        "title": "卫星地图揭秘，被誉为“住房奇迹”的新加坡，穷人富人差距有多大",
        "docid": "J0UNVLTN0533RNN0",
        "url": "https://www.163.com/dy/article/J0UNVLTN0533RNN0.html"
    },
    {
        "title": "大城兑现时，真改善选天曜 三期终藏B6#加推",
        "docid": "J0MTCS94020998HG",
        "url": "https://www.163.com/dy/article/J0MTCS94020998HG.html"
    },
    {
        "title": "为什么越来越多人不愿购买高层？住过之后有4点感悟，很现实",
        "docid": "J0UO8U6P0553TDTY",
        "url": "https://www.163.com/dy/article/J0UO8U6P0553TDTY.html"
    },
    {
        "title": "万科今天涨停了，突发利好",
        "docid": "J0UO84690553TEV3",
        "url": "https://www.163.com/dy/article/J0UO84690553TEV3.html"
    },
    {
        "title": "苏新服务拟收购苏州土地 拟将其开发为办公楼宇",
        "docid": "J0UOV1I30553TEQM",
        "url": "https://www.163.com/dy/article/J0UOV1I30553TEQM.html"
    },
    {
        "title": "广州优化不动产登记，上海“城中村”改造持续推进，房地产ETF(159768)午后大涨超7%！",
        "docid": "J0UP5F1E0534A4SC",
        "url": "https://www.163.com/dy/article/J0UP5F1E0534A4SC.html"
    },
    {
        "title": "苏新服务(02152.HK)拟收购苏州高新区土地",
        "docid": "J0UOCKFU0519B04T",
        "url": "https://www.163.com/dy/article/J0UOCKFU0519B04T.html"
    },
    {
        "title": "住房限购政策逐步退出市场，仅北上广深、等地还在执行限购",
        "docid": "VR00UUO7M",
        "url": "https://www.163.com/dy/article/VR00UUO7M.html"
    },
    {
        "title": "房地产又出新规，利好4亿买房人！",
        "docid": "VCVUA3OND",
        "url": "https://www.163.com/dy/article/VCVUA3OND.html"
    },
    {
        "title": "房贷没钱还了，房子我不要了，我们两清，这样可以吗？",
        "docid": "VXVRHEGL2",
        "url": "https://www.163.com/dy/article/VXVRHEGL2.html"
    },
    {
        "title": "70岁老人自述：老家拆迁，选商品房还是宅基地盖新房，我犹豫不决",
        "docid": "J0UP82D30553TDVP",
        "url": "https://www.163.com/dy/article/J0UP82D30553TDVP.html"
    },
    {
        "title": "大城兑现时，真改善选天曜 三期终藏B6#加推",
        "docid": "J0MTCS94020998HG",
        "url": "https://www.163.com/dy/article/J0MTCS94020998HG.html"
    },
    {
        "title": "失察、失控、失策、失职，住建、规划、发改委等相关部门难辞其咎",
        "docid": "J0UPPSRQ055616ZJ",
        "url": "https://www.163.com/dy/article/J0UPPSRQ055616ZJ.html"
    },
    {
        "title": "中国富豪2栋在澳洲千万豪宅，被毁坏！一个被烧，一个被拆掉",
        "docid": "J0UQ07T10534I43Y",
        "url": "https://www.163.com/dy/article/J0UQ07T10534I43Y.html"
    },
    {
        "title": "风雨欲来，楼市政策大招准备好了",
        "docid": "VUVUNS8G6",
        "url": "https://www.163.com/dy/article/VUVUNS8G6.html"
    },
    {
        "title": "嗯嗯，不错的双拼别墅，看懂了就来吧！",
        "docid": "VIVOMTH1K",
        "url": "https://www.163.com/dy/article/VIVOMTH1K.html"
    },
    {
        "title": "房价下跌后，真羡慕在小城市体制内的人，过着神仙的日子",
        "docid": "VF010FBJ9",
        "url": "https://www.163.com/dy/article/VF010FBJ9.html"
    },
    {
        "title": "看得出来这栋房子造价不菲，就楼梯踏步阿姨都觉得好贵了",
        "docid": "VSVNGL6P4",
        "url": "https://www.163.com/dy/article/VSVNGL6P4.html"
    },
    {
        "title": "两兄弟建房，要注意这几点",
        "docid": "VGVVJV400",
        "url": "https://www.163.com/dy/article/VGVVJV400.html"
    },
    {
        "title": "海淀有钱人都住哪？ 海淀有钱人都住哪？你知道吗？",
        "docid": "VGVQHSQSI",
        "url": "https://www.163.com/dy/article/VGVQHSQSI.html"
    },
    {
        "title": "不管你买什么楼盘，这几层永远都是黄金楼层！尽量优先考虑",
        "docid": "J0USISSN0540SN7V",
        "url": "https://www.163.com/dy/article/J0USISSN0540SN7V.html"
    },
    {
        "title": "大城兑现时，真改善选天曜 三期终藏B6#加推",
        "docid": "J0MTCS94020998HG",
        "url": "https://www.163.com/dy/article/J0MTCS94020998HG.html"
    },
    {
        "title": "新房只会越来越贵，二手房会越来越便宜？3类房子是“穷人标配”",
        "docid": "J0USGSQP0540SN7V",
        "url": "https://www.163.com/dy/article/J0USGSQP0540SN7V.html"
    },
    {
        "title": "社论：商铺为何宁愿闲置而不降价出租？房东的短视对赌市场的迷思",
        "docid": "J0UMHQ65055665GS",
        "url": "https://www.163.com/dy/article/J0UMHQ65055665GS.html"
    },
    {
        "title": "为什么买房不买西晒房？售楼小姐说了良心话，到底明白了",
        "docid": "J0USANJL0540SN7V",
        "url": "https://www.163.com/dy/article/J0USANJL0540SN7V.html"
    },
    {
        "title": "断供前最后的自救！神级逆风翻盘的这4个操作，带你力挽狂澜！",
        "docid": "J0URP44J0553TB9L",
        "url": "https://www.163.com/dy/article/J0URP44J0553TB9L.html"
    },
    {
        "title": "万科涨停，地产股上演井喷行情，房地产到底了吗？",
        "docid": "J0UNCQI405562Z6I",
        "url": "https://www.163.com/dy/article/J0UNCQI405562Z6I.html"
    },
    {
        "title": "400万拿下回报率6%的新盘！一大批港人入场！",
        "docid": "J0UKRBFB05531TV2",
        "url": "https://www.163.com/dy/article/J0UKRBFB05531TV2.html"
    },
    {
        "title": "装修资金不够怎么办？装修贷是不是解决装修资金合适的产品？",
        "docid": "VNVF8H8G4",
        "url": "https://www.163.com/dy/article/VNVF8H8G4.html"
    },
    {
        "title": "成都政策来了，南京政策松了，西安政策正在撰写中了…",
        "docid": "VJVVFDB7C",
        "url": "https://www.163.com/dy/article/VJVVFDB7C.html"
    },
    {
        "title": "好户型有5个特征，如果你房子有其中3个特征，恭喜你买值了",
        "docid": "J0US5TL40540SN7V",
        "url": "https://www.163.com/dy/article/J0US5TL40540SN7V.html"
    },
    {
        "title": "大城兑现时，真改善选天曜 三期终藏B6#加推",
        "docid": "J0MTCS94020998HG",
        "url": "https://www.163.com/dy/article/J0MTCS94020998HG.html"
    },
    {
        "title": "房东做梦都没想到10年的房租竟然是儿子交的，归根结底还是自己的",
        "docid": "J0UTIAQN0553TEV3",
        "url": "https://www.163.com/dy/article/J0UTIAQN0553TEV3.html"
    },
    {
        "title": "“五一后重大变革”传疯了 地产股壮观领涨",
        "docid": "J0USGM3305148B29",
        "url": "https://www.163.com/dy/article/J0USGM3305148B29.html"
    },
    {
        "title": "楼市再度释放利好，房地产ETF领涨市场",
        "docid": "J0UTRCG90534A4SC",
        "url": "https://www.163.com/dy/article/J0UTRCG90534A4SC.html"
    },
    {
        "title": "如果是你要卖房你怎么看？",
        "docid": "VNVO0F4UV",
        "url": "https://www.163.com/dy/article/VNVO0F4UV.html"
    },
    {
        "title": "乡村生活，独院独户新中式别墅，家的温馨港湾",
        "docid": "VCVRIUC55",
        "url": "https://www.163.com/dy/article/VCVRIUC55.html"
    },
    {
        "title": "房产证上加孩子名字有什么好处。",
        "docid": "VSVMUA6F3",
        "url": "https://www.163.com/dy/article/VSVMUA6F3.html"
    },
    {
        "title": "宅基地盖房子合法合规 为什么就是不让盖？",
        "docid": "VRVN3GLKB",
        "url": "https://www.163.com/dy/article/VRVN3GLKB.html"
    },
    {
        "title": "开间10米，进深128米，三层时尚现代风户型",
        "docid": "VT0107MTB",
        "url": "https://www.163.com/dy/article/VT0107MTB.html"
    },
    {
        "title": "不出五年，或将出现变化：现金、房子都会贬值，这4样却可能升值",
        "docid": "J0UH507505536P04",
        "url": "https://www.163.com/dy/article/J0UH507505536P04.html"
    },
    {
        "title": "大城兑现时，真改善选天曜 三期终藏B6#加推",
        "docid": "J0MTCS94020998HG",
        "url": "https://www.163.com/dy/article/J0MTCS94020998HG.html"
    },
    {
        "title": "风水师：这4个楼层都是“穷人房”，买了就等于吃大亏，不是迷信",
        "docid": "J0UHB3EI05536P04",
        "url": "https://www.163.com/dy/article/J0UHB3EI05536P04.html"
    },
    {
        "title": "楼市｜头部省会城市几近完全放松，一线城市还能“坐得住”吗？",
        "docid": "J0UUBLJK0535HK01",
        "url": "https://www.163.com/dy/article/J0UUBLJK0535HK01.html"
    },
    {
        "title": "楼市见底？！看多唱多的风突然刮起来了",
        "docid": "J0UKDN7605536P04",
        "url": "https://www.163.com/dy/article/J0UKDN7605536P04.html"
    },
    {
        "title": "房价要跌回2015年吗？别做梦了，快醒醒#一个敢说真话的房产",
        "docid": "VF010P3VG",
        "url": "https://www.163.com/dy/article/VF010P3VG.html"
    },
    {
        "title": "房地产最大的敌人来了！",
        "docid": "VCVUC0CF4",
        "url": "https://www.163.com/dy/article/VCVUC0CF4.html"
    },
    {
        "title": "#如何看待未来房价走向 #楼市 #房价 #买房 #2024房地产走势",
        "docid": "VT012GQ9Q",
        "url": "https://www.163.com/dy/article/VT012GQ9Q.html"
    },
    {
        "title": "物业水平才是豪宅的终极赛道。你们见到有哪些“豪宅”物业雷点？ ",
        "docid": "VLVFFP3HF",
        "url": "https://www.163.com/dy/article/VLVFFP3HF.html"
    },
    {
        "title": "姐姐姐夫不到30岁，通过他们的努力花800万在深圳市中心买了房！",
        "docid": "VCVH6NUNF",
        "url": "https://www.163.com/dy/article/VCVH6NUNF.html"
    },
    {
        "title": "2。7万跌到8000多，依旧无人接盘，老业主撑不住：房贷不想还了",
        "docid": "J0URBBNR0553TEQM",
        "url": "https://www.163.com/dy/article/J0URBBNR0553TEQM.html"
    },
    {
        "title": "大城兑现时，真改善选天曜 三期终藏B6#加推",
        "docid": "J0MTCS94020998HG",
        "url": "https://www.163.com/dy/article/J0MTCS94020998HG.html"
    },
    {
        "title": "中央部委公务员（正科级）分享公积金收入明细",
        "docid": "J0UUS12O055673D0",
        "url": "https://www.163.com/dy/article/J0UUS12O055673D0.html"
    },
    {
        "title": "今年明年不买房，5年后是买不起房，还是随便挑？现在终于有答案了",
        "docid": "VR017OASI",
        "url": "https://www.163.com/dy/article/VR017OASI.html"
    },
    {
        "title": "第一次看到这样的业主，卖房的人，也许已经崩溃了",
        "docid": "VHVRQ1AQ3",
        "url": "https://www.163.com/dy/article/VHVRQ1AQ3.html"
    },
    {
        "title": "下滑行情下还能买房吗？桃姐：这样的房子还是可以的",
        "docid": "VIVSE7F5D",
        "url": "https://www.163.com/dy/article/VIVSE7F5D.html"
    },
    {
        "title": "大妈存了1000多万，可就是不买房",
        "docid": "VXVNQD09O",
        "url": "https://www.163.com/dy/article/VXVNQD09O.html"
    },
    {
        "title": "成都不再审核购房资格，全国房价最高的100个城市，成都第几？",
        "docid": "VQVUEMMQ1",
        "url": "https://www.163.com/dy/article/VQVUEMMQ1.html"
    },
    {
        "title": "华远地产：拟将房地产开发业务资产及负债转让给控股股东  快报",
        "docid": "VPVT5RTNI",
        "url": "https://www.163.com/dy/article/VPVT5RTNI.html"
    },
    {
        "title": "#如何看待未来房价走向 #货币 #房价 #买房 #楼市",
        "docid": "VT015K4N5",
        "url": "https://www.163.com/dy/article/VT015K4N5.html"
    },
    {
        "title": "高层终于动真格了，刚传来3大消息，将掀起行情及板块滔天巨浪！",
        "docid": "J0V3OAPT0556601Q",
        "url": "https://www.163.com/dy/article/J0V3OAPT0556601Q.html"
    },
    {
        "title": "大城兑现时，真改善选天曜 三期终藏B6#加推",
        "docid": "J0MTCS94020998HG",
        "url": "https://www.163.com/dy/article/J0MTCS94020998HG.html"
    },
    {
        "title": "终于有人把“租房禁忌”整理出来了，不知道的收藏。",
        "docid": "J0UUV26J0552F71X",
        "url": "https://www.163.com/dy/article/J0UUV26J0552F71X.html"
    },
    {
        "title": "房地产板块久旱逢甘露，全线涨停的背后原因是什么？",
        "docid": "J0UUOD3K0537AF4L",
        "url": "https://www.163.com/dy/article/J0UUOD3K0537AF4L.html"
    },
    {
        "title": "围观！超40城房屋以旧换新操作细则大公开，门槛究竟有多高？",
        "docid": "J0V0TD4J0530QRMB",
        "url": "https://www.163.com/dy/article/J0V0TD4J0530QRMB.html"
    },
    {
        "title": "房子抵押贷款下来后，有哪些注意事项？账单逾期如何养好征信",
        "docid": "J0UPK2J605566FVZ",
        "url": "https://www.163.com/dy/article/J0UPK2J605566FVZ.html"
    },
    {
        "title": "房地产周期成过去式！今日凌晨的三大消息全面传来（4.29）！",
        "docid": "J0T6Q092055670TC",
        "url": "https://www.163.com/dy/article/J0T6Q092055670TC.html"
    },
    {
        "title": "谢逸枫：一季度全国卖地收入将迎触底拐点，市场颤抖吧！",
        "docid": "J0URK75D0515ALUG",
        "url": "https://www.163.com/dy/article/J0URK75D0515ALUG.html"
    },
    {
        "title": "伍戈：仅靠降价难以达到房地产企稳",
        "docid": "J0UF7P8005562BOT",
        "url": "https://www.163.com/dy/article/J0UF7P8005562BOT.html"
    },
    {
        "title": "海景房28万一套，二十多天赔了五万块，这里的房子真不能买吗？",
        "docid": "VW0196GUR",
        "url": "https://www.163.com/dy/article/VW0196GUR.html"
    },
    {
        "title": "野村陆挺：中国房地产下降螺旋仍在，建议建立保交房基金",
        "docid": "J0V54LTS0519DDQ2",
        "url": "https://www.163.com/dy/article/J0V54LTS0519DDQ2.html"
    },
    {
        "title": "大城兑现时，真改善选天曜 三期终藏B6#加推",
        "docid": "J0MTCS94020998HG",
        "url": "https://www.163.com/dy/article/J0MTCS94020998HG.html"
    },
    {
        "title": "万亿级城市，全面放宽落户！",
        "docid": "J0V4NPGK053469RG",
        "url": "https://www.163.com/dy/article/J0V4NPGK053469RG.html"
    },
    {
        "title": "【世界说】美国作家新书揭示不平等的“黑人税”：非裔的房产价值低却因被税务高估而多交房产税",
        "docid": "J0UT9I740514R9KE",
        "url": "https://www.163.com/dy/article/J0UT9I740514R9KE.html"
    },
    {
        "title": "西班牙取消黄金签证计划最新进展！房产投资最后的机会",
        "docid": "J0V2GC420519H4JI",
        "url": "https://www.163.com/dy/article/J0V2GC420519H4JI.html"
    },
    {
        "title": "房子储物越多越好，有小孩后东西多",
        "docid": "VSVJJ5H0Q",
        "url": "https://www.163.com/dy/article/VSVJJ5H0Q.html"
    },
    {
        "title": "野村陆挺：2024年关键还得看房地产，有望触底反弹！",
        "docid": "VA00G1BDK",
        "url": "https://www.163.com/dy/article/VA00G1BDK.html"
    },
    {
        "title": "刘嘉玲卖楼大赚2100万港元：楼市热潮下明星投资显眼",
        "docid": "VFVU9CTCG",
        "url": "https://www.163.com/dy/article/VFVU9CTCG.html"
    },
    {
        "title": "有些小孩是带着钱来的，有些小孩是带着仇来的",
        "docid": "VDVLD93IT",
        "url": "https://www.163.com/dy/article/VDVLD93IT.html"
    },
    {
        "title": "农村人能够拯救房地产吗？终究是农民工扛下了所有",
        "docid": "VFVRQ3DKF",
        "url": "https://www.163.com/dy/article/VFVRQ3DKF.html"
    },
    {
        "title": "澳洲房价再创新高！墨尔本市场前景持续乐观！",
        "docid": "J0V5C3C5053661TJ",
        "url": "https://www.163.com/dy/article/J0V5C3C5053661TJ.html"
    },
    {
        "title": "大城兑现时，真改善选天曜 三期终藏B6#加推",
        "docid": "J0MTCS94020998HG",
        "url": "https://www.163.com/dy/article/J0MTCS94020998HG.html"
    },
    {
        "title": "房价大逆转？紧急揭秘2024年走势，“涨或跌”全解析",
        "docid": "J0KS8M7S0540A6F8",
        "url": "https://www.163.com/dy/article/J0KS8M7S0540A6F8.html"
    },
    {
        "title": "月薪5万的豪宅管家：“老板花上亿并购公司，但水电费多了会破防”",
        "docid": "J0V72FMO05566SC9",
        "url": "https://www.163.com/dy/article/J0V72FMO05566SC9.html"
    },
    {
        "title": "【风口解读】涨停潮！特发服务20CM，房地产“柳暗花明”？",
        "docid": "J0V6A67I0552KYAK",
        "url": "https://www.163.com/dy/article/J0V6A67I0552KYAK.html"
    },
    {
        "title": "板块研报：迎政策机遇 地产板块触底反弹",
        "docid": "J0V5OTIN0519AAFH",
        "url": "https://www.163.com/dy/article/J0V5OTIN0519AAFH.html"
    },
    {
        "title": "放开怕泡沫 压制伤饭碗 两难的楼市到底该怎么选？",
        "docid": "VP01BO97Q",
        "url": "https://www.163.com/dy/article/VP01BO97Q.html"
    },
    {
        "title": "2年亏掉80万，月供1.8万，深圳夫妻后悔买房了",
        "docid": "VR01CK3PV",
        "url": "https://www.163.com/dy/article/VR01CK3PV.html"
    },
    {
        "title": "越南老婆带我去参观她买的房子，看完以后发现性价比很高很值得买",
        "docid": "VF01CDKU4",
        "url": "https://www.163.com/dy/article/VF01CDKU4.html"
    },
    {
        "title": "物业人去楼空，突然撤场，既是因为小区三年几乎没人住",
        "docid": "VU00LOSM3",
        "url": "https://www.163.com/dy/article/VU00LOSM3.html"
    },
    {
        "title": "带院子的一楼到底能不能买？入住4年多，说说我的实际感受",
        "docid": "J0V7KO0C0553TDXU",
        "url": "https://www.163.com/dy/article/J0V7KO0C0553TDXU.html"
    },
    {
        "title": "大城兑现时，真改善选天曜 三期终藏B6#加推",
        "docid": "J0MTCS94020998HG",
        "url": "https://www.163.com/dy/article/J0MTCS94020998HG.html"
    },
    {
        "title": "新房周报 | 成都等13城政策松绑，供求环比双增（04.22-04.28）",
        "docid": "J0V9AM1F0535A6CE",
        "url": "https://www.163.com/dy/article/J0V9AM1F0535A6CE.html"
    },
    {
        "title": "突然大反攻！地产股大涨，楼市重大变革要来？",
        "docid": "J0UUVKK805560VHD",
        "url": "https://www.163.com/dy/article/J0UUVKK805560VHD.html"
    },
    {
        "title": "土地周报 | 月末供求继续回升，成都宅地楼面价创新高（04.22-04.28）",
        "docid": "J0V9ALUH0535A6CE",
        "url": "https://www.163.com/dy/article/J0V9ALUH0535A6CE.html"
    },
    {
        "title": "万科股债齐涨，地产板块连续两日大幅反弹！",
        "docid": "J0V4497U0512B07B",
        "url": "https://www.163.com/dy/article/J0V4497U0512B07B.html"
    },
    {
        "title": "被困在卖房里的中产家庭",
        "docid": "J0UO9V8P0553TDVP",
        "url": "https://www.163.com/dy/article/J0UO9V8P0553TDVP.html"
    },
    {
        "title": "房价下降会带来哪些影响？",
        "docid": "VR01C3BP7",
        "url": "https://www.163.com/dy/article/VR01C3BP7.html"
    },
    {
        "title": "楼市下跌 房奴们大批 失控",
        "docid": "VM01DR5QF",
        "url": "https://www.163.com/dy/article/VM01DR5QF.html"
    },
    {
        "title": "月供撑不住了，怎么办？",
        "docid": "VNVN17Q57",
        "url": "https://www.163.com/dy/article/VNVN17Q57.html"
    },
    {
        "title": "万科突发！各大利好政策引爆房地产",
        "docid": "J0V995LL0519CB4E",
        "url": "https://www.163.com/dy/article/J0V995LL0519CB4E.html"
    },
    {
        "title": "大城兑现时，真改善选天曜 三期终藏B6#加推",
        "docid": "J0MTCS94020998HG",
        "url": "https://www.163.com/dy/article/J0MTCS94020998HG.html"
    },
    {
        "title": "多家千亿房企被清盘，2000亿地产巨头拉响退市警报，西安项目多次官宣延期！",
        "docid": "J0VAO7SN05528OV7",
        "url": "https://www.163.com/dy/article/J0VAO7SN05528OV7.html"
    },
    {
        "title": "成都放开限购引爆房地产板块，特斯拉刺激，循环经济爆发",
        "docid": "J0V7UD2J055615MY",
        "url": "https://www.163.com/dy/article/J0V7UD2J055615MY.html"
    },
    {
        "title": "买房送80万元黄金？开发商拼了！媒体评论：类似花式营销终究不是主流的做法",
        "docid": "J0UNEGF00512B07B",
        "url": "https://www.163.com/dy/article/J0UNEGF00512B07B.html"
    },
    {
        "title": "碳排放权越来越贵！碳价每吨首次超过100元，排碳大户房地产能否借绿电绿证脱碳？",
        "docid": "J0VAHF110512D03F",
        "url": "https://www.163.com/dy/article/J0VAHF110512D03F.html"
    },
    {
        "title": "中国房地产放出重磅炸弹，“私人定制”时代来了！",
        "docid": "VYVV8LHMR",
        "url": "https://www.163.com/dy/article/VYVV8LHMR.html"
    },
    {
        "title": "二手房满2年和满5年，只有一个区别",
        "docid": "VU00MVU3L",
        "url": "https://www.163.com/dy/article/VU00MVU3L.html"
    },
    {
        "title": "森林大宅（第一季）：长条石镶嵌后现代外立面，2200万原木别墅",
        "docid": "VBVSSSDGC",
        "url": "https://www.163.com/dy/article/VBVSSSDGC.html"
    },
    {
        "title": "碧桂园再次爽约，年报“难产”，计划下半年提出债务重组计划！",
        "docid": "VAVRRR5EE",
        "url": "https://www.163.com/dy/article/VAVRRR5EE.html"
    },
    {
        "title": "太好了，大幅降价21%，全国房产均价跌破万元大关，没买房的注意",
        "docid": "J0V8BABF05567HWG",
        "url": "https://www.163.com/dy/article/J0V8BABF05567HWG.html"
    },
    {
        "title": "大城兑现时，真改善选天曜 三期终藏B6#加推",
        "docid": "J0MTCS94020998HG",
        "url": "https://www.163.com/dy/article/J0MTCS94020998HG.html"
    },
    {
        "title": "产品力测评|2024年上半年克而瑞广佛区域产品力测评工作即将启动！",
        "docid": "J0VBRF190515ATK9",
        "url": "https://www.163.com/dy/article/J0VBRF190515ATK9.html"
    },
    {
        "title": "楼市又有新利好？今日超20只地产股涨停",
        "docid": "J0VB73KF05129QAF",
        "url": "https://www.163.com/dy/article/J0VB73KF05129QAF.html"
    },
    {
        "title": "现在卖房已经变态到什么程度了！太\n可怕了！",
        "docid": "VMVUUEMLV",
        "url": "https://www.163.com/dy/article/VMVUUEMLV.html"
    },
    {
        "title": "房产“收购大潮”开始了？今年开始，这两类房子或通通收购",
        "docid": "VF01GGA7D",
        "url": "https://www.163.com/dy/article/VF01GGA7D.html"
    },
    {
        "title": "未来三年农民老百姓买不起的不再是房子和车子，而是这三样东西",
        "docid": "VWVMI47U9",
        "url": "https://www.163.com/dy/article/VWVMI47U9.html"
    },
    {
        "title": "斩断供应，如果房子彻底停建：专家说有三个无法承受的后果",
        "docid": "VLVU24NSA",
        "url": "https://www.163.com/dy/article/VLVU24NSA.html"
    },
    {
        "title": "记录100位房东故事 No.4 金地中心风华",
        "docid": "VIVI720OE",
        "url": "https://www.163.com/dy/article/VIVI720OE.html"
    },
    {
        "title": "住房限购政策逐步退出市场，最新全国城市房价排行榜，68城破万",
        "docid": "VQ01AAG77",
        "url": "https://www.163.com/dy/article/VQ01AAG77.html"
    },
    {
        "title": "终于有人把“租房禁忌”整理出来了，不知道的收藏。",
        "docid": "J0VDD11H0553TDVP",
        "url": "https://www.163.com/dy/article/J0VDD11H0553TDVP.html"
    },
    {
        "title": "大城兑现时，真改善选天曜 三期终藏B6#加推",
        "docid": "J0MTCS94020998HG",
        "url": "https://www.163.com/dy/article/J0MTCS94020998HG.html"
    },
    {
        "title": "暴涨70%！知名地产巨头爆发！",
        "docid": "J0VCO0A2053469RG",
        "url": "https://www.163.com/dy/article/J0VCO0A2053469RG.html"
    },
    {
        "title": "当下，还能决心买房的人，不仅仅刚需那么简单",
        "docid": "VUVNCCF43",
        "url": "https://www.163.com/dy/article/VUVNCCF43.html"
    },
    {
        "title": "住房限购政策逐步退出市场，仅北上广深、杭州天津西安海南等地还在执行限购",
        "docid": "VF01E1BOE",
        "url": "https://www.163.com/dy/article/VF01E1BOE.html"
    },
    {
        "title": "废弃厂房、仓库的改造，也挺好的，二次利用省时间也省钱，",
        "docid": "VSVPFR1O2",
        "url": "https://www.163.com/dy/article/VSVPFR1O2.html"
    },
    {
        "title": "400万不卖了视频下架！",
        "docid": "VNVUP3P4R",
        "url": "https://www.163.com/dy/article/VNVUP3P4R.html"
    },
    {
        "title": "总裁，这样的中式庭院能配得上您的功成名就吗？",
        "docid": "VWVNO9KKU",
        "url": "https://www.163.com/dy/article/VWVNO9KKU.html"
    },
    {
        "title": "现在不打折的项目肯定有自己的优势，看看去",
        "docid": "VIVIG7T8T",
        "url": "https://www.163.com/dy/article/VIVIG7T8T.html"
    },
    {
        "title": "败家子盛恩颐，一场豪赌输掉上海100栋洋房人物",
        "docid": "VHVP4P257",
        "url": "https://www.163.com/dy/article/VHVP4P257.html"
    },
    {
        "title": "一周楼市：豪宅成交强势再起 均价再度回到10万元/平方米",
        "docid": "J0VEF62E0552F71X",
        "url": "https://www.163.com/dy/article/J0VEF62E0552F71X.html"
    },
    {
        "title": "大城兑现时，真改善选天曜 三期终藏B6#加推",
        "docid": "J0MTCS94020998HG",
        "url": "https://www.163.com/dy/article/J0MTCS94020998HG.html"
    },
    {
        "title": "首尔市将向生育子女的无房家庭每月补贴30万韩元持续两年",
        "docid": "J0VEQ5AO05377PO6",
        "url": "https://www.163.com/dy/article/J0VEQ5AO05377PO6.html"
    },
    {
        "title": "五批次新房官宣！单价10万+项目仅1盘",
        "docid": "J0VD13H20515ARL3",
        "url": "https://www.163.com/dy/article/J0VD13H20515ARL3.html"
    },
    {
        "title": "中国孩子到新加坡留学？全岛寄宿家庭房源大公开！包餐包洗衣服！",
        "docid": "J0VD1C5K05371E5Q",
        "url": "https://www.163.com/dy/article/J0VD1C5K05371E5Q.html"
    },
    {
        "title": "森林大宅（第五季）：好房子也怕巷子深，优点缺点都给你数一数",
        "docid": "VD01J22IP",
        "url": "https://www.163.com/dy/article/VD01J22IP.html"
    },
    {
        "title": "顶层的房子一般都会另外赠送面积",
        "docid": "VUVU3B0CI",
        "url": "https://www.163.com/dy/article/VUVU3B0CI.html"
    },
    {
        "title": "坦南中心村，边套联排别墅，精装拎包入住；百日百房第54天；",
        "docid": "VAVI4DEFP",
        "url": "https://www.163.com/dy/article/VAVI4DEFP.html"
    },
    {
        "title": "买房送80万元黄金？深圳一新房项目变相打折。",
        "docid": "VB019A694",
        "url": "https://www.163.com/dy/article/VB019A694.html"
    },
    {
        "title": "住房限购政策逐步退出市场仅北上广深、杭州天津西安海南等地还在执行限购",
        "docid": "VB01A3QTD",
        "url": "https://www.163.com/dy/article/VB01A3QTD.html"
    },
    {
        "title": "不管你承不承认，如果房价继续下跌，最后损失最大的还是我们穷人",
        "docid": "J0VG893N0556124M",
        "url": "https://www.163.com/dy/article/J0VG893N0556124M.html"
    },
    {
        "title": "大城兑现时，真改善选天曜 三期终藏B6#加推",
        "docid": "J0MTCS94020998HG",
        "url": "https://www.163.com/dy/article/J0MTCS94020998HG.html"
    },
    {
        "title": "突发！地产股集体暴涨！楼市或迎重大拐点？",
        "docid": "J0VD03OG0515WLA7",
        "url": "https://www.163.com/dy/article/J0VD03OG0515WLA7.html"
    },
    {
        "title": "不用2年，楼市有一种预感越来越强烈了！",
        "docid": "J0VFLMQ205359WBS",
        "url": "https://www.163.com/dy/article/J0VFLMQ205359WBS.html"
    },
    {
        "title": "万科：顺应行业环境变化 开展组织调整提升效率",
        "docid": "J0VH5IJ70539AP40",
        "url": "https://www.163.com/dy/article/J0VH5IJ70539AP40.html"
    },
    {
        "title": "学区房更香背后真相，可能连你都想不到｜板块",
        "docid": "J0VFRAJI0553TB8M",
        "url": "https://www.163.com/dy/article/J0VFRAJI0553TB8M.html"
    },
    {
        "title": "住房限购政策正逐步退出市场？ 仅北上广深、杭州天津西安海南等地还在执行限购",
        "docid": "VP01NNSUD",
        "url": "https://www.163.com/dy/article/VP01NNSUD.html"
    },
    {
        "title": "你会选择二房还是三房呢？东茗苑80平2+1户型；百日百房43天；",
        "docid": "VAVFRS0B8",
        "url": "https://www.163.com/dy/article/VAVFRS0B8.html"
    },
    {
        "title": "开鲁收取新增耕地有偿使用费是否合理合法？",
        "docid": "VP00BRQC1",
        "url": "https://www.163.com/dy/article/VP00BRQC1.html"
    },
    {
        "title": "开发商为卖房也是拼了，得房率做成这样，真的越高越好吗？",
        "docid": "VAVN09672",
        "url": "https://www.163.com/dy/article/VAVN09672.html"
    },
    {
        "title": "武汉房价六连跌，四万炒房客被套武汉楼市，武汉楼市4月分析",
        "docid": "J0V3E8E30535JMSP",
        "url": "https://www.163.com/dy/article/J0V3E8E30535JMSP.html"
    },
    {
        "title": "大城兑现时，真改善选天曜 三期终藏B6#加推",
        "docid": "J0MTCS94020998HG",
        "url": "https://www.163.com/dy/article/J0MTCS94020998HG.html"
    },
    {
        "title": "18×20米二层合院，带内院设计，新中式外观大气，步步高升户型",
        "docid": "J0VIJV2V0553TDVP",
        "url": "https://www.163.com/dy/article/J0VIJV2V0553TDVP.html"
    },
    {
        "title": "武汉房价跌了两年多，武汉刚需购房者依旧继续在武汉买房",
        "docid": "J0UK5P980535JMSP",
        "url": "https://www.163.com/dy/article/J0UK5P980535JMSP.html"
    },
    {
        "title": "现在成都、西安房价不涨，手上有25万，该不该提前还房贷？",
        "docid": "J0USM2910535JMSP",
        "url": "https://www.163.com/dy/article/J0USM2910535JMSP.html"
    },
    {
        "title": "武汉房价跌了两年多，武汉刚需购房者依旧继续在武汉买房",
        "docid": "J0UK5I550535JMSP",
        "url": "https://www.163.com/dy/article/J0UK5I550535JMSP.html"
    },
    {
        "title": "超大阳台谁不想要呢？ 邦泰·臻境做改善有一手",
        "docid": "J0VI1EMC0553TEV3",
        "url": "https://www.163.com/dy/article/J0VI1EMC0553TEV3.html"
    },
    {
        "title": "楼市政策优化预期升温，地产股集体大涨",
        "docid": "J0VII5NN05199NPP",
        "url": "https://www.163.com/dy/article/J0VII5NN05199NPP.html"
    },
    {
        "title": "现在成都、西安房价不涨，手上有25万，该不该提前还房贷？",
        "docid": "J0USLTF50535JMSP",
        "url": "https://www.163.com/dy/article/J0USLTF50535JMSP.html"
    },
    {
        "title": "万科一季报发布：实现营业收入615.9亿元  狂“卷”产品力高质量交付",
        "docid": "J0VGIJ0E0514R9NP",
        "url": "https://www.163.com/dy/article/J0VGIJ0E0514R9NP.html"
    },
    {
        "title": "卖盘远大于买盘，所以大家不要想，也不要幻想房价能反弹。",
        "docid": "J0VFJNCR0553GD76",
        "url": "https://www.163.com/dy/article/J0VFJNCR0553GD76.html"
    },
    {
        "title": "大城兑现时，真改善选天曜 三期终藏B6#加推",
        "docid": "J0MTCS94020998HG",
        "url": "https://www.163.com/dy/article/J0MTCS94020998HG.html"
    },
    {
        "title": "万科一季度营收615.9亿  高品质交付应对行业深度调整期",
        "docid": "J0VJKQSN0553TB8M",
        "url": "https://www.163.com/dy/article/J0VJKQSN0553TB8M.html"
    },
    {
        "title": "如何化解民生难题，遏制医院周边短租房乱象？",
        "docid": "J0VJQHO505530KS1",
        "url": "https://www.163.com/dy/article/J0VJQHO505530KS1.html"
    },
    {
        "title": "个人开放独立买地，地方卖地卷成麻花",
        "docid": "VJ01OPPAR",
        "url": "https://www.163.com/dy/article/VJ01OPPAR.html"
    },
    {
        "title": "2个省会城市干了件大事！终于击溃楼市防线？抢房潮来了？",
        "docid": "VV015BV3U",
        "url": "https://www.163.com/dy/article/VV015BV3U.html"
    },
    {
        "title": "尊華：如果你手里的房产卖不出去该怎么办？",
        "docid": "VXVIQBAQQ",
        "url": "https://www.163.com/dy/article/VXVIQBAQQ.html"
    },
    {
        "title": "选择正确赛道，布局美好人生",
        "docid": "VG00S05F5",
        "url": "https://www.163.com/dy/article/VG00S05F5.html"
    },
    {
        "title": "形势真的蛮急迫了，房地产或将被重启，建议提前做好准备",
        "docid": "VE01Q2PUG",
        "url": "https://www.163.com/dy/article/VE01Q2PUG.html"
    },
    {
        "title": "卖完了你还嘎嘎夸？！ ",
        "docid": "VXVHRGJ8K",
        "url": "https://www.163.com/dy/article/VXVHRGJ8K.html"
    },
    {
        "title": "投资小知识, 房地产泡沫, 成因、现状与风险",
        "docid": "J0VJ573C055321V8",
        "url": "https://www.163.com/dy/article/J0VJ573C055321V8.html"
    },
    {
        "title": "大城兑现时，真改善选天曜 三期终藏B6#加推",
        "docid": "J0MTCS94020998HG",
        "url": "https://www.163.com/dy/article/J0MTCS94020998HG.html"
    },
    {
        "title": "中泽丰(01282)拟1.03亿元出售江西商用物业及停车位",
        "docid": "J0VKRELP05566WVZ",
        "url": "https://www.163.com/dy/article/J0VKRELP05566WVZ.html"
    },
    {
        "title": "中国房价还要跌多久？高盛集团给出答案：刚跌了一半而已",
        "docid": "J0VKDP060556124M",
        "url": "https://www.163.com/dy/article/J0VKDP060556124M.html"
    },
    {
        "title": "我来到新西兰才知道，国内房价太便宜了，不能再跌了",
        "docid": "VX01QSQQS",
        "url": "https://www.163.com/dy/article/VX01QSQQS.html"
    },
    {
        "title": "或不用2年，楼市有一种预感越来越强烈了",
        "docid": "VG01O9N2O",
        "url": "https://www.163.com/dy/article/VG01O9N2O.html"
    },
    {
        "title": "修路竟修到家门口，至今谁也不敢动这个房子",
        "docid": "VWVNJ1NT2",
        "url": "https://www.163.com/dy/article/VWVNJ1NT2.html"
    },
    {
        "title": "邻居嫌别墅不够大？竟加高加宽扩建3层！1年多了根本管不住",
        "docid": "VTVPPEUMP",
        "url": "https://www.163.com/dy/article/VTVPPEUMP.html"
    },
    {
        "title": "房子露天阳台，居于北侧建造，其它布局如何？",
        "docid": "VSVJU9LRC",
        "url": "https://www.163.com/dy/article/VSVJU9LRC.html"
    },
    {
        "title": "学位房跟学区房的区别？",
        "docid": "VDVUBL4DU",
        "url": "https://www.163.com/dy/article/VDVUBL4DU.html"
    },
    {
        "title": "一线城市，开始有变化！",
        "docid": "J0VN70IB0515DBP5",
        "url": "https://www.163.com/dy/article/J0VN70IB0515DBP5.html"
    },
    {
        "title": "大城兑现时，真改善选天曜 三期终藏B6#加推",
        "docid": "J0MTCS94020998HG",
        "url": "https://www.163.com/dy/article/J0MTCS94020998HG.html"
    },
    {
        "title": "黄奇帆：中国房地产，该往何处去？",
        "docid": "J0VNDHOM0553TB9L",
        "url": "https://www.163.com/dy/article/J0VNDHOM0553TB9L.html"
    },
    {
        "title": "外资全面看多中国资产，房地产板块爆了！",
        "docid": "J0VN3IK50515DBP5",
        "url": "https://www.163.com/dy/article/J0VN3IK50515DBP5.html"
    },
    {
        "title": "伍戈：地产需求，去哪儿呢？",
        "docid": "J0VME2UP0519IGF7",
        "url": "https://www.163.com/dy/article/J0VME2UP0519IGF7.html"
    },
    {
        "title": "招商房托一季度平均出租率92.1% 去年同期为86.8%",
        "docid": "J0VMKOOQ0519D45U",
        "url": "https://www.163.com/dy/article/J0VMKOOQ0519D45U.html"
    },
    {
        "title": "省政协常委曹志伟：建议楼市全面放开限购限价",
        "docid": "J0VNBS5Q0514R9OM",
        "url": "https://www.163.com/dy/article/J0VNBS5Q0514R9OM.html"
    },
    {
        "title": "伍戈：地产需求，去哪儿呢？",
        "docid": "J0VMEO8M0553TB8M",
        "url": "https://www.163.com/dy/article/J0VMEO8M0553TB8M.html"
    },
    {
        "title": "2024买房聪明&愚蠢",
        "docid": "VJ01RDRGG",
        "url": "https://www.163.com/dy/article/VJ01RDRGG.html"
    },
    {
        "title": "如果房子不值钱了，你还是有钱人吗？",
        "docid": "VWVSI214G",
        "url": "https://www.163.com/dy/article/VWVSI214G.html"
    },
    {
        "title": "15.8米×10.1米！二层新中式别墅设计方案出炉",
        "docid": "J0VOJLI40553TEQM",
        "url": "https://www.163.com/dy/article/J0VOJLI40553TEQM.html"
    },
    {
        "title": "大城兑现时，真改善选天曜 三期终藏B6#加推",
        "docid": "J0MTCS94020998HG",
        "url": "https://www.163.com/dy/article/J0MTCS94020998HG.html"
    },
    {
        "title": "一线城市，开始有变化！",
        "docid": "J0VN78KP0553TDTY",
        "url": "https://www.163.com/dy/article/J0VN78KP0553TDTY.html"
    },
    {
        "title": "今年起，做好房子贬值准备？郁亮预测未来中国房地产走向或是对的",
        "docid": "VC01SBJ1U",
        "url": "https://www.163.com/dy/article/VC01SBJ1U.html"
    },
    {
        "title": "西双版纳房子暴跌没人买，小胖冒风险投资43万，媳妇说指定会赔钱",
        "docid": "VD01TH6IG",
        "url": "https://www.163.com/dy/article/VD01TH6IG.html"
    },
    {
        "title": "中式合院，国人理想住宅！",
        "docid": "VRVT4BOUJ",
        "url": "https://www.163.com/dy/article/VRVT4BOUJ.html"
    },
    {
        "title": "这些房子未来可能一文不值",
        "docid": "VEVMAAQNM",
        "url": "https://www.163.com/dy/article/VEVMAAQNM.html"
    },
    {
        "title": "房地产到底跌到位了吗？按照常识三年到位来算，这才到第二年。",
        "docid": "VQVQG8P6S",
        "url": "https://www.163.com/dy/article/VQVQG8P6S.html"
    },
    {
        "title": "家庭条件处于中等偏上水平，同样存在“存款焦虑”",
        "docid": "VRVNPA1IE",
        "url": "https://www.163.com/dy/article/VRVNPA1IE.html"
    },
    {
        "title": "年轻人的“抠门”结婚现象：经济压力下的无奈选择",
        "docid": "VUVICTF6P",
        "url": "https://www.163.com/dy/article/VUVICTF6P.html"
    }
]