[
    {
        "title": "取消限购、降低首付之后，我打消了买房的念头",
        "docid": "J2R21FFI055621QY",
        "url": "https://www.163.com/dy/article/J2R21FFI055621QY.html"
    },
    {
        "title": "大型银行突叫停内地客按揭申请？辟谣！",
        "docid": "J2QTFK4A05561QDT",
        "url": "https://www.163.com/dy/article/J2QTFK4A05561QDT.html"
    },
    {
        "title": "突然发力！房价再原地起飞？",
        "docid": "J2R0PE0U0553TEQM",
        "url": "https://www.163.com/dy/article/J2R0PE0U0553TEQM.html"
    },
    {
        "title": "专家预测：楼市首付比例降至15%，市场见底企稳已可期",
        "docid": "VF1T29K68",
        "url": "https://www.163.com/dy/article/VF1T29K68.html"
    },
    {
        "title": "北京丰台区科技园 总部基地一区20号楼1187.81㎡1975万6月17起拍",
        "docid": "VO1S8VOAB",
        "url": "https://www.163.com/dy/article/VO1S8VOAB.html"
    },
    {
        "title": "重磅突发！首套房贷利率最低3.15%，省钱时代到了",
        "docid": "VW1T5BKP5",
        "url": "https://www.163.com/dy/article/VW1T5BKP5.html"
    },
    {
        "title": "恕我直言：这样的户型虽然是洋房户型，但存在4大缺点，能接受吗",
        "docid": "VB1T0TOEH",
        "url": "https://www.163.com/dy/article/VB1T0TOEH.html"
    },
    {
        "title": "专家：今年不买房，5年又白忙，你认同吗？",
        "docid": "VM1F61O1N",
        "url": "https://www.163.com/dy/article/VM1F61O1N.html"
    },
    {
        "title": "保利招商华发中央公馆这个盘如何？",
        "docid": "VU1Q5K47I",
        "url": "https://www.163.com/dy/article/VU1Q5K47I.html"
    },
    {
        "title": "买房必看！全网最全的七点建议来了",
        "docid": "VI1S1OO7K",
        "url": "https://www.163.com/dy/article/VI1S1OO7K.html"
    },
    {
        "title": "房地产市场出现了巨大的变动，所有人的财富都可能因此重新分配。",
        "docid": "J2QQM67S0553GD76",
        "url": "https://www.163.com/dy/article/J2QQM67S0553GD76.html"
    },
    {
        "title": "随着楼市新政的推出，房价会不会上涨呢？",
        "docid": "J2QQN4020553GD76",
        "url": "https://www.163.com/dy/article/J2QQN4020553GD76.html"
    },
    {
        "title": "房产丨中海57.5亿北京摘地；万达商管已备足分期兑付资金；新城控股拟向母公司等借款150亿元，利率高达8%",
        "docid": "J2R52CTB055650O5",
        "url": "https://www.163.com/dy/article/J2R52CTB055650O5.html"
    },
    {
        "title": "美国4月成屋销售下滑1.9% 低于市场预期",
        "docid": "J2R11P6T0519D45U",
        "url": "https://www.163.com/dy/article/J2R11P6T0519D45U.html"
    },
    {
        "title": "无苦集灭道 无智亦无得",
        "docid": "J2R5FA2B055616ZT",
        "url": "https://www.163.com/dy/article/J2R5FA2B055616ZT.html"
    },
    {
        "title": "退租定损，当以公平合理为根本遵循",
        "docid": "J2R5U9IV0514R9KQ",
        "url": "https://www.163.com/dy/article/J2R5U9IV0514R9KQ.html"
    },
    {
        "title": "滨江坚定了走出杭州的决心",
        "docid": "J2QSRJ8O05198NMR",
        "url": "https://www.163.com/dy/article/J2QSRJ8O05198NMR.html"
    },
    {
        "title": "什么信号？一夜间大批人全款买房，有钱人疯了？",
        "docid": "J2QV62300553TDVP",
        "url": "https://www.163.com/dy/article/J2QV62300553TDVP.html"
    },
    {
        "title": "这种形势，房子应该怎么办？ ",
        "docid": "VJ1T9K06E",
        "url": "https://www.163.com/dy/article/VJ1T9K06E.html"
    },
    {
        "title": "横滨中华街附近新装美宅，步行6分钟至石川町车站，等你来探",
        "docid": "VC1T3O7AV",
        "url": "https://www.163.com/dy/article/VC1T3O7AV.html"
    },
    {
        "title": "中银地产研报刷屏，这轮地产政策到底能刺激多少需求？",
        "docid": "J2R5JK9E05566UTE",
        "url": "https://www.163.com/dy/article/J2R5JK9E05566UTE.html"
    },
    {
        "title": "北京上海还有必要限购吗？",
        "docid": "J2R7LLQ60553TDXU",
        "url": "https://www.163.com/dy/article/J2R7LLQ60553TDXU.html"
    },
    {
        "title": "多地推进房产“收储” 助力楼市预期改善",
        "docid": "J2PJ59VR0519DKDI",
        "url": "https://www.163.com/dy/article/J2PJ59VR0519DKDI.html"
    },
    {
        "title": "全国视频号房产峰会将在青岛举办，全新定制10堂大师课看点足",
        "docid": "J2QMH5GG0552F71X",
        "url": "https://www.163.com/dy/article/J2QMH5GG0552F71X.html"
    },
    {
        "title": "【数据发布】2024年4月份70个大中城市商品住宅销售价格变动情况",
        "docid": "J2R3RRDP0553TEV3",
        "url": "https://www.163.com/dy/article/J2R3RRDP0553TEV3.html"
    },
    {
        "title": "国家花3000亿收购卖不掉的存量房，会让房价回到巅峰吗？",
        "docid": "VC1R0GVIO",
        "url": "https://www.163.com/dy/article/VC1R0GVIO.html"
    },
    {
        "title": "楼市滞销，武汉、合肥、郑州、长沙都憋不住了",
        "docid": "VH1TB5TKQ",
        "url": "https://www.163.com/dy/article/VH1TB5TKQ.html"
    },
    {
        "title": "远离城市喧嚣的美丽小庭院",
        "docid": "VW1TAVK7U",
        "url": "https://www.163.com/dy/article/VW1TAVK7U.html"
    },
    {
        "title": "大连旅顺，买贵了，被套了，欲哭无泪",
        "docid": "VL1T5HASM",
        "url": "https://www.163.com/dy/article/VL1T5HASM.html"
    },
    {
        "title": "许家印香港别墅以约4.7亿港元售出，降价幅度高达4.1亿港元，减值近一半",
        "docid": "VF1SHS4B0",
        "url": "https://www.163.com/dy/article/VF1SHS4B0.html"
    },
    {
        "title": "一张截图刷屏，电新首席这是要转型房产中介了？",
        "docid": "J2R5LD5U05566UTE",
        "url": "https://www.163.com/dy/article/J2R5LD5U05566UTE.html"
    },
    {
        "title": "年轻人购房需谨慎，经济条件允许为前提",
        "docid": "J2E8OCF90532D0CK",
        "url": "https://www.163.com/dy/article/J2E8OCF90532D0CK.html"
    },
    {
        "title": "第6次抄底买房时机到了！别再错过！",
        "docid": "J2DBSVEU0535B643",
        "url": "https://www.163.com/dy/article/J2DBSVEU0535B643.html"
    },
    {
        "title": "关于楼市未来，要多一点理性！",
        "docid": "J2QPFH9S05567IYR",
        "url": "https://www.163.com/dy/article/J2QPFH9S05567IYR.html"
    },
    {
        "title": "2024房地产走势：房价未来如何走向？",
        "docid": "VR1T8VBNQ",
        "url": "https://www.163.com/dy/article/VR1T8VBNQ.html"
    },
    {
        "title": "半年没出手，一套房蒸发二百万，二手房市场中介道出真实现况",
        "docid": "VN1I1P09T",
        "url": "https://www.163.com/dy/article/VN1I1P09T.html"
    },
    {
        "title": "降首付降利率，央行放大招史上最宽松购房政策出台，房价能否上涨",
        "docid": "VQ1PV3TG4",
        "url": "https://www.163.com/dy/article/VQ1PV3TG4.html"
    },
    {
        "title": "房屋户型确定，坐向有些偏差，如何解析？",
        "docid": "VS1PMTPIS",
        "url": "https://www.163.com/dy/article/VS1PMTPIS.html"
    },
    {
        "title": "土地确权遇到难题怎么走出误区",
        "docid": "VI1R3UU2K",
        "url": "https://www.163.com/dy/article/VI1R3UU2K.html"
    },
    {
        "title": "家不应该只是的柴米油盐、吃饭睡觉的地方马思设计",
        "docid": "VG1S10QLJ",
        "url": "https://www.163.com/dy/article/VG1S10QLJ.html"
    },
    {
        "title": "美国现房销售意外下降，但价格维持高位",
        "docid": "J2RB40QV05566YXC",
        "url": "https://www.163.com/dy/article/J2RB40QV05566YXC.html"
    },
    {
        "title": "大佬再度发声，商业环境在变化，机会来临",
        "docid": "J2QL7K4C05561LJX",
        "url": "https://www.163.com/dy/article/J2QL7K4C05561LJX.html"
    },
    {
        "title": "为什么这么多的老板都跑到农村买房？",
        "docid": "VW1T6T4O5",
        "url": "https://www.163.com/dy/article/VW1T6T4O5.html"
    },
    {
        "title": "买了房落户真难，到街道盖章更难 所谓的得走访 得去房管局",
        "docid": "VF1TA7R50",
        "url": "https://www.163.com/dy/article/VF1TA7R50.html"
    },
    {
        "title": "房东集体拒售，原因竟然是……",
        "docid": "VN1TF8OQD",
        "url": "https://www.163.com/dy/article/VN1TF8OQD.html"
    },
    {
        "title": "滇池头排现房别墅，实得420平，170平超大花园",
        "docid": "VV1Q6TV3G",
        "url": "https://www.163.com/dy/article/VV1Q6TV3G.html"
    },
    {
        "title": "玺珑湾山海合院，实景现墅，优选现房",
        "docid": "VV1Q77IMB",
        "url": "https://www.163.com/dy/article/VV1Q77IMB.html"
    },
    {
        "title": "住房教育上学全免费，实现社会主义的南街村,令人羡慕却无法复制",
        "docid": "VN1MSJL7C",
        "url": "https://www.163.com/dy/article/VN1MSJL7C.html"
    },
    {
        "title": "首付大降，首套房首付款比例调整为不低于15%，二套房首付比例调整为不低于25%",
        "docid": "VN1NSQI4S",
        "url": "https://www.163.com/dy/article/VN1NSQI4S.html"
    },
    {
        "title": "房产盲盒：寻宝菜鸟低价捡漏的法拍房！一天净赚十几万？",
        "docid": "VQ0RG2D86",
        "url": "https://www.163.com/dy/article/VQ0RG2D86.html"
    },
    {
        "title": "解码保障性住房再贷款：加快存量商品房去化速度，增强房企回笼资金能力",
        "docid": "J2LOJ5V405199NPP",
        "url": "https://www.163.com/dy/article/J2LOJ5V405199NPP.html"
    },
    {
        "title": "新政后楼市不温不火，购房者仍以观望为主，有中山投资客称亏近100万忍痛割爱",
        "docid": "J2QNG20A0512B07B",
        "url": "https://www.163.com/dy/article/J2QNG20A0512B07B.html"
    },
    {
        "title": "346.85平米的豪宅户型是什么样子？",
        "docid": "J2DC2LIM0553TEQM",
        "url": "https://www.163.com/dy/article/J2DC2LIM0553TEQM.html"
    },
    {
        "title": "户口的含金量，真的褪色了吗，中国房地产，购房落户",
        "docid": "VE1FMKNFL",
        "url": "https://www.163.com/dy/article/VE1FMKNFL.html"
    },
    {
        "title": "等了两个多月终于尘埃落定，顺利买房顺利交楼，从此不再纠结",
        "docid": "VE1SPFDUJ",
        "url": "https://www.163.com/dy/article/VE1SPFDUJ.html"
    },
    {
        "title": "【网友因买房亏170万而抑郁：十年的工作白干了，感觉对不起自己和妈妈】一位网友在社交平台上发文，他说",
        "docid": "VR1LGN74A",
        "url": "https://www.163.com/dy/article/VR1LGN74A.html"
    },
    {
        "title": "房地产的春天来了房地产新政 实话实说 房地产行业现状及前景 实话实说句句事实句句戳心 楼市政策迎重磅",
        "docid": "VF1LUQFJT",
        "url": "https://www.163.com/dy/article/VF1LUQFJT.html"
    },
    {
        "title": "安徽农民造出折叠房，10分钟组装两室一厅，为打工人提供舒适住所",
        "docid": "VA1HESQ0I",
        "url": "https://www.163.com/dy/article/VA1HESQ0I.html"
    },
    {
        "title": "带日本女友图图、去平潭看“蓝眼泪”了",
        "docid": "VL1HAHM3B",
        "url": "https://www.163.com/dy/article/VL1HAHM3B.html"
    },
    {
        "title": "2000万简美风格大宅，老别墅的户型结构一言难尽，豪宅范还是不差",
        "docid": "VC1STMMA3",
        "url": "https://www.163.com/dy/article/VC1STMMA3.html"
    },
    {
        "title": "加拿大银行监管机构警告：屋贷款“支付冲击”将至，2026年面临重大财务考验",
        "docid": "J2RB40KK05566YXF",
        "url": "https://www.163.com/dy/article/J2RB40KK05566YXF.html"
    },
    {
        "title": "锚定收储路径，观察市场变化",
        "docid": "J2DGFTNS05567IYR",
        "url": "https://www.163.com/dy/article/J2DGFTNS05567IYR.html"
    },
    {
        "title": "鬼迷心窍买房，如今濒临崩溃！",
        "docid": "VI1TANLVU",
        "url": "https://www.163.com/dy/article/VI1TANLVU.html"
    },
    {
        "title": "房地产组合拳利好，银行是最大受益者+今天全天大盘分时预测画出",
        "docid": "VF1MGTD0A",
        "url": "https://www.163.com/dy/article/VF1MGTD0A.html"
    },
    {
        "title": "国家队下场买房能拯救楼市吗？点评",
        "docid": "VF1TH60CJ",
        "url": "https://www.163.com/dy/article/VF1TH60CJ.html"
    },
    {
        "title": "下调0.25个百分点 湖北住房公积金贷款执行新利率",
        "docid": "VL1M5G0DB",
        "url": "https://www.163.com/dy/article/VL1M5G0DB.html"
    },
    {
        "title": "TATA木门25周年主题态度片：与时代同行 与用户共情",
        "docid": "VY1NCGO9B",
        "url": "https://www.163.com/dy/article/VY1NCGO9B.html"
    },
    {
        "title": "2024年找对象，有车有房已经过时\n了，现在需要这“新三样”",
        "docid": "VM1NFQV63",
        "url": "https://www.163.com/dy/article/VM1NFQV63.html"
    },
    {
        "title": "救市双暴击：不限购和低门槛，楼市会是普通人逆袭的机会吗？",
        "docid": "VP1Q24P0E",
        "url": "https://www.163.com/dy/article/VP1Q24P0E.html"
    },
    {
        "title": "3000多万征地补偿款被理财 谁替村民做的决定？",
        "docid": "VQ1FQQO1V",
        "url": "https://www.163.com/dy/article/VQ1FQQO1V.html"
    },
    {
        "title": "15%首付总成本比30%首付高？",
        "docid": "J2RCND62055616ZT",
        "url": "https://www.163.com/dy/article/J2RCND62055616ZT.html"
    },
    {
        "title": "住建部定调，符合这3个条件的老房子将拆除，至少30%的家庭受益",
        "docid": "J2CRN3M105536P04",
        "url": "https://www.163.com/dy/article/J2CRN3M105536P04.html"
    },
    {
        "title": "历史上最大尺度的救市：付的是少了，贷的却多了，还的更久了",
        "docid": "J2IKEURT0514FJUC",
        "url": "https://www.163.com/dy/article/J2IKEURT0514FJUC.html"
    },
    {
        "title": "首套房首付比例调至15% 房贷利率降20BP、30BP……多地密集调整 业内预计后续将有更多城市跟进",
        "docid": "J2R0SAVL05198CJN",
        "url": "https://www.163.com/dy/article/J2R0SAVL05198CJN.html"
    },
    {
        "title": "中国房地产的拐点就在2024年下半年",
        "docid": "VS1T2CMAR",
        "url": "https://www.163.com/dy/article/VS1T2CMAR.html"
    },
    {
        "title": "这种电梯房，竟然卖不过老小区的步梯房！",
        "docid": "VL1G6CCBP",
        "url": "https://www.163.com/dy/article/VL1G6CCBP.html"
    },
    {
        "title": "恭喜我们那些坚持不买房的人",
        "docid": "VF1NHAHIH",
        "url": "https://www.163.com/dy/article/VF1NHAHIH.html"
    },
    {
        "title": "我们说房子太贵了，国家直接给我们放出了3个大招，直接哭死！",
        "docid": "VS1R1VPQQ",
        "url": "https://www.163.com/dy/article/VS1R1VPQQ.html"
    },
    {
        "title": "没想到房地产最大的克星是他们！",
        "docid": "VG1JPQ66N",
        "url": "https://www.163.com/dy/article/VG1JPQ66N.html"
    },
    {
        "title": "中车云汇都有什么配套？ 老四方板块，别的项目没有啊",
        "docid": "VH1LFHKUR",
        "url": "https://www.163.com/dy/article/VH1LFHKUR.html"
    },
    {
        "title": "欣赏一款相当实用的125.96平米户型",
        "docid": "J2DTPEFH05566SC9",
        "url": "https://www.163.com/dy/article/J2DTPEFH05566SC9.html"
    },
    {
        "title": "美国成屋销售意外下降 房价仍然高企",
        "docid": "J2QUDF6Q05198CJN",
        "url": "https://www.163.com/dy/article/J2QUDF6Q05198CJN.html"
    },
    {
        "title": "业内人士：未来房贷利率还会有明显下降",
        "docid": "J2K7LIS005198CJN",
        "url": "https://www.163.com/dy/article/J2K7LIS005198CJN.html"
    },
    {
        "title": "多个热点城市首付已降至15%！机构称“购房总负担率降至历史最低”",
        "docid": "J2R62UN00512B07B",
        "url": "https://www.163.com/dy/article/J2R62UN00512B07B.html"
    },
    {
        "title": "超级利好！楼市最重磅政策来了！",
        "docid": "J2KIICPK05352LE9",
        "url": "https://www.163.com/dy/article/J2KIICPK05352LE9.html"
    },
    {
        "title": "王姐贷款30年买别墅还不起，别墅卖掉也不够还房贷，落得一场空",
        "docid": "VM1EUC9AG",
        "url": "https://www.163.com/dy/article/VM1EUC9AG.html"
    },
    {
        "title": "中国铁建房地产10亿元债券拟付息票面利率3.20%  快报",
        "docid": "VP1N8K41S",
        "url": "https://www.163.com/dy/article/VP1N8K41S.html"
    },
    {
        "title": "官方回应网友投诉开发商恶意降价销售：属市场调节价，不高于公示价格前提下，售价由购房人与企业协商议定",
        "docid": "VA1N5SO6A",
        "url": "https://www.163.com/dy/article/VA1N5SO6A.html"
    },
    {
        "title": "大城市租房即可落户要陆续来了？",
        "docid": "VC1T0AB35",
        "url": "https://www.163.com/dy/article/VC1T0AB35.html"
    },
    {
        "title": "全国统一的三层别墅的大爆款，11-12户型，8房6卫你们喜欢不",
        "docid": "VL1M94AE0",
        "url": "https://www.163.com/dy/article/VL1M94AE0.html"
    },
    {
        "title": "你愿意把房子租给60岁以上的老人吗？70岁呢？80岁呢？",
        "docid": "J2RIMMGH05565T6T",
        "url": "https://www.163.com/dy/article/J2RIMMGH05565T6T.html"
    },
    {
        "title": "狠抓落实！住建部副部长董建国：集中力量打一场保交房攻坚战",
        "docid": "J2KIKD9E05352LE9",
        "url": "https://www.163.com/dy/article/J2KIKD9E05352LE9.html"
    },
    {
        "title": "东京晴空塔旁291万2LDK公寓，室内新装修，东南向，押上站640米，居住环境好！",
        "docid": "J2E1242R05359JWY",
        "url": "https://www.163.com/dy/article/J2E1242R05359JWY.html"
    },
    {
        "title": "为什么女孩子都认为房产证加上自己名字就是安全感呢？网友：扎心",
        "docid": "J2RELPB205565MB4",
        "url": "https://www.163.com/dy/article/J2RELPB205565MB4.html"
    },
    {
        "title": "农村建房我发现无论你怎样设计，到后面你都觉得有不合理的地方。",
        "docid": "VL1QDDCSJ",
        "url": "https://www.163.com/dy/article/VL1QDDCSJ.html"
    },
    {
        "title": "房东不割肉了，房子也不卖，直接出租了！",
        "docid": "VR1TCTMTQ",
        "url": "https://www.163.com/dy/article/VR1TCTMTQ.html"
    },
    {
        "title": "北京富婆小姐姐假期回定州给父母选套生态洋房 中山云墅园林水系升级",
        "docid": "VF1OAS1EG",
        "url": "https://www.163.com/dy/article/VF1OAS1EG.html"
    },
    {
        "title": "96-116㎡合院\n总价94万起70年产权现房别墅",
        "docid": "VV1MQCIRN",
        "url": "https://www.163.com/dy/article/VV1MQCIRN.html"
    },
    {
        "title": "地产三条“组合拳”，重点解决什么问题？#财经 #热点解读",
        "docid": "VE1P9IS30",
        "url": "https://www.163.com/dy/article/VE1P9IS30.html"
    },
    {
        "title": "2024年后，中国楼市走向将怎样？李嘉诚早有预言，提前做准备",
        "docid": "VW1NJG6OR",
        "url": "https://www.163.com/dy/article/VW1NJG6OR.html"
    },
    {
        "title": "高层发声！全力打好保交房攻坚战",
        "docid": "J2KQF71L0515AN84",
        "url": "https://www.163.com/dy/article/J2KQF71L0515AN84.html"
    },
    {
        "title": "危机升级！房地产保卫战再打响？央行按兵不动？原因是金融空转？",
        "docid": "J2RIJ8790553C8KN",
        "url": "https://www.163.com/dy/article/J2RIJ8790553C8KN.html"
    },
    {
        "title": "澳洲几乎所有州住房都短缺，高档住宅市场 房价大幅反弹！",
        "docid": "J2RK6JG405199N88",
        "url": "https://www.163.com/dy/article/J2RK6JG405199N88.html"
    },
    {
        "title": "300精装别墅保利西山林语，业主一天未住，真的太可惜了",
        "docid": "VS1TGPFFN",
        "url": "https://www.163.com/dy/article/VS1TGPFFN.html"
    },
    {
        "title": "不要卖房子，千万不要卖房子，看完你就明白了",
        "docid": "VM1FHBHRM",
        "url": "https://www.163.com/dy/article/VM1FHBHRM.html"
    },
    {
        "title": "120万的房子卖了800块钱",
        "docid": "VZ1CJ0JNA",
        "url": "https://www.163.com/dy/article/VZ1CJ0JNA.html"
    },
    {
        "title": "什么别墅平层，适合自己的就是最好的",
        "docid": "VR1PA5KF1",
        "url": "https://www.163.com/dy/article/VR1PA5KF1.html"
    },
    {
        "title": "搬来1年多了，看不到新住户呢？",
        "docid": "VP1P8V83I",
        "url": "https://www.163.com/dy/article/VP1P8V83I.html"
    },
    {
        "title": "买了18层却成了小区的笑话，无法接受异样的眼光，只能把房子卖掉",
        "docid": "VC1SCDF1O",
        "url": "https://www.163.com/dy/article/VC1SCDF1O.html"
    },
    {
        "title": "数字说话：明明租房比买房更划算，你还会买房吗？",
        "docid": "VE1EVEC2G",
        "url": "https://www.163.com/dy/article/VE1EVEC2G.html"
    },
    {
        "title": "成都、西安和日本房价有什么关系？",
        "docid": "J2QBV0DR0535JMSP",
        "url": "https://www.163.com/dy/article/J2QBV0DR0535JMSP.html"
    },
    {
        "title": "别墅能买吗？房产专家：千万不能买！",
        "docid": "J2E6135F055632LI",
        "url": "https://www.163.com/dy/article/J2E6135F055632LI.html"
    },
    {
        "title": "房观指数 | 谁是园区的性价比之王？结果大跌眼镜！",
        "docid": "J2QV19S50556720A",
        "url": "https://www.163.com/dy/article/J2QV19S50556720A.html"
    },
    {
        "title": "取消房贷利率下限或许是更为深远的政策。",
        "docid": "J2QRIFBR0553VNKO",
        "url": "https://www.163.com/dy/article/J2QRIFBR0553VNKO.html"
    },
    {
        "title": "开发商说漏嘴，买房东边户好，还是西边户好？原来很多人都选错了",
        "docid": "J2POL9K7055643RB",
        "url": "https://www.163.com/dy/article/J2POL9K7055643RB.html"
    },
    {
        "title": "老公正式退休了，他说等七月份结完利息就把住房公积金提出来。",
        "docid": "J2EK87SR0553EANU",
        "url": "https://www.163.com/dy/article/J2EK87SR0553EANU.html"
    },
    {
        "title": "房贷利率下调，该拿多少钱买房？ ",
        "docid": "VW1FH4DRL",
        "url": "https://www.163.com/dy/article/VW1FH4DRL.html"
    },
    {
        "title": "花520万在武汉黄金地段买的商铺，五年无人租，房东每天以泪洗面",
        "docid": "VY1DMH034",
        "url": "https://www.163.com/dy/article/VY1DMH034.html"
    },
    {
        "title": "专家称：十年后房子不可能卖白菜价",
        "docid": "VH1PF573F",
        "url": "https://www.163.com/dy/article/VH1PF573F.html"
    },
    {
        "title": "7万人弃城而去，别墅变成白菜价，低至10万一套，依然无人问津！",
        "docid": "VN1BTBL8A",
        "url": "https://www.163.com/dy/article/VN1BTBL8A.html"
    },
    {
        "title": "史诗级刺激，房地产再次起飞？普通人该如何面对这一次的救市？",
        "docid": "J2RNVUTA05565QKR",
        "url": "https://www.163.com/dy/article/J2RNVUTA05565QKR.html"
    },
    {
        "title": "西安、沈阳等城市房价哪个更适合年轻人呢？",
        "docid": "J2QBJESF0535JMSP",
        "url": "https://www.163.com/dy/article/J2QBJESF0535JMSP.html"
    },
    {
        "title": "房产税，向无房者征收房产税",
        "docid": "J2NDJR260553TB9L",
        "url": "https://www.163.com/dy/article/J2NDJR260553TB9L.html"
    },
    {
        "title": "一个人带火了一座城，房产还升值了200万，连车票都买不到了！",
        "docid": "VY1F1MNGD",
        "url": "https://www.163.com/dy/article/VY1F1MNGD.html"
    },
    {
        "title": "房产又出新政策，5月1日实施",
        "docid": "VR1TQLSFD",
        "url": "https://www.163.com/dy/article/VR1TQLSFD.html"
    },
    {
        "title": "房地产“史诗级”救市，该买房还是卖房？ ",
        "docid": "VW1SQBKQR",
        "url": "https://www.163.com/dy/article/VW1SQBKQR.html"
    },
    {
        "title": "准备在村里盖楼的农民注意了，建房有新规，如果不遵守将被罚款",
        "docid": "VN1P6V1QL",
        "url": "https://www.163.com/dy/article/VN1P6V1QL.html"
    },
    {
        "title": "十年后房子卖白菜价？专家：不可能，房地产市场走势复杂多变",
        "docid": "VC1NJ50GK",
        "url": "https://www.163.com/dy/article/VC1NJ50GK.html"
    },
    {
        "title": "重磅！取消离婚限购后，北京再出房贷新政",
        "docid": "VK1MV2Q7U",
        "url": "https://www.163.com/dy/article/VK1MV2Q7U.html"
    },
    {
        "title": "建投春城華府约120-143㎡新品",
        "docid": "VV1Q68AAD",
        "url": "https://www.163.com/dy/article/VV1Q68AAD.html"
    },
    {
        "title": "看到一个网友的房贷月供，我惊呆了！月供18693元，看得我腿发软",
        "docid": "J2RGCK5S0553EANU",
        "url": "https://www.163.com/dy/article/J2RGCK5S0553EANU.html"
    },
    {
        "title": "金碧大宅（第一季）：金碧辉煌欧式大宅，10年前装修花了600万",
        "docid": "VF1FJCCKT",
        "url": "https://www.163.com/dy/article/VF1FJCCKT.html"
    },
    {
        "title": "4楼、8楼、14楼、18楼不能买？错！真正不能买的是这4个楼层",
        "docid": "VP1NOOJ05",
        "url": "https://www.163.com/dy/article/VP1NOOJ05.html"
    },
    {
        "title": "前四月卖地收入降超万亿，哪些房企还在圈地？1-4月房企拿地排名",
        "docid": "VQ1PQOADR",
        "url": "https://www.163.com/dy/article/VQ1PQOADR.html"
    },
    {
        "title": "房价暴跌之后，一位买了35套房的资深炒房客说了三段话，太现实了",
        "docid": "VF1P24Q0R",
        "url": "https://www.163.com/dy/article/VF1P24Q0R.html"
    },
    {
        "title": "风向变了！住建局出手，允许房价下降！炒房客急了",
        "docid": "VM1S4PT0B",
        "url": "https://www.163.com/dy/article/VM1S4PT0B.html"
    },
    {
        "title": "《今日长三角》节目第663期中港西湖院子  母亲节做售楼预热活动",
        "docid": "VF1PUNQP1",
        "url": "https://www.163.com/dy/article/VF1PUNQP1.html"
    },
    {
        "title": "花200万买了50层顶楼，每天就像住在天上，腾云驾雾，肠子悔青了",
        "docid": "VY1CAJ8AI",
        "url": "https://www.163.com/dy/article/VY1CAJ8AI.html"
    },
    {
        "title": "武汉有银行开始执行：首套首付15% 首套房贷利率由3.55%降至3.25%",
        "docid": "VS1PMC7IT",
        "url": "https://www.163.com/dy/article/VS1PMC7IT.html"
    },
    {
        "title": "一辈子的血汗钱买套房子，怎么说没钱干活了呢？",
        "docid": "VL1QLJ1E8",
        "url": "https://www.163.com/dy/article/VL1QLJ1E8.html"
    },
    {
        "title": "第1451天：117平的院子",
        "docid": "J2E29QEA0552A7F3",
        "url": "https://www.163.com/dy/article/J2E29QEA0552A7F3.html"
    },
    {
        "title": "签了一个字，男子房子差点儿成了别人的，还收到无数账单",
        "docid": "J2RRUOU40552JRS3",
        "url": "https://www.163.com/dy/article/J2RRUOU40552JRS3.html"
    },
    {
        "title": "南山蛇口一手住宅，单价6字头起带精装修 ",
        "docid": "VI1FS6UM4",
        "url": "https://www.163.com/dy/article/VI1FS6UM4.html"
    },
    {
        "title": "全款购房机会增多，投资者如何玩转“老破小”新玩法？",
        "docid": "VF1SPSPMC",
        "url": "https://www.163.com/dy/article/VF1SPSPMC.html"
    },
    {
        "title": "一村委会承包土地，到期后不返还！租期被涂改，村民利益任人拿捏",
        "docid": "VM1SS75RE",
        "url": "https://www.163.com/dy/article/VM1SS75RE.html"
    },
    {
        "title": "如果你是刚需买房，一定要记住这五不买！",
        "docid": "VC1Q3UA22",
        "url": "https://www.163.com/dy/article/VC1Q3UA22.html"
    },
    {
        "title": "青城山200平花园打造成这样真的太漂亮了！房东转让只为环游世界",
        "docid": "VW1T2OOBB",
        "url": "https://www.163.com/dy/article/VW1T2OOBB.html"
    },
    {
        "title": "可怜天下父母心，70多岁的父母卖房，为了孩子；百日百房第82条；",
        "docid": "VA1DR15J1",
        "url": "https://www.163.com/dy/article/VA1DR15J1.html"
    },
    {
        "title": "物业公司掌握的属于业主的资金有哪些？",
        "docid": "VU1HJV4QG",
        "url": "https://www.163.com/dy/article/VU1HJV4QG.html"
    },
    {
        "title": "房价未来五年走势探析：贵如黄金还是便宜如葱",
        "docid": "VF1IVP44S",
        "url": "https://www.163.com/dy/article/VF1IVP44S.html"
    },
    {
        "title": "遇到个神仙房东是一种什么体验？网友：一句话让房东为我买房子",
        "docid": "J2RSQ3LT05561WOO",
        "url": "https://www.163.com/dy/article/J2RSQ3LT05561WOO.html"
    },
    {
        "title": "多城楼市新政接连“落地” 带看量、成交量均提升",
        "docid": "J2RSRUBK053469LG",
        "url": "https://www.163.com/dy/article/J2RSRUBK053469LG.html"
    },
    {
        "title": "房地产的终极杀招——“兜底”！",
        "docid": "J2RTAVGH0519DKT1",
        "url": "https://www.163.com/dy/article/J2RTAVGH0519DKT1.html"
    },
    {
        "title": "买房万万不要买这一层，不是封建迷信，有一定科学根据的！",
        "docid": "J2RM8C5B0553TB9L",
        "url": "https://www.163.com/dy/article/J2RM8C5B0553TB9L.html"
    },
    {
        "title": "大爷谈年轻人贷款买房，“房子是别人的 生活是自己的”，“幸福与否 不在于有没有房”",
        "docid": "VF1D69D34",
        "url": "https://www.163.com/dy/article/VF1D69D34.html"
    },
    {
        "title": "县城的房子为何那么坚挺",
        "docid": "VS1QJ57NT",
        "url": "https://www.163.com/dy/article/VS1QJ57NT.html"
    },
    {
        "title": "什么是房地产硬着陆和软着陆？#伊朗总统遇难 #房地产新政策",
        "docid": "VQ1PVH7NO",
        "url": "https://www.163.com/dy/article/VQ1PVH7NO.html"
    },
    {
        "title": "这才是国人理想住宅，一百年不过时",
        "docid": "VS1GJ2HAU",
        "url": "https://www.163.com/dy/article/VS1GJ2HAU.html"
    },
    {
        "title": "走进武汉第一高楼“武汉绿地中心”！",
        "docid": "VS1O6GR4J",
        "url": "https://www.163.com/dy/article/VS1O6GR4J.html"
    },
    {
        "title": "越南网友热议新疆别墅，越南网友：这些别墅又大又漂亮",
        "docid": "VD1LG12LV",
        "url": "https://www.163.com/dy/article/VD1LG12LV.html"
    },
    {
        "title": "美国大部分房子每年要交5000—2万美元房产税，乡镇房子3000-8000",
        "docid": "J2E8ESIS05566UP9",
        "url": "https://www.163.com/dy/article/J2E8ESIS05566UP9.html"
    },
    {
        "title": "54万买的房，收了他8年房租，最后卖了114万，问：该买房还是租房",
        "docid": "J2RT70LJ055640VF",
        "url": "https://www.163.com/dy/article/J2RT70LJ055640VF.html"
    },
    {
        "title": "51.9万亿美元美国楼房跳水！日本房价也跌了。美联储高息美梦破灭",
        "docid": "J2RTB65S05198EUG",
        "url": "https://www.163.com/dy/article/J2RTB65S05198EUG.html"
    },
    {
        "title": "这座城市，未来会暴涨吗？",
        "docid": "J2RVBHMM055614NP",
        "url": "https://www.163.com/dy/article/J2RVBHMM055614NP.html"
    },
    {
        "title": "为什么武汉的超高层住宅这么多？",
        "docid": "J2RNSQ9U0553TB8M",
        "url": "https://www.163.com/dy/article/J2RNSQ9U0553TB8M.html"
    },
    {
        "title": "房产中介说漏嘴，打算买房的人牢记7个字：买旧、买低、不买三",
        "docid": "J2CQ5REK05536P04",
        "url": "https://www.163.com/dy/article/J2CQ5REK05536P04.html"
    },
    {
        "title": "大量实体店倒闭，很多人都以为是高房租导致的，其实都搞错了",
        "docid": "J2ROCR1H0553TDTY",
        "url": "https://www.163.com/dy/article/J2ROCR1H0553TDTY.html"
    },
    {
        "title": "政策密集“上新” 多地楼市活跃度渐升",
        "docid": "J2RUER930539AP40",
        "url": "https://www.163.com/dy/article/J2RUER930539AP40.html"
    },
    {
        "title": "很多地产销讲，都不及格",
        "docid": "J2RUV4880553TDTY",
        "url": "https://www.163.com/dy/article/J2RUV4880553TDTY.html"
    },
    {
        "title": "房价走势大揭秘：上涨or下跌？大数据告诉你答案！",
        "docid": "VX1U2O43V",
        "url": "https://www.163.com/dy/article/VX1U2O43V.html"
    },
    {
        "title": "有一种痛苦叫买了“老破小”，卖不掉又不想住，彻底沦为不动产！",
        "docid": "J2CQDMJT05536P04",
        "url": "https://www.163.com/dy/article/J2CQDMJT05536P04.html"
    },
    {
        "title": "刺激不断，房价会涨吗？",
        "docid": "J2RURA8E05358KE1",
        "url": "https://www.163.com/dy/article/J2RURA8E05358KE1.html"
    },
    {
        "title": "房地产新政本质是救债务端，这关乎中美博弈走势",
        "docid": "J2S0LN1N051481US",
        "url": "https://www.163.com/dy/article/J2S0LN1N051481US.html"
    },
    {
        "title": "真正的奢华从来不是纸上谈兵，这样的户型太少见了",
        "docid": "J2ROU4580553TDVP",
        "url": "https://www.163.com/dy/article/J2ROU4580553TDVP.html"
    },
    {
        "title": "地产二代接班的企业怎么样了",
        "docid": "J2RUKALR0553YQBK",
        "url": "https://www.163.com/dy/article/J2RUKALR0553YQBK.html"
    },
    {
        "title": "首付大降，王炸中的王炸！你的“安居梦”离现实又近了一步？",
        "docid": "J2D90A1C055672WF",
        "url": "https://www.163.com/dy/article/J2D90A1C055672WF.html"
    },
    {
        "title": "中国最大的小区，人口堪比欧洲小国，外卖小哥：不要再逼我了",
        "docid": "J2RNQ10E0553TEQM",
        "url": "https://www.163.com/dy/article/J2RNQ10E0553TEQM.html"
    },
    {
        "title": "这应该是这个定位第一个视频",
        "docid": "VO1U6K52D",
        "url": "https://www.163.com/dy/article/VO1U6K52D.html"
    },
    {
        "title": "靠着山，沿着路，一套房子的故事开始了",
        "docid": "VU1FEDU72",
        "url": "https://www.163.com/dy/article/VU1FEDU72.html"
    },
    {
        "title": "古色古香的徽派小别墅，实景现房，人在济南，胜似江南",
        "docid": "VR1GJVO6C",
        "url": "https://www.163.com/dy/article/VR1GJVO6C.html"
    },
    {
        "title": "196平米的豪华户型，细节确实有格调",
        "docid": "J2RMM7UG0552F71X",
        "url": "https://www.163.com/dy/article/J2RMM7UG0552F71X.html"
    },
    {
        "title": "首付15%，6.7倍高杠杆下，这10种房子不要买！",
        "docid": "J2S318PO05567Q0C",
        "url": "https://www.163.com/dy/article/J2S318PO05567Q0C.html"
    },
    {
        "title": "528平米的“空中四合院”，一层一户双庭院的绝版大宅",
        "docid": "J2EQLFKK0553TB9L",
        "url": "https://www.163.com/dy/article/J2EQLFKK0553TB9L.html"
    },
    {
        "title": "中信证券：相比2008年，今天的地产政策有何异同",
        "docid": "J2S1JP330539AP40",
        "url": "https://www.163.com/dy/article/J2S1JP330539AP40.html"
    },
    {
        "title": "从我知道的三件事，就知道为什么要救房地产",
        "docid": "J2ERECJJ0552F71X",
        "url": "https://www.163.com/dy/article/J2ERECJJ0552F71X.html"
    },
    {
        "title": "房产证上“一字之差”，同一小区，你的房子却没有别人的值钱",
        "docid": "J2ROIVUU0552F71X",
        "url": "https://www.163.com/dy/article/J2ROIVUU0552F71X.html"
    },
    {
        "title": "工人日报：政策加减法为楼市注入“活水”",
        "docid": "J2S308CR053469LG",
        "url": "https://www.163.com/dy/article/J2S308CR053469LG.html"
    },
    {
        "title": "全国新政后的第一周；华发海上都荟真实成交数据，大家进来聊一聊",
        "docid": "J2QDHU980556757N",
        "url": "https://www.163.com/dy/article/J2QDHU980556757N.html"
    },
    {
        "title": "设立保障性住房再贷款 对去库存能起怎样的作用",
        "docid": "VA1GNGUV7",
        "url": "https://www.163.com/dy/article/VA1GNGUV7.html"
    },
    {
        "title": "家里连续七天无人居住，一定要注意这四点",
        "docid": "VJ1U6T2KE",
        "url": "https://www.163.com/dy/article/VJ1U6T2KE.html"
    },
    {
        "title": "十年以上的老房子，要被淘汰了！",
        "docid": "J2S0MI8U0552HI5G",
        "url": "https://www.163.com/dy/article/J2S0MI8U0552HI5G.html"
    },
    {
        "title": "同事过年回老家待了一个月，回来说总结出了两件事儿……",
        "docid": "J2S4K8TF0535FFBB",
        "url": "https://www.163.com/dy/article/J2S4K8TF0535FFBB.html"
    },
    {
        "title": "LPR减60bps，是地产的关键？",
        "docid": "J2R3FCCB05198NMR",
        "url": "https://www.163.com/dy/article/J2R3FCCB05198NMR.html"
    },
    {
        "title": "地产人进国央企，必备资料包（资料领取）",
        "docid": "J2RUSMGV05158B67",
        "url": "https://www.163.com/dy/article/J2RUSMGV05158B67.html"
    },
    {
        "title": "国家队下场收房，能盘活楼市吗？",
        "docid": "VW1U6B1EL",
        "url": "https://www.163.com/dy/article/VW1U6B1EL.html"
    },
    {
        "title": "为什么泰国普通人都会选择住别墅而不是公寓？",
        "docid": "VP1FIJR9L",
        "url": "https://www.163.com/dy/article/VP1FIJR9L.html"
    },
    {
        "title": "北上广深放松限购产生虹吸效应怎么办  任泽平  泽平宏观",
        "docid": "VD1UAMLNM",
        "url": "https://www.163.com/dy/article/VD1UAMLNM.html"
    },
    {
        "title": "烟台2024年一季度成绩单：莱阳增量最少，招远海阳栖霞大涨",
        "docid": "VF1U4I01B",
        "url": "https://www.163.com/dy/article/VF1U4I01B.html"
    },
    {
        "title": "【中国房地产史②】P2 涨租卖房！人民日报：买房如夜空摘星！",
        "docid": "VI1PEQADP",
        "url": "https://www.163.com/dy/article/VI1PEQADP.html"
    },
    {
        "title": "中国人去日本买房被骗6亿的后续来了",
        "docid": "VL1GN1CDF",
        "url": "https://www.163.com/dy/article/VL1GN1CDF.html"
    },
    {
        "title": "地产板块集体“回血” 不少基金经理踏空",
        "docid": "J2S5T44F0553TEQM",
        "url": "https://www.163.com/dy/article/J2S5T44F0553TEQM.html"
    },
    {
        "title": "房地产新政刺激楼市活跃度明显上升，网友为何吐槽这是饮鸩止渴？",
        "docid": "J2S1E6E7055620P1",
        "url": "https://www.163.com/dy/article/J2S1E6E7055620P1.html"
    },
    {
        "title": "房价首付15%，35岁农村单身小伙一语道破大众心声",
        "docid": "J2LDN1KI0525D145",
        "url": "https://www.163.com/dy/article/J2LDN1KI0525D145.html"
    },
    {
        "title": "规律并不那么规律：房地产周期决定不了楼市",
        "docid": "J2RU8EHO05538DP3",
        "url": "https://www.163.com/dy/article/J2RU8EHO05538DP3.html"
    },
    {
        "title": "越是暴雷房企，人才晋升速度越快",
        "docid": "J2S09BLR05566IIT",
        "url": "https://www.163.com/dy/article/J2S09BLR05566IIT.html"
    },
    {
        "title": "想把房子留给子女，选继承、赠与？还是买卖呢",
        "docid": "VX1H36MRJ",
        "url": "https://www.163.com/dy/article/VX1H36MRJ.html"
    },
    {
        "title": "房地产板块低开，渝开发低开超7%",
        "docid": "VD1UC21V4",
        "url": "https://www.163.com/dy/article/VD1UC21V4.html"
    },
    {
        "title": "房价跌的有多惨？一夜之间损失105万，还好卖出去了！",
        "docid": "VP1G6OL9U",
        "url": "https://www.163.com/dy/article/VP1G6OL9U.html"
    },
    {
        "title": "成都房产市场现高性价比精装全配好房，今日优质房源拎包入住",
        "docid": "VI1U5VR69",
        "url": "https://www.163.com/dy/article/VI1U5VR69.html"
    },
    {
        "title": "中国房价不能再下跌了，下跌要比上涨痛苦百倍",
        "docid": "VY1UAH962",
        "url": "https://www.163.com/dy/article/VY1UAH962.html"
    },
    {
        "title": "救市救了两年，只有这次超预期！",
        "docid": "J2F4MS8E0552HI5G",
        "url": "https://www.163.com/dy/article/J2F4MS8E0552HI5G.html"
    },
    {
        "title": "地产项目安全管理，一定要提前做！（资料领取）",
        "docid": "J2F6PCT605158B67",
        "url": "https://www.163.com/dy/article/J2F6PCT605158B67.html"
    },
    {
        "title": "中信证券：关注核心城市土储高、融资畅通及开发能力强的房企",
        "docid": "J2S2F17T0519D45U",
        "url": "https://www.163.com/dy/article/J2S2F17T0519D45U.html"
    },
    {
        "title": "再见房地产时代，30年后二手房将会是最大的痛，买房养老还行得通吗？",
        "docid": "VF1H7REQ7",
        "url": "https://www.163.com/dy/article/VF1H7REQ7.html"
    },
    {
        "title": "有一种痛苦叫婚房买了套loft，卖不出不想住，彻底套牢在手里",
        "docid": "VP1UBN9FI",
        "url": "https://www.163.com/dy/article/VP1UBN9FI.html"
    },
    {
        "title": "1号18号双地铁口，旁边和悦广场，天府大道旁边",
        "docid": "VC1GEULK3",
        "url": "https://www.163.com/dy/article/VC1GEULK3.html"
    },
    {
        "title": "老旧小区加装电梯后，6楼住户却肠子悔青，花钱买了三个大麻烦",
        "docid": "VR1U6C6BB",
        "url": "https://www.163.com/dy/article/VR1U6C6BB.html"
    },
    {
        "title": "老旧小区加装电梯后，6楼住户却肠子悔青，花钱买了三个大麻烦",
        "docid": "VF1U6CBK6",
        "url": "https://www.163.com/dy/article/VF1U6CBK6.html"
    },
    {
        "title": "政府下场收购过剩房产，本轮去库存能复刻2016年的荣光吗？",
        "docid": "VY1U5H0BO",
        "url": "https://www.163.com/dy/article/VY1U5H0BO.html"
    },
    {
        "title": "在未来40%的家庭将会面临低价出售房产，刚需房需求者会怎么选择",
        "docid": "VR1U0JS9O",
        "url": "https://www.163.com/dy/article/VR1U0JS9O.html"
    },
    {
        "title": "地产接连迎来利好，行业面临革新",
        "docid": "J2S7R1G405566W67",
        "url": "https://www.163.com/dy/article/J2S7R1G405566W67.html"
    },
    {
        "title": "武汉硚口区：全面推进住房以旧换新，支持区平台公司收购二手住房",
        "docid": "J2SALG6C0514R9P4",
        "url": "https://www.163.com/dy/article/J2SALG6C0514R9P4.html"
    },
    {
        "title": "社会阶层是按什么划分的？你在哪一层",
        "docid": "J2F9P10T0535FFBB",
        "url": "https://www.163.com/dy/article/J2F9P10T0535FFBB.html"
    },
    {
        "title": "地产上涨结束了吗？前几波反抽都是怎么走的？",
        "docid": "J2S88JGD0539QL23",
        "url": "https://www.163.com/dy/article/J2S88JGD0539QL23.html"
    },
    {
        "title": "机构扎堆调研房企 券商密集发布研报 楼市“组合拳”点燃市场热情",
        "docid": "J2S8N4260519DDQ2",
        "url": "https://www.163.com/dy/article/J2S8N4260519DDQ2.html"
    },
    {
        "title": "中国银河证券：随着政策力度不断加大楼市整体去化压力或可缓解  快报",
        "docid": "VP1RRI1IT",
        "url": "https://www.163.com/dy/article/VP1RRI1IT.html"
    },
    {
        "title": "终于狠心把房子卖了，价格难以接受，真是血亏啊，到现在心还在疼",
        "docid": "VY1HET526",
        "url": "https://www.163.com/dy/article/VY1HET526.html"
    },
    {
        "title": "贷款买的490万的房子被法拍120万，还倒欠银行几十万，无可奈何！",
        "docid": "VY1UFN46J",
        "url": "https://www.163.com/dy/article/VY1UFN46J.html"
    },
    {
        "title": "化解房地产危机要3-4万亿？国际知名投行：中国不会重蹈日本覆辙",
        "docid": "VE1UE4N35",
        "url": "https://www.163.com/dy/article/VE1UE4N35.html"
    },
    {
        "title": "土地流转与土地转让：重要差别解析",
        "docid": "VW1U5AH2R",
        "url": "https://www.163.com/dy/article/VW1U5AH2R.html"
    },
    {
        "title": "政策利好接踵而至，华发股份蓄势待发",
        "docid": "J2S923MR05198R91",
        "url": "https://www.163.com/dy/article/J2S923MR05198R91.html"
    },
    {
        "title": "房地产新政立竿见影！多地楼市活跃度稳步提升",
        "docid": "J2S84ATS0512B07B",
        "url": "https://www.163.com/dy/article/J2S84ATS0512B07B.html"
    },
    {
        "title": "房地产不起政策不休？机构称3000亿再贷款或只是开始",
        "docid": "J2S69NQ70512B07B",
        "url": "https://www.163.com/dy/article/J2S69NQ70512B07B.html"
    },
    {
        "title": "虹口源717备案价每平米13.8万，债权人的曙光和购房人的希望",
        "docid": "J2S8K4IU0553EPN8",
        "url": "https://www.163.com/dy/article/J2S8K4IU0553EPN8.html"
    },
    {
        "title": "物业公司各版块专业培训大全（拿来即用版）-PPT压缩包-22个文件",
        "docid": "J2SA202V055615MY",
        "url": "https://www.163.com/dy/article/J2SA202V055615MY.html"
    },
    {
        "title": "首付下调至15%！你会出手购房吗？",
        "docid": "J2SA9I3A05352LE9",
        "url": "https://www.163.com/dy/article/J2SA9I3A05352LE9.html"
    },
    {
        "title": "别墅装修的精髓：下沉式庭院！200m²环绕式花园，简美装修有韵味",
        "docid": "VB1DUI7A6",
        "url": "https://www.163.com/dy/article/VB1DUI7A6.html"
    },
    {
        "title": "老旧小区加装电梯后，6楼住户却肠子悔青，花钱买了三个大麻烦",
        "docid": "VC1U8A86G",
        "url": "https://www.163.com/dy/article/VC1U8A86G.html"
    },
    {
        "title": "楼市什么时候才能回暖？蒋老师给出精准预测，就在明年这几个月！",
        "docid": "VB1UC274K",
        "url": "https://www.163.com/dy/article/VB1UC274K.html"
    },
    {
        "title": "见识一下富豪的家，这才是有钱人的标配！承认此刻是羡慕了",
        "docid": "VN1U35NST",
        "url": "https://www.163.com/dy/article/VN1U35NST.html"
    },
    {
        "title": "两个180多平米的户型，都配置6个卧室，哪个好呢？",
        "docid": "J2S952M20553TDVP",
        "url": "https://www.163.com/dy/article/J2S952M20553TDVP.html"
    },
    {
        "title": "青山22街坊地块项目效果图出炉！",
        "docid": "J2SCL5GS0534SV3Y",
        "url": "https://www.163.com/dy/article/J2SCL5GS0534SV3Y.html"
    },
    {
        "title": "有人算了一笔账，如果100万的房子，以前公积金首付20%，需要20万",
        "docid": "J2EJOELR0553EANU",
        "url": "https://www.163.com/dy/article/J2EJOELR0553EANU.html"
    },
    {
        "title": "光谷关山口这一小区物业费下调？",
        "docid": "J2SCLHC40534SV3Y",
        "url": "https://www.163.com/dy/article/J2SCLHC40534SV3Y.html"
    },
    {
        "title": "汇丰“语出惊人”：最快2025年，中国房地产市场面临供应短缺！",
        "docid": "J2SBAEBU05198NMR",
        "url": "https://www.163.com/dy/article/J2SBAEBU05198NMR.html"
    },
    {
        "title": "无地下室、无人车分流的别墅，未来会淘汰吗？",
        "docid": "J2N1U3750535WDMF",
        "url": "https://www.163.com/dy/article/J2N1U3750535WDMF.html"
    },
    {
        "title": "关于房地产的猜想可以告一段落了",
        "docid": "J2SBLHL90514BE2Q",
        "url": "https://www.163.com/dy/article/J2SBLHL90514BE2Q.html"
    },
    {
        "title": "190万的房子只花50万全款买下，没想到最后却中了开发商的圈套！",
        "docid": "VY1UHE0IU",
        "url": "https://www.163.com/dy/article/VY1UHE0IU.html"
    },
    {
        "title": "买了这六个楼层都后悔了",
        "docid": "VZ1UJKA9E",
        "url": "https://www.163.com/dy/article/VZ1UJKA9E.html"
    },
    {
        "title": "现在该怎么办？ 原本建房时没有“它”这个建筑的！把一层建好后正准备回家完善，现在该怎么办？",
        "docid": "VG1H5MO00",
        "url": "https://www.163.com/dy/article/VG1H5MO00.html"
    },
    {
        "title": "不是不爱大平层，而是五环叠拼更有性价比",
        "docid": "J2SA13EQ0515ABIB",
        "url": "https://www.163.com/dy/article/J2SA13EQ0515ABIB.html"
    },
    {
        "title": "天星金融响应政策号召，全面普及购房贷款知识",
        "docid": "J2SCH6LV0530MV8T",
        "url": "https://www.163.com/dy/article/J2SCH6LV0530MV8T.html"
    },
    {
        "title": "比15%更低，你们敢相信吗？",
        "docid": "VO1UIJFAT",
        "url": "https://www.163.com/dy/article/VO1UIJFAT.html"
    },
    {
        "title": "租房时遇到二房东，你就等着吃亏吧！",
        "docid": "VN1UKFJ66",
        "url": "https://www.163.com/dy/article/VN1UKFJ66.html"
    },
    {
        "title": "7组数据对比，揭示当下楼市真相",
        "docid": "VG1FKTJMP",
        "url": "https://www.163.com/dy/article/VG1FKTJMP.html"
    },
    {
        "title": "楼市大转折：新一轮房地产周期已经启动，一线城市迎来久违的火爆",
        "docid": "VY1UK6R0H",
        "url": "https://www.163.com/dy/article/VY1UK6R0H.html"
    },
    {
        "title": "揭秘！商品房预售资金真的“蒸发”了吗？真相竟然是这样！",
        "docid": "VX1QMJ4I6",
        "url": "https://www.163.com/dy/article/VX1QMJ4I6.html"
    },
    {
        "title": "为什么名人住过的房子会升值？",
        "docid": "VB1UHDOJP",
        "url": "https://www.163.com/dy/article/VB1UHDOJP.html"
    },
    {
        "title": "财经马管盛：楼市史诗级动作透视一 ",
        "docid": "VR1SNJA6V",
        "url": "https://www.163.com/dy/article/VR1SNJA6V.html"
    },
    {
        "title": "万达双塔旁130平，首付36万起，130-269奢装大平层",
        "docid": "VV1UFN7EH",
        "url": "https://www.163.com/dy/article/VV1UFN7EH.html"
    },
    {
        "title": "什么是“日本公寓的资产性原则”？",
        "docid": "J2SG4BNJ05566SC9",
        "url": "https://www.163.com/dy/article/J2SG4BNJ05566SC9.html"
    },
    {
        "title": "男子银行内放声大哭，买房贷款按时还了9年，还的却全是利息！",
        "docid": "J2SHP7H005418GBJ",
        "url": "https://www.163.com/dy/article/J2SHP7H005418GBJ.html"
    },
    {
        "title": "找厂房找仓库的10大注意事项",
        "docid": "J2SGFGCU0556842H",
        "url": "https://www.163.com/dy/article/J2SGFGCU0556842H.html"
    },
    {
        "title": "史诗级的大救市与泼天的富贵",
        "docid": "J2F6D1AT055620QQ",
        "url": "https://www.163.com/dy/article/J2F6D1AT055620QQ.html"
    },
    {
        "title": "政策利好，为什么老百姓还不买房？",
        "docid": "J2SH30SC05562SWQ",
        "url": "https://www.163.com/dy/article/J2SH30SC05562SWQ.html"
    },
    {
        "title": "2024年4月中国租赁住房品牌规模力月度排名",
        "docid": "J2SFT3LJ05530RXA",
        "url": "https://www.163.com/dy/article/J2SFT3LJ05530RXA.html"
    },
    {
        "title": "以下四种情况，户口不在村里，也能拿到土地赔偿款",
        "docid": "VK1SPUGIC",
        "url": "https://www.163.com/dy/article/VK1SPUGIC.html"
    },
    {
        "title": "专家：房地产的历史拐点又来了！出手还是不出手？",
        "docid": "VG1MMRL0T",
        "url": "https://www.163.com/dy/article/VG1MMRL0T.html"
    },
    {
        "title": "房子到底是租好还是买好？",
        "docid": "VI1UILEP2",
        "url": "https://www.163.com/dy/article/VI1UILEP2.html"
    },
    {
        "title": "新房市场“一枝独秀”，二手房市场面临挑战：楼市调控何去何从？",
        "docid": "VF1SPCOS2",
        "url": "https://www.163.com/dy/article/VF1SPCOS2.html"
    },
    {
        "title": "不买房就开除！扬州某央企通知：员工不买房的不给续签合同",
        "docid": "VI1UEDL68",
        "url": "https://www.163.com/dy/article/VI1UEDL68.html"
    },
    {
        "title": "超过多少年的房子，不建议买",
        "docid": "VZ1HMM4FC",
        "url": "https://www.163.com/dy/article/VZ1HMM4FC.html"
    },
    {
        "title": "我爸妈76万全款给我买的房，他们却",
        "docid": "VF1UGP44D",
        "url": "https://www.163.com/dy/article/VF1UGP44D.html"
    },
    {
        "title": "深度解析：房价下跌会影响富人还是穷人？",
        "docid": "VL1SO4N7M",
        "url": "https://www.163.com/dy/article/VL1SO4N7M.html"
    },
    {
        "title": "财经马管盛：楼市史诗级动作透视三",
        "docid": "VR1UKMOBA",
        "url": "https://www.163.com/dy/article/VR1UKMOBA.html"
    },
    {
        "title": "御龙半山龙晟苑约89-204㎡板式实景现房",
        "docid": "VV1UFPSHL",
        "url": "https://www.163.com/dy/article/VV1UFPSHL.html"
    },
    {
        "title": "普通人该如何面对这一次房改",
        "docid": "VS1UJCPEH",
        "url": "https://www.163.com/dy/article/VS1UJCPEH.html"
    },
    {
        "title": "房价能从50万涨到500万，难道就不能，从500万降回到50万吗？",
        "docid": "VP1UGTMQ8",
        "url": "https://www.163.com/dy/article/VP1UGTMQ8.html"
    },
    {
        "title": "绿地滇池国际健康城现房别墅",
        "docid": "VV1UGBH7N",
        "url": "https://www.163.com/dy/article/VV1UGBH7N.html"
    },
    {
        "title": "财经马管盛：楼市史诗级动作透视二",
        "docid": "VR1UE1K23",
        "url": "https://www.163.com/dy/article/VR1UE1K23.html"
    },
    {
        "title": "万科重磅！获得200亿银团贷款 已到账100亿",
        "docid": "J2SJIH0K0519DKDI",
        "url": "https://www.163.com/dy/article/J2SJIH0K0519DKDI.html"
    },
    {
        "title": "今年这行情，要不要买房？这几点建议，可以避坑和省下很多钱",
        "docid": "J2SJ594705567IYR",
        "url": "https://www.163.com/dy/article/J2SJ594705567IYR.html"
    },
    {
        "title": "楼市终极大招！史上最宽松政策来了",
        "docid": "J2SCUL360539SEFN",
        "url": "https://www.163.com/dy/article/J2SCUL360539SEFN.html"
    },
    {
        "title": "孟晓苏：国家征收房产税是早晚的事情，合情合理",
        "docid": "J2SFQM6H05566CTH",
        "url": "https://www.163.com/dy/article/J2SFQM6H05566CTH.html"
    },
    {
        "title": "“炫富”王红权星遭封禁，星河湾躺枪了",
        "docid": "J2SJFBAQ0553YQBK",
        "url": "https://www.163.com/dy/article/J2SJFBAQ0553YQBK.html"
    },
    {
        "title": "买房的首付你是怎么凑齐的, 网友: 首付32万, 借了31.8万",
        "docid": "J28AKRTL0540SN7V",
        "url": "https://www.163.com/dy/article/J28AKRTL0540SN7V.html"
    },
    {
        "title": "美联：香港撤辣未及3个月一手市场吸金超过840亿港元",
        "docid": "J2SI8E8S0519D45U",
        "url": "https://www.163.com/dy/article/J2SI8E8S0519D45U.html"
    },
    {
        "title": "房地产构筑新业态 不动产资管积极应变",
        "docid": "J2SLD7110519DDQ2",
        "url": "https://www.163.com/dy/article/J2SLD7110519DDQ2.html"
    },
    {
        "title": "机构扎堆调研房企，券商密集发布研报，楼市“组合拳”点燃市场热情",
        "docid": "J2S8ST680553TEQM",
        "url": "https://www.163.com/dy/article/J2S8ST680553TEQM.html"
    },
    {
        "title": "十年内首次！住建部呼吁落实“认房不认贷”，释放了什么信号？",
        "docid": "VC1PC769M",
        "url": "https://www.163.com/dy/article/VC1PC769M.html"
    },
    {
        "title": "5年后，房子是“贵如黄金”还是“便宜如葱”？",
        "docid": "J2RVMITO05566N4D",
        "url": "https://www.163.com/dy/article/J2RVMITO05566N4D.html"
    },
    {
        "title": "中海寰宇未来售楼处官方电话|看完这一篇,全方位了解中海寰宇未来",
        "docid": "J2SLR2OA055685G3",
        "url": "https://www.163.com/dy/article/J2SLR2OA055685G3.html"
    },
    {
        "title": "楼市大趋势已经确立，接下来就看每个城市的因城施策和微观调控了",
        "docid": "J2SJ3IVD05567IYR",
        "url": "https://www.163.com/dy/article/J2SJ3IVD05567IYR.html"
    },
    {
        "title": "又到关键时刻！买房最大秘诀是“听话”",
        "docid": "J2LQ2DP10530PH0C",
        "url": "https://www.163.com/dy/article/J2LQ2DP10530PH0C.html"
    },
    {
        "title": "武汉楼市跌落神坛，武汉房价环比下降1%,武汉楼市跌至15000元以下",
        "docid": "J2SM7VHC0535JMSP",
        "url": "https://www.163.com/dy/article/J2SM7VHC0535JMSP.html"
    },
    {
        "title": "还没有背上房贷的四种人！",
        "docid": "VN1H7CKIH",
        "url": "https://www.163.com/dy/article/VN1H7CKIH.html"
    },
    {
        "title": "史上最大的房地产行情已到，高杠杆重仓上海周边城市的房子（上）",
        "docid": "VD1UQKBGO",
        "url": "https://www.163.com/dy/article/VD1UQKBGO.html"
    },
    {
        "title": "地方政府收购房产！助长了资本的邪恶和嚣张！",
        "docid": "VY1UJEND7",
        "url": "https://www.163.com/dy/article/VY1UJEND7.html"
    },
    {
        "title": "买房乱像不断，返佣的你要谨慎！",
        "docid": "VA1UJ65T9",
        "url": "https://www.163.com/dy/article/VA1UJ65T9.html"
    },
    {
        "title": "1-4月房地产开发投资3.09万亿元，同比下降9.8%",
        "docid": "VE1S7NSLT",
        "url": "https://www.163.com/dy/article/VE1S7NSLT.html"
    },
    {
        "title": "让人意想不到，贬值最快的竟然不是房子，普通人怎么应对？",
        "docid": "J2SNE0990553SL3P",
        "url": "https://www.163.com/dy/article/J2SNE0990553SL3P.html"
    },
    {
        "title": "买房卖房是盯着价格买卖么",
        "docid": "J2SM1U3D05567IYR",
        "url": "https://www.163.com/dy/article/J2SM1U3D05567IYR.html"
    },
    {
        "title": "买涨不买跌！楼市真火了？",
        "docid": "J2SM3HEC05567IYR",
        "url": "https://www.163.com/dy/article/J2SM3HEC05567IYR.html"
    },
    {
        "title": "保利置业集团：终止2024年金融服务框架协议 关连交易将重新审视",
        "docid": "J2SICN4G05562SCF",
        "url": "https://www.163.com/dy/article/J2SICN4G05562SCF.html"
    },
    {
        "title": "毛坯房没法住？没关系，花2000元就能让你实现居住自由！",
        "docid": "J2F4CAO70532D0CK",
        "url": "https://www.163.com/dy/article/J2F4CAO70532D0CK.html"
    },
    {
        "title": "最近楼市热点五问五答（全是干货）",
        "docid": "J2SMDGO205567IYR",
        "url": "https://www.163.com/dy/article/J2SMDGO205567IYR.html"
    },
    {
        "title": "重启楼市 这次靠什么？",
        "docid": "J2SM6DMC05567IYR",
        "url": "https://www.163.com/dy/article/J2SM6DMC05567IYR.html"
    },
    {
        "title": "万科A转涨，此前一度跌超3%",
        "docid": "J2SKHNEO0534A4SC",
        "url": "https://www.163.com/dy/article/J2SKHNEO0534A4SC.html"
    },
    {
        "title": "港铁欧阳伯权：楼市已经开始回暖但未来仍要保持审慎理财  快报",
        "docid": "VP1SB0KR8",
        "url": "https://www.163.com/dy/article/VP1SB0KR8.html"
    },
    {
        "title": "胡教授葬礼，无一黑人到场参加！",
        "docid": "VJ1HVANEH",
        "url": "https://www.163.com/dy/article/VJ1HVANEH.html"
    },
    {
        "title": "事关保交房！一图读懂政策要点",
        "docid": "J2FKPDMM0530QRMB",
        "url": "https://www.163.com/dy/article/J2FKPDMM0530QRMB.html"
    },
    {
        "title": "7.86公顷！光谷这块用地有调整！",
        "docid": "J2SQJ7FG0545DG4X",
        "url": "https://www.163.com/dy/article/J2SQJ7FG0545DG4X.html"
    },
    {
        "title": "炒房人绝望了！房价明明还在涨，为啥二手房卖不掉？看完涨知识！",
        "docid": "J2ESGK8J0552F71X",
        "url": "https://www.163.com/dy/article/J2ESGK8J0552F71X.html"
    },
    {
        "title": "首付比下调至15%，真的是最大的诚意吗？",
        "docid": "J2SNURR10552257Z",
        "url": "https://www.163.com/dy/article/J2SNURR10552257Z.html"
    },
    {
        "title": "在降房价和涨工资之间，他们选择了降低首付！",
        "docid": "J2SJ745B05567IYR",
        "url": "https://www.163.com/dy/article/J2SJ745B05567IYR.html"
    },
    {
        "title": "武汉房价跌势凶猛，房东悔不当初硬炒房",
        "docid": "VF1UUO8U5",
        "url": "https://www.163.com/dy/article/VF1UUO8U5.html"
    },
    {
        "title": "二手房市场风云变幻，房价下滑趋势明显#抖音房产",
        "docid": "VF1UUD14U",
        "url": "https://www.163.com/dy/article/VF1UUD14U.html"
    },
    {
        "title": "五年以后3类房子将会一文不值，很多人还不知道，内行人开始抛售",
        "docid": "VI1U4DSER",
        "url": "https://www.163.com/dy/article/VI1U4DSER.html"
    },
    {
        "title": "现在卖房子是聪明还是愚蠢？",
        "docid": "VJ1SNGDP3",
        "url": "https://www.163.com/dy/article/VJ1SNGDP3.html"
    },
    {
        "title": "最高院：买房付全款没过户，没这样做，诉讼确权法院也不支持！",
        "docid": "VU1UPKSDB",
        "url": "https://www.163.com/dy/article/VU1UPKSDB.html"
    },
    {
        "title": "又一家互联网大厂退地，或将损失3.1亿！",
        "docid": "J2SQEBML0535AS5L",
        "url": "https://www.163.com/dy/article/J2SQEBML0535AS5L.html"
    },
    {
        "title": "选这层才是“黄金楼层”！有钱人抢着付定金！",
        "docid": "J28ARQKV0540SN7V",
        "url": "https://www.163.com/dy/article/J28ARQKV0540SN7V.html"
    },
    {
        "title": "帝奥电梯：创新驱动，服务城市化进程",
        "docid": "J2SQEDV2055660FC",
        "url": "https://www.163.com/dy/article/J2SQEDV2055660FC.html"
    },
    {
        "title": "广宇集团(002133.SZ)：截至2023年末，物业在管面积逾200万平方米，服务近1.2万户家庭",
        "docid": "J2SQPASC05198ETO",
        "url": "https://www.163.com/dy/article/J2SQPASC05198ETO.html"
    },
    {
        "title": "再过5年，国内最贵的不再是房子、车子，说是这4样不起眼的东西？",
        "docid": "J2SI7CSO0519GBC0",
        "url": "https://www.163.com/dy/article/J2SI7CSO0519GBC0.html"
    },
    {
        "title": "空置房不需要交物业费？今年起，新规下，物业费一律这样交！",
        "docid": "J2DT1L2L0535BC2F",
        "url": "https://www.163.com/dy/article/J2DT1L2L0535BC2F.html"
    },
    {
        "title": "史上最强地产新政后，地产股到了击球区了吗",
        "docid": "VP1UJ7033",
        "url": "https://www.163.com/dy/article/VP1UJ7033.html"
    },
    {
        "title": "租了十年的租客终于退房了，家政的我一进门还是吓到了",
        "docid": "VZ1UQQCEA",
        "url": "https://www.163.com/dy/article/VZ1UQQCEA.html"
    },
    {
        "title": "多城首套房首付比例降至15%  专家称市场见底企稳已经可以预期",
        "docid": "VZ1SDC7US",
        "url": "https://www.163.com/dy/article/VZ1SDC7US.html"
    },
    {
        "title": "让人意想不到，贬值最快的竟然不是房子，普通人怎么应对？",
        "docid": "VV1USQUDC",
        "url": "https://www.163.com/dy/article/VV1USQUDC.html"
    },
    {
        "title": "“国家队”出手救楼市，“转向”任重而道远",
        "docid": "J2SS8CLU0519T7HP",
        "url": "https://www.163.com/dy/article/J2SS8CLU0519T7HP.html"
    },
    {
        "title": "轩轩说房丨提振存量房消费 促进房地产市场复苏",
        "docid": "J2SSUAUT0514D3UH",
        "url": "https://www.163.com/dy/article/J2SSUAUT0514D3UH.html"
    },
    {
        "title": "楼市走到现在，出现一个严重误判，很害人",
        "docid": "J2SO5QAV05359WBS",
        "url": "https://www.163.com/dy/article/J2SO5QAV05359WBS.html"
    },
    {
        "title": "太难了！业内博主爆料：地产王炸下的长沙，新房单周跌破500…",
        "docid": "J2S8CUVQ05564S43",
        "url": "https://www.163.com/dy/article/J2S8CUVQ05564S43.html"
    },
    {
        "title": "15%首付！厦门武汉西安多城已执行",
        "docid": "J2SRIU470553TDTY",
        "url": "https://www.163.com/dy/article/J2SRIU470553TDTY.html"
    },
    {
        "title": "同居不说话，我决定搬出去找房子了",
        "docid": "VZ1UUH2GE",
        "url": "https://www.163.com/dy/article/VZ1UUH2GE.html"
    },
    {
        "title": "你以为100万的房子跌掉40%就是60万吗？",
        "docid": "VW1HVUIQN",
        "url": "https://www.163.com/dy/article/VW1HVUIQN.html"
    },
    {
        "title": "国企直接下场收购二手房，",
        "docid": "VM1UV5RI1",
        "url": "https://www.163.com/dy/article/VM1UV5RI1.html"
    },
    {
        "title": "房地产疯狂十年，留下了什么？",
        "docid": "VM1HO6ENG",
        "url": "https://www.163.com/dy/article/VM1HO6ENG.html"
    },
    {
        "title": "史上最大的房地产行情已到，高杠杆重仓上海周边城市的房子（中）",
        "docid": "VD1UQ68L1",
        "url": "https://www.163.com/dy/article/VD1UQ68L1.html"
    },
    {
        "title": "楼市周报丨房地产重磅政策频出 最新统计数据出炉",
        "docid": "J2SSOSS50514D3UH",
        "url": "https://www.163.com/dy/article/J2SSOSS50514D3UH.html"
    },
    {
        "title": "手把手教你选基金：万科反复上攻 地产ETF已涨31% 要回落了？",
        "docid": "J2STDB3B05356JLH",
        "url": "https://www.163.com/dy/article/J2STDB3B05356JLH.html"
    },
    {
        "title": "楼市新政168个小时：北京上海深圳楼盘“从早忙到晚”",
        "docid": "J2SMUF8D0539AP40",
        "url": "https://www.163.com/dy/article/J2SMUF8D0539AP40.html"
    },
    {
        "title": "放弃千万学区房后，中产父母「挤爆」日本国际学校",
        "docid": "J2STJRL90553TEV3",
        "url": "https://www.163.com/dy/article/J2STJRL90553TEV3.html"
    },
    {
        "title": "李迅雷：房地产泡沫破灭之后",
        "docid": "J2SP3HH10552F71X",
        "url": "https://www.163.com/dy/article/J2SP3HH10552F71X.html"
    },
    {
        "title": "能被15%首付吸引的，都是些什么人？次贷危机起源",
        "docid": "J2FSFLRL0553JPW1",
        "url": "https://www.163.com/dy/article/J2FSFLRL0553JPW1.html"
    },
    {
        "title": "为了让钱放出去，各部门也是煞费苦心，方向终于对了",
        "docid": "VV1UT8IEH",
        "url": "https://www.163.com/dy/article/VV1UT8IEH.html"
    },
    {
        "title": "院子的面积够大，房子够小，够破",
        "docid": "VG1GJ856C",
        "url": "https://www.163.com/dy/article/VG1GJ856C.html"
    },
    {
        "title": "如何将房贷利率降到2.85%？一周搞定，还不用找中介 #房贷降息",
        "docid": "VN1T57JMR",
        "url": "https://www.163.com/dy/article/VN1T57JMR.html"
    },
    {
        "title": "楼市走到现在，出现一个严重误判，很害人",
        "docid": "VG1V1J6EE",
        "url": "https://www.163.com/dy/article/VG1V1J6EE.html"
    },
    {
        "title": "签购房合同可要留神了，这6处细节切记要看准，每一处都是个坑",
        "docid": "J2SVGJ1C0540SN7V",
        "url": "https://www.163.com/dy/article/J2SVGJ1C0540SN7V.html"
    },
    {
        "title": "首付15%相当于6.7倍的杠杆，只要跌个15%就灰飞烟灭。",
        "docid": "J2FIOPCS0553EANU",
        "url": "https://www.163.com/dy/article/J2FIOPCS0553EANU.html"
    },
    {
        "title": "路劲：坚守信用价值 稳固经营基本盘",
        "docid": "J2ST7UUS051590L9",
        "url": "https://www.163.com/dy/article/J2ST7UUS051590L9.html"
    },
    {
        "title": "房价会继续下跌吗?看完网友的回答太真实了！",
        "docid": "J2SU2C2R0553TK9X",
        "url": "https://www.163.com/dy/article/J2SU2C2R0553TK9X.html"
    },
    {
        "title": "地震后房子倒塌了，欠银行的房贷还要还吗？",
        "docid": "J2SJJRAA0525D1LQ",
        "url": "https://www.163.com/dy/article/J2SJJRAA0525D1LQ.html"
    },
    {
        "title": "重要信号！不要急着买房，房价相比2019年下滑22.76%，买房注意了",
        "docid": "J2SUP0U305562DLL",
        "url": "https://www.163.com/dy/article/J2SUP0U305562DLL.html"
    },
    {
        "title": "李迅雷：全世界大部分股市都跑不赢房地产 刚需可以考虑买房",
        "docid": "J2SSJVB10519D45U",
        "url": "https://www.163.com/dy/article/J2SSJVB10519D45U.html"
    },
    {
        "title": "房租与购房：悉尼市场的成本考量",
        "docid": "J2SVMBLS053661TJ",
        "url": "https://www.163.com/dy/article/J2SVMBLS053661TJ.html"
    },
    {
        "title": "在南方买房、在北方买房，楼层选择有差异",
        "docid": "J2SVEF6S0540SN7V",
        "url": "https://www.163.com/dy/article/J2SVEF6S0540SN7V.html"
    },
    {
        "title": "万科获200亿元！近年地产最大单笔贷款落地",
        "docid": "J2SIIF130519D3V1",
        "url": "https://www.163.com/dy/article/J2SIIF130519D3V1.html"
    },
    {
        "title": "200亿落定！万科自救获重大进展，后续还有更多银团贷款？",
        "docid": "J2SV2KL905198ETO",
        "url": "https://www.163.com/dy/article/J2SV2KL905198ETO.html"
    },
    {
        "title": "超百城下调首套房贷利率下限 部分地区进入“1”时代",
        "docid": "J2SULN150519QIKK",
        "url": "https://www.163.com/dy/article/J2SULN150519QIKK.html"
    },
    {
        "title": "首个保租房公募不动产投资信托基金扩募，市场配套制度进一步完善",
        "docid": "J2SSUOFA055284JB",
        "url": "https://www.163.com/dy/article/J2SSUOFA055284JB.html"
    },
    {
        "title": "理想本来处 人生芳华时",
        "docid": "J2ST7V5O0535NCM9",
        "url": "https://www.163.com/dy/article/J2ST7V5O0535NCM9.html"
    },
    {
        "title": "高颜值的两层小洋房，奋斗了半辈子，能换来这套房也算值了",
        "docid": "J2T20GBD05566SC9",
        "url": "https://www.163.com/dy/article/J2T20GBD05566SC9.html"
    },
    {
        "title": "恒地THE HADDON 料下周上载楼书 目标6月开售",
        "docid": "J2T0T1H80519D45U",
        "url": "https://www.163.com/dy/article/J2T0T1H80519D45U.html"
    },
    {
        "title": "4月地产行业现10笔并购交易！有出险房企卖项目股权抵债",
        "docid": "J2T14NPJ05129QAF",
        "url": "https://www.163.com/dy/article/J2T14NPJ05129QAF.html"
    },
    {
        "title": "上海为什么还不放开限购？",
        "docid": "J2SV10JA05565B5C",
        "url": "https://www.163.com/dy/article/J2SV10JA05565B5C.html"
    },
    {
        "title": "国家队下场，一天之内，楼市扔出了五个王炸！",
        "docid": "VG1UF6OJP",
        "url": "https://www.163.com/dy/article/VG1UF6OJP.html"
    },
    {
        "title": "人们对住房需求有四个阶段，多数人还在前两阶段，为何会这样？",
        "docid": "VP1V4Q22S",
        "url": "https://www.163.com/dy/article/VP1V4Q22S.html"
    },
    {
        "title": "房价会下跌吗？看完网友的回答太真实了！",
        "docid": "J2T2B1UI0553TDTY",
        "url": "https://www.163.com/dy/article/J2T2B1UI0553TDTY.html"
    },
    {
        "title": "万科重磅！200亿元落地，已到账100亿元",
        "docid": "J2T3ODL505199NPP",
        "url": "https://www.163.com/dy/article/J2T3ODL505199NPP.html"
    },
    {
        "title": "你以为你是范闲？不，你只是那个卖菜的老金头",
        "docid": "J2FB8NBK0553JMK2",
        "url": "https://www.163.com/dy/article/J2FB8NBK0553JMK2.html"
    },
    {
        "title": "熬出头了！加拿大通胀率3年最低 降息已成定局 买房大战一触即发",
        "docid": "J2SVFL1T0553TDTY",
        "url": "https://www.163.com/dy/article/J2SVFL1T0553TDTY.html"
    },
    {
        "title": "说说买房你自己出了首付钱的多少？网友：首付三十万，借了四十万",
        "docid": "J2T3EPDS05566SC9",
        "url": "https://www.163.com/dy/article/J2T3EPDS05566SC9.html"
    },
    {
        "title": "新西兰政府宣布终止首次购房补贴！ANZ：接下去是极具挑战的几年",
        "docid": "J2T3MSAH0553TB8M",
        "url": "https://www.163.com/dy/article/J2T3MSAH0553TB8M.html"
    },
    {
        "title": "发现了吗？现在越来越多人开始后悔",
        "docid": "J2T2AN2V05566SD1",
        "url": "https://www.163.com/dy/article/J2T2AN2V05566SD1.html"
    },
    {
        "title": "被辞退售楼员：开盘就售罄的猫腻，要买房的都注意了",
        "docid": "J2SVFF9O0540SN7V",
        "url": "https://www.163.com/dy/article/J2SVFF9O0540SN7V.html"
    },
    {
        "title": "“两注、六步、七补”，让大家明白拆迁补偿中哪些是不合理的",
        "docid": "J2SVDOG90540SN7V",
        "url": "https://www.163.com/dy/article/J2SVDOG90540SN7V.html"
    },
    {
        "title": "土地供应回落与城更追逐｜2024年1-5月房地产企业新增土地储备报告",
        "docid": "J2T387790519QIKK",
        "url": "https://www.163.com/dy/article/J2T387790519QIKK.html"
    },
    {
        "title": "中原估价指数CVI跌破60点",
        "docid": "J2T3UA4C0519D45U",
        "url": "https://www.163.com/dy/article/J2T3UA4C0519D45U.html"
    },
    {
        "title": "4楼房子不能随便买？为啥说4楼是特殊楼层，一般人真的不能住？",
        "docid": "J2T2L6G70520BENO",
        "url": "https://www.163.com/dy/article/J2T2L6G70520BENO.html"
    },
    {
        "title": "不管你信不信，未来5年，大概率会发生的10种现象",
        "docid": "J2SU34M80552F71X",
        "url": "https://www.163.com/dy/article/J2SU34M80552F71X.html"
    },
    {
        "title": "从收垃圾到地产大亨：这个男人正在悄悄买下都柏林",
        "docid": "J2T3AFHM0534W85U",
        "url": "https://www.163.com/dy/article/J2T3AFHM0534W85U.html"
    },
    {
        "title": "面对楼市新政，我们怎么决策，买不买？卖不卖？中国房地产",
        "docid": "VE1V44QMM",
        "url": "https://www.163.com/dy/article/VE1V44QMM.html"
    },
    {
        "title": "业主花407万买房电梯有噪音，只能租房睡，起诉要退房获赔九万多",
        "docid": "VT1V8OMH8",
        "url": "https://www.163.com/dy/article/VT1V8OMH8.html"
    },
    {
        "title": "什么样的房子才合适自己呢？250万以内装修二房；百日百房第81套",
        "docid": "VA1DOE3TH",
        "url": "https://www.163.com/dy/article/VA1DOE3TH.html"
    },
    {
        "title": "期权中间的行权价格是什么意思？",
        "docid": "VT1F7FJPB",
        "url": "https://www.163.com/dy/article/VT1F7FJPB.html"
    },
    {
        "title": "二房住了3代入，业主置换，精装修拎包入住；百日百房第80套",
        "docid": "VA1DNQJ16",
        "url": "https://www.163.com/dy/article/VA1DNQJ16.html"
    },
    {
        "title": "央行就行政处罚裁量基准暂行规定公开征求意见",
        "docid": "VD1V72HBD",
        "url": "https://www.163.com/dy/article/VD1V72HBD.html"
    },
    {
        "title": "今明这两年不买房，5年之后是买不起，还是随便挑？现在有答案了",
        "docid": "J2T6JTFO05566SC9",
        "url": "https://www.163.com/dy/article/J2T6JTFO05566SC9.html"
    },
    {
        "title": "地产新政对经济和盈利的影响测算",
        "docid": "J2T5N0P70512D03F",
        "url": "https://www.163.com/dy/article/J2T5N0P70512D03F.html"
    },
    {
        "title": "可以买房了吗？｜收藏周榜",
        "docid": "J2T6ICGH0553TB8M",
        "url": "https://www.163.com/dy/article/J2T6ICGH0553TB8M.html"
    },
    {
        "title": "知道你花几百万买的一套房子跟租了几十年房子的一个最大区别吗？",
        "docid": "J2T6OC770553GD76",
        "url": "https://www.163.com/dy/article/J2T6OC770553GD76.html"
    },
    {
        "title": "近几年经营管理签证取消数据公布，不敢再说日本“进来容易，留下难了”……",
        "docid": "J2T4LPCN05359JWY",
        "url": "https://www.163.com/dy/article/J2T4LPCN05359JWY.html"
    },
    {
        "title": "国家决定自掏腰包，要给所有人一个买得起房子的机会。",
        "docid": "J2T5H9TE0553VNKO",
        "url": "https://www.163.com/dy/article/J2T5H9TE0553VNKO.html"
    },
    {
        "title": "国家第 4 次鼓励我买房，我们到底要不要跟呢？",
        "docid": "J2T5IC8F0553VNKO",
        "url": "https://www.163.com/dy/article/J2T5IC8F0553VNKO.html"
    },
    {
        "title": "楼市下行那些浮夸拧巴的存在感，以旧换新的悖论，注定了惨淡收场",
        "docid": "VN1SG6085",
        "url": "https://www.163.com/dy/article/VN1SG6085.html"
    },
    {
        "title": "樊妈参观儿媳新房，认为环境好装修好，想卖了上海房子来安徽买五套",
        "docid": "VI1V3DON4",
        "url": "https://www.163.com/dy/article/VI1V3DON4.html"
    },
    {
        "title": "为什么不建议去公寓spa店做按摩",
        "docid": "VZ1VD1K32",
        "url": "https://www.163.com/dy/article/VZ1VD1K32.html"
    },
    {
        "title": "房价会继续下跌吗?看完网友的回答太真实了！",
        "docid": "J2T9DNL70553TEQM",
        "url": "https://www.163.com/dy/article/J2T9DNL70553TEQM.html"
    },
    {
        "title": "预计明年和后年，我国将出现十项变化",
        "docid": "J2T59L6O05566SHJ",
        "url": "https://www.163.com/dy/article/J2T59L6O05566SHJ.html"
    },
    {
        "title": "在农村最受欢迎的别墅，大概就是美观大气实用，造价也不过高吧！",
        "docid": "J2T831KP0556124M",
        "url": "https://www.163.com/dy/article/J2T831KP0556124M.html"
    },
    {
        "title": "Jay告别父老乡亲，启程回美国。他下个目标是房地产，要干什么？",
        "docid": "J2T7K4QG05566SC9",
        "url": "https://www.163.com/dy/article/J2T7K4QG05566SC9.html"
    },
    {
        "title": "头部商业银行牵头的100亿元银团贷款到位，万科这口气缓上来了",
        "docid": "J2T2U0050539O03W",
        "url": "https://www.163.com/dy/article/J2T2U0050539O03W.html"
    },
    {
        "title": "政策密集出台，房地产企业底部将现，这只ETF值得“上车”",
        "docid": "J2T4VI4I0519B8U3",
        "url": "https://www.163.com/dy/article/J2T4VI4I0519B8U3.html"
    },
    {
        "title": "房价会继续下跌吗?看完网友的回答太真实了！",
        "docid": "J2T68J49055616ZT",
        "url": "https://www.163.com/dy/article/J2T68J49055616ZT.html"
    },
    {
        "title": "一键三连，降息降首付无下限，赶紧买房？",
        "docid": "J2T8CNS705567IYR",
        "url": "https://www.163.com/dy/article/J2T8CNS705567IYR.html"
    },
    {
        "title": "今日起飞！华发横琴玺售楼处人气爆棚！究竟怎么回事！【官宣】",
        "docid": "J2G9GJLF055644UJ",
        "url": "https://www.163.com/dy/article/J2G9GJLF055644UJ.html"
    },
    {
        "title": "第二十五期  如何选择楼层  上",
        "docid": "VZ1SMF2OQ",
        "url": "https://www.163.com/dy/article/VZ1SMF2OQ.html"
    },
    {
        "title": "住房公积金贷款利率下调！北上广深已全线跟进",
        "docid": "J2NC187005129QAF",
        "url": "https://www.163.com/dy/article/J2NC187005129QAF.html"
    },
    {
        "title": "如何解读政策的弦外之音？",
        "docid": "J2T8ECGN05567IYR",
        "url": "https://www.163.com/dy/article/J2T8ECGN05567IYR.html"
    },
    {
        "title": "大厂2024年4月二手房成交数据盘点",
        "docid": "J2T66CLB055616ZT",
        "url": "https://www.163.com/dy/article/J2T66CLB055616ZT.html"
    },
    {
        "title": "今天楼市突然间下了大猛药，最惊讶的是居然把首付降到了 15%",
        "docid": "J2T5MCI60553VNKO",
        "url": "https://www.163.com/dy/article/J2T5MCI60553VNKO.html"
    },
    {
        "title": "关于武汉盘龙城宝安山水龙城四期怡园37-39栋规划方案的批前公示",
        "docid": "J2TAIAT60553TDTY",
        "url": "https://www.163.com/dy/article/J2TAIAT60553TDTY.html"
    },
    {
        "title": "大儒世家朗园，去了这么多次，我还是很喜欢它",
        "docid": "VU1GE1R21",
        "url": "https://www.163.com/dy/article/VU1GE1R21.html"
    },
    {
        "title": "做房产抵押怎么会被坑呢？主要原因就是心里没数",
        "docid": "VV1UTOO0F",
        "url": "https://www.163.com/dy/article/VV1UTOO0F.html"
    },
    {
        "title": "以为提前还完房贷就万事大吉，没想到苦日子才刚刚降临！逼死我吧",
        "docid": "VP1T0TPLB",
        "url": "https://www.163.com/dy/article/VP1T0TPLB.html"
    },
    {
        "title": "给房子封顶到底是怎么完成的？他们的技术很精湛",
        "docid": "VW1VC9J67",
        "url": "https://www.163.com/dy/article/VW1VC9J67.html"
    },
    {
        "title": "地方政府收购房产！助长了资本的邪恶和嚣张！",
        "docid": "VY1UJC8K3",
        "url": "https://www.163.com/dy/article/VY1UJC8K3.html"
    },
    {
        "title": "杨德龙：多家外资投行积极看好中国资产 背后有深刻逻辑",
        "docid": "J2TAKF9G0519A6TN",
        "url": "https://www.163.com/dy/article/J2TAKF9G0519A6TN.html"
    },
    {
        "title": "住房公积金贷款利率下调，将给你带来哪些实惠？",
        "docid": "J2PS6VOQ051282UI",
        "url": "https://www.163.com/dy/article/J2PS6VOQ051282UI.html"
    },
    {
        "title": "这是一款优秀的单层院落户型吗?",
        "docid": "J2TB7SG80553TB9L",
        "url": "https://www.163.com/dy/article/J2TB7SG80553TB9L.html"
    },
    {
        "title": "为什么有钱人都会买小户型的房子，听听懂行人怎么说",
        "docid": "VW1IA9QH7",
        "url": "https://www.163.com/dy/article/VW1IA9QH7.html"
    },
    {
        "title": "轩轩说房丨提振存量房消费 促进房地产市场复苏",
        "docid": "VS1V2LQGH",
        "url": "https://www.163.com/dy/article/VS1V2LQGH.html"
    },
    {
        "title": "首付降至15%，购房者仍犹豫：房价跌破340万即负资产",
        "docid": "VF1SPK2DS",
        "url": "https://www.163.com/dy/article/VF1SPK2DS.html"
    },
    {
        "title": "现在的房子会发生什么样的变化呢？",
        "docid": "VW1V94EGM",
        "url": "https://www.163.com/dy/article/VW1V94EGM.html"
    },
    {
        "title": "你会为了得房率选择老房子吗？桃园新村107平；百日百房第88套",
        "docid": "VA1T53MG6",
        "url": "https://www.163.com/dy/article/VA1T53MG6.html"
    },
    {
        "title": "专业选房技巧分享，这样选房，就不会入坑了",
        "docid": "VB1VGKAA7",
        "url": "https://www.163.com/dy/article/VB1VGKAA7.html"
    },
    {
        "title": "供给侧改革没有那么容易，亏钱死撑的原因是什么？",
        "docid": "VF1VFT92E",
        "url": "https://www.163.com/dy/article/VF1VFT92E.html"
    },
    {
        "title": "欣赏一款漂亮的239.56平米户型",
        "docid": "J2TB8H9I0552F71X",
        "url": "https://www.163.com/dy/article/J2TB8H9I0552F71X.html"
    },
    {
        "title": "专家预言:到2025 年房价可能是现在的四到五倍!真的吗?",
        "docid": "J2TDF94K0535PKJN",
        "url": "https://www.163.com/dy/article/J2TDF94K0535PKJN.html"
    },
    {
        "title": "2024年，房产交易量持续下跌，首付和房贷利率还会继续下降吗？",
        "docid": "J2TDNVLG0535PKJN",
        "url": "https://www.163.com/dy/article/J2TDNVLG0535PKJN.html"
    },
    {
        "title": "你会选择贷款买房吗？网友们晒出亲身经历，真实到喘不过气",
        "docid": "J2T929DC0553TDVP",
        "url": "https://www.163.com/dy/article/J2T929DC0553TDVP.html"
    },
    {
        "title": "万科获200亿银团贷款，多笔抵押贷款陆续到账，知情人士：“行里针对万科特别沟通过”",
        "docid": "J2TCINME0531SC48",
        "url": "https://www.163.com/dy/article/J2TCINME0531SC48.html"
    },
    {
        "title": "南北通透带堂屋设计，两开间自建别墅，这个户型看起来很舒服",
        "docid": "J2T83J8O0556124M",
        "url": "https://www.163.com/dy/article/J2T83J8O0556124M.html"
    },
    {
        "title": "美好生活·民法典相伴丨无房居住不要慌 居住权制度来保障",
        "docid": "J2TEK9LH0553TDXU",
        "url": "https://www.163.com/dy/article/J2TEK9LH0553TDXU.html"
    },
    {
        "title": "2024房地产走势：央行三箭齐发，楼市去库存行动会来吗？",
        "docid": "VF1VIT4JN",
        "url": "https://www.163.com/dy/article/VF1VIT4JN.html"
    },
    {
        "title": "人口大变局！只有这几个城市的房子，值得长线持有",
        "docid": "VF1VDTVI4",
        "url": "https://www.163.com/dy/article/VF1VDTVI4.html"
    },
    {
        "title": "你还敢买房吗？不装了，我摊牌了",
        "docid": "VR1SJCT98",
        "url": "https://www.163.com/dy/article/VR1SJCT98.html"
    },
    {
        "title": "房价上涨，购房意愿增强？网友怒斥“专家”",
        "docid": "J2TCLTQK0556124M",
        "url": "https://www.163.com/dy/article/J2TCLTQK0556124M.html"
    },
    {
        "title": "事实证明，通胀绝对是穷人的绞肉机，中产的噩梦。",
        "docid": "J2TC1TE005560VAR",
        "url": "https://www.163.com/dy/article/J2TC1TE005560VAR.html"
    },
    {
        "title": "地方国企收购房源，实施下来最大的可能，是帮助地方化解债务",
        "docid": "J2GB2GLU0553TDXU",
        "url": "https://www.163.com/dy/article/J2GB2GLU0553TDXU.html"
    },
    {
        "title": "振兴房地产，得找找问题的源头在哪：聊聊土地、就业和房子",
        "docid": "J2ROVCG005562ZDJ",
        "url": "https://www.163.com/dy/article/J2ROVCG005562ZDJ.html"
    },
    {
        "title": "国家下场买房，房地产才是金融战的主战场",
        "docid": "J2TDRBT305566FHO",
        "url": "https://www.163.com/dy/article/J2TDRBT305566FHO.html"
    },
    {
        "title": "这几年没有买房的人居然赢了，买房的居然输了，这事公平吗？",
        "docid": "J2G2BGT20553SPQJ",
        "url": "https://www.163.com/dy/article/J2G2BGT20553SPQJ.html"
    },
    {
        "title": "在中国有100万存款，算什么水平？银行员工“直言不讳”",
        "docid": "VP1IHNNK0",
        "url": "https://www.163.com/dy/article/VP1IHNNK0.html"
    },
    {
        "title": "房子没人住，物业费还要交吗？",
        "docid": "VX1VKPBIB",
        "url": "https://www.163.com/dy/article/VX1VKPBIB.html"
    },
    {
        "title": "月供3000的安居房卖不完，月租1500的公租房抢着要",
        "docid": "VT1T18HL6",
        "url": "https://www.163.com/dy/article/VT1T18HL6.html"
    },
    {
        "title": "探访平壤大商场，琳琅满目，人来人往",
        "docid": "VN1V4ANFF",
        "url": "https://www.163.com/dy/article/VN1V4ANFF.html"
    },
    {
        "title": "黄奇帆重磅发声：五大变革将重塑房地产行业市场格局",
        "docid": "J2RFM2PK05565T1C",
        "url": "https://www.163.com/dy/article/J2RFM2PK05565T1C.html"
    },
    {
        "title": "高盛：中国6月房地产开始复苏？",
        "docid": "J2TAM1HP0553XQFH",
        "url": "https://www.163.com/dy/article/J2TAM1HP0553XQFH.html"
    },
    {
        "title": "换了3次房子才懂：不管多有钱，都不要买这“5个楼层”，都是教训",
        "docid": "J2TG4BR40553TDXU",
        "url": "https://www.163.com/dy/article/J2TG4BR40553TDXU.html"
    },
    {
        "title": "闹大了！专家呼吁：房价下跌30%到40%，重归理性合理区间",
        "docid": "J2TI1KA20553TB9L",
        "url": "https://www.163.com/dy/article/J2TI1KA20553TB9L.html"
    },
    {
        "title": "如何评价一套别墅的地下室，设计是否合理？",
        "docid": "J252MA8R0535WDMF",
        "url": "https://www.163.com/dy/article/J252MA8R0535WDMF.html"
    },
    {
        "title": "楼市新政快速落地，房企和银行都挺急",
        "docid": "J2TESA3D055629OM",
        "url": "https://www.163.com/dy/article/J2TESA3D055629OM.html"
    },
    {
        "title": "美国4月新屋销售总数年化63.4万户，预期67.9万户，前值69.3万户",
        "docid": "J2TGKKGL0539AP40",
        "url": "https://www.163.com/dy/article/J2TGKKGL0539AP40.html"
    },
    {
        "title": "资本家最终还是会把手伸向宅基地",
        "docid": "VF1I97IQS",
        "url": "https://www.163.com/dy/article/VF1I97IQS.html"
    },
    {
        "title": "首套房首付款比例降至15%，楼市迎来新变化",
        "docid": "VR1VLNK83",
        "url": "https://www.163.com/dy/article/VR1VLNK83.html"
    },
    {
        "title": "怪不得现在都不想买房了！太真实了，看完真的好无力",
        "docid": "VC1II30IU",
        "url": "https://www.163.com/dy/article/VC1II30IU.html"
    },
    {
        "title": "多地国企收购存量房“加速度” 机构：收购成本需要降低",
        "docid": "J2T3DM2T0512B07B",
        "url": "https://www.163.com/dy/article/J2T3DM2T0512B07B.html"
    },
    {
        "title": "房地产核心公司梳理，（第二章）",
        "docid": "J2GJTHVL05561A6X",
        "url": "https://www.163.com/dy/article/J2GJTHVL05561A6X.html"
    },
    {
        "title": "如果楼市继续下滑：守住价格，还是守住销量？",
        "docid": "J2TJ2Q9505538DP3",
        "url": "https://www.163.com/dy/article/J2TJ2Q9505538DP3.html"
    },
    {
        "title": "新政之后，新一轮竞争开始了！",
        "docid": "J2TIEM310515DBP5",
        "url": "https://www.163.com/dy/article/J2TIEM310515DBP5.html"
    },
    {
        "title": "为何越来越多人搬离一梯两户？房产中介说漏嘴：这5个缺点太明显",
        "docid": "J2TCR8PL0520E3F7",
        "url": "https://www.163.com/dy/article/J2TCR8PL0520E3F7.html"
    },
    {
        "title": "讲真，这是我见过的最差劲的千万豪宅户型，没有之一",
        "docid": "J2TG71400515U60S",
        "url": "https://www.163.com/dy/article/J2TG71400515U60S.html"
    },
    {
        "title": "春兰股份：公司土地已开发完毕，目前有存量房在售",
        "docid": "J2SUNS7F0512B07B",
        "url": "https://www.163.com/dy/article/J2SUNS7F0512B07B.html"
    },
    {
        "title": "地方收储存量房加速 多地国企积极下场参与",
        "docid": "J2TIVMK30512B07B",
        "url": "https://www.163.com/dy/article/J2TIVMK30512B07B.html"
    },
    {
        "title": "新车贷款全款和按揭，哪个更划算？",
        "docid": "VV1VP82I9",
        "url": "https://www.163.com/dy/article/VV1VP82I9.html"
    },
    {
        "title": "在原宅基地上重建房屋需要审批吗？需要注意什么？",
        "docid": "VI1IJJG0L",
        "url": "https://www.163.com/dy/article/VI1IJJG0L.html"
    }
]