[
    {
        "title": "房价上行、住房短缺，加拿大潜在购房者仍初心不改",
        "docid": "J3I85ND105566YXF",
        "url": "https://www.163.com/dy/article/J3I85ND105566YXF.html"
    },
    {
        "title": "黑石约7亿美元出售夏威夷瓦胡岛北岸Turtle Bay度假村",
        "docid": "J3I7MULA0519D45U",
        "url": "https://www.163.com/dy/article/J3I7MULA0519D45U.html"
    },
    {
        "title": "纯正中式的五合院别墅，围合式小院落安逸惨了，前后70m²私家花园",
        "docid": "VB27CTKE1",
        "url": "https://www.163.com/dy/article/VB27CTKE1.html"
    },
    {
        "title": "武汉：鼓励全面开展商品房预告登记，从源头防范“一房二卖”“先卖后抵”等风险",
        "docid": "VD2K9D1LO",
        "url": "https://www.163.com/dy/article/VD2K9D1LO.html"
    },
    {
        "title": "买房粗心要吃大亏了！看似相同的小区规划，其实遮挡差别还蛮大的",
        "docid": "VB2KE0D6A",
        "url": "https://www.163.com/dy/article/VB2KE0D6A.html"
    },
    {
        "title": "四个月后，我梦寐以求的别墅终于设计完成",
        "docid": "VS2K6UU6R",
        "url": "https://www.163.com/dy/article/VS2K6UU6R.html"
    },
    {
        "title": "房价不决定租金，转移成本给租客是幻想",
        "docid": "VJ2KCHB9G",
        "url": "https://www.163.com/dy/article/VJ2KCHB9G.html"
    },
    {
        "title": "济南天桥区房产市场惹人关注，楼盘价格暴涨",
        "docid": "VP2JHTNM0",
        "url": "https://www.163.com/dy/article/VP2JHTNM0.html"
    },
    {
        "title": "苏州富豪很任性！6年了，一次都没来过，这院子都荒废成啥样了",
        "docid": "VR272619Q",
        "url": "https://www.163.com/dy/article/VR272619Q.html"
    },
    {
        "title": "你猜它亏了多少百万？1000万一线临江大宅，实木木作遇上满屋石材",
        "docid": "VB2JVVK4P",
        "url": "https://www.163.com/dy/article/VB2JVVK4P.html"
    },
    {
        "title": "房产利好层出不穷，为什么身边没有买房的？",
        "docid": "J3HIA7BM05119596",
        "url": "https://www.163.com/dy/article/J3HIA7BM05119596.html"
    },
    {
        "title": "单身逆袭、职场飞跃，购房定居大计你准备好了吗？",
        "docid": "J3I9OKFH05457DO7",
        "url": "https://www.163.com/dy/article/J3I9OKFH05457DO7.html"
    },
    {
        "title": "美国二手房签约量跌至四年低点因高利率抑制购房活动  快报",
        "docid": "VP2HTBVG2",
        "url": "https://www.163.com/dy/article/VP2HTBVG2.html"
    },
    {
        "title": "有二手房的朋友稳住心态  房价即将上涨     等涨价了再卖",
        "docid": "VF2K7UAJS",
        "url": "https://www.163.com/dy/article/VF2K7UAJS.html"
    },
    {
        "title": "比断月供更加可怕的是，法拍房没有人接盘，银行打6折都没有人要",
        "docid": "VE2H9Q6N9",
        "url": "https://www.163.com/dy/article/VE2H9Q6N9.html"
    },
    {
        "title": "4楼,10楼,14楼,18楼不能买？都是在胡说，真正不能买的是这四个！",
        "docid": "VX2HGA40C",
        "url": "https://www.163.com/dy/article/VX2HGA40C.html"
    },
    {
        "title": "农村房屋征收，每平补650，能答应吗？",
        "docid": "VS2595F6N",
        "url": "https://www.163.com/dy/article/VS2595F6N.html"
    },
    {
        "title": "2024新一线城市排行榜出炉，南京意外不敌西安，合肥差点跌出榜单",
        "docid": "VQ2KAMGHG",
        "url": "https://www.163.com/dy/article/VQ2KAMGHG.html"
    },
    {
        "title": "父母给弟弟买房买车如今住房开车的是岳父岳母我妈却说占大便宜了",
        "docid": "VO26IOV6H",
        "url": "https://www.163.com/dy/article/VO26IOV6H.html"
    },
    {
        "title": "面对房地产政策变化，如何把握买房时机？",
        "docid": "VG2JILUJT",
        "url": "https://www.163.com/dy/article/VG2JILUJT.html"
    },
    {
        "title": "2楼的房子，真的会“喷粪”吗？身为过来人，说说我的切身感受！",
        "docid": "J354NECT0520BENO",
        "url": "https://www.163.com/dy/article/J354NECT0520BENO.html"
    },
    {
        "title": "楼市的冬天，还要继续熬着",
        "docid": "J3I9P92A05358TEX",
        "url": "https://www.163.com/dy/article/J3I9P92A05358TEX.html"
    },
    {
        "title": "13.58万方，武汉杉杉奥特莱斯购物中心设计方案",
        "docid": "J3IB9N990534SV3Y",
        "url": "https://www.163.com/dy/article/J3IB9N990534SV3Y.html"
    },
    {
        "title": "东西湖第二座永旺梦乐城？",
        "docid": "J3IBA90U0534SV3Y",
        "url": "https://www.163.com/dy/article/J3IBA90U0534SV3Y.html"
    },
    {
        "title": "高层住宅背后的隐患：用亏损40万元的教训告诉你如何避坑？",
        "docid": "J3IASO0H0553TDVP",
        "url": "https://www.163.com/dy/article/J3IASO0H0553TDVP.html"
    },
    {
        "title": "爆改46㎡老破小，50年房龄田字格塞下两室一厅5口人",
        "docid": "VP2KC7SQO",
        "url": "https://www.163.com/dy/article/VP2KC7SQO.html"
    },
    {
        "title": "关于房价，这个视频你是不能接受的！但却是事实",
        "docid": "VJ27DJ15P",
        "url": "https://www.163.com/dy/article/VJ27DJ15P.html"
    },
    {
        "title": "后期加装电梯对老旧小区建筑安全到底有什么影响？",
        "docid": "VO26T9FA4",
        "url": "https://www.163.com/dy/article/VO26T9FA4.html"
    },
    {
        "title": "全球最牛的“烂尾楼”：136年了还没完工，却年赚近2亿元",
        "docid": "VQ275U60A",
        "url": "https://www.163.com/dy/article/VQ275U60A.html"
    },
    {
        "title": "房价未归位，城市民生项目资金告急#一个敢说真话的房产人",
        "docid": "VF26R7D90",
        "url": "https://www.163.com/dy/article/VF26R7D90.html"
    },
    {
        "title": "欣赏一款优雅的362.89平米大户型",
        "docid": "J3IDS4AN05566S5I",
        "url": "https://www.163.com/dy/article/J3IDS4AN05566S5I.html"
    },
    {
        "title": "房贷月供可最低还1元？建行回应：确有此事，但后期需偿还更多利息",
        "docid": "J3IDU73H0553TDTY",
        "url": "https://www.163.com/dy/article/J3IDU73H0553TDTY.html"
    },
    {
        "title": "今年首批千亿房企来了！百强房企5月销售额环比增长4.95%，保利发展成单月销冠",
        "docid": "J3I5MOPC0512B07B",
        "url": "https://www.163.com/dy/article/J3I5MOPC0512B07B.html"
    },
    {
        "title": "5年后，“低层住宅”和“高层住宅”谁更值钱？答案已经很明显了",
        "docid": "J35DKIGK0535PKJN",
        "url": "https://www.163.com/dy/article/J35DKIGK0535PKJN.html"
    },
    {
        "title": "2023年全国住房公积金发放个人住房贷款近1.5万亿元 ",
        "docid": "VM2K33ABL",
        "url": "https://www.163.com/dy/article/VM2K33ABL.html"
    },
    {
        "title": "恐怕是整个重庆，视野最好的独栋别墅吧？",
        "docid": "VI2KDCO1O",
        "url": "https://www.163.com/dy/article/VI2KDCO1O.html"
    },
    {
        "title": "占地6亩湖景豪宅，这花园大到离谱！还带两个小岛，这是真豪！",
        "docid": "VP27IOO3U",
        "url": "https://www.163.com/dy/article/VP27IOO3U.html"
    },
    {
        "title": "带着爸爸妈妈去看房，看一套喜欢一套，最后还是没选到心仪的房子",
        "docid": "VW27HC1HN",
        "url": "https://www.163.com/dy/article/VW27HC1HN.html"
    },
    {
        "title": "三十年租金买不下一套房子",
        "docid": "VW2KE2GCB",
        "url": "https://www.163.com/dy/article/VW2KE2GCB.html"
    },
    {
        "title": "马光远：房地产限制措施可以全面取消",
        "docid": "VA2GTCSL5",
        "url": "https://www.163.com/dy/article/VA2GTCSL5.html"
    },
    {
        "title": "固定利率or浮动利率？降息发生后，加拿大面临新的冒险",
        "docid": "J3IFFVKH05566YXD",
        "url": "https://www.163.com/dy/article/J3IFFVKH05566YXD.html"
    },
    {
        "title": "韭菜割不动了，开始直接挖韭菜根，开始宰羊吃肉了，房地产新套路",
        "docid": "VP2KF41CV",
        "url": "https://www.163.com/dy/article/VP2KF41CV.html"
    },
    {
        "title": "高利率抑制购房需求美国4月购房合同签约量创三年最大降幅  快报",
        "docid": "VP2HVS734",
        "url": "https://www.163.com/dy/article/VP2HVS734.html"
    },
    {
        "title": "08楼台会之良朋 陈家声 海伦2024.5.4【广州江南大戏院】",
        "docid": "VG2KE8B8N",
        "url": "https://www.163.com/dy/article/VG2KE8B8N.html"
    },
    {
        "title": "小区最坑3个位置，和最好4个位置，选错选对，全凭自己的思路清晰",
        "docid": "VB27BFLOM",
        "url": "https://www.163.com/dy/article/VB27BFLOM.html"
    },
    {
        "title": "有钱人的老年生活是什么样的？住着大房子，坐着好车子",
        "docid": "VL2KAJF51",
        "url": "https://www.163.com/dy/article/VL2KAJF51.html"
    },
    {
        "title": "从业房地产5年，我师姐成了大韭菜",
        "docid": "VU2GMKNA2",
        "url": "https://www.163.com/dy/article/VU2GMKNA2.html"
    },
    {
        "title": "网络贷款国家规定催收标准",
        "docid": "VF2JV2BES",
        "url": "https://www.163.com/dy/article/VF2JV2BES.html"
    },
    {
        "title": "看懂过去，也就理解了现在。过去房价为什么一路走高，背后的深层机制是什么？ 认知",
        "docid": "VR26FUBBA",
        "url": "https://www.163.com/dy/article/VR26FUBBA.html"
    },
    {
        "title": "万般无奈卖掉了人生第一套房，临走之前再看看，太多心酸和不舍",
        "docid": "VF25ON21L",
        "url": "https://www.163.com/dy/article/VF25ON21L.html"
    },
    {
        "title": "房价还在调整 买房人可以缓一缓 6月份是个窗口",
        "docid": "J3GQT5DE05521Q2R",
        "url": "https://www.163.com/dy/article/J3GQT5DE05521Q2R.html"
    },
    {
        "title": "系好安全带！大型银行面临的商业地产崩溃风险比人们想象的要大",
        "docid": "J3IFFV4E05566YXD",
        "url": "https://www.163.com/dy/article/J3IFFV4E05566YXD.html"
    },
    {
        "title": "房地产将会迎来巨大变化",
        "docid": "VR2KD41BM",
        "url": "https://www.163.com/dy/article/VR2KD41BM.html"
    },
    {
        "title": "你的物业问题，我们来解答！",
        "docid": "VG2KE8OGJ",
        "url": "https://www.163.com/dy/article/VG2KE8OGJ.html"
    },
    {
        "title": "老房子改造中的意外，楼塌了！",
        "docid": "VF2JB1FBJ",
        "url": "https://www.163.com/dy/article/VF2JB1FBJ.html"
    },
    {
        "title": "买了23层的房子，我快抑郁了，后悔想卖掉",
        "docid": "VM2JSNDRT",
        "url": "https://www.163.com/dy/article/VM2JSNDRT.html"
    },
    {
        "title": "定了，保房价还是保实体",
        "docid": "VC2IJI764",
        "url": "https://www.163.com/dy/article/VC2IJI764.html"
    },
    {
        "title": "70年产权的房子到期了",
        "docid": "VZ2GL4THI",
        "url": "https://www.163.com/dy/article/VZ2GL4THI.html"
    },
    {
        "title": "首付降了为啥楼市还没起飞？",
        "docid": "VR2JLCNGT",
        "url": "https://www.163.com/dy/article/VR2JLCNGT.html"
    },
    {
        "title": "为了贪便宜，买下这套一楼带露台的房子，如今不想要了，进退两难",
        "docid": "VP2IIRQ4Q",
        "url": "https://www.163.com/dy/article/VP2IIRQ4Q.html"
    },
    {
        "title": "武汉洪山区：买新建商办房屋300平米以上的，可享受与住宅同等教育养老等服务",
        "docid": "J3I7G7LG0514R9P4",
        "url": "https://www.163.com/dy/article/J3I7G7LG0514R9P4.html"
    },
    {
        "title": "平安银行回应“气球贷”",
        "docid": "J3IB115V0530NLC9",
        "url": "https://www.163.com/dy/article/J3IB115V0530NLC9.html"
    },
    {
        "title": "打算卖房才发现，难以接受的，不是房价下降了，而是根本卖不出去",
        "docid": "J3GR7D2J05566SOW",
        "url": "https://www.163.com/dy/article/J3GR7D2J05566SOW.html"
    },
    {
        "title": "跌50%？王健林再谈房价：想啥呢，地皮都不止这个价！",
        "docid": "J3H3VV5R0553TDVP",
        "url": "https://www.163.com/dy/article/J3H3VV5R0553TDVP.html"
    },
    {
        "title": "听我一句劝，如果你老家有旧房一栋，放着就好，不要重建",
        "docid": "J3I0U84P0553S2N3",
        "url": "https://www.163.com/dy/article/J3I0U84P0553S2N3.html"
    },
    {
        "title": "最新！白沙洲K6地块项目建设",
        "docid": "J3BOEQPA05566RS4",
        "url": "https://www.163.com/dy/article/J3BOEQPA05566RS4.html"
    },
    {
        "title": "卖爆了！房价要开启新一轮上涨",
        "docid": "J3GUHK8B05536P04",
        "url": "https://www.163.com/dy/article/J3GUHK8B05536P04.html"
    },
    {
        "title": "老小区整合空地划出82个车位，居民：停车秩序规范多了",
        "docid": "J3F33URR053469LG",
        "url": "https://www.163.com/dy/article/J3F33URR053469LG.html"
    },
    {
        "title": "现在买房子，是“聪明”还是“愚蠢”？懂行人一语道破，说通透了",
        "docid": "J3GRAA5O05566N4D",
        "url": "https://www.163.com/dy/article/J3GRAA5O05566N4D.html"
    },
    {
        "title": "这是一款浪漫的192.56平米户型吗?",
        "docid": "J3F1OMCN0553TDXU",
        "url": "https://www.163.com/dy/article/J3F1OMCN0553TDXU.html"
    },
    {
        "title": "2019 至 2022 年买房的朋友们，这次真的“破大防”了",
        "docid": "J3HT27H40553K5ZV",
        "url": "https://www.163.com/dy/article/J3HT27H40553K5ZV.html"
    },
    {
        "title": "菜地1200个平方.后山1200，院子200平方，房屋126平方，天然泉水",
        "docid": "VW27OUITU",
        "url": "https://www.163.com/dy/article/VW27OUITU.html"
    },
    {
        "title": "五年前花18100一平在武汉买的房，如今卖掉要赔多少？一算吓一跳",
        "docid": "VS2KLJULU",
        "url": "https://www.163.com/dy/article/VS2KLJULU.html"
    },
    {
        "title": "全亚洲最大小区，光鲜外表下问题频出！诈骗团伙都在里面！",
        "docid": "VF2KLMHRF",
        "url": "https://www.163.com/dy/article/VF2KLMHRF.html"
    },
    {
        "title": "房价见底了吗？经济学家高善文：还会下跌",
        "docid": "VI2KLVNP5",
        "url": "https://www.163.com/dy/article/VI2KLVNP5.html"
    },
    {
        "title": "150万房子跌到40多万还不一定有人要，漳州港业主亏本150万",
        "docid": "VW2KLEH8L",
        "url": "https://www.163.com/dy/article/VW2KLEH8L.html"
    },
    {
        "title": "比房价下跌还可怕的4件事，已经悄无声息的发生了，你发现了吗？",
        "docid": "VF2KK97AR",
        "url": "https://www.163.com/dy/article/VF2KK97AR.html"
    },
    {
        "title": "还没背上房贷的四种人！",
        "docid": "VR27NOIEQ",
        "url": "https://www.163.com/dy/article/VR27NOIEQ.html"
    },
    {
        "title": "买新房的时候为什么要签订预约合同？ #房屋买卖#北京律师朱瑞雷",
        "docid": "VZ24PPDV6",
        "url": "https://www.163.com/dy/article/VZ24PPDV6.html"
    },
    {
        "title": "提前还贷潮再起，老百姓关心的财经话题",
        "docid": "VF2KN4K2U",
        "url": "https://www.163.com/dy/article/VF2KN4K2U.html"
    },
    {
        "title": "拆迁补偿争议：工厂用地按农地补偿合理吗？",
        "docid": "J3INGPA405562Q5H",
        "url": "https://www.163.com/dy/article/J3INGPA405562Q5H.html"
    },
    {
        "title": "武汉洪山区：买新建商办房屋300平米以上的，可享受与住宅同等教育养老等服务",
        "docid": "J3I7G7LG0514R9P4",
        "url": "https://www.163.com/dy/article/J3I7G7LG0514R9P4.html"
    },
    {
        "title": "最新！白沙洲K6地块项目建设",
        "docid": "J3BOEQPA05566RS4",
        "url": "https://www.163.com/dy/article/J3BOEQPA05566RS4.html"
    },
    {
        "title": "2024年东西湖区三大招商地块简介",
        "docid": "J3BECKJF0553TDXU",
        "url": "https://www.163.com/dy/article/J3BECKJF0553TDXU.html"
    },
    {
        "title": "老小区整合空地划出82个车位，居民：停车秩序规范多了",
        "docid": "J3F33URR053469LG",
        "url": "https://www.163.com/dy/article/J3F33URR053469LG.html"
    },
    {
        "title": "“5点放款6点出新政”，房贷利率能按最新的走吗？",
        "docid": "J3CL9JUT0514R9KQ",
        "url": "https://www.163.com/dy/article/J3CL9JUT0514R9KQ.html"
    },
    {
        "title": "务工者如何避免掉入“串串房”的坑？",
        "docid": "J3GI502I0550TYQ0",
        "url": "https://www.163.com/dy/article/J3GI502I0550TYQ0.html"
    },
    {
        "title": "中信证券：重视“二次城镇化”带来的结构性购房需求",
        "docid": "J3GST9VC05198UNI",
        "url": "https://www.163.com/dy/article/J3GST9VC05198UNI.html"
    },
    {
        "title": "为何不建议超过45岁的人贷款买房？内行给出三点原因，非常真实",
        "docid": "J37IBM810535BC2F",
        "url": "https://www.163.com/dy/article/J37IBM810535BC2F.html"
    },
    {
        "title": "武汉购房荟直聘！月入过万！大平台！稳定客源！",
        "docid": "J3EHL8DK0545DG4X",
        "url": "https://www.163.com/dy/article/J3EHL8DK0545DG4X.html"
    },
    {
        "title": "房地产市场即将迎来巨大变革！",
        "docid": "VN2KRMMTV",
        "url": "https://www.163.com/dy/article/VN2KRMMTV.html"
    },
    {
        "title": "房子中间户，南北结构长，整体解析",
        "docid": "VS2K00C0T",
        "url": "https://www.163.com/dy/article/VS2K00C0T.html"
    },
    {
        "title": "为何有钱人都在卖房，亏钱也要卖？",
        "docid": "VO27QVGK1",
        "url": "https://www.163.com/dy/article/VO27QVGK1.html"
    },
    {
        "title": "房子价值揭秘，公盘参加第47集",
        "docid": "VO27QDSH8",
        "url": "https://www.163.com/dy/article/VO27QDSH8.html"
    },
    {
        "title": "一边香港一边深圳，连房子都不一样了，深港对比反差太大了",
        "docid": "VY254KOFN",
        "url": "https://www.163.com/dy/article/VY254KOFN.html"
    },
    {
        "title": "疯狂的62层超高层，地下室竟然有负4层，真是让我开了眼",
        "docid": "VK2KDCCVT",
        "url": "https://www.163.com/dy/article/VK2KDCCVT.html"
    },
    {
        "title": "老百姓拆迁遭遇：穷困之谜揭秘！",
        "docid": "VX27OQVLD",
        "url": "https://www.163.com/dy/article/VX27OQVLD.html"
    },
    {
        "title": "你见过的拆迁户都是什么样的？网友：耐不住寂寞，搞得家破人亡",
        "docid": "VW2KT01KJ",
        "url": "https://www.163.com/dy/article/VW2KT01KJ.html"
    },
    {
        "title": "在郑州花120万买的房，短短五年赔了90万，究竟是一种什么体验？",
        "docid": "VP2J9GLQI",
        "url": "https://www.163.com/dy/article/VP2J9GLQI.html"
    },
    {
        "title": "马光远：买房面前最焦虑的大山已经没了。",
        "docid": "VP2GRATJV",
        "url": "https://www.163.com/dy/article/VP2GRATJV.html"
    },
    {
        "title": "住建部：2023年发放个人住房公积金贷款1.47万亿元",
        "docid": "J3HF4PSL0534A4SC",
        "url": "https://www.163.com/dy/article/J3HF4PSL0534A4SC.html"
    },
    {
        "title": "武汉洪山区：买新建商办房屋300平米以上的，可享受与住宅同等教育养老等服务",
        "docid": "J3I7G7LG0514R9P4",
        "url": "https://www.163.com/dy/article/J3I7G7LG0514R9P4.html"
    },
    {
        "title": "王炸！武汉白沙洲又新增两处地块规划",
        "docid": "J3H9SJ2L0556124M",
        "url": "https://www.163.com/dy/article/J3H9SJ2L0556124M.html"
    },
    {
        "title": "国内首座城，武汉下调按揭贷款利率下限，已买房人能下调利率吗？",
        "docid": "J3DTRPSD0539PXYN",
        "url": "https://www.163.com/dy/article/J3DTRPSD0539PXYN.html"
    },
    {
        "title": "路透调查：全球主要经济体面临供应危机，各国房价继续上扬",
        "docid": "J3I6AVR605566YXF",
        "url": "https://www.163.com/dy/article/J3I6AVR605566YXF.html"
    },
    {
        "title": "证监会通报恒大地产造假事件后，哪些中介机构将被调查？",
        "docid": "J3I312RM05129QAF",
        "url": "https://www.163.com/dy/article/J3I312RM05129QAF.html"
    },
    {
        "title": "规划公示！这里将添2000㎡菜市场！",
        "docid": "J3EHJR120545DG4X",
        "url": "https://www.163.com/dy/article/J3EHJR120545DG4X.html"
    },
    {
        "title": "“气球贷”？平安银行回应",
        "docid": "J3H7NAKN0514R9KQ",
        "url": "https://www.163.com/dy/article/J3H7NAKN0514R9KQ.html"
    },
    {
        "title": "武汉：鼓励全面开展商品房预告登记，从源头防范“一房二卖”“先卖后抵”等风险",
        "docid": "J3I2BE8E0514R9P4",
        "url": "https://www.163.com/dy/article/J3I2BE8E0514R9P4.html"
    },
    {
        "title": "雅致的居家户型，活动厅相当阔绰",
        "docid": "J3IG183D0553TDTY",
        "url": "https://www.163.com/dy/article/J3IG183D0553TDTY.html"
    },
    {
        "title": "武汉洪山区：买新建商办房屋300平米以上的，可享受与住宅同等教育养老等服务",
        "docid": "J3I7G7LG0514R9P4",
        "url": "https://www.163.com/dy/article/J3I7G7LG0514R9P4.html"
    },
    {
        "title": "王炸！武汉白沙洲又新增两处地块规划",
        "docid": "J3H9SJ2L0556124M",
        "url": "https://www.163.com/dy/article/J3H9SJ2L0556124M.html"
    },
    {
        "title": "国内首座城，武汉下调按揭贷款利率下限，已买房人能下调利率吗？",
        "docid": "J3DTRPSD0539PXYN",
        "url": "https://www.163.com/dy/article/J3DTRPSD0539PXYN.html"
    },
    {
        "title": "2023年全国住房公积金实缴职工超1.7亿人 缴存额达34697.69亿元",
        "docid": "J3HN25OL0514CDBK",
        "url": "https://www.163.com/dy/article/J3HN25OL0514CDBK.html"
    },
    {
        "title": "规划公示！这里将添2000㎡菜市场！",
        "docid": "J3EHJR120545DG4X",
        "url": "https://www.163.com/dy/article/J3EHJR120545DG4X.html"
    },
    {
        "title": "武汉：鼓励全面开展商品房预告登记，从源头防范“一房二卖”“先卖后抵”等风险",
        "docid": "J3I2BE8E0514R9P4",
        "url": "https://www.163.com/dy/article/J3I2BE8E0514R9P4.html"
    },
    {
        "title": "武汉城建绍兴里1921项目首开收金2.16亿",
        "docid": "J3HVOFMV0519D45U",
        "url": "https://www.163.com/dy/article/J3HVOFMV0519D45U.html"
    },
    {
        "title": "最新！白沙洲K6地块项目建设",
        "docid": "J3BOEQPA05566RS4",
        "url": "https://www.163.com/dy/article/J3BOEQPA05566RS4.html"
    },
    {
        "title": "2024年人居梦想“好房子”入围项目展示（编号076-100）",
        "docid": "J3DTSLSR05159A0N",
        "url": "https://www.163.com/dy/article/J3DTSLSR05159A0N.html"
    },
    {
        "title": "武汉豪宅【开山立序】之作，一登场就放大招",
        "docid": "J3ERR4DP05159OP0",
        "url": "https://www.163.com/dy/article/J3ERR4DP05159OP0.html"
    },
    {
        "title": "“美国梦”远去？越来越多美国人不买房当“永久租客”",
        "docid": "J3IT8SRI0552JRS3",
        "url": "https://www.163.com/dy/article/J3IT8SRI0552JRS3.html"
    },
    {
        "title": "武汉洪山区：买新建商办房屋300平米以上的，可享受与住宅同等教育养老等服务",
        "docid": "J3I7G7LG0514R9P4",
        "url": "https://www.163.com/dy/article/J3I7G7LG0514R9P4.html"
    },
    {
        "title": "王炸！武汉白沙洲又新增两处地块规划",
        "docid": "J3H9SJ2L0556124M",
        "url": "https://www.163.com/dy/article/J3H9SJ2L0556124M.html"
    },
    {
        "title": "国内首座城，武汉下调按揭贷款利率下限，已买房人能下调利率吗？",
        "docid": "J3DTRPSD0539PXYN",
        "url": "https://www.163.com/dy/article/J3DTRPSD0539PXYN.html"
    },
    {
        "title": "新华社权威快报｜2023年全国住房公积金发放个人住房贷款近1.5万亿元",
        "docid": "J3HFLML305346RC6",
        "url": "https://www.163.com/dy/article/J3HFLML305346RC6.html"
    },
    {
        "title": "规划公示！这里将添2000㎡菜市场！",
        "docid": "J3EHJR120545DG4X",
        "url": "https://www.163.com/dy/article/J3EHJR120545DG4X.html"
    },
    {
        "title": "武汉：鼓励全面开展商品房预告登记，从源头防范“一房二卖”“先卖后抵”等风险",
        "docid": "J3I2BE8E0514R9P4",
        "url": "https://www.163.com/dy/article/J3I2BE8E0514R9P4.html"
    },
    {
        "title": "最新！白沙洲K6地块项目建设",
        "docid": "J3BOEQPA05566RS4",
        "url": "https://www.163.com/dy/article/J3BOEQPA05566RS4.html"
    },
    {
        "title": "武汉城建绍兴里1921项目首开收金2.16亿",
        "docid": "J3HVOFMV0519D45U",
        "url": "https://www.163.com/dy/article/J3HVOFMV0519D45U.html"
    },
    {
        "title": "2024年人居梦想“好房子”入围项目展示（编号076-100）",
        "docid": "J3DTSLSR05159A0N",
        "url": "https://www.163.com/dy/article/J3DTSLSR05159A0N.html"
    },
    {
        "title": "报告：TOP100房企销售总额为16184.5亿元 同比降幅连续四个月收窄",
        "docid": "J3HLGQQU05198CJN",
        "url": "https://www.163.com/dy/article/J3HLGQQU05198CJN.html"
    },
    {
        "title": "我们现在的房价就只能这样了，不可能再让它继续跌了。",
        "docid": "J3537G8S0553VNKO",
        "url": "https://www.163.com/dy/article/J3537G8S0553VNKO.html"
    },
    {
        "title": "悄悄地，很多企业搬离珠城，转身拥抱金融城",
        "docid": "J3I4FH6105158AOL",
        "url": "https://www.163.com/dy/article/J3I4FH6105158AOL.html"
    },
    {
        "title": "5月百强房企销售仍未止跌 政策提振下6月能否迎来转机？",
        "docid": "J3I12HEC05198CJN",
        "url": "https://www.163.com/dy/article/J3I12HEC05198CJN.html"
    },
    {
        "title": "图解5月大事件：多项楼市重磅政策出台 最严减持新规落地",
        "docid": "J3HPKQK805198CJN",
        "url": "https://www.163.com/dy/article/J3HPKQK805198CJN.html"
    },
    {
        "title": "武汉洪山区：买新建商办房屋300平米以上的，可享受与住宅同等教育养老等服务",
        "docid": "J3I7G7LG0514R9P4",
        "url": "https://www.163.com/dy/article/J3I7G7LG0514R9P4.html"
    },
    {
        "title": "2023年全国住房公积金发放个人住房贷款近1.5万亿元",
        "docid": "J3HFGBH705198CJN",
        "url": "https://www.163.com/dy/article/J3HFGBH705198CJN.html"
    },
    {
        "title": "王炸！武汉白沙洲又新增两处地块规划",
        "docid": "J3H9SJ2L0556124M",
        "url": "https://www.163.com/dy/article/J3H9SJ2L0556124M.html"
    },
    {
        "title": "国内首座城，武汉下调按揭贷款利率下限，已买房人能下调利率吗？",
        "docid": "J3DTRPSD0539PXYN",
        "url": "https://www.163.com/dy/article/J3DTRPSD0539PXYN.html"
    },
    {
        "title": "规划公示！这里将添2000㎡菜市场！",
        "docid": "J3EHJR120545DG4X",
        "url": "https://www.163.com/dy/article/J3EHJR120545DG4X.html"
    },
    {
        "title": "告诉大家一个消息！2024年，手握2套房子以上的家庭或逃不掉",
        "docid": "J3447O9J05536P04",
        "url": "https://www.163.com/dy/article/J3447O9J05536P04.html"
    },
    {
        "title": "武汉洪山区：买新建商办房屋300平米以上的，可享受与住宅同等教育养老等服务",
        "docid": "J3I7G7LG0514R9P4",
        "url": "https://www.163.com/dy/article/J3I7G7LG0514R9P4.html"
    },
    {
        "title": "王炸！武汉白沙洲又新增两处地块规划",
        "docid": "J3H9SJ2L0556124M",
        "url": "https://www.163.com/dy/article/J3H9SJ2L0556124M.html"
    },
    {
        "title": "国内首座城，武汉下调按揭贷款利率下限，已买房人能下调利率吗？",
        "docid": "J3DTRPSD0539PXYN",
        "url": "https://www.163.com/dy/article/J3DTRPSD0539PXYN.html"
    },
    {
        "title": "规划公示！这里将添2000㎡菜市场！",
        "docid": "J3EHJR120545DG4X",
        "url": "https://www.163.com/dy/article/J3EHJR120545DG4X.html"
    },
    {
        "title": "武汉：鼓励全面开展商品房预告登记，从源头防范“一房二卖”“先卖后抵”等风险",
        "docid": "J3I2BE8E0514R9P4",
        "url": "https://www.163.com/dy/article/J3I2BE8E0514R9P4.html"
    },
    {
        "title": "住建部：2023年发放个人住房公积金贷款1.47万亿元",
        "docid": "J3HGLDC80514R9KQ",
        "url": "https://www.163.com/dy/article/J3HGLDC80514R9KQ.html"
    },
    {
        "title": "最新！白沙洲K6地块项目建设",
        "docid": "J3BOEQPA05566RS4",
        "url": "https://www.163.com/dy/article/J3BOEQPA05566RS4.html"
    },
    {
        "title": "武汉城建绍兴里1921项目首开收金2.16亿",
        "docid": "J3HVOFMV0519D45U",
        "url": "https://www.163.com/dy/article/J3HVOFMV0519D45U.html"
    },
    {
        "title": "武汉豪宅【开山立序】之作，一登场就放大招",
        "docid": "J3ERR4DP05159OP0",
        "url": "https://www.163.com/dy/article/J3ERR4DP05159OP0.html"
    },
    {
        "title": "武汉洪山区：买新建商办房屋300平米以上的，可享受与住宅同等教育养老等服务",
        "docid": "J3I7G7LG0514R9P4",
        "url": "https://www.163.com/dy/article/J3I7G7LG0514R9P4.html"
    },
    {
        "title": "王炸！武汉白沙洲又新增两处地块规划",
        "docid": "J3H9SJ2L0556124M",
        "url": "https://www.163.com/dy/article/J3H9SJ2L0556124M.html"
    },
    {
        "title": "国内首座城，武汉下调按揭贷款利率下限，已买房人能下调利率吗？",
        "docid": "J3DTRPSD0539PXYN",
        "url": "https://www.163.com/dy/article/J3DTRPSD0539PXYN.html"
    },
    {
        "title": "规划公示！这里将添2000㎡菜市场！",
        "docid": "J3EHJR120545DG4X",
        "url": "https://www.163.com/dy/article/J3EHJR120545DG4X.html"
    },
    {
        "title": "武汉：鼓励全面开展商品房预告登记，从源头防范“一房二卖”“先卖后抵”等风险",
        "docid": "J3I2BE8E0514R9P4",
        "url": "https://www.163.com/dy/article/J3I2BE8E0514R9P4.html"
    },
    {
        "title": "武汉城建绍兴里1921项目首开收金2.16亿",
        "docid": "J3HVOFMV0519D45U",
        "url": "https://www.163.com/dy/article/J3HVOFMV0519D45U.html"
    },
    {
        "title": "最新！白沙洲K6地块项目建设",
        "docid": "J3BOEQPA05566RS4",
        "url": "https://www.163.com/dy/article/J3BOEQPA05566RS4.html"
    },
    {
        "title": "武汉豪宅【开山立序】之作，一登场就放大招",
        "docid": "J3ERR4DP05159OP0",
        "url": "https://www.163.com/dy/article/J3ERR4DP05159OP0.html"
    },
    {
        "title": "2024年人居梦想“好房子”入围项目展示（编号076-100）",
        "docid": "J3DTSLSR05159A0N",
        "url": "https://www.163.com/dy/article/J3DTSLSR05159A0N.html"
    },
    {
        "title": "《全国住房公积金2023年年度报告》发布",
        "docid": "J3HVVLH40514R9KE",
        "url": "https://www.163.com/dy/article/J3HVVLH40514R9KE.html"
    },
    {
        "title": "又一数据对拜登有利！为何住房成本上升有助他赢得摇摆州？",
        "docid": "J3J0HM8I05566YXC",
        "url": "https://www.163.com/dy/article/J3J0HM8I05566YXC.html"
    },
    {
        "title": "武汉洪山区：买新建商办房屋300平米以上的，可享受与住宅同等教育养老等服务",
        "docid": "J3I7G7LG0514R9P4",
        "url": "https://www.163.com/dy/article/J3I7G7LG0514R9P4.html"
    },
    {
        "title": "王炸！武汉白沙洲又新增两处地块规划",
        "docid": "J3H9SJ2L0556124M",
        "url": "https://www.163.com/dy/article/J3H9SJ2L0556124M.html"
    },
    {
        "title": "国内首座城，武汉下调按揭贷款利率下限，已买房人能下调利率吗？",
        "docid": "J3DTRPSD0539PXYN",
        "url": "https://www.163.com/dy/article/J3DTRPSD0539PXYN.html"
    },
    {
        "title": "规划公示！这里将添2000㎡菜市场！",
        "docid": "J3EHJR120545DG4X",
        "url": "https://www.163.com/dy/article/J3EHJR120545DG4X.html"
    },
    {
        "title": "武汉：鼓励全面开展商品房预告登记，从源头防范“一房二卖”“先卖后抵”等风险",
        "docid": "J3I2BE8E0514R9P4",
        "url": "https://www.163.com/dy/article/J3I2BE8E0514R9P4.html"
    },
    {
        "title": "最新！白沙洲K6地块项目建设",
        "docid": "J3BOEQPA05566RS4",
        "url": "https://www.163.com/dy/article/J3BOEQPA05566RS4.html"
    },
    {
        "title": "武汉城建绍兴里1921项目首开收金2.16亿",
        "docid": "J3HVOFMV0519D45U",
        "url": "https://www.163.com/dy/article/J3HVOFMV0519D45U.html"
    },
    {
        "title": "2024年人居梦想“好房子”入围项目展示（编号076-100）",
        "docid": "J3DTSLSR05159A0N",
        "url": "https://www.163.com/dy/article/J3DTSLSR05159A0N.html"
    },
    {
        "title": "武汉豪宅【开山立序】之作，一登场就放大招",
        "docid": "J3ERR4DP05159OP0",
        "url": "https://www.163.com/dy/article/J3ERR4DP05159OP0.html"
    },
    {
        "title": "武汉洪山区：买新建商办房屋300平米以上的，可享受与住宅同等教育养老等服务",
        "docid": "J3I7G7LG0514R9P4",
        "url": "https://www.163.com/dy/article/J3I7G7LG0514R9P4.html"
    },
    {
        "title": "王炸！武汉白沙洲又新增两处地块规划",
        "docid": "J3H9SJ2L0556124M",
        "url": "https://www.163.com/dy/article/J3H9SJ2L0556124M.html"
    },
    {
        "title": "国内首座城，武汉下调按揭贷款利率下限，已买房人能下调利率吗？",
        "docid": "J3DTRPSD0539PXYN",
        "url": "https://www.163.com/dy/article/J3DTRPSD0539PXYN.html"
    },
    {
        "title": "规划公示！这里将添2000㎡菜市场！",
        "docid": "J3EHJR120545DG4X",
        "url": "https://www.163.com/dy/article/J3EHJR120545DG4X.html"
    },
    {
        "title": "武汉：鼓励全面开展商品房预告登记，从源头防范“一房二卖”“先卖后抵”等风险",
        "docid": "J3I2BE8E0514R9P4",
        "url": "https://www.163.com/dy/article/J3I2BE8E0514R9P4.html"
    },
    {
        "title": "武汉城建绍兴里1921项目首开收金2.16亿",
        "docid": "J3HVOFMV0519D45U",
        "url": "https://www.163.com/dy/article/J3HVOFMV0519D45U.html"
    },
    {
        "title": "最新！白沙洲K6地块项目建设",
        "docid": "J3BOEQPA05566RS4",
        "url": "https://www.163.com/dy/article/J3BOEQPA05566RS4.html"
    },
    {
        "title": "武汉豪宅【开山立序】之作，一登场就放大招",
        "docid": "J3ERR4DP05159OP0",
        "url": "https://www.163.com/dy/article/J3ERR4DP05159OP0.html"
    },
    {
        "title": "2024年人居梦想“好房子”入围项目展示（编号076-100）",
        "docid": "J3DTSLSR05159A0N",
        "url": "https://www.163.com/dy/article/J3DTSLSR05159A0N.html"
    },
    {
        "title": "武汉超大城中村--郭徐岭，拆迁安置即将开始",
        "docid": "J3I0FL1T0553TB8M",
        "url": "https://www.163.com/dy/article/J3I0FL1T0553TB8M.html"
    },
    {
        "title": "十年人口暴增45%的城市，房价见底了吗？",
        "docid": "J368D5Q6055614NP",
        "url": "https://www.163.com/dy/article/J368D5Q6055614NP.html"
    },
    {
        "title": "700平米突破极限的豪华大平层，在梦幻住宅中感受巅峰生活体验",
        "docid": "J35VS9K20553TEQM",
        "url": "https://www.163.com/dy/article/J35VS9K20553TEQM.html"
    },
    {
        "title": "168平米户型能做出什么花样？这样的设计超越想象",
        "docid": "J360VE8I0553TDXU",
        "url": "https://www.163.com/dy/article/J360VE8I0553TDXU.html"
    },
    {
        "title": "挑选房子的难度，绝不亚于挑选老公",
        "docid": "J3680K020553JMK2",
        "url": "https://www.163.com/dy/article/J3680K020553JMK2.html"
    },
    {
        "title": "武汉洪山区：买新建商办房屋300平米以上的，可享受与住宅同等教育养老等服务",
        "docid": "J3I7G7LG0514R9P4",
        "url": "https://www.163.com/dy/article/J3I7G7LG0514R9P4.html"
    },
    {
        "title": "王炸！武汉白沙洲又新增两处地块规划",
        "docid": "J3H9SJ2L0556124M",
        "url": "https://www.163.com/dy/article/J3H9SJ2L0556124M.html"
    },
    {
        "title": "国内首座城，武汉下调按揭贷款利率下限，已买房人能下调利率吗？",
        "docid": "J3DTRPSD0539PXYN",
        "url": "https://www.163.com/dy/article/J3DTRPSD0539PXYN.html"
    },
    {
        "title": "规划公示！这里将添2000㎡菜市场！",
        "docid": "J3EHJR120545DG4X",
        "url": "https://www.163.com/dy/article/J3EHJR120545DG4X.html"
    },
    {
        "title": "武汉：鼓励全面开展商品房预告登记，从源头防范“一房二卖”“先卖后抵”等风险",
        "docid": "J3I2BE8E0514R9P4",
        "url": "https://www.163.com/dy/article/J3I2BE8E0514R9P4.html"
    },
    {
        "title": "最新！白沙洲K6地块项目建设",
        "docid": "J3BOEQPA05566RS4",
        "url": "https://www.163.com/dy/article/J3BOEQPA05566RS4.html"
    },
    {
        "title": "地库成本控制，颗粒度太细了",
        "docid": "J369FPMB05158B67",
        "url": "https://www.163.com/dy/article/J369FPMB05158B67.html"
    },
    {
        "title": "交房后，原有的“入户门”要不要换掉？",
        "docid": "J39OP5670540SN7V",
        "url": "https://www.163.com/dy/article/J39OP5670540SN7V.html"
    },
    {
        "title": "武汉洪山区：买新建商办房屋300平米以上的，可享受与住宅同等教育养老等服务",
        "docid": "J3I7G7LG0514R9P4",
        "url": "https://www.163.com/dy/article/J3I7G7LG0514R9P4.html"
    },
    {
        "title": "王炸！武汉白沙洲又新增两处地块规划",
        "docid": "J3H9SJ2L0556124M",
        "url": "https://www.163.com/dy/article/J3H9SJ2L0556124M.html"
    },
    {
        "title": "国内首座城，武汉下调按揭贷款利率下限，已买房人能下调利率吗？",
        "docid": "J3DTRPSD0539PXYN",
        "url": "https://www.163.com/dy/article/J3DTRPSD0539PXYN.html"
    },
    {
        "title": "规划公示！这里将添2000㎡菜市场！",
        "docid": "J3EHJR120545DG4X",
        "url": "https://www.163.com/dy/article/J3EHJR120545DG4X.html"
    },
    {
        "title": "武汉：鼓励全面开展商品房预告登记，从源头防范“一房二卖”“先卖后抵”等风险",
        "docid": "J3I2BE8E0514R9P4",
        "url": "https://www.163.com/dy/article/J3I2BE8E0514R9P4.html"
    },
    {
        "title": "武汉城建绍兴里1921项目首开收金2.16亿",
        "docid": "J3HVOFMV0519D45U",
        "url": "https://www.163.com/dy/article/J3HVOFMV0519D45U.html"
    },
    {
        "title": "最新！白沙洲K6地块项目建设",
        "docid": "J3BOEQPA05566RS4",
        "url": "https://www.163.com/dy/article/J3BOEQPA05566RS4.html"
    },
    {
        "title": "武汉豪宅【开山立序】之作，一登场就放大招",
        "docid": "J3ERR4DP05159OP0",
        "url": "https://www.163.com/dy/article/J3ERR4DP05159OP0.html"
    },
    {
        "title": "&quot;评估价太亏就放弃！&quot; 二手房挂牌一年难卖，南京业主试水“以旧换新”买婚房",
        "docid": "J3H7HRHR0519QIKK",
        "url": "https://www.163.com/dy/article/J3H7HRHR0519QIKK.html"
    },
    {
        "title": "这是马伊琍在上海的家，你们觉得怎么样",
        "docid": "VZ288EP4A",
        "url": "https://www.163.com/dy/article/VZ288EP4A.html"
    },
    {
        "title": "法治：棚户区改造停工，承包公司申请破产，两万余人住房成难题！",
        "docid": "VO1FO269R",
        "url": "https://www.163.com/dy/article/VO1FO269R.html"
    },
    {
        "title": "源源不断的钱才是地产平稳着陆的关键",
        "docid": "VC28E8UII",
        "url": "https://www.163.com/dy/article/VC28E8UII.html"
    },
    {
        "title": "天津市场再现“摇号开盘” 产品力真是C位出圈",
        "docid": "VP2K4AFI4",
        "url": "https://www.163.com/dy/article/VP2K4AFI4.html"
    },
    {
        "title": "二孩家庭，成功拿下，别墅质感闵行洋房！",
        "docid": "VZ25FURAQ",
        "url": "https://www.163.com/dy/article/VZ25FURAQ.html"
    },
    {
        "title": "潘向东：如何保障中低收入者有房住？揭秘高房价背后的真相",
        "docid": "VY26CQUDK",
        "url": "https://www.163.com/dy/article/VY26CQUDK.html"
    },
    {
        "title": "为什么科英布拉比里斯本更适合居住 1/3",
        "docid": "VC27RQRCM",
        "url": "https://www.163.com/dy/article/VC27RQRCM.html"
    },
    {
        "title": "中信证券：看好“二次城镇化”带来的结构性购房需求  快报",
        "docid": "VP2ITKQ00",
        "url": "https://www.163.com/dy/article/VP2ITKQ00.html"
    },
    {
        "title": "我们的房地产救市政策不该再向香港学习，而是要向台湾学习。",
        "docid": "J36AUB3R05561A6X",
        "url": "https://www.163.com/dy/article/J36AUB3R05561A6X.html"
    },
    {
        "title": "房产中介良心透露：二手房一旦房龄超过这个年限，真心建议别买了",
        "docid": "J36EH3HK05566MKM",
        "url": "https://www.163.com/dy/article/J36EH3HK05566MKM.html"
    },
    {
        "title": "武汉洪山区：买新建商办房屋300平米以上的，可享受与住宅同等教育养老等服务",
        "docid": "J3I7G7LG0514R9P4",
        "url": "https://www.163.com/dy/article/J3I7G7LG0514R9P4.html"
    },
    {
        "title": "王炸！武汉白沙洲又新增两处地块规划",
        "docid": "J3H9SJ2L0556124M",
        "url": "https://www.163.com/dy/article/J3H9SJ2L0556124M.html"
    },
    {
        "title": "国内首座城，武汉下调按揭贷款利率下限，已买房人能下调利率吗？",
        "docid": "J3DTRPSD0539PXYN",
        "url": "https://www.163.com/dy/article/J3DTRPSD0539PXYN.html"
    },
    {
        "title": "规划公示！这里将添2000㎡菜市场！",
        "docid": "J3EHJR120545DG4X",
        "url": "https://www.163.com/dy/article/J3EHJR120545DG4X.html"
    },
    {
        "title": "毕业季租房“避雷”手册，这些法律知识要掌握",
        "docid": "J3HJU1M60556867H",
        "url": "https://www.163.com/dy/article/J3HJU1M60556867H.html"
    },
    {
        "title": "武汉：鼓励全面开展商品房预告登记，从源头防范“一房二卖”“先卖后抵”等风险",
        "docid": "J3I2BE8E0514R9P4",
        "url": "https://www.163.com/dy/article/J3I2BE8E0514R9P4.html"
    },
    {
        "title": "最新！白沙洲K6地块项目建设",
        "docid": "J3BOEQPA05566RS4",
        "url": "https://www.163.com/dy/article/J3BOEQPA05566RS4.html"
    },
    {
        "title": "武汉城建绍兴里1921项目首开收金2.16亿",
        "docid": "J3HVOFMV0519D45U",
        "url": "https://www.163.com/dy/article/J3HVOFMV0519D45U.html"
    },
    {
        "title": "武汉洪山区：买新建商办房屋300平米以上的，可享受与住宅同等教育养老等服务",
        "docid": "J3I7G7LG0514R9P4",
        "url": "https://www.163.com/dy/article/J3I7G7LG0514R9P4.html"
    },
    {
        "title": "王炸！武汉白沙洲又新增两处地块规划",
        "docid": "J3H9SJ2L0556124M",
        "url": "https://www.163.com/dy/article/J3H9SJ2L0556124M.html"
    },
    {
        "title": "国内首座城，武汉下调按揭贷款利率下限，已买房人能下调利率吗？",
        "docid": "J3DTRPSD0539PXYN",
        "url": "https://www.163.com/dy/article/J3DTRPSD0539PXYN.html"
    },
    {
        "title": "规划公示！这里将添2000㎡菜市场！",
        "docid": "J3EHJR120545DG4X",
        "url": "https://www.163.com/dy/article/J3EHJR120545DG4X.html"
    },
    {
        "title": "武汉：鼓励全面开展商品房预告登记，从源头防范“一房二卖”“先卖后抵”等风险",
        "docid": "J3I2BE8E0514R9P4",
        "url": "https://www.163.com/dy/article/J3I2BE8E0514R9P4.html"
    },
    {
        "title": "武汉城建绍兴里1921项目首开收金2.16亿",
        "docid": "J3HVOFMV0519D45U",
        "url": "https://www.163.com/dy/article/J3HVOFMV0519D45U.html"
    },
    {
        "title": "2024年人居梦想“好房子”入围项目展示（编号076-100）",
        "docid": "J3DTSLSR05159A0N",
        "url": "https://www.163.com/dy/article/J3DTSLSR05159A0N.html"
    },
    {
        "title": "武汉豪宅【开山立序】之作，一登场就放大招",
        "docid": "J3ERR4DP05159OP0",
        "url": "https://www.163.com/dy/article/J3ERR4DP05159OP0.html"
    },
    {
        "title": "武汉超大城中村--郭徐岭，拆迁安置即将开始",
        "docid": "J3I0FL1T0553TB8M",
        "url": "https://www.163.com/dy/article/J3I0FL1T0553TB8M.html"
    },
    {
        "title": "外资大胆预测：最早在2025年，中国楼市会出现供应短缺，可信吗？",
        "docid": "J3I73H3N05567VMT",
        "url": "https://www.163.com/dy/article/J3I73H3N05567VMT.html"
    },
    {
        "title": "房企又一个偿债小高峰，正在逼近",
        "docid": "J3J7RKGJ05158B67",
        "url": "https://www.163.com/dy/article/J3J7RKGJ05158B67.html"
    },
    {
        "title": "2025年，租房时代来了，你准备好了吗？",
        "docid": "J3HHFU430535PKJN",
        "url": "https://www.163.com/dy/article/J3HHFU430535PKJN.html"
    },
    {
        "title": "百强房企5月业绩环比增3.4%，新政加持下6月预期回升",
        "docid": "J3JB7U9A0515AR3K",
        "url": "https://www.163.com/dy/article/J3JB7U9A0515AR3K.html"
    },
    {
        "title": "现在信号太混乱，房地产里各种骗子突然就多起来",
        "docid": "J3JD3OA60553TDVP",
        "url": "https://www.163.com/dy/article/J3JD3OA60553TDVP.html"
    },
    {
        "title": "中指研究院：百城新建住宅价格环比结构性上涨",
        "docid": "J3JA3FBM05198CJN",
        "url": "https://www.163.com/dy/article/J3JA3FBM05198CJN.html"
    },
    {
        "title": "老人买下四套房全部烂尾，中国房地产业如何才能健康发展下去？",
        "docid": "J3J3FC7405524QHN",
        "url": "https://www.163.com/dy/article/J3J3FC7405524QHN.html"
    },
    {
        "title": "再便宜也不买！这6种房不好住也卖不掉，内行人：妥妥“穷人房”",
        "docid": "J3JDIDGH05567OHO",
        "url": "https://www.163.com/dy/article/J3JDIDGH05567OHO.html"
    },
    {
        "title": "闹大了！针对恒大地产许家印！官方通报，警告并罚款！评论区沦陷",
        "docid": "J3JCGQ5N055616ZT",
        "url": "https://www.163.com/dy/article/J3JCGQ5N055616ZT.html"
    },
    {
        "title": "银行开始拒收“断供房”了…",
        "docid": "J3J60C340552HI5G",
        "url": "https://www.163.com/dy/article/J3J60C340552HI5G.html"
    },
    {
        "title": "希腊黄金签证80万欧元新时代：雅典之外，希腊哪里的房子可以买？",
        "docid": "J3J76EJC0553TDTY",
        "url": "https://www.163.com/dy/article/J3J76EJC0553TDTY.html"
    },
    {
        "title": "2024年，买房贷款选择等额本息好还是等额本金好？",
        "docid": "J3JIRIEK0539MTET",
        "url": "https://www.163.com/dy/article/J3JIRIEK0539MTET.html"
    },
    {
        "title": "知名物业公司内部质量控制手册",
        "docid": "J3JDA8D4055615MY",
        "url": "https://www.163.com/dy/article/J3JDA8D4055615MY.html"
    },
    {
        "title": "宣布涨价！一线楼市，带节奏了！",
        "docid": "J3JIDRIR0519ICVN",
        "url": "https://www.163.com/dy/article/J3JIDRIR0519ICVN.html"
    },
    {
        "title": "网友：100%确定房价还会涨！",
        "docid": "J3JHQ97705536P04",
        "url": "https://www.163.com/dy/article/J3JHQ97705536P04.html"
    },
    {
        "title": "利率史诗级下调，存量贷款却按兵不动，为何不给存量房贷减压？",
        "docid": "J3JGSH710553XH85",
        "url": "https://www.163.com/dy/article/J3JGSH710553XH85.html"
    },
    {
        "title": "物业温馨提示的写作要求与示范文本",
        "docid": "J3JEKRE9055615MY",
        "url": "https://www.163.com/dy/article/J3JEKRE9055615MY.html"
    },
    {
        "title": "六一活动哪家强？物业宠粉纷纷亮绝活",
        "docid": "J3JDBCET055615MY",
        "url": "https://www.163.com/dy/article/J3JDBCET055615MY.html"
    },
    {
        "title": "『官方』上海浦东永泰三里城售楼处发布：魔都高性价比之作！",
        "docid": "J36FV0SO055663IX",
        "url": "https://www.163.com/dy/article/J36FV0SO055663IX.html"
    },
    {
        "title": "许家印被顶格处罚、恒大地产被罚款41.75亿，&quot;手段特别恶劣 情节特别严重&quot;",
        "docid": "J3JJ3UUE0514D3UH",
        "url": "https://www.163.com/dy/article/J3JJ3UUE0514D3UH.html"
    },
    {
        "title": "参观硅谷苹果总部不远别墅，10分学区，开价370美元，值吗？",
        "docid": "VD28IK0UF",
        "url": "https://www.163.com/dy/article/VD28IK0UF.html"
    },
    {
        "title": "我想到一个办法，年轻人买房可以互帮互利",
        "docid": "J36HBVTP05565QPS",
        "url": "https://www.163.com/dy/article/J36HBVTP05565QPS.html"
    },
    {
        "title": "稳楼市！稳楼市 ！稳楼市 ！",
        "docid": "J3JGD59S0553TDTY",
        "url": "https://www.163.com/dy/article/J3JGD59S0553TDTY.html"
    },
    {
        "title": "银行暂缓收房，背后的善意还是银行的利益？",
        "docid": "VW2LNFOVD",
        "url": "https://www.163.com/dy/article/VW2LNFOVD.html"
    },
    {
        "title": "六百亿套房卖给谁？！房价暴跌也没人买吧！？",
        "docid": "VV2KVRTEF",
        "url": "https://www.163.com/dy/article/VV2KVRTEF.html"
    },
    {
        "title": "专家称：一半存量住房20年内或需拆了重建",
        "docid": "VH2J3D7I5",
        "url": "https://www.163.com/dy/article/VH2J3D7I5.html"
    },
    {
        "title": "我为什么一定要给女儿买房？这位妈妈的回答扎心了",
        "docid": "VI2L1G4H0",
        "url": "https://www.163.com/dy/article/VI2L1G4H0.html"
    },
    {
        "title": "未来几年房价上涨，压力非常大",
        "docid": "VN2LN6T0Q",
        "url": "https://www.163.com/dy/article/VN2LN6T0Q.html"
    },
    {
        "title": "如果稳不住房价，房地产下行态势很难改变",
        "docid": "VG2JIS130",
        "url": "https://www.163.com/dy/article/VG2JIS130.html"
    },
    {
        "title": "买房的套路真是太多了！",
        "docid": "VG2LO4T3N",
        "url": "https://www.163.com/dy/article/VG2LO4T3N.html"
    },
    {
        "title": "房价飙升，楼市新政出台，房地产市场前景如何？",
        "docid": "VF2LNFL2M",
        "url": "https://www.163.com/dy/article/VF2LNFL2M.html"
    },
    {
        "title": "武汉绿城·梧桐里产品发布圆满落幕",
        "docid": "J3JM6RTJ05567SKQ",
        "url": "https://www.163.com/dy/article/J3JM6RTJ05567SKQ.html"
    },
    {
        "title": "亿万富翁、房地产投资者谈特朗普判决的影响:没人想在纽约做生意",
        "docid": "J3JJGS9K05566TF9",
        "url": "https://www.163.com/dy/article/J3JJGS9K05566TF9.html"
    },
    {
        "title": "贝壳网突然取消查看成交单价，买房人没有了参考，释放了什么信号",
        "docid": "J3JK9GA505562DLL",
        "url": "https://www.163.com/dy/article/J3JK9GA505562DLL.html"
    },
    {
        "title": "新政后立刻涨价成交！楼市热度又回来了？",
        "docid": "J3JK3HNI0515UN97",
        "url": "https://www.163.com/dy/article/J3JK3HNI0515UN97.html"
    },
    {
        "title": "不仅房价扛不住，一二线城市的租金也有些撑不住了",
        "docid": "J3JI0P2O0536UOB3",
        "url": "https://www.163.com/dy/article/J3JI0P2O0536UOB3.html"
    },
    {
        "title": "一线城市接力松绑楼市，普华永道连丢大单丨一周热点回顾",
        "docid": "J3JLC9GL0519DDQ2",
        "url": "https://www.163.com/dy/article/J3JLC9GL0519DDQ2.html"
    },
    {
        "title": "买电梯高层，避开4个楼层，懂得都知道，虽然便宜却卖不出去",
        "docid": "J3JIGJ3O0532D0CK",
        "url": "https://www.163.com/dy/article/J3JIGJ3O0532D0CK.html"
    },
    {
        "title": "高盛预测中国房价降40%",
        "docid": "VE2LO1MSU",
        "url": "https://www.163.com/dy/article/VE2LO1MSU.html"
    },
    {
        "title": "1000万在上海能买到什么样的房子？【夫妻看房日记】",
        "docid": "VF2LQ33KS",
        "url": "https://www.163.com/dy/article/VF2LQ33KS.html"
    },
    {
        "title": "汇丰：房价最快明年上涨！我为什么很赞同？",
        "docid": "VS2J3BUD4",
        "url": "https://www.163.com/dy/article/VS2J3BUD4.html"
    },
    {
        "title": "当年轻人接盘暴跌的“老破小”后，如何拯救它们？",
        "docid": "J3JNB71A0515AJG5",
        "url": "https://www.163.com/dy/article/J3JNB71A0515AJG5.html"
    },
    {
        "title": "房地产专家纪要：5月楼市效果如何？",
        "docid": "J3JN24KB0553QMR9",
        "url": "https://www.163.com/dy/article/J3JN24KB0553QMR9.html"
    },
    {
        "title": "来信了！终于等到这个大项目，多少常熟人在期待…",
        "docid": "J3JN99EG0545B35S",
        "url": "https://www.163.com/dy/article/J3JN99EG0545B35S.html"
    },
    {
        "title": "买房干货！六个必备技巧",
        "docid": "VG2LO4TQN",
        "url": "https://www.163.com/dy/article/VG2LO4TQN.html"
    },
    {
        "title": "家里一个男人都没有，三女困守老城区怎么办？爆改武汉百年老宅…",
        "docid": "VU28POJMH",
        "url": "https://www.163.com/dy/article/VU28POJMH.html"
    },
    {
        "title": "城投债的问题，仍然是巨大压力",
        "docid": "VZ2LQO01L",
        "url": "https://www.163.com/dy/article/VZ2LQO01L.html"
    },
    {
        "title": "这个拆迁户不打算买房了",
        "docid": "VZ2LR4PTO",
        "url": "https://www.163.com/dy/article/VZ2LR4PTO.html"
    },
    {
        "title": "上午10点12分，著名相声演员：岳云鹏在北京的豪宅现状，都看看吧",
        "docid": "VS28G4V88",
        "url": "https://www.163.com/dy/article/VS28G4V88.html"
    },
    {
        "title": "央行517救市效果如何？5月百强房企销售业绩出炉",
        "docid": "VG2LRM6LR",
        "url": "https://www.163.com/dy/article/VG2LRM6LR.html"
    },
    {
        "title": "作为江阴市商业地标的人民路步行街，集大型商场和人文景观于一体",
        "docid": "VF2KKTUVD",
        "url": "https://www.163.com/dy/article/VF2KKTUVD.html"
    },
    {
        "title": "对比之后，才发现说日本房产追回30年这话，还为时尚“早”……",
        "docid": "J3JNMGCJ05359JWY",
        "url": "https://www.163.com/dy/article/J3JNMGCJ05359JWY.html"
    },
    {
        "title": "百强房企业绩环比增长3.4%，同比降低34%，买房人应该如何选择？",
        "docid": "J3JOMR5G05562DLL",
        "url": "https://www.163.com/dy/article/J3JOMR5G05562DLL.html"
    },
    {
        "title": "拆迁潮又来了？2024年起，房龄过40年的老旧小区，将这样处理",
        "docid": "VW2LUKRRT",
        "url": "https://www.163.com/dy/article/VW2LUKRRT.html"
    },
    {
        "title": "100万能买多大房子？",
        "docid": "VN28NUB3B",
        "url": "https://www.163.com/dy/article/VN28NUB3B.html"
    },
    {
        "title": "上午10点12分，著名相声演员：岳云鹏在北京的豪宅现状，都看看吧",
        "docid": "VF28FTAJK",
        "url": "https://www.163.com/dy/article/VF28FTAJK.html"
    },
    {
        "title": "从335万跌到202万，夫妻投资北京周边亏大了",
        "docid": "VV2LUJ50Q",
        "url": "https://www.163.com/dy/article/VV2LUJ50Q.html"
    },
    {
        "title": "珠海海泉湾度假村，2006年开至今，功能齐全完备的旅游园区",
        "docid": "VE2LUE0FI",
        "url": "https://www.163.com/dy/article/VE2LUE0FI.html"
    },
    {
        "title": "上午10点12分，著名相声演员：岳云鹏在北京的豪宅现状，都看看吧",
        "docid": "VC28G794I",
        "url": "https://www.163.com/dy/article/VC28G794I.html"
    },
    {
        "title": "逆市大卖，老破小遭“疯抢”？楼市风向标变了",
        "docid": "VI2HNB0TU",
        "url": "https://www.163.com/dy/article/VI2HNB0TU.html"
    },
    {
        "title": "房价跌了，\"租房时代\"来了，你准备好了吗?",
        "docid": "VM2LNOQ2U",
        "url": "https://www.163.com/dy/article/VM2LNOQ2U.html"
    },
    {
        "title": "老楼加装电梯运营之困局！",
        "docid": "J3JRD12J0553TEQM",
        "url": "https://www.163.com/dy/article/J3JRD12J0553TEQM.html"
    },
    {
        "title": "不出意外，端午节过后这5样东西还要降价，建议大家不要着急买",
        "docid": "J3JQ17PO0519GBC0",
        "url": "https://www.163.com/dy/article/J3JQ17PO0519GBC0.html"
    },
    {
        "title": "未来几个月不宜买房，得继续观察是否止跌企稳",
        "docid": "J3JQEB6A05567IYR",
        "url": "https://www.163.com/dy/article/J3JQEB6A05567IYR.html"
    },
    {
        "title": "房地产这趟浑水，少说还得闹腾个五六年",
        "docid": "J3JQOJEB05567IYR",
        "url": "https://www.163.com/dy/article/J3JQOJEB05567IYR.html"
    },
    {
        "title": "建筑工人正在经历严峻的洗牌，今年或成为失业率最高职业。",
        "docid": "J3JRH6FL055633SL",
        "url": "https://www.163.com/dy/article/J3JRH6FL055633SL.html"
    },
    {
        "title": "万科深圳湾总部地块亏损20亿出售，同地区恒大总部却溢价20亿！",
        "docid": "VH2L8BSOV",
        "url": "https://www.163.com/dy/article/VH2L8BSOV.html"
    },
    {
        "title": "农民八问，谁来给解答？",
        "docid": "VW2L79RFC",
        "url": "https://www.163.com/dy/article/VW2L79RFC.html"
    },
    {
        "title": "产权面积99，实用面积200+！这是你们想要的",
        "docid": "VS2L59MLG",
        "url": "https://www.163.com/dy/article/VS2L59MLG.html"
    },
    {
        "title": "有阵子没更新，来个墅王开开胃，看看北京6千多万的别墅长啥样？",
        "docid": "VF2L40DHI",
        "url": "https://www.163.com/dy/article/VF2L40DHI.html"
    },
    {
        "title": "空白协议为什么不能签？一个真实的故事告诉你。",
        "docid": "VN2L4H1M8",
        "url": "https://www.163.com/dy/article/VN2L4H1M8.html"
    },
    {
        "title": "重要信号，不要等房价下跌了，首期只要3万，贷款利率1.68",
        "docid": "J3JT069T05567JHM",
        "url": "https://www.163.com/dy/article/J3JT069T05567JHM.html"
    },
    {
        "title": "住新房五年，我一直以为对门是骨灰房，直到有一天传来了声音",
        "docid": "J3JR3HED055634WL",
        "url": "https://www.163.com/dy/article/J3JR3HED055634WL.html"
    },
    {
        "title": "山卡拉叠溪花园，入住率爆满的神奇楼盘",
        "docid": "VF2LAG4GJ",
        "url": "https://www.163.com/dy/article/VF2LAG4GJ.html"
    },
    {
        "title": "武汉豪宅：露台泳池江景大平层，壹城豪宅夏意",
        "docid": "VC2L9HIB1",
        "url": "https://www.163.com/dy/article/VC2L9HIB1.html"
    },
    {
        "title": "产权面积99，实用面积200+！这是你们想要的",
        "docid": "VS2L7D61B",
        "url": "https://www.163.com/dy/article/VS2L7D61B.html"
    },
    {
        "title": "农民八问，谁来给解答？",
        "docid": "VG2L55OET",
        "url": "https://www.163.com/dy/article/VG2L55OET.html"
    },
    {
        "title": "朋友买的34楼连廊房，交房后真是太吓人了，走在连廊腿都在发抖！",
        "docid": "VR2L7VKLE",
        "url": "https://www.163.com/dy/article/VR2L7VKLE.html"
    },
    {
        "title": "泰国都喜国际与仙居绿择合作运营管理华东两家全新酒店  快报",
        "docid": "VP2JAGUEM",
        "url": "https://www.163.com/dy/article/VP2JAGUEM.html"
    },
    {
        "title": "新家电梯玄学暗示你家档次？",
        "docid": "VC2L9FHU3",
        "url": "https://www.163.com/dy/article/VC2L9FHU3.html"
    },
    {
        "title": "妹妹回国后，发现自己的四层大别墅没了，一问是亲哥给卖了",
        "docid": "VD2L7Q8PO",
        "url": "https://www.163.com/dy/article/VD2L7Q8PO.html"
    },
    {
        "title": "中国有房=稳稳的幸福，美国没金=居无定所的焦虑。",
        "docid": "J3JQI6O30552VH2Y",
        "url": "https://www.163.com/dy/article/J3JQI6O30552VH2Y.html"
    },
    {
        "title": "多地探索土地出让新模式",
        "docid": "J3JU6BAN055616ZT",
        "url": "https://www.163.com/dy/article/J3JU6BAN055616ZT.html"
    },
    {
        "title": "当下房地产与90年代日本房地产泡沫有多像？切勿重蹈日本的覆辙",
        "docid": "VP2L96FFQ",
        "url": "https://www.163.com/dy/article/VP2L96FFQ.html"
    },
    {
        "title": "这7年来，已经买房的人，持有的房产还有多少价值？",
        "docid": "VU27IG12N",
        "url": "https://www.163.com/dy/article/VU27IG12N.html"
    },
    {
        "title": "原值260万毛坯买入，装了40万后，230挂牌卖房",
        "docid": "VU28VCU20",
        "url": "https://www.163.com/dy/article/VU28VCU20.html"
    },
    {
        "title": "89平三方洋房刚需沿江楼盘",
        "docid": "VN26CK6SM",
        "url": "https://www.163.com/dy/article/VN26CK6SM.html"
    },
    {
        "title": "南昌遥遥领先，赣州虎视眈眈，南宁还有机会？广西五强PK江西五",
        "docid": "VM28EEC9H",
        "url": "https://www.163.com/dy/article/VM28EEC9H.html"
    },
    {
        "title": "产粮大县大片黑土地被征占建别墅",
        "docid": "VK2L8SKIG",
        "url": "https://www.163.com/dy/article/VK2L8SKIG.html"
    },
    {
        "title": "为什么非要逼老百姓买房？首付15%意味着什么？湖南、四川、浙江、广东楼市新政已执行",
        "docid": "VK2L9OECF",
        "url": "https://www.163.com/dy/article/VK2L9OECF.html"
    },
    {
        "title": "海边捡的废弃别墅一住就是个把月，旁边楼里很多有用的真是太可惜",
        "docid": "VK28KIEJU",
        "url": "https://www.163.com/dy/article/VK28KIEJU.html"
    },
    {
        "title": "许家印+恒大被罚42亿！6家中介机构瑟瑟发抖",
        "docid": "J3JUEUSQ0519KEIJ",
        "url": "https://www.163.com/dy/article/J3JUEUSQ0519KEIJ.html"
    },
    {
        "title": "卖掉高层住宅，搬到老小区，才知道高层住宅就是妥妥的割韭菜！",
        "docid": "J3BJ9MMM0540A6F8",
        "url": "https://www.163.com/dy/article/J3BJ9MMM0540A6F8.html"
    },
    {
        "title": "取消限购、降低首付之后，我打消了买房的念头",
        "docid": "VR2M0TTK4",
        "url": "https://www.163.com/dy/article/VR2M0TTK4.html"
    },
    {
        "title": "泰国买房真相曝光！40万海景房成困扰，卖不掉真的肠子都悔青了",
        "docid": "VF2LA9VFT",
        "url": "https://www.163.com/dy/article/VF2LA9VFT.html"
    },
    {
        "title": "一半存量住房，未来 20年内需拆了重建？背后暗藏着什么玄机？",
        "docid": "VP2LG27UU",
        "url": "https://www.163.com/dy/article/VP2LG27UU.html"
    },
    {
        "title": "央行517救市效果如何？5月百强房企销售业绩出炉",
        "docid": "VY2LCC4B5",
        "url": "https://www.163.com/dy/article/VY2LCC4B5.html"
    },
    {
        "title": "房价大跌真会引爆金融危机？",
        "docid": "VQ2M1IFIK",
        "url": "https://www.163.com/dy/article/VQ2M1IFIK.html"
    },
    {
        "title": "即使房价有调整压力，我也不赞成卖房炒股",
        "docid": "VG2ED7K47",
        "url": "https://www.163.com/dy/article/VG2ED7K47.html"
    },
    {
        "title": "一家濒临倒闭的酒店，居然被少妇一番话救活了",
        "docid": "VZ2L9QP86",
        "url": "https://www.163.com/dy/article/VZ2L9QP86.html"
    },
    {
        "title": "这次房地产“新政”，让市场惊呼“历史性巨变”！？",
        "docid": "VN2M02GQ1",
        "url": "https://www.163.com/dy/article/VN2M02GQ1.html"
    },
    {
        "title": "缅甸全国房地产交易冷清期间，仰光这个镇区房地产“火出圈”",
        "docid": "J3K1LIK80534MHMX",
        "url": "https://www.163.com/dy/article/J3K1LIK80534MHMX.html"
    },
    {
        "title": "专家预测2025年房子会出现短缺,因为评论区90%的人说还没有房子",
        "docid": "VQ2M29GAT",
        "url": "https://www.163.com/dy/article/VQ2M29GAT.html"
    },
    {
        "title": "突然之间！“老破小”备受关注，因为“原拆原建”火了！",
        "docid": "VS2LHH1C4",
        "url": "https://www.163.com/dy/article/VS2LHH1C4.html"
    },
    {
        "title": "房价崩盘了，一套房子五千块钱居然无人问津，难道还贵吗？",
        "docid": "VP2L769HL",
        "url": "https://www.163.com/dy/article/VP2L769HL.html"
    },
    {
        "title": "美国底层打工人，租房不到10平米，月租500美金",
        "docid": "VI2M1QV6S",
        "url": "https://www.163.com/dy/article/VI2M1QV6S.html"
    },
    {
        "title": "广州和深圳紧急出台楼市新政，一线的压力有多大？",
        "docid": "VR2LMLSD9",
        "url": "https://www.163.com/dy/article/VR2LMLSD9.html"
    },
    {
        "title": "楼市大招频出，刚需房要被消灭了？",
        "docid": "VF2M10J1U",
        "url": "https://www.163.com/dy/article/VF2M10J1U.html"
    },
    {
        "title": "2024房价走势分析：未来房价会继续上涨吗？",
        "docid": "VW2LAP1FO",
        "url": "https://www.163.com/dy/article/VW2LAP1FO.html"
    },
    {
        "title": "不想再住合租房了 今天老公带我去看房子我很喜欢 价格也合适",
        "docid": "VS294MUBO",
        "url": "https://www.163.com/dy/article/VS294MUBO.html"
    },
    {
        "title": "30年老楼加装电梯后，楼上楼下都后悔了，房价腰斩都无人问津！",
        "docid": "VY2LO32LR",
        "url": "https://www.163.com/dy/article/VY2LO32LR.html"
    },
    {
        "title": "热问｜购买未成年人名下二手房，需注意哪些问题？",
        "docid": "J3K378QK0512D3VJ",
        "url": "https://www.163.com/dy/article/J3K378QK0512D3VJ.html"
    },
    {
        "title": "一线城市房子是风向标：是否还能守得住",
        "docid": "J3K23S5T05538DP3",
        "url": "https://www.163.com/dy/article/J3K23S5T05538DP3.html"
    },
    {
        "title": "武汉卖豪宅的小姐姐，一个月收入20多万",
        "docid": "J3K31EJ605159OP0",
        "url": "https://www.163.com/dy/article/J3K31EJ605159OP0.html"
    },
    {
        "title": "全国限购即将全部打开；万科朗拾花语现场非常火爆！疯狂抢房中！",
        "docid": "J3740PLN0556757N",
        "url": "https://www.163.com/dy/article/J3740PLN0556757N.html"
    },
    {
        "title": "重磅！存量房贷新政来了！",
        "docid": "J3K2SO6M0535QL75",
        "url": "https://www.163.com/dy/article/J3K2SO6M0535QL75.html"
    },
    {
        "title": "吉林一地大面积黑土地被征占建别墅，说好的特色小镇呢？",
        "docid": "VF2K3CMR7",
        "url": "https://www.163.com/dy/article/VF2K3CMR7.html"
    },
    {
        "title": "高层邻居强行加装电梯一楼商铺打死不认同，老板1400万买下随便装",
        "docid": "VN2M4UOVK",
        "url": "https://www.163.com/dy/article/VN2M4UOVK.html"
    },
    {
        "title": "土地荒芜，农民是否应该承担责任？",
        "docid": "VD2M5GHMK",
        "url": "https://www.163.com/dy/article/VD2M5GHMK.html"
    },
    {
        "title": "关注我了解更多房产知识",
        "docid": "VE2LJMHC7",
        "url": "https://www.163.com/dy/article/VE2LJMHC7.html"
    },
    {
        "title": "6年前花350万在郑州买的一楼洋房，如今卖掉要赔多少？一算吓一跳",
        "docid": "VY2LGAOJ1",
        "url": "https://www.163.com/dy/article/VY2LGAOJ1.html"
    },
    {
        "title": "英国租金再创下历史新高；苏纳克承诺，如果他赢得大选，就会降息",
        "docid": "J3K4H9UN055633DF",
        "url": "https://www.163.com/dy/article/J3K4H9UN055633DF.html"
    },
    {
        "title": "恒大地产被罚款41.75亿，最新百强房企排名出炉，前十名都是谁？",
        "docid": "VQ2LK6P1J",
        "url": "https://www.163.com/dy/article/VQ2LK6P1J.html"
    },
    {
        "title": "骆驼湾荣府复式现房洋房",
        "docid": "VV2LQTUL8",
        "url": "https://www.163.com/dy/article/VV2LQTUL8.html"
    },
    {
        "title": "主城超性价比的合院别墅面积210-340平，总价180w起",
        "docid": "VV28S8089",
        "url": "https://www.163.com/dy/article/VV28S8089.html"
    },
    {
        "title": "滇池度假区瞰滇大平层，面积140-180平准现房",
        "docid": "VV28S9TEN",
        "url": "https://www.163.com/dy/article/VV28S9TEN.html"
    },
    {
        "title": "滇池旁纯墅区实得680平合院现房，总价520万起，前后大庭院",
        "docid": "VV28SFUO1",
        "url": "https://www.163.com/dy/article/VV28SFUO1.html"
    },
    {
        "title": "侄子买房150平，差钱30万要我帮忙，这个钱我能借给他吗",
        "docid": "VX2LHQ4K5",
        "url": "https://www.163.com/dy/article/VX2LHQ4K5.html"
    },
    {
        "title": "骆驼湾荣府精致三房双公园现房",
        "docid": "VV28S51AE",
        "url": "https://www.163.com/dy/article/VV28S51AE.html"
    },
    {
        "title": "6年前花350万在郑州买的一楼洋房，如今卖掉要赔多少？一算吓一跳",
        "docid": "VS2LESO3I",
        "url": "https://www.163.com/dy/article/VS2LESO3I.html"
    },
    {
        "title": "从明年开始，我们会逐步进入全民租房的时代！咱们拭目以待。",
        "docid": "VT2LFSPUI",
        "url": "https://www.163.com/dy/article/VT2LFSPUI.html"
    },
    {
        "title": "官方公布—新政后横琴玺卖疯了!『华发横琴玺售楼处』—欢迎您!!",
        "docid": "J3K5P8QH055644UJ",
        "url": "https://www.163.com/dy/article/J3K5P8QH055644UJ.html"
    },
    {
        "title": "2024年城市魅力排行榜出炉，汕头、揭阳上榜，潮州崭露头角",
        "docid": "VS2M8C267",
        "url": "https://www.163.com/dy/article/VS2M8C267.html"
    },
    {
        "title": "5年以后，100万的房子能值多少钱，听听内行人是咋说的",
        "docid": "VV2LLOC4M",
        "url": "https://www.163.com/dy/article/VV2LLOC4M.html"
    },
    {
        "title": "房产中介说漏了嘴，今明两年想买房，一定要牢记“买次”“买中”",
        "docid": "VP2M987HP",
        "url": "https://www.163.com/dy/article/VP2M987HP.html"
    },
    {
        "title": "小区业主想要卖房，大家都在阳台挂横幅，房价涨了就会后悔",
        "docid": "VP2E1QEO9",
        "url": "https://www.163.com/dy/article/VP2E1QEO9.html"
    },
    {
        "title": "上海生育率创新低，比韩国还低，并且离婚预约登记爆满！",
        "docid": "VV2MCQN50",
        "url": "https://www.163.com/dy/article/VV2MCQN50.html"
    },
    {
        "title": "20年老旧小区安装了电梯，业主们却后悔了，直言花钱找罪受",
        "docid": "VY2LI4J1B",
        "url": "https://www.163.com/dy/article/VY2LI4J1B.html"
    },
    {
        "title": "曾经每户给200都不搬，如今农村住宅，小区生活，物业停车都省了",
        "docid": "VS2M7PLLD",
        "url": "https://www.163.com/dy/article/VS2M7PLLD.html"
    },
    {
        "title": "业主要被踢出业主群了了",
        "docid": "VU2LLPBKG",
        "url": "https://www.163.com/dy/article/VU2LLPBKG.html"
    },
    {
        "title": "现代家庭焦虑：房子不缺，缺的是生活斗志",
        "docid": "VC2LJ22RG",
        "url": "https://www.163.com/dy/article/VC2LJ22RG.html"
    },
    {
        "title": "网友神评房贷下调：把上吊的绳子下调10厘米，让个头矮的也能上去",
        "docid": "J3K8TV5B0534B9EY",
        "url": "https://www.163.com/dy/article/J3K8TV5B0534B9EY.html"
    },
    {
        "title": "2年前9000万以上抢不到 如今6800余万无人问津 翠湖四期也无奈",
        "docid": "J3K9LH960553TDVP",
        "url": "https://www.163.com/dy/article/J3K9LH960553TDVP.html"
    },
    {
        "title": "武车国际生活区正在拆迁的2个项目",
        "docid": "J3K9TKF10552F71X",
        "url": "https://www.163.com/dy/article/J3K9TKF10552F71X.html"
    },
    {
        "title": "最新：有银行存量房贷可申请“先息后本”！网友：降低存量房贷利率更实际！",
        "docid": "J3K990QB0535U94I",
        "url": "https://www.163.com/dy/article/J3K990QB0535U94I.html"
    },
    {
        "title": "给一千万都不愿意，如今房主做起了生意，天天噪音灰层满天飞",
        "docid": "VF2MA334O",
        "url": "https://www.163.com/dy/article/VF2MA334O.html"
    },
    {
        "title": "什么是中产？你有没有被收割？视频来告诉你，中产原来是这样子",
        "docid": "VY29BIC02",
        "url": "https://www.163.com/dy/article/VY29BIC02.html"
    },
    {
        "title": "房地产持续下跌何时迎拐点？水电气涨价通胀会来吗？",
        "docid": "VY2L9R1VO",
        "url": "https://www.163.com/dy/article/VY2L9R1VO.html"
    },
    {
        "title": "五年以后，3类房子将会一文不值，很多人还不知道",
        "docid": "VN28N555M",
        "url": "https://www.163.com/dy/article/VN28N555M.html"
    },
    {
        "title": "农村宅基地20年翻379倍！原房主反悔，结局你猜不到！",
        "docid": "VR2976589",
        "url": "https://www.163.com/dy/article/VR2976589.html"
    },
    {
        "title": "未来房价究竟是涨还是跌？",
        "docid": "VS2M8D33B",
        "url": "https://www.163.com/dy/article/VS2M8D33B.html"
    },
    {
        "title": "今明两年，手握2套以上房子的家庭，免不了要遭遇3个棘手的问题",
        "docid": "J3KANFCR0553TDXU",
        "url": "https://www.163.com/dy/article/J3KANFCR0553TDXU.html"
    },
    {
        "title": "此轮房价还未见底，专家建议观察几个月",
        "docid": "J3K9UVKD055629OM",
        "url": "https://www.163.com/dy/article/J3K9UVKD055629OM.html"
    },
    {
        "title": "精装房和毛坯房买哪个更划算？师傅帮你一算成本，买房的要看好了",
        "docid": "J37BCRM80540SN7V",
        "url": "https://www.163.com/dy/article/J37BCRM80540SN7V.html"
    },
    {
        "title": "武汉洪山区：买新建商办房屋300平米以上的，可享受与住宅同等教育养老等服务",
        "docid": "J3I7G7LG0514R9P4",
        "url": "https://www.163.com/dy/article/J3I7G7LG0514R9P4.html"
    },
    {
        "title": "传贳房正毁掉韩国年轻人，背上房贷又没地方住，是一种怎样的体验",
        "docid": "J3K8JCJ10552XB1I",
        "url": "https://www.163.com/dy/article/J3K8JCJ10552XB1I.html"
    },
    {
        "title": "这才是房地产最大的雷！",
        "docid": "J3JQ8HBS055658KI",
        "url": "https://www.163.com/dy/article/J3JQ8HBS055658KI.html"
    },
    {
        "title": "中指研究院：百城住宅价格环比结构上涨，二手房均价破14870元！",
        "docid": "J3JLK7IP05562DLL",
        "url": "https://www.163.com/dy/article/J3JLK7IP05562DLL.html"
    },
    {
        "title": "武汉绿城·梧桐里产品发布圆满落幕",
        "docid": "J3JM6RTJ05567SKQ",
        "url": "https://www.163.com/dy/article/J3JM6RTJ05567SKQ.html"
    },
    {
        "title": "老小区整合空地划出82个车位，居民：停车秩序规范多了",
        "docid": "J3F33URR053469LG",
        "url": "https://www.163.com/dy/article/J3F33URR053469LG.html"
    },
    {
        "title": "房地产金融新政密集落地，楼市表现如何？",
        "docid": "J3JPOPS00552UVG7",
        "url": "https://www.163.com/dy/article/J3JPOPS00552UVG7.html"
    },
    {
        "title": "创业失败，他办了“气球贷”，面审要说“贷款是用于房屋装修的”",
        "docid": "J3KBVNH80553TDVP",
        "url": "https://www.163.com/dy/article/J3KBVNH80553TDVP.html"
    },
    {
        "title": "2024年该不该买房，什么时候买房合适，看贷款利率就能决定买不买",
        "docid": "J3KARQJV0553TB9L",
        "url": "https://www.163.com/dy/article/J3KARQJV0553TB9L.html"
    },
    {
        "title": "澳洲各大城市2029年房价增长地区出炉！悉尼房产增值可超$100万！",
        "docid": "J3KC835L0553TEQM",
        "url": "https://www.163.com/dy/article/J3KC835L0553TEQM.html"
    },
    {
        "title": "武汉洪山区：买新建商办房屋300平米以上的，可享受与住宅同等教育养老等服务",
        "docid": "J3I7G7LG0514R9P4",
        "url": "https://www.163.com/dy/article/J3I7G7LG0514R9P4.html"
    },
    {
        "title": "中指研究院：5月百城二手房价格继续下跌 重点城市租赁市场延续低温态势",
        "docid": "J3K0E63S05198UNI",
        "url": "https://www.163.com/dy/article/J3K0E63S05198UNI.html"
    },
    {
        "title": "武汉绿城·梧桐里产品发布圆满落幕",
        "docid": "J3JM6RTJ05567SKQ",
        "url": "https://www.163.com/dy/article/J3JM6RTJ05567SKQ.html"
    },
    {
        "title": "老小区整合空地划出82个车位，居民：停车秩序规范多了",
        "docid": "J3F33URR053469LG",
        "url": "https://www.163.com/dy/article/J3F33URR053469LG.html"
    },
    {
        "title": "“一言难尽”、“很鸡肋”？住房“以旧换新”到底效果如何",
        "docid": "J3JBMQ160556124M",
        "url": "https://www.163.com/dy/article/J3JBMQ160556124M.html"
    },
    {
        "title": "武汉购房荟直聘！月入过万！大平台！稳定客源！",
        "docid": "J3EHL8DK0545DG4X",
        "url": "https://www.163.com/dy/article/J3EHL8DK0545DG4X.html"
    },
    {
        "title": "财经聚焦|房地产金融新政密集落地，楼市活跃度明显提升",
        "docid": "J3HMOUNO0514R9OJ",
        "url": "https://www.163.com/dy/article/J3HMOUNO0514R9OJ.html"
    },
    {
        "title": "再创新高！澳洲房价连续17个月上涨，一地涨幅超20%",
        "docid": "J3KCPPJI0553TEQM",
        "url": "https://www.163.com/dy/article/J3KCPPJI0553TEQM.html"
    },
    {
        "title": "讲真，2024年，你会买房吗",
        "docid": "J36R6CRC05567IYR",
        "url": "https://www.163.com/dy/article/J36R6CRC05567IYR.html"
    },
    {
        "title": "为什么年轻人越来越不想买房？一个过来人告诉你真相",
        "docid": "J37E8MBO05561N35",
        "url": "https://www.163.com/dy/article/J37E8MBO05561N35.html"
    },
    {
        "title": "你租房子时遇见过哪些离谱的事？网友：凌晨三四点，声音不堪入耳",
        "docid": "J37062NO055616ZT",
        "url": "https://www.163.com/dy/article/J37062NO055616ZT.html"
    },
    {
        "title": "联动开发商、机构和主播 快手理想家开启夏日选房季",
        "docid": "J3KD5CGP0519QIKK",
        "url": "https://www.163.com/dy/article/J3KD5CGP0519QIKK.html"
    },
    {
        "title": "老破小如果不拆了重建，危房一旦坍塌，结果会怎么样？",
        "docid": "J3KDCQC50553TDXU",
        "url": "https://www.163.com/dy/article/J3KDCQC50553TDXU.html"
    },
    {
        "title": "讨论结果：没有不合适的房子，只有不合理的房价",
        "docid": "VE2MG15K8",
        "url": "https://www.163.com/dy/article/VE2MG15K8.html"
    },
    {
        "title": "房价暴跌后，一位买了30套房的资深炒房客说了三段话，太真实了",
        "docid": "VP2MGJVIF",
        "url": "https://www.163.com/dy/article/VP2MGJVIF.html"
    },
    {
        "title": "法拍房看房实录，200平交50万就能入住，来到室内还能后悔吗",
        "docid": "VM29G347U",
        "url": "https://www.163.com/dy/article/VM29G347U.html"
    },
    {
        "title": "购房收据遗失登报怎么写便宜？（省钱宝典）",
        "docid": "VH2JTP0F9",
        "url": "https://www.163.com/dy/article/VH2JTP0F9.html"
    },
    {
        "title": "去年高价将房子卖出去的人，今年终于后悔了？有业主哭诉：亏惨了",
        "docid": "J3KC69JN055640VF",
        "url": "https://www.163.com/dy/article/J3KC69JN055640VF.html"
    },
    {
        "title": "此轮房价还未见底，专家建议观察几个月",
        "docid": "VJ2ML4JPJ",
        "url": "https://www.163.com/dy/article/VJ2ML4JPJ.html"
    },
    {
        "title": "2024年下半年，房价或许会超乎想象，房产专家全面分析",
        "docid": "VF2MINDDG",
        "url": "https://www.163.com/dy/article/VF2MINDDG.html"
    },
    {
        "title": "公园旁湖边单价1万买精装学位房",
        "docid": "VV2K0VAKJ",
        "url": "https://www.163.com/dy/article/VV2K0VAKJ.html"
    },
    {
        "title": "售楼处被挤爆，全国楼市销量激增？房地产能否触底反弹",
        "docid": "VI2HNFKGH",
        "url": "https://www.163.com/dy/article/VI2HNFKGH.html"
    },
    {
        "title": "十年前的度假豪宅，室内清爽舒适，室外杂草丛生，主打一个反差！",
        "docid": "VP2MI812V",
        "url": "https://www.163.com/dy/article/VP2MI812V.html"
    },
    {
        "title": "住房城乡建设部、财政部、中国人民银行印发《全国住房公积金2023年年度报告》  快报",
        "docid": "VP2K1M7TU",
        "url": "https://www.163.com/dy/article/VP2K1M7TU.html"
    },
    {
        "title": "房地产复苏的暖风还没吹到贝壳身上",
        "docid": "VH2JSLEOK",
        "url": "https://www.163.com/dy/article/VH2JSLEOK.html"
    },
    {
        "title": "花10000一平在郑州西边买的房，如今3800卖了，今天来看最后一眼",
        "docid": "VY2JVFL36",
        "url": "https://www.163.com/dy/article/VY2JVFL36.html"
    },
    {
        "title": "*ST海越：公司拥有诸暨海越大厦和杭州海越大厦两处商业楼，建筑面积分别为9000㎡、33835㎡  ",
        "docid": "VP2JU12C4",
        "url": "https://www.163.com/dy/article/VP2JU12C4.html"
    },
    {
        "title": "产品力提升、颜值up up…这还是我认识的大壮名城吗？",
        "docid": "J3KH58PE0535ALWJ",
        "url": "https://www.163.com/dy/article/J3KH58PE0535ALWJ.html"
    },
    {
        "title": "都是为了面子，才贷款买房，如今生活变的一塌糊",
        "docid": "VV2JO2TO3",
        "url": "https://www.163.com/dy/article/VV2JO2TO3.html"
    },
    {
        "title": "现在准备买房的都是傻子？",
        "docid": "VM29CF9VG",
        "url": "https://www.163.com/dy/article/VM29CF9VG.html"
    },
    {
        "title": "最近楼市风暴，终于明白房地产终局，是要洗刷一个国家耻辱",
        "docid": "VV2M5UBKH",
        "url": "https://www.163.com/dy/article/VV2M5UBKH.html"
    },
    {
        "title": "国有土地批发改零售，老百姓也能自己买地盖房子了",
        "docid": "VS29IQK8E",
        "url": "https://www.163.com/dy/article/VS29IQK8E.html"
    },
    {
        "title": "武汉之美：高楼大厦林立，城市风景一览",
        "docid": "VZ29F9DM6",
        "url": "https://www.163.com/dy/article/VZ29F9DM6.html"
    },
    {
        "title": "房屋面积计算方法，btv向前一步",
        "docid": "VD29MC7QI",
        "url": "https://www.163.com/dy/article/VD29MC7QI.html"
    },
    {
        "title": "中国房地产还能回到18亿规模吗？一分钟带你回顾中国房地产成长史",
        "docid": "VQ29CF5RE",
        "url": "https://www.163.com/dy/article/VQ29CF5RE.html"
    },
    {
        "title": "房贷、社保、还债！当代人如何破解住房养老困局？",
        "docid": "VQ29CPODR",
        "url": "https://www.163.com/dy/article/VQ29CPODR.html"
    },
    {
        "title": "积重难返、信心受挫，蛰伏五年后，中国楼市拐点何时到来？",
        "docid": "VF2MBCKG8",
        "url": "https://www.163.com/dy/article/VF2MBCKG8.html"
    },
    {
        "title": "气球贷成为最近站在风口浪尖的一个话题。",
        "docid": "J3KI74UU0553VNKO",
        "url": "https://www.163.com/dy/article/J3KI74UU0553VNKO.html"
    },
    {
        "title": "新动向！全国三省率先试点土地政策改革，实现农民土地权益最大化",
        "docid": "J3KILP7K05566RSQ",
        "url": "https://www.163.com/dy/article/J3KILP7K05566RSQ.html"
    },
    {
        "title": "二手200平顶楼复式送个露台，花8千块改造成功，原房东都眼红了！",
        "docid": "J3KIEOUJ0520K44K",
        "url": "https://www.163.com/dy/article/J3KIEOUJ0520K44K.html"
    },
    {
        "title": "武汉洪山区：买新建商办房屋300平米以上的，可享受与住宅同等教育养老等服务",
        "docid": "J3I7G7LG0514R9P4",
        "url": "https://www.163.com/dy/article/J3I7G7LG0514R9P4.html"
    },
    {
        "title": "武汉绿城·梧桐里产品发布圆满落幕",
        "docid": "J3JM6RTJ05567SKQ",
        "url": "https://www.163.com/dy/article/J3JM6RTJ05567SKQ.html"
    },
    {
        "title": "『官方』上海虹口虹口源717售楼处发布：唤醒购房梦想!",
        "docid": "J3KI7I6F055663IX",
        "url": "https://www.163.com/dy/article/J3KI7I6F055663IX.html"
    },
    {
        "title": "老小区整合空地划出82个车位，居民：停车秩序规范多了",
        "docid": "J3F33URR053469LG",
        "url": "https://www.163.com/dy/article/J3F33URR053469LG.html"
    },
    {
        "title": "“5·17”新政浸润楼市",
        "docid": "J3KI0JC80519CQO3",
        "url": "https://www.163.com/dy/article/J3KI0JC80519CQO3.html"
    },
    {
        "title": "德国籍放弃国内房屋继承权声明书海牙认证怎么做",
        "docid": "J3KHCGSD055364TO",
        "url": "https://www.163.com/dy/article/J3KHCGSD055364TO.html"
    },
    {
        "title": "武汉购房荟直聘！月入过万！大平台！稳定客源！",
        "docid": "J3EHL8DK0545DG4X",
        "url": "https://www.163.com/dy/article/J3EHL8DK0545DG4X.html"
    },
    {
        "title": "为何越来越多的人从高层搬到低层？过来人给出5点原因，很现实",
        "docid": "J3KJS4AH0553TEQM",
        "url": "https://www.163.com/dy/article/J3KJS4AH0553TEQM.html"
    },
    {
        "title": "如何判断房地产市场何时能回暖？我认为主要看五大信号。",
        "docid": "J3KI8HE20553VNKO",
        "url": "https://www.163.com/dy/article/J3KI8HE20553VNKO.html"
    },
    {
        "title": "住建部定调，楼市将有大变化，没买房的家庭仍不建议“着急”买房",
        "docid": "J3KJ730105536P04",
        "url": "https://www.163.com/dy/article/J3KJ730105536P04.html"
    },
    {
        "title": "五年前50000一平深圳买的房子，如今卖掉要赔多少？算一算吓一跳",
        "docid": "VF2MOMA8R",
        "url": "https://www.163.com/dy/article/VF2MOMA8R.html"
    },
    {
        "title": "一线城市放松限购，会影响它周边城市的房价吗？",
        "docid": "VE2K5PM2U",
        "url": "https://www.163.com/dy/article/VE2K5PM2U.html"
    },
    {
        "title": "贪便宜买了老小区，我肠子都悔青了",
        "docid": "VJ29B43SR",
        "url": "https://www.163.com/dy/article/VJ29B43SR.html"
    },
    {
        "title": "降首付到底有没有用？算完这笔账你会觉得当头一棒！",
        "docid": "VS2K3O42T",
        "url": "https://www.163.com/dy/article/VS2K3O42T.html"
    },
    {
        "title": "有三种房子，会越住越累",
        "docid": "VF2MNI8KS",
        "url": "https://www.163.com/dy/article/VF2MNI8KS.html"
    },
    {
        "title": "全国放房价跌得最惨的地方是哪里？",
        "docid": "VI29PGFOQ",
        "url": "https://www.163.com/dy/article/VI29PGFOQ.html"
    },
    {
        "title": "在美国购买的空子，可能被整栋“偷走”？",
        "docid": "VH298VJH9",
        "url": "https://www.163.com/dy/article/VH298VJH9.html"
    },
    {
        "title": "外资大胆预测：最早在2025年，中国楼市会出现供应短缺，可信吗？",
        "docid": "J3KB9JJ90552ZPCC",
        "url": "https://www.163.com/dy/article/J3KB9JJ90552ZPCC.html"
    },
    {
        "title": "武汉洪山区：买新建商办房屋300平米以上的，可享受与住宅同等教育养老等服务",
        "docid": "J3I7G7LG0514R9P4",
        "url": "https://www.163.com/dy/article/J3I7G7LG0514R9P4.html"
    },
    {
        "title": "武汉绿城·梧桐里产品发布圆满落幕",
        "docid": "J3JM6RTJ05567SKQ",
        "url": "https://www.163.com/dy/article/J3JM6RTJ05567SKQ.html"
    },
    {
        "title": "“气球贷”重现江湖争议不断，有人4年前被中介公司介绍办理，专家称“系银行竞争揽客所致”",
        "docid": "J3KLH5FM0512B07B",
        "url": "https://www.163.com/dy/article/J3KLH5FM0512B07B.html"
    },
    {
        "title": "老小区整合空地划出82个车位，居民：停车秩序规范多了",
        "docid": "J3F33URR053469LG",
        "url": "https://www.163.com/dy/article/J3F33URR053469LG.html"
    },
    {
        "title": "武汉购房荟直聘！月入过万！大平台！稳定客源！",
        "docid": "J3EHL8DK0545DG4X",
        "url": "https://www.163.com/dy/article/J3EHL8DK0545DG4X.html"
    },
    {
        "title": "2023年全国住房公积金发放个人住房贷款近1.5万亿元",
        "docid": "J3HFO4K105346RC6",
        "url": "https://www.163.com/dy/article/J3HFO4K105346RC6.html"
    },
    {
        "title": "为何搬离“1梯2户”的人越来越多？老住户透露5个缺点，望周知",
        "docid": "J3CT53V00519GBC0",
        "url": "https://www.163.com/dy/article/J3CT53V00519GBC0.html"
    },
    {
        "title": "住房城乡建设部第一批城市更新典型案例推介V——城市功能完善类",
        "docid": "J3IBMON40553TDXU",
        "url": "https://www.163.com/dy/article/J3IBMON40553TDXU.html"
    },
    {
        "title": "武汉市蔡旬区的一座大型工厂拍卖，被人以463.3万元的价格拿下了",
        "docid": "J3FT11I305566YRJ",
        "url": "https://www.163.com/dy/article/J3FT11I305566YRJ.html"
    },
    {
        "title": "楼市政策组合拳效果初显，转型机遇不可错失",
        "docid": "J3KNU62A05129QAF",
        "url": "https://www.163.com/dy/article/J3KNU62A05129QAF.html"
    },
    {
        "title": "Eastwood砖屋受热捧！15人竞争激烈，超底价$83.9万售出",
        "docid": "J3KNRENO055616ZT",
        "url": "https://www.163.com/dy/article/J3KNRENO055616ZT.html"
    },
    {
        "title": "纠结！拆迁补偿要选钱还是房？一家人犹豫不决",
        "docid": "J3KMK8E80532D0CK",
        "url": "https://www.163.com/dy/article/J3KMK8E80532D0CK.html"
    },
    {
        "title": "5年后，“这个楼层”将成为“黄金楼层”？专家：越到后面越吃香",
        "docid": "J3KNRATC055616ZT",
        "url": "https://www.163.com/dy/article/J3KNRATC055616ZT.html"
    },
    {
        "title": "2024年1-5月中国房地产企业新增货值TOP100排行榜",
        "docid": "J3KOPKTG0535A6CE",
        "url": "https://www.163.com/dy/article/J3KOPKTG0535A6CE.html"
    },
    {
        "title": "超大餐厅+超大主卧，映江润府103㎡户型独家点评",
        "docid": "J37NDS0D0515U60S",
        "url": "https://www.163.com/dy/article/J37NDS0D0515U60S.html"
    },
    {
        "title": "房价暴跌，没有赢家，只有输家，事实是什么？",
        "docid": "VX2JQO1JQ",
        "url": "https://www.163.com/dy/article/VX2JQO1JQ.html"
    },
    {
        "title": "有一栋小楼带小院子租给修行的人，有夫妻俩生活的不行，不能租",
        "docid": "VS29RC55D",
        "url": "https://www.163.com/dy/article/VS29RC55D.html"
    },
    {
        "title": "15%首付史无前列 楼市政策解析",
        "docid": "VJ2MSVKVK",
        "url": "https://www.163.com/dy/article/VJ2MSVKVK.html"
    },
    {
        "title": "第四代住宅，一层带院住宅，差距十万八千里！实用性和观赏性都差",
        "docid": "VB2MS95SJ",
        "url": "https://www.163.com/dy/article/VB2MS95SJ.html"
    },
    {
        "title": "拆迁房是整个院子算呢？还是按附着物房屋算呢？",
        "docid": "J37BDMRB0540SN7V",
        "url": "https://www.163.com/dy/article/J37BDMRB0540SN7V.html"
    },
    {
        "title": "对于房屋拆迁不能低于这4个条件，不可以乱签字",
        "docid": "J37BEMAE0540SN7V",
        "url": "https://www.163.com/dy/article/J37BEMAE0540SN7V.html"
    },
    {
        "title": "流行一时的1梯2户，为何不受欢迎了？这4个缺点让人望而却步！",
        "docid": "J379M9LR0520BENO",
        "url": "https://www.163.com/dy/article/J379M9LR0520BENO.html"
    },
    {
        "title": "与辉同行办公地点确定，2154平，租金让人吃惊，董宇辉6月搬",
        "docid": "J3KPV1VN0553TEV3",
        "url": "https://www.163.com/dy/article/J3KPV1VN0553TEV3.html"
    },
    {
        "title": "存房 vs 存钱｜朋友买了三套房，劝我也买房",
        "docid": "J36RHK0P05567IYR",
        "url": "https://www.163.com/dy/article/J36RHK0P05567IYR.html"
    },
    {
        "title": "颠覆！户型很“残暴”！武汉大批第四代住宅露面！",
        "docid": "J3KPEVOR0553TDVP",
        "url": "https://www.163.com/dy/article/J3KPEVOR0553TDVP.html"
    },
    {
        "title": "正在公示申报！沌口第三个大型购物中心计划明年9月开业",
        "docid": "J3KOU8GL05561BWY",
        "url": "https://www.163.com/dy/article/J3KOU8GL05561BWY.html"
    },
    {
        "title": "房产抵押中隐藏了一个美丽的大坑，一定要注意",
        "docid": "VV29RPM9B",
        "url": "https://www.163.com/dy/article/VV29RPM9B.html"
    },
    {
        "title": "如果房价崩盘最坏的结果是什么",
        "docid": "VC2MSND13",
        "url": "https://www.163.com/dy/article/VC2MSND13.html"
    },
    {
        "title": "欠房贷55万，顶楼跳下，买房成了中年人迈不过的坎",
        "docid": "VP2JBMHAR",
        "url": "https://www.163.com/dy/article/VP2JBMHAR.html"
    }
]