[
    {
        "title": "不是谁都可以征收房屋的，征收主体很重要",
        "docid": "IMR4TINB0532Q69P",
        "url": "https://www.163.com/dy/article/IMR4TINB0532Q69P.html"
    },
    {
        "title": "行业透视｜新政半月北京新房倍增，上海新房平淡二手增三成",
        "docid": "IN892LM1055244D0",
        "url": "https://www.163.com/dy/article/IN892LM1055244D0.html"
    },
    {
        "title": "为什么不建议大家买老破小？可能你房贷没还完，小区就变成破烂了",
        "docid": "IN3V34900525A5GL",
        "url": "https://www.163.com/dy/article/IN3V34900525A5GL.html"
    },
    {
        "title": "2023楼市收官，这几家房企超额完成业绩目标！",
        "docid": "INAOJVGE0512B07B",
        "url": "https://www.163.com/dy/article/INAOJVGE0512B07B.html"
    },
    {
        "title": "结合流动性趋势从美国畸形的地产状况观通胀周期",
        "docid": "IN51N41M05565KXX",
        "url": "https://www.163.com/dy/article/IN51N41M05565KXX.html"
    },
    {
        "title": "若楼层全错，几乎全年阳光都很少！缺阳光的房子，不是太好的房子",
        "docid": "VBMA9KT65",
        "url": "https://www.163.com/dy/article/VBMA9KT65.html"
    },
    {
        "title": "事已过三，这条在不行我放弃了",
        "docid": "VCMCTG75U",
        "url": "https://www.163.com/dy/article/VCMCTG75U.html"
    },
    {
        "title": "阳光小镇:带朋友们看看小城的超市，以及超市里淳朴的人们",
        "docid": "VZMCUFSK2",
        "url": "https://www.163.com/dy/article/VZMCUFSK2.html"
    },
    {
        "title": "给大家看一下花38万装下来的房子到底怎么样拍短视频到底挣不挣钱",
        "docid": "VCMD0GLKD",
        "url": "https://www.163.com/dy/article/VCMD0GLKD.html"
    },
    {
        "title": "武汉高档小区房价排行榜，看看自家小区在哪里？",
        "docid": "IMPF8O7A0535KYBT",
        "url": "https://www.163.com/dy/article/IMPF8O7A0535KYBT.html"
    },
    {
        "title": "武汉楼市的不败纪录被破，武汉新房降价换量，一天卖出去2000多套",
        "docid": "IN56V0O80535JMSP",
        "url": "https://www.163.com/dy/article/IN56V0O80535JMSP.html"
    },
    {
        "title": "命运多舛：金马大厦烂尾30年！武汉中心大厦封顶8年没投入使用！",
        "docid": "IN16HQ8D0535MP84",
        "url": "https://www.163.com/dy/article/IN16HQ8D0535MP84.html"
    },
    {
        "title": "同一栋楼，为何西户早卖光了，东户却无人问津？内行人总结4点原因",
        "docid": "INASPDM50545PEDS",
        "url": "https://www.163.com/dy/article/INASPDM50545PEDS.html"
    },
    {
        "title": "共1222户！武汉百万方大盘又交房啦！",
        "docid": "IN9U7L04055616ZT",
        "url": "https://www.163.com/dy/article/IN9U7L04055616ZT.html"
    },
    {
        "title": "女子185万买新房被“调包”？相中江景房，到手却看不到江",
        "docid": "IN7N93BL0553K44E",
        "url": "https://www.163.com/dy/article/IN7N93BL0553K44E.html"
    },
    {
        "title": "中国房价最低的30个城市，看一下有你的城市吗？",
        "docid": "INASN6A20553TB9L",
        "url": "https://www.163.com/dy/article/INASN6A20553TB9L.html"
    },
    {
        "title": "这下是真着急了！中部第一城，楼市大跳水",
        "docid": "IN9S6VFT0536UOB3",
        "url": "https://www.163.com/dy/article/IN9S6VFT0536UOB3.html"
    },
    {
        "title": "汉口内环！卖了41套！？武汉这个开发商坦诚发海报！",
        "docid": "IN3NF2SQ0553TEQM",
        "url": "https://www.163.com/dy/article/IN3NF2SQ0553TEQM.html"
    },
    {
        "title": "农村自建房我的失误之处，准备建房子的朋友要注意",
        "docid": "INB00QML0552QWCL",
        "url": "https://www.163.com/dy/article/INB00QML0552QWCL.html"
    },
    {
        "title": "“阴谋诡计”被挫败！平均房价依然非常稳定！房地产已经企稳！",
        "docid": "INATENGD0553TDTY",
        "url": "https://www.163.com/dy/article/INATENGD0553TDTY.html"
    },
    {
        "title": "2023年蓝筹物业研究成果发布｜物业新时代：以专业与韧性 绘高质量发展新篇",
        "docid": "INB05JHI05199DKK",
        "url": "https://www.163.com/dy/article/INB05JHI05199DKK.html"
    },
    {
        "title": "王石再度预测中国房地产未来，如无意外，或将再次准确无误！",
        "docid": "VDMD4ENJO",
        "url": "https://www.163.com/dy/article/VDMD4ENJO.html"
    },
    {
        "title": "抓紧卖房抓紧卖房吧！最邪恶的是炒房客！房价暴跌即将全面铺开！",
        "docid": "VCMD2NEUH",
        "url": "https://www.163.com/dy/article/VCMD2NEUH.html"
    },
    {
        "title": "见识一下1018平的超级大平层，眼前拍下这一幕，这才是真正的豪宅",
        "docid": "VLM9EAM00",
        "url": "https://www.163.com/dy/article/VLM9EAM00.html"
    },
    {
        "title": "父亲为给孩子补课而牺牲色相，和29岁女老师开房400多次……",
        "docid": "VXMD3I0CK",
        "url": "https://www.163.com/dy/article/VXMD3I0CK.html"
    },
    {
        "title": "一看就很有的高颜值新中式庭院",
        "docid": "VRMD4MSJ4",
        "url": "https://www.163.com/dy/article/VRMD4MSJ4.html"
    },
    {
        "title": "品质构建未来——仁和房产",
        "docid": "VJMA99ET2",
        "url": "https://www.163.com/dy/article/VJMA99ET2.html"
    },
    {
        "title": "武汉高档小区房价排行榜，看看自家小区在哪里？",
        "docid": "IMPF8O7A0535KYBT",
        "url": "https://www.163.com/dy/article/IMPF8O7A0535KYBT.html"
    },
    {
        "title": "命运多舛：金马大厦烂尾30年！武汉中心大厦封顶8年没投入使用！",
        "docid": "IN16HQ8D0535MP84",
        "url": "https://www.163.com/dy/article/IN16HQ8D0535MP84.html"
    },
    {
        "title": "武汉楼市的不败纪录被破，武汉新房降价换量，一天卖出去2000多套",
        "docid": "IN56V0O80535JMSP",
        "url": "https://www.163.com/dy/article/IN56V0O80535JMSP.html"
    },
    {
        "title": "共1222户！武汉百万方大盘又交房啦！",
        "docid": "IN9U7L04055616ZT",
        "url": "https://www.163.com/dy/article/IN9U7L04055616ZT.html"
    },
    {
        "title": "女子185万买新房被“调包”？相中江景房，到手却看不到江",
        "docid": "IN7N93BL0553K44E",
        "url": "https://www.163.com/dy/article/IN7N93BL0553K44E.html"
    },
    {
        "title": "行业透视｜新政半月北京新房倍增，上海新房平淡二手增三成",
        "docid": "IN892LLD0535A6CE",
        "url": "https://www.163.com/dy/article/IN892LLD0535A6CE.html"
    },
    {
        "title": "这下是真着急了！中部第一城，楼市大跳水",
        "docid": "IN9S6VFT0536UOB3",
        "url": "https://www.163.com/dy/article/IN9S6VFT0536UOB3.html"
    },
    {
        "title": "汉口内环！卖了41套！？武汉这个开发商坦诚发海报！",
        "docid": "IN3NF2SQ0553TEQM",
        "url": "https://www.163.com/dy/article/IN3NF2SQ0553TEQM.html"
    },
    {
        "title": "惊了，“开盘”销售进入个位数时代！",
        "docid": "IN86NIT505158B15",
        "url": "https://www.163.com/dy/article/IN86NIT505158B15.html"
    },
    {
        "title": "12月29日武汉房价播报：内环旁，约27233元/平！",
        "docid": "INA6VSSJ055616ZT",
        "url": "https://www.163.com/dy/article/INA6VSSJ055616ZT.html"
    },
    {
        "title": "十二月家书丨冬蕴美好 , 岁月家书暖时光 !",
        "docid": "IN8C6U5C0532B8U9",
        "url": "https://www.163.com/dy/article/IN8C6U5C0532B8U9.html"
    },
    {
        "title": "武汉楼市的不败纪录被破，武汉新房降价换量，一天卖出去2000多套",
        "docid": "IN56V0O80535JMSP",
        "url": "https://www.163.com/dy/article/IN56V0O80535JMSP.html"
    },
    {
        "title": "命运多舛：金马大厦烂尾30年！武汉中心大厦封顶8年没投入使用！",
        "docid": "IN16HQ8D0535MP84",
        "url": "https://www.163.com/dy/article/IN16HQ8D0535MP84.html"
    },
    {
        "title": "共1222户！武汉百万方大盘又交房啦！",
        "docid": "IN9U7L04055616ZT",
        "url": "https://www.163.com/dy/article/IN9U7L04055616ZT.html"
    },
    {
        "title": "女子185万买新房被“调包”？相中江景房，到手却看不到江",
        "docid": "IN7N93BL0553K44E",
        "url": "https://www.163.com/dy/article/IN7N93BL0553K44E.html"
    },
    {
        "title": "这下是真着急了！中部第一城，楼市大跳水",
        "docid": "IN9S6VFT0536UOB3",
        "url": "https://www.163.com/dy/article/IN9S6VFT0536UOB3.html"
    },
    {
        "title": "汉口内环！卖了41套！？武汉这个开发商坦诚发海报！",
        "docid": "IN3NF2SQ0553TEQM",
        "url": "https://www.163.com/dy/article/IN3NF2SQ0553TEQM.html"
    },
    {
        "title": "一家八口打算长期住酒店 房费每天一千 有6套房 4辆车 老公是网红",
        "docid": "INASFGCJ05566CM7",
        "url": "https://www.163.com/dy/article/INASFGCJ05566CM7.html"
    },
    {
        "title": "武汉高档小区房价排行榜，看看自家小区在哪里？",
        "docid": "IMPF8O7A0535KYBT",
        "url": "https://www.163.com/dy/article/IMPF8O7A0535KYBT.html"
    },
    {
        "title": "命运多舛：金马大厦烂尾30年！武汉中心大厦封顶8年没投入使用！",
        "docid": "IN16HQ8D0535MP84",
        "url": "https://www.163.com/dy/article/IN16HQ8D0535MP84.html"
    },
    {
        "title": "武汉楼市的不败纪录被破，武汉新房降价换量，一天卖出去2000多套",
        "docid": "IN56V0O80535JMSP",
        "url": "https://www.163.com/dy/article/IN56V0O80535JMSP.html"
    },
    {
        "title": "买房怎么选楼层？千万别轻信这5个谎言，当心买到“垃圾层”！",
        "docid": "INAOO6H8054057BR",
        "url": "https://www.163.com/dy/article/INAOO6H8054057BR.html"
    },
    {
        "title": "女子185万买新房被“调包”？相中江景房，到手却看不到江",
        "docid": "IN7N93BL0553K44E",
        "url": "https://www.163.com/dy/article/IN7N93BL0553K44E.html"
    },
    {
        "title": "共1222户！武汉百万方大盘又交房啦！",
        "docid": "IN9U7L04055616ZT",
        "url": "https://www.163.com/dy/article/IN9U7L04055616ZT.html"
    },
    {
        "title": "这下是真着急了！中部第一城，楼市大跳水",
        "docid": "IN9S6VFT0536UOB3",
        "url": "https://www.163.com/dy/article/IN9S6VFT0536UOB3.html"
    },
    {
        "title": "汉口内环！卖了41套！？武汉这个开发商坦诚发海报！",
        "docid": "IN3NF2SQ0553TEQM",
        "url": "https://www.163.com/dy/article/IN3NF2SQ0553TEQM.html"
    },
    {
        "title": "圣诞季，警惕这些买房常见误区！",
        "docid": "IN3JNPKG05199N88",
        "url": "https://www.163.com/dy/article/IN3JNPKG05199N88.html"
    },
    {
        "title": "成交量10年新低！2023年厦门卖地&quot;温差大&quot;！国央企撑全场",
        "docid": "INB4I5LE0553TEV3",
        "url": "https://www.163.com/dy/article/INB4I5LE0553TEV3.html"
    },
    {
        "title": "办理房产委托公证-公证百科",
        "docid": "IMU2RGS705565DER",
        "url": "https://www.163.com/dy/article/IMU2RGS705565DER.html"
    },
    {
        "title": "房地产VS经济：一鲸落，万物生",
        "docid": "INASA06N0553XQFH",
        "url": "https://www.163.com/dy/article/INASA06N0553XQFH.html"
    },
    {
        "title": "中南建设2023年度回顾：脚步坚韧，10万套房屋暖心交付",
        "docid": "INAOPBAG05199NPP",
        "url": "https://www.163.com/dy/article/INAOPBAG05199NPP.html"
    },
    {
        "title": "2023年中国房地产总结与展望 | 营销篇",
        "docid": "IN0LVNEI0515ARL3",
        "url": "https://www.163.com/dy/article/IN0LVNEI0515ARL3.html"
    },
    {
        "title": "女儿6年前给父亲买的别墅，父亲不想要了，年纪大了出国投奔女儿",
        "docid": "VWM04LQVL",
        "url": "https://www.163.com/dy/article/VWM04LQVL.html"
    },
    {
        "title": "高人预测，2024将会有很大变化，有好事也有坏事，早知道早受益",
        "docid": "VJMD688SR",
        "url": "https://www.163.com/dy/article/VJMD688SR.html"
    },
    {
        "title": "出租:宽华小学附近2房2厅2卫一阳台一厨，电梯房，950/蚊月",
        "docid": "VCMAJDFD7",
        "url": "https://www.163.com/dy/article/VCMAJDFD7.html"
    },
    {
        "title": "楼市：告别跌宕起伏的2023，迎来扑朔迷离的2024",
        "docid": "VCMD9KTNV",
        "url": "https://www.163.com/dy/article/VCMD9KTNV.html"
    },
    {
        "title": "古北壹号公馆官方发布：-上海古北壹号公馆售楼处价格篇",
        "docid": "INB71B7A05566CEF",
        "url": "https://www.163.com/dy/article/INB71B7A05566CEF.html"
    },
    {
        "title": "4楼，10楼，14楼，18楼不能买？错！真正不能买的是这4个楼层",
        "docid": "VWMA4A276",
        "url": "https://www.163.com/dy/article/VWMA4A276.html"
    },
    {
        "title": "2024年瞎买房子就是对自己不负责任，以下几种房子谁买谁后悔！",
        "docid": "VWM6ECPIO",
        "url": "https://www.163.com/dy/article/VWM6ECPIO.html"
    },
    {
        "title": "什么是“违章建筑”？为购买违章建筑而签的房屋买卖合同有效吗?",
        "docid": "VJLS9SH7C",
        "url": "https://www.163.com/dy/article/VJLS9SH7C.html"
    },
    {
        "title": "回老家自己盖的别墅，你们觉得怎么样欢迎大家来参观！",
        "docid": "VXMD4US2Q",
        "url": "https://www.163.com/dy/article/VXMD4US2Q.html"
    },
    {
        "title": "房子是不是男生找对象的标配？请在评论区发言！",
        "docid": "VOMDE21EL",
        "url": "https://www.163.com/dy/article/VOMDE21EL.html"
    },
    {
        "title": "2013年，在艾溪湖旁80万买了套上下二层的房子，买89平得180平",
        "docid": "VCMDCM0E8",
        "url": "https://www.163.com/dy/article/VCMDCM0E8.html"
    },
    {
        "title": "开间12米，进深10米，占地120平左右",
        "docid": "VBMCU4HBC",
        "url": "https://www.163.com/dy/article/VBMCU4HBC.html"
    },
    {
        "title": "12月29日武汉房价播报：内环旁，约27233元/平！",
        "docid": "INA6VSSJ055616ZT",
        "url": "https://www.163.com/dy/article/INA6VSSJ055616ZT.html"
    },
    {
        "title": "武汉楼市的不败纪录被破，武汉新房降价换量，一天卖出去2000多套",
        "docid": "IN56V0O80535JMSP",
        "url": "https://www.163.com/dy/article/IN56V0O80535JMSP.html"
    },
    {
        "title": "命运多舛：金马大厦烂尾30年！武汉中心大厦封顶8年没投入使用！",
        "docid": "IN16HQ8D0535MP84",
        "url": "https://www.163.com/dy/article/IN16HQ8D0535MP84.html"
    },
    {
        "title": "这下是真着急了！中部第一城，楼市大跳水",
        "docid": "IN9S6VFT0536UOB3",
        "url": "https://www.163.com/dy/article/IN9S6VFT0536UOB3.html"
    },
    {
        "title": "女子185万买新房被“调包”？相中江景房，到手却看不到江",
        "docid": "IN7N93BL0553K44E",
        "url": "https://www.163.com/dy/article/IN7N93BL0553K44E.html"
    },
    {
        "title": "汉口内环！卖了41套！？武汉这个开发商坦诚发海报！",
        "docid": "IN3NF2SQ0553TEQM",
        "url": "https://www.163.com/dy/article/IN3NF2SQ0553TEQM.html"
    },
    {
        "title": "共1222户！武汉百万方大盘又交房啦！",
        "docid": "IN9U7L04055616ZT",
        "url": "https://www.163.com/dy/article/IN9U7L04055616ZT.html"
    },
    {
        "title": "买房选“中户”还是“边户”？终于有答案了，听听专业人士的分析",
        "docid": "IMTO8E4L054057BR",
        "url": "https://www.163.com/dy/article/IMTO8E4L054057BR.html"
    },
    {
        "title": "武汉12月28日公示5个预售证1个现售证，1盘下降3671元/平",
        "docid": "IN5H87TN0553TDTY",
        "url": "https://www.163.com/dy/article/IN5H87TN0553TDTY.html"
    },
    {
        "title": "12月29日武汉房价播报：内环旁，约27233元/平！",
        "docid": "INA6VSSJ055616ZT",
        "url": "https://www.163.com/dy/article/INA6VSSJ055616ZT.html"
    },
    {
        "title": "命运多舛：金马大厦烂尾30年！武汉中心大厦封顶8年没投入使用！",
        "docid": "IN16HQ8D0535MP84",
        "url": "https://www.163.com/dy/article/IN16HQ8D0535MP84.html"
    },
    {
        "title": "武汉楼市的不败纪录被破，武汉新房降价换量，一天卖出去2000多套",
        "docid": "IN56V0O80535JMSP",
        "url": "https://www.163.com/dy/article/IN56V0O80535JMSP.html"
    },
    {
        "title": "悉尼这些地房价竟然下跌，在墨尔本千万别买这的房子！",
        "docid": "INBCBU2905199N88",
        "url": "https://www.163.com/dy/article/INBCBU2905199N88.html"
    },
    {
        "title": "女子185万买新房被“调包”？相中江景房，到手却看不到江",
        "docid": "IN7N93BL0553K44E",
        "url": "https://www.163.com/dy/article/IN7N93BL0553K44E.html"
    },
    {
        "title": "这下是真着急了！中部第一城，楼市大跳水",
        "docid": "IN9S6VFT0536UOB3",
        "url": "https://www.163.com/dy/article/IN9S6VFT0536UOB3.html"
    },
    {
        "title": "共1222户！武汉百万方大盘又交房啦！",
        "docid": "IN9U7L04055616ZT",
        "url": "https://www.163.com/dy/article/IN9U7L04055616ZT.html"
    },
    {
        "title": "汉口内环！卖了41套！？武汉这个开发商坦诚发海报！",
        "docid": "IN3NF2SQ0553TEQM",
        "url": "https://www.163.com/dy/article/IN3NF2SQ0553TEQM.html"
    },
    {
        "title": "白沙洲三环内，这处烂尾楼盘会开工吗？",
        "docid": "IN7TSNHB0553TB9L",
        "url": "https://www.163.com/dy/article/IN7TSNHB0553TB9L.html"
    },
    {
        "title": "12月29日武汉房价播报：内环旁，约27233元/平！",
        "docid": "INA6VSSJ055616ZT",
        "url": "https://www.163.com/dy/article/INA6VSSJ055616ZT.html"
    },
    {
        "title": "命运多舛：金马大厦烂尾30年！武汉中心大厦封顶8年没投入使用！",
        "docid": "IN16HQ8D0535MP84",
        "url": "https://www.163.com/dy/article/IN16HQ8D0535MP84.html"
    },
    {
        "title": "武汉楼市的不败纪录被破，武汉新房降价换量，一天卖出去2000多套",
        "docid": "IN56V0O80535JMSP",
        "url": "https://www.163.com/dy/article/IN56V0O80535JMSP.html"
    },
    {
        "title": "女子185万买新房被“调包”？相中江景房，到手却看不到江",
        "docid": "IN7N93BL0553K44E",
        "url": "https://www.163.com/dy/article/IN7N93BL0553K44E.html"
    },
    {
        "title": "这下是真着急了！中部第一城，楼市大跳水",
        "docid": "IN9S6VFT0536UOB3",
        "url": "https://www.163.com/dy/article/IN9S6VFT0536UOB3.html"
    },
    {
        "title": "共1222户！武汉百万方大盘又交房啦！",
        "docid": "IN9U7L04055616ZT",
        "url": "https://www.163.com/dy/article/IN9U7L04055616ZT.html"
    },
    {
        "title": "中国房价最低30城，有你在城市吗？",
        "docid": "IN7S28UH0553TB8M",
        "url": "https://www.163.com/dy/article/IN7S28UH0553TB8M.html"
    },
    {
        "title": "武汉-光谷中央公园-首页网站|光谷中央公园欢迎您|开盘信息",
        "docid": "IMT93HMT05566J9K",
        "url": "https://www.163.com/dy/article/IMT93HMT05566J9K.html"
    },
    {
        "title": "如果房子被地震“摧毁”了，欠的房贷还要还吗？答案可能让人意外",
        "docid": "IMSTR1ES05564NUO",
        "url": "https://www.163.com/dy/article/IMSTR1ES05564NUO.html"
    },
    {
        "title": "换5次房终于明白，这“3个楼层”越住越舒服，真正的“黄金楼层”",
        "docid": "VGLV3ODJI",
        "url": "https://www.163.com/dy/article/VGLV3ODJI.html"
    },
    {
        "title": "4楼10楼14楼18楼不能买？错！真正不能买的是这4个楼层？",
        "docid": "VMM7DS75S",
        "url": "https://www.163.com/dy/article/VMM7DS75S.html"
    },
    {
        "title": "上海阿姨1000多万卖掉上海老房子，在东北沈阳买套别墅，值不值？",
        "docid": "VWMDHCQJQ",
        "url": "https://www.163.com/dy/article/VWMDHCQJQ.html"
    },
    {
        "title": "年底了，很多人也想给自己选择一个温暖的家了！",
        "docid": "VQMDJ1838",
        "url": "https://www.163.com/dy/article/VQMDJ1838.html"
    },
    {
        "title": "河北衡水荣盛君悦府延期交房，大量的业主们聚集在售楼部维权。",
        "docid": "VRMCV06FB",
        "url": "https://www.163.com/dy/article/VRMCV06FB.html"
    },
    {
        "title": "物业最怕的四个投诉方法",
        "docid": "VZLSPF1GK",
        "url": "https://www.163.com/dy/article/VZLSPF1GK.html"
    },
    {
        "title": "你要大院子，你要临水边，你要两层楼，你要独栋，统统满足你",
        "docid": "VCMDLGSFD",
        "url": "https://www.163.com/dy/article/VCMDLGSFD.html"
    },
    {
        "title": "黄奇帆：房地产市场未来面临七大挑战",
        "docid": "VVMDLBLT8",
        "url": "https://www.163.com/dy/article/VVMDLBLT8.html"
    },
    {
        "title": "璟山和煦，京西性价比之王非它莫属。",
        "docid": "VGLTFMQG9",
        "url": "https://www.163.com/dy/article/VGLTFMQG9.html"
    },
    {
        "title": "12月29日武汉房价播报：内环旁，约27233元/平！",
        "docid": "INA6VSSJ055616ZT",
        "url": "https://www.163.com/dy/article/INA6VSSJ055616ZT.html"
    },
    {
        "title": "命运多舛：金马大厦烂尾30年！武汉中心大厦封顶8年没投入使用！",
        "docid": "IN16HQ8D0535MP84",
        "url": "https://www.163.com/dy/article/IN16HQ8D0535MP84.html"
    },
    {
        "title": "武汉楼市的不败纪录被破，武汉新房降价换量，一天卖出去2000多套",
        "docid": "IN56V0O80535JMSP",
        "url": "https://www.163.com/dy/article/IN56V0O80535JMSP.html"
    },
    {
        "title": "这下是真着急了！中部第一城，楼市大跳水",
        "docid": "IN9S6VFT0536UOB3",
        "url": "https://www.163.com/dy/article/IN9S6VFT0536UOB3.html"
    },
    {
        "title": "女子185万买新房被“调包”？相中江景房，到手却看不到江",
        "docid": "IN7N93BL0553K44E",
        "url": "https://www.163.com/dy/article/IN7N93BL0553K44E.html"
    },
    {
        "title": "共1222户！武汉百万方大盘又交房啦！",
        "docid": "IN9U7L04055616ZT",
        "url": "https://www.163.com/dy/article/IN9U7L04055616ZT.html"
    },
    {
        "title": "中国最便宜的城市！3w能买房，比上海大2倍，是70多万人心中宜居",
        "docid": "IN6CN6BD0545PEDS",
        "url": "https://www.163.com/dy/article/IN6CN6BD0545PEDS.html"
    },
    {
        "title": "2024年起，3类房子或成为“黄金屋”，聪明人建议：买了不吃亏！",
        "docid": "IMT420QK0540A6F8",
        "url": "https://www.163.com/dy/article/IMT420QK0540A6F8.html"
    },
    {
        "title": "白沙洲三环内，这处烂尾楼盘会开工吗？",
        "docid": "IN7TSNHB0553TB9L",
        "url": "https://www.163.com/dy/article/IN7TSNHB0553TB9L.html"
    },
    {
        "title": "武汉高档小区房价排行榜，看看自家小区在哪里？",
        "docid": "IMPF8O7A0535KYBT",
        "url": "https://www.163.com/dy/article/IMPF8O7A0535KYBT.html"
    },
    {
        "title": "命运多舛：金马大厦烂尾30年！武汉中心大厦封顶8年没投入使用！",
        "docid": "IN16HQ8D0535MP84",
        "url": "https://www.163.com/dy/article/IN16HQ8D0535MP84.html"
    },
    {
        "title": "武汉楼市的不败纪录被破，武汉新房降价换量，一天卖出去2000多套",
        "docid": "IN56V0O80535JMSP",
        "url": "https://www.163.com/dy/article/IN56V0O80535JMSP.html"
    },
    {
        "title": "这下是真着急了！中部第一城，楼市大跳水",
        "docid": "IN9S6VFT0536UOB3",
        "url": "https://www.163.com/dy/article/IN9S6VFT0536UOB3.html"
    },
    {
        "title": "共1222户！武汉百万方大盘又交房啦！",
        "docid": "IN9U7L04055616ZT",
        "url": "https://www.163.com/dy/article/IN9U7L04055616ZT.html"
    },
    {
        "title": "女子185万买新房被“调包”？相中江景房，到手却看不到江",
        "docid": "IN7N93BL0553K44E",
        "url": "https://www.163.com/dy/article/IN7N93BL0553K44E.html"
    },
    {
        "title": "房子继承人顺序，千万别搞错了，收藏了解，万一能用上呢",
        "docid": "INA0FOGS0545PEDS",
        "url": "https://www.163.com/dy/article/INA0FOGS0545PEDS.html"
    },
    {
        "title": "武汉21.7亿成交两宗宅地，洪山杨春湖地块终止出让",
        "docid": "IN5C2GVT0552F71X",
        "url": "https://www.163.com/dy/article/IN5C2GVT0552F71X.html"
    },
    {
        "title": "武汉-光谷中央公园-首页网站|光谷中央公园欢迎您|开盘信息",
        "docid": "IMT93HMT05566J9K",
        "url": "https://www.163.com/dy/article/IMT93HMT05566J9K.html"
    },
    {
        "title": "武汉高档小区房价排行榜，看看自家小区在哪里？",
        "docid": "IMPF8O7A0535KYBT",
        "url": "https://www.163.com/dy/article/IMPF8O7A0535KYBT.html"
    },
    {
        "title": "命运多舛：金马大厦烂尾30年！武汉中心大厦封顶8年没投入使用！",
        "docid": "IN16HQ8D0535MP84",
        "url": "https://www.163.com/dy/article/IN16HQ8D0535MP84.html"
    },
    {
        "title": "武汉楼市的不败纪录被破，武汉新房降价换量，一天卖出去2000多套",
        "docid": "IN56V0O80535JMSP",
        "url": "https://www.163.com/dy/article/IN56V0O80535JMSP.html"
    },
    {
        "title": "这下是真着急了！中部第一城，楼市大跳水",
        "docid": "IN9S6VFT0536UOB3",
        "url": "https://www.163.com/dy/article/IN9S6VFT0536UOB3.html"
    },
    {
        "title": "共1222户！武汉百万方大盘又交房啦！",
        "docid": "IN9U7L04055616ZT",
        "url": "https://www.163.com/dy/article/IN9U7L04055616ZT.html"
    },
    {
        "title": "女子185万买新房被“调包”？相中江景房，到手却看不到江",
        "docid": "IN7N93BL0553K44E",
        "url": "https://www.163.com/dy/article/IN7N93BL0553K44E.html"
    },
    {
        "title": "【你好武汉】今日起，下调！",
        "docid": "INBK1KE60553VGZU",
        "url": "https://www.163.com/dy/article/INBK1KE60553VGZU.html"
    },
    {
        "title": "武汉-光谷中央公园-首页网站|光谷中央公园欢迎您|开盘信息",
        "docid": "IMT93HMT05566J9K",
        "url": "https://www.163.com/dy/article/IMT93HMT05566J9K.html"
    },
    {
        "title": "白沙洲三环内，这处烂尾楼盘会开工吗？",
        "docid": "IN7TSNHB0553TB9L",
        "url": "https://www.163.com/dy/article/IN7TSNHB0553TB9L.html"
    },
    {
        "title": "武汉高档小区房价排行榜，看看自家小区在哪里？",
        "docid": "IMPF8O7A0535KYBT",
        "url": "https://www.163.com/dy/article/IMPF8O7A0535KYBT.html"
    },
    {
        "title": "命运多舛：金马大厦烂尾30年！武汉中心大厦封顶8年没投入使用！",
        "docid": "IN16HQ8D0535MP84",
        "url": "https://www.163.com/dy/article/IN16HQ8D0535MP84.html"
    },
    {
        "title": "这下是真着急了！中部第一城，楼市大跳水",
        "docid": "IN9S6VFT0536UOB3",
        "url": "https://www.163.com/dy/article/IN9S6VFT0536UOB3.html"
    },
    {
        "title": "武汉楼市的不败纪录被破，武汉新房降价换量，一天卖出去2000多套",
        "docid": "IN56V0O80535JMSP",
        "url": "https://www.163.com/dy/article/IN56V0O80535JMSP.html"
    },
    {
        "title": "共1222户！武汉百万方大盘又交房啦！",
        "docid": "IN9U7L04055616ZT",
        "url": "https://www.163.com/dy/article/IN9U7L04055616ZT.html"
    },
    {
        "title": "女子185万买新房被“调包”？相中江景房，到手却看不到江",
        "docid": "IN7N93BL0553K44E",
        "url": "https://www.163.com/dy/article/IN7N93BL0553K44E.html"
    },
    {
        "title": "12月百城二手房价格继续下跌，房价仍处调整通道",
        "docid": "INBM9P6J05159A0N",
        "url": "https://www.163.com/dy/article/INBM9P6J05159A0N.html"
    },
    {
        "title": "如今这种形势下，未来三年要生存下去，我建议做到以下七点",
        "docid": "INBFE5710535KYBT",
        "url": "https://www.163.com/dy/article/INBFE5710535KYBT.html"
    },
    {
        "title": "武汉21.7亿成交两宗宅地，洪山杨春湖地块终止出让",
        "docid": "IN5C2GVT0552F71X",
        "url": "https://www.163.com/dy/article/IN5C2GVT0552F71X.html"
    },
    {
        "title": "卖房子，还网贷，你动过这个念头吗？有的不仅卖了，还卖了父母的",
        "docid": "INBGDHE80535MP84",
        "url": "https://www.163.com/dy/article/INBGDHE80535MP84.html"
    },
    {
        "title": "李嘉诚的“深水炸弹”，炸出了大陆开发商几十年来的丑恶嘴脸！",
        "docid": "INBFJVG80535L5VU",
        "url": "https://www.163.com/dy/article/INBFJVG80535L5VU.html"
    },
    {
        "title": "中交地产“以心交新”，匠造暖心生活",
        "docid": "INBM9L1205159A0N",
        "url": "https://www.163.com/dy/article/INBM9L1205159A0N.html"
    },
    {
        "title": "评估太少，老百姓找机构自己评估，有用吗！！",
        "docid": "IMR4R3LR0532Q69P",
        "url": "https://www.163.com/dy/article/IMR4R3LR0532Q69P.html"
    },
    {
        "title": "重构市场和保障关系 推进保障性住房建设",
        "docid": "INBNK51Q0514CQIE",
        "url": "https://www.163.com/dy/article/INBNK51Q0514CQIE.html"
    },
    {
        "title": "24年房价会暴跌多少？炒房团将难逃厄运！暴跌即将开启！",
        "docid": "VGMDUGUDE",
        "url": "https://www.163.com/dy/article/VGMDUGUDE.html"
    },
    {
        "title": "成都为何能力压重庆，成为新一线大城榜首？到四川后终于明白了！",
        "docid": "VWMDTKVKI",
        "url": "https://www.163.com/dy/article/VWMDTKVKI.html"
    },
    {
        "title": "恺哥同款别墅 浦东康桥独栋别墅绿宝园295.71平方4房2厅4卫 带花园300平方 ",
        "docid": "VZMDTUBKO",
        "url": "https://www.163.com/dy/article/VZMDTUBKO.html"
    },
    {
        "title": "这一次，恐怕轮到开发商睡不着了！这一切来得太快了",
        "docid": "VGMDMMVHA",
        "url": "https://www.163.com/dy/article/VGMDMMVHA.html"
    },
    {
        "title": "最全户型一览！西固龙湖光年四居室,三居室约9000元/㎡起",
        "docid": "INBPVBNK0542M5JD",
        "url": "https://www.163.com/dy/article/INBPVBNK0542M5JD.html"
    },
    {
        "title": "掘金日本房产团队，祝福大家2024元旦快乐",
        "docid": "INBPSRPH05359JWY",
        "url": "https://www.163.com/dy/article/INBPSRPH05359JWY.html"
    },
    {
        "title": "劝普通老百姓不要买大房子，不然苦不堪言",
        "docid": "INBFFIC80535MP84",
        "url": "https://www.163.com/dy/article/INBFFIC80535MP84.html"
    },
    {
        "title": "买房时“一次性付清”和“还贷20年”，区别有多大？幸亏知道得早",
        "docid": "IMQPLI530553RHO2",
        "url": "https://www.163.com/dy/article/IMQPLI530553RHO2.html"
    },
    {
        "title": "房地产新出路｜如何理解房地产发展新模式？",
        "docid": "INBNF7BH0514R9P4",
        "url": "https://www.163.com/dy/article/INBNF7BH0514R9P4.html"
    },
    {
        "title": "房价暴跌有多吓人，现实中的房价就有多迷人，根本没机会当房奴",
        "docid": "VGMDMOREI",
        "url": "https://www.163.com/dy/article/VGMDMOREI.html"
    },
    {
        "title": "很多房东突然不着急买房子了",
        "docid": "VYMCJ1AOB",
        "url": "https://www.163.com/dy/article/VYMCJ1AOB.html"
    },
    {
        "title": "佛山刀哥：月工资不够买一平方的，建设你不要在佛山买房！你够吗",
        "docid": "VGLUMI6RP",
        "url": "https://www.163.com/dy/article/VGLUMI6RP.html"
    },
    {
        "title": "来一次伤心一次，房价从25000元降到7000元，购房者伤心透气！",
        "docid": "VCMDP007C",
        "url": "https://www.163.com/dy/article/VCMDP007C.html"
    },
    {
        "title": "命运多舛：金马大厦烂尾30年！武汉中心大厦封顶8年没投入使用！",
        "docid": "IN16HQ8D0535MP84",
        "url": "https://www.163.com/dy/article/IN16HQ8D0535MP84.html"
    },
    {
        "title": "武汉楼市的不败纪录被破，武汉新房降价换量，一天卖出去2000多套",
        "docid": "IN56V0O80535JMSP",
        "url": "https://www.163.com/dy/article/IN56V0O80535JMSP.html"
    },
    {
        "title": "217平米的建筑面积能做到如此格局，确实是高分户型",
        "docid": "INBH1SIN0535KYC0",
        "url": "https://www.163.com/dy/article/INBH1SIN0535KYC0.html"
    },
    {
        "title": "这下是真着急了！中部第一城，楼市大跳水",
        "docid": "IN9S6VFT0536UOB3",
        "url": "https://www.163.com/dy/article/IN9S6VFT0536UOB3.html"
    },
    {
        "title": "女子185万买新房被“调包”？相中江景房，到手却看不到江",
        "docid": "IN7N93BL0553K44E",
        "url": "https://www.163.com/dy/article/IN7N93BL0553K44E.html"
    },
    {
        "title": "共1222户！武汉百万方大盘又交房啦！",
        "docid": "IN9U7L04055616ZT",
        "url": "https://www.163.com/dy/article/IN9U7L04055616ZT.html"
    },
    {
        "title": "白沙洲三环内，这处烂尾楼盘会开工吗？",
        "docid": "IN7TSNHB0553TB9L",
        "url": "https://www.163.com/dy/article/IN7TSNHB0553TB9L.html"
    },
    {
        "title": "武汉21.7亿成交两宗宅地，洪山杨春湖地块终止出让",
        "docid": "IN5C2GVT0552F71X",
        "url": "https://www.163.com/dy/article/IN5C2GVT0552F71X.html"
    },
    {
        "title": "横店新城居民，要银行，要麦当劳、要商业体……",
        "docid": "IN7GAN0K0545ACCK",
        "url": "https://www.163.com/dy/article/IN7GAN0K0545ACCK.html"
    },
    {
        "title": "地产各岗位的年终总结，看完笑哭了",
        "docid": "INBRGPLQ05158B67",
        "url": "https://www.163.com/dy/article/INBRGPLQ05158B67.html"
    },
    {
        "title": "配套重要还是房子重要？",
        "docid": "IMT7V2I5055299MU",
        "url": "https://www.163.com/dy/article/IMT7V2I5055299MU.html"
    },
    {
        "title": "网友求助:600万买的房子 现280万都没人要！ 就算卖了还欠银行120万",
        "docid": "INAOA7C40553MHUM",
        "url": "https://www.163.com/dy/article/INAOA7C40553MHUM.html"
    },
    {
        "title": "公证处卖房委托公证费用",
        "docid": "IN3C377F055644JO",
        "url": "https://www.163.com/dy/article/IN3C377F055644JO.html"
    },
    {
        "title": "武汉青年人才公寓（黄陂驿站）入驻盘龙城宋家岗龙樾上城",
        "docid": "IN5PI63H0552QWCS",
        "url": "https://www.163.com/dy/article/IN5PI63H0552QWCS.html"
    },
    {
        "title": "周末、月末、岁末！盘点2023年楼市关键词，你知道几个？",
        "docid": "INALVMMA0535HK01",
        "url": "https://www.163.com/dy/article/INALVMMA0535HK01.html"
    },
    {
        "title": "2023年度最后一拍 3宗地卖出约26.62亿",
        "docid": "IN4BOLSO0550AAMM",
        "url": "https://www.163.com/dy/article/IN4BOLSO0550AAMM.html"
    },
    {
        "title": "房地产专家龙斌：取消土拍价格上限，对市场的稳定具有积极作用",
        "docid": "IN9B0CUP05199NPP",
        "url": "https://www.163.com/dy/article/IN9B0CUP05199NPP.html"
    },
    {
        "title": "女子185万买江景房完全看不到江",
        "docid": "IN6N0VID055628N9",
        "url": "https://www.163.com/dy/article/IN6N0VID055628N9.html"
    },
    {
        "title": "香蜜湖2016年小区188平南北对流！超高性价比",
        "docid": "INBV1EU70535KYBM",
        "url": "https://www.163.com/dy/article/INBV1EU70535KYBM.html"
    },
    {
        "title": "地铁房：上班族、工薪阶层的核心资产，有什么特征？",
        "docid": "IMVKS3NT0535WDMF",
        "url": "https://www.163.com/dy/article/IMVKS3NT0535WDMF.html"
    },
    {
        "title": "房价下跌，要开始比狠了",
        "docid": "INBTRF2O0553TDVP",
        "url": "https://www.163.com/dy/article/INBTRF2O0553TDVP.html"
    },
    {
        "title": "优优离开大连海景房，真的走了？他俩真的分手了吗",
        "docid": "VSME0D3OJ",
        "url": "https://www.163.com/dy/article/VSME0D3OJ.html"
    },
    {
        "title": "佛山刀哥：银行为什么不喜欢你提前还房贷？主要还是一个字，钱！",
        "docid": "VGME44NLQ",
        "url": "https://www.163.com/dy/article/VGME44NLQ.html"
    },
    {
        "title": "演员葛优北京的豪宅，看看里面别墅什么样？",
        "docid": "VBM0PO6QN",
        "url": "https://www.163.com/dy/article/VBM0PO6QN.html"
    },
    {
        "title": "长沙工业园1万多人上班，拥挤如东莞大厂，但配套却有点跟不上",
        "docid": "VGMD4T1BM",
        "url": "https://www.163.com/dy/article/VGMD4T1BM.html"
    },
    {
        "title": "5年后有房与没有房的区别",
        "docid": "VWLSG1ASK",
        "url": "https://www.163.com/dy/article/VWLSG1ASK.html"
    },
    {
        "title": "260万装修出来清幽小院，红砖青瓦联排别墅，实木阁楼最有亮点",
        "docid": "VBLVV726A",
        "url": "https://www.163.com/dy/article/VBLVV726A.html"
    },
    {
        "title": "印度房市资讯：销售飙升31%，创下历史新高！",
        "docid": "IN7VSURS05563S5U",
        "url": "https://www.163.com/dy/article/IN7VSURS05563S5U.html"
    },
    {
        "title": "2024新年献词 | 365房评创始人肖勇：春天会迟到，但从不缺席",
        "docid": "INBUOBIJ0552TUV8",
        "url": "https://www.163.com/dy/article/INBUOBIJ0552TUV8.html"
    },
    {
        "title": "130万成了250元，谁在强取豪夺？",
        "docid": "IMUL62AH0535MP84",
        "url": "https://www.163.com/dy/article/IMUL62AH0535MP84.html"
    },
    {
        "title": "以下这十类房子中介都不愿意卖",
        "docid": "VFLVC27VB",
        "url": "https://www.163.com/dy/article/VFLVC27VB.html"
    },
    {
        "title": "东北房东太聪明了，租房子一定要注意",
        "docid": "VSLVC8SBA",
        "url": "https://www.163.com/dy/article/VSLVC8SBA.html"
    },
    {
        "title": "北欧简约风 层高4m阳光足 银泰花园别墅211平边套",
        "docid": "VELT48KEA",
        "url": "https://www.163.com/dy/article/VELT48KEA.html"
    },
    {
        "title": "因为小区太好，业主价格就是扛着，等有缘人",
        "docid": "VULSFC148",
        "url": "https://www.163.com/dy/article/VULSFC148.html"
    },
    {
        "title": "看着挺普通的一栋小别墅，实则花了主人很多心思，这套房子很实用",
        "docid": "VWMDSMIE8",
        "url": "https://www.163.com/dy/article/VWMDSMIE8.html"
    },
    {
        "title": "大姐冲着花园买了套地面一楼的房子，如今后悔不已",
        "docid": "VZM0RTR98",
        "url": "https://www.163.com/dy/article/VZM0RTR98.html"
    },
    {
        "title": "新年献辞｜2024，相互照耀，沐光同行",
        "docid": "INBS0GKJ0535R281",
        "url": "https://www.163.com/dy/article/INBS0GKJ0535R281.html"
    },
    {
        "title": "2024“时间的朋友”跨年演讲对物业行业启发深刻的10大金句",
        "docid": "INBTV65P0535R288",
        "url": "https://www.163.com/dy/article/INBTV65P0535R288.html"
    },
    {
        "title": "“房价下跌”该不该信？“房地产之父”直言不讳：要跟百姓讲真话",
        "docid": "INBFS7D80535KYBT",
        "url": "https://www.163.com/dy/article/INBFS7D80535KYBT.html"
    },
    {
        "title": "2023年百强房企销售额同比下降17.3% 千亿房企较去年减少4家",
        "docid": "INC108IC0552YY4J",
        "url": "https://www.163.com/dy/article/INC108IC0552YY4J.html"
    },
    {
        "title": "两大“毒瘤”不除，老百姓怎么敢消费？原来老百姓的钱都被吸走了",
        "docid": "VXME8J9M6",
        "url": "https://www.163.com/dy/article/VXME8J9M6.html"
    },
    {
        "title": "四川苍溪国际商贸城，投资30亿成烂尾楼，空旷建筑犹如一座鬼城",
        "docid": "VCME0KALI",
        "url": "https://www.163.com/dy/article/VCME0KALI.html"
    },
    {
        "title": "顶层的房子到底能不能买？",
        "docid": "VFLVC269T",
        "url": "https://www.163.com/dy/article/VFLVC269T.html"
    },
    {
        "title": "五年后我国房地产，将会有翻天覆地的变化",
        "docid": "VZMBICEDB",
        "url": "https://www.163.com/dy/article/VZMBICEDB.html"
    },
    {
        "title": "很多地方的二手房价格，为何依然坚挺，宁可卖不出去也坚决不降价",
        "docid": "VBME42V3L",
        "url": "https://www.163.com/dy/article/VBME42V3L.html"
    },
    {
        "title": "元旦节：献给很累很累的物业人！",
        "docid": "INC3UOQN0535R288",
        "url": "https://www.163.com/dy/article/INC3UOQN0535R288.html"
    },
    {
        "title": "金地环湾城，那些美好的希望，便是一朵明媚的暖",
        "docid": "INC2A6DL055667XI",
        "url": "https://www.163.com/dy/article/INC2A6DL055667XI.html"
    },
    {
        "title": "武汉青年人才公寓（黄陂驿站）入驻盘龙城宋家岗龙樾上城",
        "docid": "IN5PI63H0552QWCS",
        "url": "https://www.163.com/dy/article/IN5PI63H0552QWCS.html"
    },
    {
        "title": "女子185万买江景房完全看不到江",
        "docid": "IN6N0VID055628N9",
        "url": "https://www.163.com/dy/article/IN6N0VID055628N9.html"
    },
    {
        "title": "武汉21.7亿成交两宗宅地，洪山杨春湖地块终止出让",
        "docid": "IN5C2GVT0552F71X",
        "url": "https://www.163.com/dy/article/IN5C2GVT0552F71X.html"
    },
    {
        "title": "横店新城居民，要银行，要麦当劳、要商业体……",
        "docid": "IN7GAN0K0545ACCK",
        "url": "https://www.163.com/dy/article/IN7GAN0K0545ACCK.html"
    },
    {
        "title": "连续大放水30年，就看你房价涨不涨！",
        "docid": "IMT2KUNP0535JMSP",
        "url": "https://www.163.com/dy/article/IMT2KUNP0535JMSP.html"
    },
    {
        "title": "独家|数家房地产机构被召集开会 了解京沪新政落地后市场情况",
        "docid": "IN4RLLSL05198CJN",
        "url": "https://www.163.com/dy/article/IN4RLLSL05198CJN.html"
    },
    {
        "title": "踏踏实实工作，有机会买房吗？",
        "docid": "IN4U89H50535JMSP",
        "url": "https://www.163.com/dy/article/IN4U89H50535JMSP.html"
    },
    {
        "title": "不只是居住：发掘大型公寓作为办公室的隐藏价值",
        "docid": "INC4A0100552QWCE",
        "url": "https://www.163.com/dy/article/INC4A0100552QWCE.html"
    },
    {
        "title": "七成百强房企业绩下滑，2024楼市或延续筑底",
        "docid": "INC5ORN205198R91",
        "url": "https://www.163.com/dy/article/INC5ORN205198R91.html"
    },
    {
        "title": "武汉青年人才公寓（黄陂驿站）入驻盘龙城宋家岗龙樾上城",
        "docid": "IN5PI63H0552QWCS",
        "url": "https://www.163.com/dy/article/IN5PI63H0552QWCS.html"
    },
    {
        "title": "女子185万买江景房完全看不到江",
        "docid": "IN6N0VID055628N9",
        "url": "https://www.163.com/dy/article/IN6N0VID055628N9.html"
    },
    {
        "title": "武汉21.7亿成交两宗宅地，洪山杨春湖地块终止出让",
        "docid": "IN5C2GVT0552F71X",
        "url": "https://www.163.com/dy/article/IN5C2GVT0552F71X.html"
    },
    {
        "title": "横店新城居民，要银行，要麦当劳、要商业体……",
        "docid": "IN7GAN0K0545ACCK",
        "url": "https://www.163.com/dy/article/IN7GAN0K0545ACCK.html"
    },
    {
        "title": "远洋服务：花样送温暖，让幸福持续升温！",
        "docid": "INC3UL100535R288",
        "url": "https://www.163.com/dy/article/INC3UL100535R288.html"
    },
    {
        "title": "碧桂园 总裁莫斌：今年已累计交付房屋超60万套",
        "docid": "IN9SIDNS0539AP40",
        "url": "https://www.163.com/dy/article/IN9SIDNS0539AP40.html"
    },
    {
        "title": "青山滨江一住宅项目规划方案公示！",
        "docid": "IN84LMBO0534SV3Y",
        "url": "https://www.163.com/dy/article/IN84LMBO0534SV3Y.html"
    },
    {
        "title": "武汉青年人才公寓（黄陂驿站）入驻盘龙城宋家岗龙樾上城",
        "docid": "IN5PI63H0552QWCS",
        "url": "https://www.163.com/dy/article/IN5PI63H0552QWCS.html"
    },
    {
        "title": "女子185万买江景房完全看不到江",
        "docid": "IN6N0VID055628N9",
        "url": "https://www.163.com/dy/article/IN6N0VID055628N9.html"
    },
    {
        "title": "武汉21.7亿成交两宗宅地，洪山杨春湖地块终止出让",
        "docid": "IN5C2GVT0552F71X",
        "url": "https://www.163.com/dy/article/IN5C2GVT0552F71X.html"
    },
    {
        "title": "横店新城居民，要银行，要麦当劳、要商业体……",
        "docid": "IN7GAN0K0545ACCK",
        "url": "https://www.163.com/dy/article/IN7GAN0K0545ACCK.html"
    },
    {
        "title": "2024年房地产迎来好消息，6大信号，利好购房者",
        "docid": "INC69NSB05158I5P",
        "url": "https://www.163.com/dy/article/INC69NSB05158I5P.html"
    },
    {
        "title": "青山滨江一住宅项目规划方案公示！",
        "docid": "IN84LMBO0534SV3Y",
        "url": "https://www.163.com/dy/article/IN84LMBO0534SV3Y.html"
    },
    {
        "title": "新家丨万科琴澳传奇将于12月30日进行交付",
        "docid": "IN4PPFNF0556025S",
        "url": "https://www.163.com/dy/article/IN4PPFNF0556025S.html"
    },
    {
        "title": "观点指数：2023收官 保利、中海、万科权益销售行业领先",
        "docid": "INABR7M70519D45U",
        "url": "https://www.163.com/dy/article/INABR7M70519D45U.html"
    },
    {
        "title": "部分存量房贷利率1月1日起下调10个基点",
        "docid": "INBVMGJE0530QRMB",
        "url": "https://www.163.com/dy/article/INBVMGJE0530QRMB.html"
    },
    {
        "title": "2024年武汉豪宅的12个预测",
        "docid": "INC8OJ7805159OP0",
        "url": "https://www.163.com/dy/article/INC8OJ7805159OP0.html"
    },
    {
        "title": "房子被拆了物业跑路了胳膊腿都摔碎了，一年到头他咋还笑得出来？",
        "docid": "VPMEBJCCK",
        "url": "https://www.163.com/dy/article/VPMEBJCCK.html"
    },
    {
        "title": "楼市“即将反转”？2024中国房价会迎来转折点吗？",
        "docid": "VCMEBRAO7",
        "url": "https://www.163.com/dy/article/VCMEBRAO7.html"
    },
    {
        "title": "农村一户人建别墅，亲戚好友过来一看，都说不能住",
        "docid": "VBM0S13K5",
        "url": "https://www.163.com/dy/article/VBM0S13K5.html"
    },
    {
        "title": "史无前例，一区三汇，华润最近“存在感”有点儿高啊！",
        "docid": "VSMEEM5LM",
        "url": "https://www.163.com/dy/article/VSMEEM5LM.html"
    },
    {
        "title": "用唱衰唱空达到自己买房目的的，不如咱就踏踏实实努力达到标准，你说呢？",
        "docid": "VZMECKV08",
        "url": "https://www.163.com/dy/article/VZMECKV08.html"
    },
    {
        "title": "3万人弃城离去，遍地楼房没人住，跌至500元一平，依然无人问津！",
        "docid": "VBME16GH6",
        "url": "https://www.163.com/dy/article/VBME16GH6.html"
    },
    {
        "title": "以后在一线城市有钱也买不到房子",
        "docid": "VYMCJ407E",
        "url": "https://www.163.com/dy/article/VYMCJ407E.html"
    },
    {
        "title": "西双版纳的房子千万别乱买，除非你太有钱了",
        "docid": "VCME0O7C4",
        "url": "https://www.163.com/dy/article/VCME0O7C4.html"
    },
    {
        "title": "越南买了套房，掉在深坑里了！",
        "docid": "IMVBM9G705565R9C",
        "url": "https://www.163.com/dy/article/IMVBM9G705565R9C.html"
    },
    {
        "title": "安居客年度展望：2024年八大楼市趋势",
        "docid": "INCAP5OR0553RRD3",
        "url": "https://www.163.com/dy/article/INCAP5OR0553RRD3.html"
    },
    {
        "title": "武汉青年人才公寓（黄陂驿站）入驻盘龙城宋家岗龙樾上城",
        "docid": "IN5PI63H0552QWCS",
        "url": "https://www.163.com/dy/article/IN5PI63H0552QWCS.html"
    },
    {
        "title": "女子185万买江景房完全看不到江",
        "docid": "IN6N0VID055628N9",
        "url": "https://www.163.com/dy/article/IN6N0VID055628N9.html"
    },
    {
        "title": "武汉21.7亿成交两宗宅地，洪山杨春湖地块终止出让",
        "docid": "IN5C2GVT0552F71X",
        "url": "https://www.163.com/dy/article/IN5C2GVT0552F71X.html"
    },
    {
        "title": "横店新城居民，要银行，要麦当劳、要商业体……",
        "docid": "IN7GAN0K0545ACCK",
        "url": "https://www.163.com/dy/article/IN7GAN0K0545ACCK.html"
    },
    {
        "title": "青山滨江一住宅项目规划方案公示！",
        "docid": "IN84LMBO0534SV3Y",
        "url": "https://www.163.com/dy/article/IN84LMBO0534SV3Y.html"
    },
    {
        "title": "房地产机构被召集开会？会议内容来了",
        "docid": "IN5TKF0G0519DDQ2",
        "url": "https://www.163.com/dy/article/IN5TKF0G0519DDQ2.html"
    },
    {
        "title": "“半年没还月供了” 600万买96平房 现280万没人要 自称“断供已成必选项”",
        "docid": "IN5I5ER40553TEV3",
        "url": "https://www.163.com/dy/article/IN5I5ER40553TEV3.html"
    },
    {
        "title": "行走于斑斓的红尘，有一抹淡香可以慰我清心，金地环湾城",
        "docid": "IMV5CF3C055667YX",
        "url": "https://www.163.com/dy/article/IMV5CF3C055667YX.html"
    },
    {
        "title": "有一种痛苦叫作选了“边户”，卖不出去也不想住！感觉被割了韭菜",
        "docid": "IMSPT8FA055657DZ",
        "url": "https://www.163.com/dy/article/IMSPT8FA055657DZ.html"
    },
    {
        "title": "武汉青年人才公寓（黄陂驿站）入驻盘龙城宋家岗龙樾上城",
        "docid": "IN5PI63H0552QWCS",
        "url": "https://www.163.com/dy/article/IN5PI63H0552QWCS.html"
    },
    {
        "title": "女子185万买江景房完全看不到江",
        "docid": "IN6N0VID055628N9",
        "url": "https://www.163.com/dy/article/IN6N0VID055628N9.html"
    },
    {
        "title": "武汉21.7亿成交两宗宅地，洪山杨春湖地块终止出让",
        "docid": "IN5C2GVT0552F71X",
        "url": "https://www.163.com/dy/article/IN5C2GVT0552F71X.html"
    },
    {
        "title": "横店新城居民，要银行，要麦当劳、要商业体……",
        "docid": "IN7GAN0K0545ACCK",
        "url": "https://www.163.com/dy/article/IN7GAN0K0545ACCK.html"
    },
    {
        "title": "青山滨江一住宅项目规划方案公示！",
        "docid": "IN84LMBO0534SV3Y",
        "url": "https://www.163.com/dy/article/IN84LMBO0534SV3Y.html"
    },
    {
        "title": "“三大工程”引领2024年楼市，保交楼、化风险仍是重点｜界面预言家⑰",
        "docid": "INC504MU0534A4SC",
        "url": "https://www.163.com/dy/article/INC504MU0534A4SC.html"
    },
    {
        "title": "房价下跌，要开始比狠了",
        "docid": "INC8A87005563TCH",
        "url": "https://www.163.com/dy/article/INC8A87005563TCH.html"
    },
    {
        "title": "2023年地产销售20强，民营房企还有哪几家？",
        "docid": "INCD3KG80552I6MA",
        "url": "https://www.163.com/dy/article/INCD3KG80552I6MA.html"
    },
    {
        "title": "武汉青年人才公寓（黄陂驿站）入驻盘龙城宋家岗龙樾上城",
        "docid": "IN5PI63H0552QWCS",
        "url": "https://www.163.com/dy/article/IN5PI63H0552QWCS.html"
    },
    {
        "title": "女子185万买江景房完全看不到江",
        "docid": "IN6N0VID055628N9",
        "url": "https://www.163.com/dy/article/IN6N0VID055628N9.html"
    },
    {
        "title": "武汉21.7亿成交两宗宅地，洪山杨春湖地块终止出让",
        "docid": "IN5C2GVT0552F71X",
        "url": "https://www.163.com/dy/article/IN5C2GVT0552F71X.html"
    },
    {
        "title": "横店新城居民，要银行，要麦当劳、要商业体……",
        "docid": "IN7GAN0K0545ACCK",
        "url": "https://www.163.com/dy/article/IN7GAN0K0545ACCK.html"
    },
    {
        "title": "青山滨江一住宅项目规划方案公示！",
        "docid": "IN84LMBO0534SV3Y",
        "url": "https://www.163.com/dy/article/IN84LMBO0534SV3Y.html"
    },
    {
        "title": "百强房企2023年全年拿地金额终现同比正增长！中海、保利拿地金额达千亿级",
        "docid": "IN72GL030512B07B",
        "url": "https://www.163.com/dy/article/IN72GL030512B07B.html"
    },
    {
        "title": "扛不住了，我终于买房了",
        "docid": "IN8UQ6F70535MP84",
        "url": "https://www.163.com/dy/article/IN8UQ6F70535MP84.html"
    },
    {
        "title": "房价跌了那么久，和信贷收紧也有关系",
        "docid": "IN4U3CSI0535JMSP",
        "url": "https://www.163.com/dy/article/IN4U3CSI0535JMSP.html"
    },
    {
        "title": "成都1420亿！挂牌18万套？房价逆势上扬，成为全国第一",
        "docid": "INCEJLDS055616ZT",
        "url": "https://www.163.com/dy/article/INCEJLDS055616ZT.html"
    },
    {
        "title": "果真，上海楼市还是玩砸了！",
        "docid": "VCME70ALT",
        "url": "https://www.163.com/dy/article/VCME70ALT.html"
    },
    {
        "title": "专家提议，全面撤除30年以上的老房子，你同意吗？",
        "docid": "VBME9FKN8",
        "url": "https://www.163.com/dy/article/VBME9FKN8.html"
    },
    {
        "title": "就房价比较，成都的幸福感如何呢？",
        "docid": "VGMAOM5HL",
        "url": "https://www.163.com/dy/article/VGMAOM5HL.html"
    },
    {
        "title": "印度主动刺破房地产泡沫，带给我们的思考！",
        "docid": "VSMEA9NIA",
        "url": "https://www.163.com/dy/article/VSMEA9NIA.html"
    },
    {
        "title": "中央一号文件铁令：土地整治新一轮调整！",
        "docid": "VYMAM6A59",
        "url": "https://www.163.com/dy/article/VYMAM6A59.html"
    },
    {
        "title": "社会极不公平现象，房子烂尾，房货还不上，你把我房子收走",
        "docid": "VWMEIKR1S",
        "url": "https://www.163.com/dy/article/VWMEIKR1S.html"
    },
    {
        "title": "分享适合庭院别墅摆放的迎客造型五针松",
        "docid": "VGMD2H0IQ",
        "url": "https://www.163.com/dy/article/VGMD2H0IQ.html"
    },
    {
        "title": "中国富二代女生日本三亿买房吓坏网友",
        "docid": "VDMEGRKSJ",
        "url": "https://www.163.com/dy/article/VDMEGRKSJ.html"
    },
    {
        "title": "租赁住房Pre-REITs 阶段的4项关键准备| 投资视野",
        "docid": "IMV8T7RE05530RXA",
        "url": "https://www.163.com/dy/article/IMV8T7RE05530RXA.html"
    },
    {
        "title": "这3套农村自建房，造价经济，户型以实用为主，每一套颜值都超高",
        "docid": "INCHPVOG0552QWCL",
        "url": "https://www.163.com/dy/article/INCHPVOG0552QWCL.html"
    },
    {
        "title": "武汉青年人才公寓（黄陂驿站）入驻盘龙城宋家岗龙樾上城",
        "docid": "IN5PI63H0552QWCS",
        "url": "https://www.163.com/dy/article/IN5PI63H0552QWCS.html"
    },
    {
        "title": "女子185万买江景房完全看不到江",
        "docid": "IN6N0VID055628N9",
        "url": "https://www.163.com/dy/article/IN6N0VID055628N9.html"
    },
    {
        "title": "武汉21.7亿成交两宗宅地，洪山杨春湖地块终止出让",
        "docid": "IN5C2GVT0552F71X",
        "url": "https://www.163.com/dy/article/IN5C2GVT0552F71X.html"
    },
    {
        "title": "横店新城居民，要银行，要麦当劳、要商业体……",
        "docid": "IN7GAN0K0545ACCK",
        "url": "https://www.163.com/dy/article/IN7GAN0K0545ACCK.html"
    },
    {
        "title": "青山滨江一住宅项目规划方案公示！",
        "docid": "IN84LMBO0534SV3Y",
        "url": "https://www.163.com/dy/article/IN84LMBO0534SV3Y.html"
    },
    {
        "title": "2024年第一个文章，祝福大家新年一路长虹！",
        "docid": "INCB4OGM0552JCGU",
        "url": "https://www.163.com/dy/article/INCB4OGM0552JCGU.html"
    },
    {
        "title": "武汉12月28日公示5个预售证1个现售证，1盘下降3671元/平",
        "docid": "IN5H87TN0553TDTY",
        "url": "https://www.163.com/dy/article/IN5H87TN0553TDTY.html"
    },
    {
        "title": "女孩子买房，就是要方便",
        "docid": "VKM6DJL9R",
        "url": "https://www.163.com/dy/article/VKM6DJL9R.html"
    },
    {
        "title": "180万卖的房子，100万又买了回来",
        "docid": "VHM1PMOU3",
        "url": "https://www.163.com/dy/article/VHM1PMOU3.html"
    },
    {
        "title": "坐等新一轮房贷利率调整，也许会降到4%以下",
        "docid": "VGM4OHP77",
        "url": "https://www.163.com/dy/article/VGM4OHP77.html"
    },
    {
        "title": "先睹为快！新鲜出炉的奥体绿城叠加样板间",
        "docid": "VUMAJEI07",
        "url": "https://www.163.com/dy/article/VUMAJEI07.html"
    },
    {
        "title": "为什么在泰国买房的中国买家最多？",
        "docid": "VDMEN9M72",
        "url": "https://www.163.com/dy/article/VDMEN9M72.html"
    },
    {
        "title": "有个两层楼，三俩好友，一个院子，足矣",
        "docid": "VRMENO23Q",
        "url": "https://www.163.com/dy/article/VRMENO23Q.html"
    },
    {
        "title": "房龄20年以上的老房子，别卖，新定调后，三类人将直接受益",
        "docid": "VFMEHPOGT",
        "url": "https://www.163.com/dy/article/VFMEHPOGT.html"
    },
    {
        "title": "第一次来男友家的豪宅，看到门口停的车，瞬间就不想嫁了",
        "docid": "VTMAI2DED",
        "url": "https://www.163.com/dy/article/VTMAI2DED.html"
    },
    {
        "title": "部分房地产开发项目存提前确认收入情形等，三木集团收深交所监管函",
        "docid": "VDMEPBJKJ",
        "url": "https://www.163.com/dy/article/VDMEPBJKJ.html"
    },
    {
        "title": "武汉青年人才公寓（黄陂驿站）入驻盘龙城宋家岗龙樾上城",
        "docid": "IN5PI63H0552QWCS",
        "url": "https://www.163.com/dy/article/IN5PI63H0552QWCS.html"
    },
    {
        "title": "女子185万买江景房完全看不到江",
        "docid": "IN6N0VID055628N9",
        "url": "https://www.163.com/dy/article/IN6N0VID055628N9.html"
    },
    {
        "title": "武汉21.7亿成交两宗宅地，洪山杨春湖地块终止出让",
        "docid": "IN5C2GVT0552F71X",
        "url": "https://www.163.com/dy/article/IN5C2GVT0552F71X.html"
    },
    {
        "title": "横店新城居民，要银行，要麦当劳、要商业体……",
        "docid": "IN7GAN0K0545ACCK",
        "url": "https://www.163.com/dy/article/IN7GAN0K0545ACCK.html"
    },
    {
        "title": "青山滨江一住宅项目规划方案公示！",
        "docid": "IN84LMBO0534SV3Y",
        "url": "https://www.163.com/dy/article/IN84LMBO0534SV3Y.html"
    },
    {
        "title": "武汉12月28日公示5个预售证1个现售证，1盘下降3671元/平",
        "docid": "IN5H87TN0553TDTY",
        "url": "https://www.163.com/dy/article/IN5H87TN0553TDTY.html"
    },
    {
        "title": "2024房地产展望：市场预期逐步好转",
        "docid": "IN66KG8I05199NHJ",
        "url": "https://www.163.com/dy/article/IN66KG8I05199NHJ.html"
    },
    {
        "title": "2023年全国房地产企业拿地TOP100排行榜",
        "docid": "IN5S0NEO05159A0N",
        "url": "https://www.163.com/dy/article/IN5S0NEO05159A0N.html"
    },
    {
        "title": "武汉市土地市场年终“翘尾”：国企担当前锋、本土民企助攻",
        "docid": "IN8CM7GG0553TDXU",
        "url": "https://www.163.com/dy/article/IN8CM7GG0553TDXU.html"
    },
    {
        "title": "”您买房，我月供“，街头这句广告用语，我看后不禁莞尔",
        "docid": "IMU5Q49E0525P02M",
        "url": "https://www.163.com/dy/article/IMU5Q49E0525P02M.html"
    },
    {
        "title": "市场成交|2023年下半年厦门一手住宅成交9637套 环跌24.36%",
        "docid": "INCM9ORU05524W85",
        "url": "https://www.163.com/dy/article/INCM9ORU05524W85.html"
    },
    {
        "title": "2023房企保交楼排行榜！碧桂园第一，杨惠妍曾称砸锅卖铁支持",
        "docid": "VAMER1P4A",
        "url": "https://www.163.com/dy/article/VAMER1P4A.html"
    },
    {
        "title": "兄弟合力齐心建双拼别墅，弟弟出钱哥哥出力，弟弟让哥哥住左房，艳羡了十里乡亲",
        "docid": "VDMERTUTT",
        "url": "https://www.163.com/dy/article/VDMERTUTT.html"
    },
    {
        "title": "武汉房价下跌为何还有人不愿相信，因为只有房价没有钱",
        "docid": "VCMETPFS7",
        "url": "https://www.163.com/dy/article/VCMETPFS7.html"
    },
    {
        "title": "新一轮房改，快看看有影响吗？",
        "docid": "VOMEQUS10",
        "url": "https://www.163.com/dy/article/VOMEQUS10.html"
    },
    {
        "title": "贵和书院雅居设计方案解析\n有些遗憾 临山下学校旁",
        "docid": "VVM9SGN8T",
        "url": "https://www.163.com/dy/article/VVM9SGN8T.html"
    },
    {
        "title": "房子都卖不出去，南沙为啥还限购啊？",
        "docid": "VBMCOOF6B",
        "url": "https://www.163.com/dy/article/VBMCOOF6B.html"
    },
    {
        "title": "为什么很多房东都不着急买房了？",
        "docid": "VGMEIT72F",
        "url": "https://www.163.com/dy/article/VGMEIT72F.html"
    },
    {
        "title": "华发琴澳湾一号售楼处(官方网站)楼盘详情-价格-户型-售楼处电话",
        "docid": "IMVPJ5RN055636TK",
        "url": "https://www.163.com/dy/article/IMVPJ5RN055636TK.html"
    },
    {
        "title": "2024年房价走势逐渐清晰! 3个好消息传来, 提前恭喜无房人",
        "docid": "INC8ATJ20552ZQK3",
        "url": "https://www.163.com/dy/article/INC8ATJ20552ZQK3.html"
    },
    {
        "title": "武汉青年人才公寓（黄陂驿站）入驻盘龙城宋家岗龙樾上城",
        "docid": "IN5PI63H0552QWCS",
        "url": "https://www.163.com/dy/article/IN5PI63H0552QWCS.html"
    },
    {
        "title": "女子185万买江景房完全看不到江",
        "docid": "IN6N0VID055628N9",
        "url": "https://www.163.com/dy/article/IN6N0VID055628N9.html"
    },
    {
        "title": "武汉21.7亿成交两宗宅地，洪山杨春湖地块终止出让",
        "docid": "IN5C2GVT0552F71X",
        "url": "https://www.163.com/dy/article/IN5C2GVT0552F71X.html"
    },
    {
        "title": "横店新城居民，要银行，要麦当劳、要商业体……",
        "docid": "IN7GAN0K0545ACCK",
        "url": "https://www.163.com/dy/article/IN7GAN0K0545ACCK.html"
    },
    {
        "title": "青山滨江一住宅项目规划方案公示！",
        "docid": "IN84LMBO0534SV3Y",
        "url": "https://www.163.com/dy/article/IN84LMBO0534SV3Y.html"
    },
    {
        "title": "市场成交|2023年下半年厦门二手住宅成交8785套 环跌30.43%",
        "docid": "INCL1L0105524W85",
        "url": "https://www.163.com/dy/article/INCL1L0105524W85.html"
    },
    {
        "title": "武汉12月28日公示5个预售证1个现售证，1盘下降3671元/平",
        "docid": "IN5H87TN0553TDTY",
        "url": "https://www.163.com/dy/article/IN5H87TN0553TDTY.html"
    },
    {
        "title": "全世界物价最高的国家: 房价每平米41万人民币， 一瓶可乐29元",
        "docid": "IMUJOBJ20535KYBT",
        "url": "https://www.163.com/dy/article/IMUJOBJ20535KYBT.html"
    },
    {
        "title": "恒大跑路了？恒大还能满血复活吗？",
        "docid": "INCQS9SG0553TDVP",
        "url": "https://www.163.com/dy/article/INCQS9SG0553TDVP.html"
    },
    {
        "title": "邓云乡：四合院的冬·春·秋",
        "docid": "INCMR9O90539LB5M",
        "url": "https://www.163.com/dy/article/INCMR9O90539LB5M.html"
    },
    {
        "title": "来自司马夹的2024新年祝福",
        "docid": "INCR2OGH0549RI77",
        "url": "https://www.163.com/dy/article/INCR2OGH0549RI77.html"
    },
    {
        "title": "集体土地征收补偿安置时，土地已被纳入城市规划区，该如何补偿？",
        "docid": "INCQOVLO0532Q69P",
        "url": "https://www.163.com/dy/article/INCQOVLO0532Q69P.html"
    },
    {
        "title": "保利杀入老黄埔，我既兴奋，又害怕......",
        "docid": "INCPQ90R05159GE6",
        "url": "https://www.163.com/dy/article/INCPQ90R05159GE6.html"
    },
    {
        "title": "没钱花了就用公款！表面在滁州上班实则每晚住3万一月的上海酒店",
        "docid": "VWMF1619U",
        "url": "https://www.163.com/dy/article/VWMF1619U.html"
    },
    {
        "title": "马云谈房产未来你的房子将会有一大堆",
        "docid": "VWMEUREF4",
        "url": "https://www.163.com/dy/article/VWMEUREF4.html"
    },
    {
        "title": "12月百强房企销售业绩出炉；24年楼市能够企稳吗",
        "docid": "VYMES7RRM",
        "url": "https://www.163.com/dy/article/VYMES7RRM.html"
    },
    {
        "title": "买了房子之后，我晚上辗转反侧，难以入眠，特别后悔",
        "docid": "IMVF37Q005562BBD",
        "url": "https://www.163.com/dy/article/IMVF37Q005562BBD.html"
    },
    {
        "title": "来看看全球房价最高的20座城市！",
        "docid": "IMVSJKAK0553CGT6",
        "url": "https://www.163.com/dy/article/IMVSJKAK0553CGT6.html"
    },
    {
        "title": "盘点法拍房前十城市，看看有没有你的城市？",
        "docid": "VMMF29JFG",
        "url": "https://www.163.com/dy/article/VMMF29JFG.html"
    },
    {
        "title": "武汉要价3000万钉子户，如今自住开店出租两不误开发商失算了",
        "docid": "VMMCFFBTT",
        "url": "https://www.163.com/dy/article/VMMCFFBTT.html"
    },
    {
        "title": "房子卖出去不到一个月已经开始后悔了",
        "docid": "VYMCJ6LA4",
        "url": "https://www.163.com/dy/article/VYMCJ6LA4.html"
    },
    {
        "title": "逼老百姓买房子是不对的！",
        "docid": "VGMEVUBNA",
        "url": "https://www.163.com/dy/article/VGMEVUBNA.html"
    },
    {
        "title": "房子断崖式下跌，150万降到45万，如今是否如你所愿，触手可得？",
        "docid": "VZMEVT2D7",
        "url": "https://www.163.com/dy/article/VZMEVT2D7.html"
    },
    {
        "title": "楼房面积62平米，房间不大，一天必须打理干净，把自己打扮的漂亮",
        "docid": "VZMEVPB6K",
        "url": "https://www.163.com/dy/article/VZMEVPB6K.html"
    },
    {
        "title": "很多人都有的一个误区，房子出租了住过人再卖的时候卖不上价格了",
        "docid": "VGME636RQ",
        "url": "https://www.163.com/dy/article/VGME636RQ.html"
    },
    {
        "title": "东海国际公寓售楼处（福田）东海国际公寓官方网站丨楼盘详情",
        "docid": "INCU3N8A05566C0K",
        "url": "https://www.163.com/dy/article/INCU3N8A05566C0K.html"
    },
    {
        "title": "46岁男子花1美元买房！转手后分分钟赚50万！现在靠收租过日子",
        "docid": "INCSQBGC0552QDEA",
        "url": "https://www.163.com/dy/article/INCSQBGC0552QDEA.html"
    },
    {
        "title": "最新调查：美国全现金买房飙升至10年来最高水平！",
        "docid": "INCT264N0552QDEA",
        "url": "https://www.163.com/dy/article/INCT264N0552QDEA.html"
    },
    {
        "title": "武汉青年人才公寓（黄陂驿站）入驻盘龙城宋家岗龙樾上城",
        "docid": "IN5PI63H0552QWCS",
        "url": "https://www.163.com/dy/article/IN5PI63H0552QWCS.html"
    },
    {
        "title": "女子185万买江景房完全看不到江",
        "docid": "IN6N0VID055628N9",
        "url": "https://www.163.com/dy/article/IN6N0VID055628N9.html"
    },
    {
        "title": "武汉21.7亿成交两宗宅地，洪山杨春湖地块终止出让",
        "docid": "IN5C2GVT0552F71X",
        "url": "https://www.163.com/dy/article/IN5C2GVT0552F71X.html"
    },
    {
        "title": "横店新城居民，要银行，要麦当劳、要商业体……",
        "docid": "IN7GAN0K0545ACCK",
        "url": "https://www.163.com/dy/article/IN7GAN0K0545ACCK.html"
    },
    {
        "title": "青山滨江一住宅项目规划方案公示！",
        "docid": "IN84LMBO0534SV3Y",
        "url": "https://www.163.com/dy/article/IN84LMBO0534SV3Y.html"
    },
    {
        "title": "2023年百强房企拿地总额超1.3万亿元，22个重点城市土拍结束下行态势",
        "docid": "INCQ4QON0514R9P4",
        "url": "https://www.163.com/dy/article/INCQ4QON0514R9P4.html"
    },
    {
        "title": "武汉青年人才公寓（黄陂驿站）入驻盘龙城宋家岗龙樾上城",
        "docid": "IN5PI63H0552QWCS",
        "url": "https://www.163.com/dy/article/IN5PI63H0552QWCS.html"
    },
    {
        "title": "女子185万买江景房完全看不到江",
        "docid": "IN6N0VID055628N9",
        "url": "https://www.163.com/dy/article/IN6N0VID055628N9.html"
    },
    {
        "title": "武汉21.7亿成交两宗宅地，洪山杨春湖地块终止出让",
        "docid": "IN5C2GVT0552F71X",
        "url": "https://www.163.com/dy/article/IN5C2GVT0552F71X.html"
    },
    {
        "title": "横店新城居民，要银行，要麦当劳、要商业体……",
        "docid": "IN7GAN0K0545ACCK",
        "url": "https://www.163.com/dy/article/IN7GAN0K0545ACCK.html"
    },
    {
        "title": "青山滨江一住宅项目规划方案公示！",
        "docid": "IN84LMBO0534SV3Y",
        "url": "https://www.163.com/dy/article/IN84LMBO0534SV3Y.html"
    },
    {
        "title": "百城二手住宅平均价格去年累计下跌3.53%，今年市场有望逐渐筑底企稳",
        "docid": "INCR5P380514R9P4",
        "url": "https://www.163.com/dy/article/INCR5P380514R9P4.html"
    },
    {
        "title": "武汉12月28日公示5个预售证1个现售证，1盘下降3671元/平",
        "docid": "IN5H87TN0553TDTY",
        "url": "https://www.163.com/dy/article/IN5H87TN0553TDTY.html"
    },
    {
        "title": "武汉市土地市场年终“翘尾”：国企担当前锋、本土民企助攻",
        "docid": "IN8CM7GG0553TDXU",
        "url": "https://www.163.com/dy/article/IN8CM7GG0553TDXU.html"
    },
    {
        "title": "武汉-光谷中央公园-首页网站|光谷中央公园欢迎您|开盘信息",
        "docid": "IMT93HMT05566J9K",
        "url": "https://www.163.com/dy/article/IMT93HMT05566J9K.html"
    },
    {
        "title": "怨声满道！首投族对房价、物价、薪资不满源于绿营，青年放弃投票",
        "docid": "IMVSD0SJ05563VBL",
        "url": "https://www.163.com/dy/article/IMVSD0SJ05563VBL.html"
    },
    {
        "title": "回收项目现金流，知名房企行动",
        "docid": "IND1DSDG0553TDVP",
        "url": "https://www.163.com/dy/article/IND1DSDG0553TDVP.html"
    },
    {
        "title": "部分存量房贷利率1月1日起下调10BP",
        "docid": "IND178BI0519D45U",
        "url": "https://www.163.com/dy/article/IND178BI0519D45U.html"
    },
    {
        "title": "武汉青年人才公寓（黄陂驿站）入驻盘龙城宋家岗龙樾上城",
        "docid": "IN5PI63H0552QWCS",
        "url": "https://www.163.com/dy/article/IN5PI63H0552QWCS.html"
    },
    {
        "title": "女子185万买江景房完全看不到江",
        "docid": "IN6N0VID055628N9",
        "url": "https://www.163.com/dy/article/IN6N0VID055628N9.html"
    },
    {
        "title": "武汉21.7亿成交两宗宅地，洪山杨春湖地块终止出让",
        "docid": "IN5C2GVT0552F71X",
        "url": "https://www.163.com/dy/article/IN5C2GVT0552F71X.html"
    },
    {
        "title": "横店新城居民，要银行，要麦当劳、要商业体……",
        "docid": "IN7GAN0K0545ACCK",
        "url": "https://www.163.com/dy/article/IN7GAN0K0545ACCK.html"
    },
    {
        "title": "青山滨江一住宅项目规划方案公示！",
        "docid": "IN84LMBO0534SV3Y",
        "url": "https://www.163.com/dy/article/IN84LMBO0534SV3Y.html"
    },
    {
        "title": "我房子，终于卖掉了！！！",
        "docid": "INCPLLBK05159GE6",
        "url": "https://www.163.com/dy/article/INCPLLBK05159GE6.html"
    },
    {
        "title": "武汉青年人才公寓（黄陂驿站）入驻盘龙城宋家岗龙樾上城",
        "docid": "IN5PI63H0552QWCS",
        "url": "https://www.163.com/dy/article/IN5PI63H0552QWCS.html"
    },
    {
        "title": "女子185万买江景房完全看不到江",
        "docid": "IN6N0VID055628N9",
        "url": "https://www.163.com/dy/article/IN6N0VID055628N9.html"
    },
    {
        "title": "横店新城居民，要银行，要麦当劳、要商业体……",
        "docid": "IN7GAN0K0545ACCK",
        "url": "https://www.163.com/dy/article/IN7GAN0K0545ACCK.html"
    },
    {
        "title": "青山滨江一住宅项目规划方案公示！",
        "docid": "IN84LMBO0534SV3Y",
        "url": "https://www.163.com/dy/article/IN84LMBO0534SV3Y.html"
    },
    {
        "title": "武汉12月28日公示5个预售证1个现售证，1盘下降3671元/平",
        "docid": "IN5H87TN0553TDTY",
        "url": "https://www.163.com/dy/article/IN5H87TN0553TDTY.html"
    },
    {
        "title": "武汉市土地市场年终“翘尾”：国企担当前锋、本土民企助攻",
        "docid": "IN8CM7GG0553TDXU",
        "url": "https://www.163.com/dy/article/IN8CM7GG0553TDXU.html"
    },
    {
        "title": "武汉-光谷中央公园-首页网站|光谷中央公园欢迎您|开盘信息",
        "docid": "IMT93HMT05566J9K",
        "url": "https://www.163.com/dy/article/IMT93HMT05566J9K.html"
    },
    {
        "title": "部分存量房贷利率1月1日起下调10个基点",
        "docid": "INCEAIHE0514R9MQ",
        "url": "https://www.163.com/dy/article/INCEAIHE0514R9MQ.html"
    },
    {
        "title": "市民：建议白沙洲引进万象城大型商业",
        "docid": "IN5QFQQG0545PEDS",
        "url": "https://www.163.com/dy/article/IN5QFQQG0545PEDS.html"
    },
    {
        "title": "女子185万买江景房完全看不到江",
        "docid": "IN6N0VID055628N9",
        "url": "https://www.163.com/dy/article/IN6N0VID055628N9.html"
    },
    {
        "title": "横店新城居民，要银行，要麦当劳、要商业体……",
        "docid": "IN7GAN0K0545ACCK",
        "url": "https://www.163.com/dy/article/IN7GAN0K0545ACCK.html"
    },
    {
        "title": "青山滨江一住宅项目规划方案公示！",
        "docid": "IN84LMBO0534SV3Y",
        "url": "https://www.163.com/dy/article/IN84LMBO0534SV3Y.html"
    },
    {
        "title": "房地产专家龙斌：二手成交占主导，是一个城市发达水平的标志",
        "docid": "IND4A2CT05199NPP",
        "url": "https://www.163.com/dy/article/IND4A2CT05199NPP.html"
    },
    {
        "title": "武汉12月28日公示5个预售证1个现售证，1盘下降3671元/平",
        "docid": "IN5H87TN0553TDTY",
        "url": "https://www.163.com/dy/article/IN5H87TN0553TDTY.html"
    },
    {
        "title": "武汉市土地市场年终“翘尾”：国企担当前锋、本土民企助攻",
        "docid": "IN8CM7GG0553TDXU",
        "url": "https://www.163.com/dy/article/IN8CM7GG0553TDXU.html"
    },
    {
        "title": "武汉-光谷中央公园-首页网站|光谷中央公园欢迎您|开盘信息",
        "docid": "IMT93HMT05566J9K",
        "url": "https://www.163.com/dy/article/IMT93HMT05566J9K.html"
    },
    {
        "title": "市民：建议白沙洲引进万象城大型商业",
        "docid": "IN5QFQQG0545PEDS",
        "url": "https://www.163.com/dy/article/IN5QFQQG0545PEDS.html"
    },
    {
        "title": "《楼行前线》：2024年房地产市场猜想",
        "docid": "IN9B0A2U05199NPP",
        "url": "https://www.163.com/dy/article/IN9B0A2U05199NPP.html"
    },
    {
        "title": "武汉青年人才公寓（黄陂驿站）入驻盘龙城宋家岗龙樾上城",
        "docid": "IN5PI63H0552QWCS",
        "url": "https://www.163.com/dy/article/IN5PI63H0552QWCS.html"
    },
    {
        "title": "女子185万买江景房完全看不到江",
        "docid": "IN6N0VID055628N9",
        "url": "https://www.163.com/dy/article/IN6N0VID055628N9.html"
    },
    {
        "title": "横店新城居民，要银行，要麦当劳、要商业体……",
        "docid": "IN7GAN0K0545ACCK",
        "url": "https://www.163.com/dy/article/IN7GAN0K0545ACCK.html"
    },
    {
        "title": "青山滨江一住宅项目规划方案公示！",
        "docid": "IN84LMBO0534SV3Y",
        "url": "https://www.163.com/dy/article/IN84LMBO0534SV3Y.html"
    },
    {
        "title": "二手房业主不要再降价买房子了。",
        "docid": "IN2P92QU0553GD76",
        "url": "https://www.163.com/dy/article/IN2P92QU0553GD76.html"
    },
    {
        "title": "《楼行前线》：2024年房地产市场前瞻",
        "docid": "IND4A1JV05199NPP",
        "url": "https://www.163.com/dy/article/IND4A1JV05199NPP.html"
    },
    {
        "title": "武汉12月28日公示5个预售证1个现售证，1盘下降3671元/平",
        "docid": "IN5H87TN0553TDTY",
        "url": "https://www.163.com/dy/article/IN5H87TN0553TDTY.html"
    },
    {
        "title": "武汉市土地市场年终“翘尾”：国企担当前锋、本土民企助攻",
        "docid": "IN8CM7GG0553TDXU",
        "url": "https://www.163.com/dy/article/IN8CM7GG0553TDXU.html"
    },
    {
        "title": "武汉-光谷中央公园-首页网站|光谷中央公园欢迎您|开盘信息",
        "docid": "IMT93HMT05566J9K",
        "url": "https://www.163.com/dy/article/IMT93HMT05566J9K.html"
    },
    {
        "title": "湖北12×12米二层复式别墅，占地方正，漂亮大气，建房主体32万",
        "docid": "IND8TFTU0552QWCL",
        "url": "https://www.163.com/dy/article/IND8TFTU0552QWCL.html"
    },
    {
        "title": "98年男生买房后没钱装修，入住毛坯房，男生坦言：放慢脚步慢慢来",
        "docid": "IND6QVPA05523D4F",
        "url": "https://www.163.com/dy/article/IND6QVPA05523D4F.html"
    },
    {
        "title": "蛇口2019年次新豪宅4房！高层看海景，无遮挡",
        "docid": "IND7KVDL0553TDVP",
        "url": "https://www.163.com/dy/article/IND7KVDL0553TDVP.html"
    },
    {
        "title": "总有一种人在说不要存钱，把钱投到房地产里面。",
        "docid": "IND307U80553GD76",
        "url": "https://www.163.com/dy/article/IND307U80553GD76.html"
    },
    {
        "title": "为什么到泰国生活的中国家庭，都能住上别墅？",
        "docid": "VDMFC508N",
        "url": "https://www.163.com/dy/article/VDMFC508N.html"
    },
    {
        "title": "临崖大花园，25米长阳台！这才叫江景大平层！",
        "docid": "VGMFBCJ75",
        "url": "https://www.163.com/dy/article/VGMFBCJ75.html"
    },
    {
        "title": "国家改建15万平“华为大湿地公园”开始征收",
        "docid": "VTMFE27QL",
        "url": "https://www.163.com/dy/article/VTMFE27QL.html"
    },
    {
        "title": "老房子又吃香了?中央明确定调：2024年起，这2类人将受益",
        "docid": "VMMCDLF1N",
        "url": "https://www.163.com/dy/article/VMMCDLF1N.html"
    },
    {
        "title": "2024年开始房地产格局的变化早就定了，现在能看到的只是冰山一角",
        "docid": "VCMF7PJQ7",
        "url": "https://www.163.com/dy/article/VCMF7PJQ7.html"
    },
    {
        "title": "武汉青年人才公寓（黄陂驿站）入驻盘龙城宋家岗龙樾上城",
        "docid": "IN5PI63H0552QWCS",
        "url": "https://www.163.com/dy/article/IN5PI63H0552QWCS.html"
    },
    {
        "title": "女子185万买江景房完全看不到江",
        "docid": "IN6N0VID055628N9",
        "url": "https://www.163.com/dy/article/IN6N0VID055628N9.html"
    },
    {
        "title": "横店新城居民，要银行，要麦当劳、要商业体……",
        "docid": "IN7GAN0K0545ACCK",
        "url": "https://www.163.com/dy/article/IN7GAN0K0545ACCK.html"
    },
    {
        "title": "青山滨江一住宅项目规划方案公示！",
        "docid": "IN84LMBO0534SV3Y",
        "url": "https://www.163.com/dy/article/IN84LMBO0534SV3Y.html"
    },
    {
        "title": "《楼行前线》：今年二手房交易占比提高 带动房地产市场交易总量正增长",
        "docid": "IND2JRBE0552F71X",
        "url": "https://www.163.com/dy/article/IND2JRBE0552F71X.html"
    },
    {
        "title": "武汉市土地市场年终“翘尾”：国企担当前锋、本土民企助攻",
        "docid": "IN8CM7GG0553TDXU",
        "url": "https://www.163.com/dy/article/IN8CM7GG0553TDXU.html"
    },
    {
        "title": "武汉-光谷中央公园-首页网站|光谷中央公园欢迎您|开盘信息",
        "docid": "IMT93HMT05566J9K",
        "url": "https://www.163.com/dy/article/IMT93HMT05566J9K.html"
    },
    {
        "title": "市民：建议白沙洲引进万象城大型商业",
        "docid": "IN5QFQQG0545PEDS",
        "url": "https://www.163.com/dy/article/IN5QFQQG0545PEDS.html"
    },
    {
        "title": "2023年中国房地产销售额百亿企业排行榜",
        "docid": "INAA64DM05159A0N",
        "url": "https://www.163.com/dy/article/INAA64DM05159A0N.html"
    },
    {
        "title": "专家的这个预测，很多人根本没看懂？懂行人：提前做好3个准备",
        "docid": "INDBNHVB0553TEQM",
        "url": "https://www.163.com/dy/article/INDBNHVB0553TEQM.html"
    },
    {
        "title": "占地面积134平方三层欧式别墅，农村人建房首选户型，简直美爆了",
        "docid": "INDAV5410552QWCS",
        "url": "https://www.163.com/dy/article/INDAV5410552QWCS.html"
    },
    {
        "title": "2024年楼市6大好消息，房贷或再降，期房预售制改革提上日程",
        "docid": "VAMFH0KK2",
        "url": "https://www.163.com/dy/article/VAMFH0KK2.html"
    },
    {
        "title": "物业这次真的要完蛋了 ",
        "docid": "VRMFFMM9U",
        "url": "https://www.163.com/dy/article/VRMFFMM9U.html"
    },
    {
        "title": "联排别墅居然139万都有机会买了，带地下室车位花园",
        "docid": "VGMF8AKHD",
        "url": "https://www.163.com/dy/article/VGMF8AKHD.html"
    },
    {
        "title": "2024我国房产将有哪些变化？基调早已确定，普通百姓如何应对？",
        "docid": "VTMF49D7H",
        "url": "https://www.163.com/dy/article/VTMF49D7H.html"
    },
    {
        "title": "出国后，我发现了房价“跌跌不休”的秘密",
        "docid": "VWMFEI1MD",
        "url": "https://www.163.com/dy/article/VWMFEI1MD.html"
    },
    {
        "title": "华为周边房价跌去不止一半，松山湖炒作过火的后果",
        "docid": "VGMFD22MA",
        "url": "https://www.163.com/dy/article/VGMFD22MA.html"
    },
    {
        "title": "网友拍到豪横自建房，没有一丝砖头，全是钢筋混凝土，网友：这房子能当堡垒住了。",
        "docid": "VIM9SOBPF",
        "url": "https://www.163.com/dy/article/VIM9SOBPF.html"
    },
    {
        "title": "2024年的第一天就花掉13000多，一笔物业费，一笔结清网络贷款。",
        "docid": "INDDB5UL0552QWCS",
        "url": "https://www.163.com/dy/article/INDDB5UL0552QWCS.html"
    },
    {
        "title": "今起，武汉房贷利率又降了！",
        "docid": "INDD4S6R0514BINQ",
        "url": "https://www.163.com/dy/article/INDD4S6R0514BINQ.html"
    },
    {
        "title": "新年了，任冉距离殳海又靠近了一步",
        "docid": "INDD1CI90553TAZH",
        "url": "https://www.163.com/dy/article/INDD1CI90553TAZH.html"
    },
    {
        "title": "三年后，最值钱的不是土地，不是房子，而是这三样",
        "docid": "INDCITN40542M5JD",
        "url": "https://www.163.com/dy/article/INDCITN40542M5JD.html"
    },
    {
        "title": "武汉青年人才公寓（黄陂驿站）入驻盘龙城宋家岗龙樾上城",
        "docid": "IN5PI63H0552QWCS",
        "url": "https://www.163.com/dy/article/IN5PI63H0552QWCS.html"
    },
    {
        "title": "女子185万买江景房完全看不到江",
        "docid": "IN6N0VID055628N9",
        "url": "https://www.163.com/dy/article/IN6N0VID055628N9.html"
    },
    {
        "title": "横店新城居民，要银行，要麦当劳、要商业体……",
        "docid": "IN7GAN0K0545ACCK",
        "url": "https://www.163.com/dy/article/IN7GAN0K0545ACCK.html"
    },
    {
        "title": "青山滨江一住宅项目规划方案公示！",
        "docid": "IN84LMBO0534SV3Y",
        "url": "https://www.163.com/dy/article/IN84LMBO0534SV3Y.html"
    },
    {
        "title": "武汉市土地市场年终“翘尾”：国企担当前锋、本土民企助攻",
        "docid": "IN8CM7GG0553TDXU",
        "url": "https://www.163.com/dy/article/IN8CM7GG0553TDXU.html"
    }
]