[
    {
        "title": "为何买房不能选3、7、10、17楼？听了销售的话，才明白其中道理",
        "docid": "IQNOQ5MN055669HQ",
        "url": "https://www.163.com/dy/article/IQNOQ5MN055669HQ.html"
    },
    {
        "title": "170平米大户型的入户方式如此奇特？没有人会拒绝这样的格局吧",
        "docid": "IQL2NAI205566SDU",
        "url": "https://www.163.com/dy/article/IQL2NAI205566SDU.html"
    },
    {
        "title": "值得收藏的大平层户型，相当有档次",
        "docid": "IQSQACAJ055616ZT",
        "url": "https://www.163.com/dy/article/IQSQACAJ055616ZT.html"
    },
    {
        "title": "未来10年，中国这3类小区将沦为“贫民窟”？懂行人早已悄悄抽身",
        "docid": "IQJNIHBG05536P04",
        "url": "https://www.163.com/dy/article/IQJNIHBG05536P04.html"
    },
    {
        "title": "196平米的豪华户型，细节确实有格调",
        "docid": "IQQ91JEI055616ZT",
        "url": "https://www.163.com/dy/article/IQQ91JEI055616ZT.html"
    },
    {
        "title": "终于有人把“全国房价排行”整理出来了，赶紧收藏看看。",
        "docid": "IQNSG7TK0553TDTY",
        "url": "https://www.163.com/dy/article/IQNSG7TK0553TDTY.html"
    },
    {
        "title": "国家早告诉我们房住不炒！但凡听了就不会这么后悔了。",
        "docid": "IQCJ5G6U05562BBD",
        "url": "https://www.163.com/dy/article/IQCJ5G6U05562BBD.html"
    },
    {
        "title": "租了五年的房子，房东终于决定卖给我们了！花了105万，省了45万",
        "docid": "IQHSB9TF05564Z4P",
        "url": "https://www.163.com/dy/article/IQHSB9TF05564Z4P.html"
    },
    {
        "title": "空房子到底要不要交“物业费”？新法规确定了：统一“这样”收",
        "docid": "IQOLHP6F0556123R",
        "url": "https://www.163.com/dy/article/IQOLHP6F0556123R.html"
    },
    {
        "title": "武汉房价跌了两年，武汉年轻人别走，武汉买房会越来越容易",
        "docid": "IQUK41SH0535JMSP",
        "url": "https://www.163.com/dy/article/IQUK41SH0535JMSP.html"
    },
    {
        "title": "七层以下的房子，不能选4楼？其实，这2个楼层更需要谨慎购买！",
        "docid": "IQESFAV80520K44K",
        "url": "https://www.163.com/dy/article/IQESFAV80520K44K.html"
    },
    {
        "title": "不听劝，买了“一楼带院子”的房子，入住3年的真实体验",
        "docid": "IQE3R6CT0520AAO5",
        "url": "https://www.163.com/dy/article/IQE3R6CT0520AAO5.html"
    },
    {
        "title": "为何双卫生间户型如今不受欢迎？听完经验人的话，才知有多坑",
        "docid": "IQTDCMAR055669HQ",
        "url": "https://www.163.com/dy/article/IQTDCMAR055669HQ.html"
    },
    {
        "title": "两个极致的户型，不到170平米，你会选择哪一个?",
        "docid": "IQTBBTL005566SC9",
        "url": "https://www.163.com/dy/article/IQTBBTL005566SC9.html"
    },
    {
        "title": "很明显：这是一款奢华的大户型",
        "docid": "IQQ7K2FF055616ZT",
        "url": "https://www.163.com/dy/article/IQQ7K2FF055616ZT.html"
    },
    {
        "title": "顶奢大平层户型，确实很少见",
        "docid": "IQQ7RJ8I05566SC9",
        "url": "https://www.163.com/dy/article/IQQ7RJ8I05566SC9.html"
    },
    {
        "title": "武昌 | 武锅B-1地块拟供地！",
        "docid": "IQUG58J80534SV3Y",
        "url": "https://www.163.com/dy/article/IQUG58J80534SV3Y.html"
    },
    {
        "title": "买二手房时，最好先去阳台看一看，为什么，我来告诉你答案",
        "docid": "IQNMD8CC05566SDU",
        "url": "https://www.163.com/dy/article/IQNMD8CC05566SDU.html"
    }
]