[
    {
        "title": "比起房价暴跌还可怕的五件事儿，其实已经发生了，你发现了没有？",
        "docid": "J0O0P9O00553TDXU",
        "url": "https://www.163.com/dy/article/J0O0P9O00553TDXU.html"
    },
    {
        "title": "高新贤文小鸭组团开发建设拉开帷幕！",
        "docid": "J0NSTTL80553TB8M",
        "url": "https://www.163.com/dy/article/J0NSTTL80553TB8M.html"
    },
    {
        "title": "买房是选大社区好, 还是小社区好!",
        "docid": "J0CJVEMT055321V8",
        "url": "https://www.163.com/dy/article/J0CJVEMT055321V8.html"
    },
    {
        "title": "受前女友刺激！从上海回芜湖，一个人看遍城南、城中、城东，最终上车热门盘！",
        "docid": "J0O333LB0545B5BW",
        "url": "https://www.163.com/dy/article/J0O333LB0545B5BW.html"
    },
    {
        "title": "出生率降低, 房子也越来越多, 房价上涨的逻辑在哪!",
        "docid": "J0I2DSQN0553243Q",
        "url": "https://www.163.com/dy/article/J0I2DSQN0553243Q.html"
    },
    {
        "title": "小产权40万和大产权80万的房子，选哪个更划算？开发商一语道明",
        "docid": "J0I61GQV0540SN7V",
        "url": "https://www.163.com/dy/article/J0I61GQV0540SN7V.html"
    },
    {
        "title": "终于卖掉了房子，虽然加利息共赔了50万，但是感觉像卸掉一座大山",
        "docid": "J0G3IG150525S804",
        "url": "https://www.163.com/dy/article/J0G3IG150525S804.html"
    },
    {
        "title": "许家印！荒唐奢靡生活堪称奇葩！14项要求，骚规定，让人望尘莫及",
        "docid": "J0JJNECB0552F71X",
        "url": "https://www.163.com/dy/article/J0JJNECB0552F71X.html"
    },
    {
        "title": "沉重的房租是门面转让的根本原因吗",
        "docid": "J0JK6ICA0553TDTY",
        "url": "https://www.163.com/dy/article/J0JK6ICA0553TDTY.html"
    },
    {
        "title": "一楼真有那么好？售楼经理揭秘有钱人为何偏爱！",
        "docid": "J0HLH8840540FQWZ",
        "url": "https://www.163.com/dy/article/J0HLH8840540FQWZ.html"
    },
    {
        "title": "郊区房价虽然便宜，但是买房时距离市中心，最好不要超过30公里",
        "docid": "J0AVEG5F0535BC2F",
        "url": "https://www.163.com/dy/article/J0AVEG5F0535BC2F.html"
    },
    {
        "title": "澳洲三大首府城市今年房价将飙升",
        "docid": "J0KQRMTF053661TJ",
        "url": "https://www.163.com/dy/article/J0KQRMTF053661TJ.html"
    },
    {
        "title": "拆迁补偿钱太少？学会这些技巧教你提高拆迁补偿",
        "docid": "J0B86RQH0532Q69P",
        "url": "https://www.163.com/dy/article/J0B86RQH0532Q69P.html"
    },
    {
        "title": "稳！实力交付显担当！长房岭秀时代一期二批提前盛大交付！",
        "docid": "J0CU54KM05521EJ8",
        "url": "https://www.163.com/dy/article/J0CU54KM05521EJ8.html"
    },
    {
        "title": "很多人看空楼市，却根本没看到点上",
        "docid": "J0F6NJ8D0515UN97",
        "url": "https://www.163.com/dy/article/J0F6NJ8D0515UN97.html"
    },
    {
        "title": "房价再下跌，只能自行了断了",
        "docid": "J0HTV56C05565QPS",
        "url": "https://www.163.com/dy/article/J0HTV56C05565QPS.html"
    },
    {
        "title": "银行存款利率下调是好消息？对贷款买房的来说有这几个利处！",
        "docid": "J0N5L1UI0552257Z",
        "url": "https://www.163.com/dy/article/J0N5L1UI0552257Z.html"
    },
    {
        "title": "住建部专家警告：大规模房价下跌可能导致人们成为“负翁”",
        "docid": "J0KJBM940540A6F8",
        "url": "https://www.163.com/dy/article/J0KJBM940540A6F8.html"
    },
    {
        "title": "去年高价出售房子的那些人，现在都后悔了？有业主抱怨：损失大了",
        "docid": "J0KJO3BV0540A6F8",
        "url": "https://www.163.com/dy/article/J0KJO3BV0540A6F8.html"
    },
    {
        "title": "念念不忘的洋房大平层！太美了！",
        "docid": "J06N7PLI0553TEQM",
        "url": "https://www.163.com/dy/article/J06N7PLI0553TEQM.html"
    },
    {
        "title": "房价从3.5万降到1.7万，小叔子捶胸顿足：这几年相当于白干！",
        "docid": "J0ICM9MV0520K44K",
        "url": "https://www.163.com/dy/article/J0ICM9MV0520K44K.html"
    },
    {
        "title": "不挣扎了，加拿大面临的生活成本危机，72%放弃房产梦，61%选择降低生活成本",
        "docid": "J0O46M0T05566YXC",
        "url": "https://www.163.com/dy/article/J0O46M0T05566YXC.html"
    },
    {
        "title": "楼市行情，发生变化了！",
        "docid": "J0MTPS5Q0515UN97",
        "url": "https://www.163.com/dy/article/J0MTPS5Q0515UN97.html"
    },
    {
        "title": "值得争抢的户型有哪些？快来看，别等事后遗憾！",
        "docid": "J0I6DMIE0540H6M7",
        "url": "https://www.163.com/dy/article/J0I6DMIE0540H6M7.html"
    },
    {
        "title": "泡沫终将破裂，历史的车轮滚滚而来，房价下跌已成定局！",
        "docid": "J0EH4B37055616ZT",
        "url": "https://www.163.com/dy/article/J0EH4B37055616ZT.html"
    },
    {
        "title": "『官网』2024中山华发观山水售楼中心电话：400 664 6643【官方】",
        "docid": "J0L276S3055644UJ",
        "url": "https://www.163.com/dy/article/J0L276S3055644UJ.html"
    },
    {
        "title": "花费数万元学来的鸡爪和各种菜品，道道经典快来看看值不值这个钱",
        "docid": "J0O8S83605566SC9",
        "url": "https://www.163.com/dy/article/J0O8S83605566SC9.html"
    },
    {
        "title": "别墅不“香”了？有钱人纷纷逃离“别墅”，只因这4个坑实在难忍",
        "docid": "J0HJP6HK055643RB",
        "url": "https://www.163.com/dy/article/J0HJP6HK055643RB.html"
    },
    {
        "title": "“二次房改”已经来临了？北大教授提出新方案，两类人将从中受益",
        "docid": "J0LDVLTU0535BC2F",
        "url": "https://www.163.com/dy/article/J0LDVLTU0535BC2F.html"
    },
    {
        "title": "这两个户型都有六个卧室，该怎么选择呢？",
        "docid": "J0H0Q7PC0553TB9L",
        "url": "https://www.163.com/dy/article/J0H0Q7PC0553TB9L.html"
    },
    {
        "title": "那么多人居住的老破小，未来等来的是，拆迁重建还是维修？",
        "docid": "J07CSJ0I0553RHO2",
        "url": "https://www.163.com/dy/article/J07CSJ0I0553RHO2.html"
    },
    {
        "title": "“好服务 好房子”系列报道丨如何铸造“好服务”？",
        "docid": "J0L07470055615MY",
        "url": "https://www.163.com/dy/article/J0L07470055615MY.html"
    },
    {
        "title": "网络喷子不用嘲笑房地产，光伏和电池一季报利润大减，甚至巨亏",
        "docid": "J0MRVEVF0553TB8M",
        "url": "https://www.163.com/dy/article/J0MRVEVF0553TB8M.html"
    },
    {
        "title": "专家称，房价没有见底，不适合抄底买房，房东只能降价换取流量！",
        "docid": "J0KM53QF05562DLL",
        "url": "https://www.163.com/dy/article/J0KM53QF05562DLL.html"
    },
    {
        "title": "售楼处很多漂亮女生，一年卖不出几套房，为何还干得津津有味？",
        "docid": "J0I5NH6G0556124M",
        "url": "https://www.163.com/dy/article/J0I5NH6G0556124M.html"
    },
    {
        "title": "消息真灵通：一线城市取消限购",
        "docid": "J0IU2VQ505563TCH",
        "url": "https://www.163.com/dy/article/J0IU2VQ505563TCH.html"
    },
    {
        "title": "现在该“买房”还是“卖房”？看看懂行人怎么说",
        "docid": "J0MT0UN005536P04",
        "url": "https://www.163.com/dy/article/J0MT0UN005536P04.html"
    },
    {
        "title": "万科、碧桂园负债总和，与恒大相当！",
        "docid": "J0HH5JMC0515CCBS",
        "url": "https://www.163.com/dy/article/J0HH5JMC0515CCBS.html"
    },
    {
        "title": "最近的楼市信号，来势汹汹！",
        "docid": "J0HPI0PT0515UN97",
        "url": "https://www.163.com/dy/article/J0HPI0PT0515UN97.html"
    },
    {
        "title": "44岁的我，一直没在城里买房，有以下一些考虑因素",
        "docid": "J0KMA0D00553TDTY",
        "url": "https://www.163.com/dy/article/J0KMA0D00553TDTY.html"
    },
    {
        "title": "开间10米建房，这7款二层小别墅，简单大方实用，造价实惠易建",
        "docid": "J0J3PCOB0552F71X",
        "url": "https://www.163.com/dy/article/J0J3PCOB0552F71X.html"
    },
    {
        "title": "老旧小区改造你有什么看法？",
        "docid": "J0CPH4260552XOAH",
        "url": "https://www.163.com/dy/article/J0CPH4260552XOAH.html"
    },
    {
        "title": "给力，家人房产过户明细表，终于有人整理出来了，收藏备用",
        "docid": "J0N8A51A0553TDVP",
        "url": "https://www.163.com/dy/article/J0N8A51A0553TDVP.html"
    },
    {
        "title": "妖风作乱！卖房的小心被这些套路收割！",
        "docid": "J0OAMJCJ0553TEQM",
        "url": "https://www.163.com/dy/article/J0OAMJCJ0553TEQM.html"
    },
    {
        "title": "楼市“门户”大开？高层一锤定音，房价或再次上涨！",
        "docid": "J0HNPIBC05536P04",
        "url": "https://www.163.com/dy/article/J0HNPIBC05536P04.html"
    },
    {
        "title": "哪个楼层好，你买的是几楼？请看下面的图片，你就明白了，你细品",
        "docid": "J0K7JBED0553TEQM",
        "url": "https://www.163.com/dy/article/J0K7JBED0553TEQM.html"
    },
    {
        "title": "楼层怎么选 数字寓意 同城热门你们家住几楼，留下你的痕迹",
        "docid": "J0HNLLGS055616ZT",
        "url": "https://www.163.com/dy/article/J0HNLLGS055616ZT.html"
    },
    {
        "title": "李嘉诚说中了？我国手握两套以上房产的家庭，或将面临的三个问题",
        "docid": "J04M86O005566DVL",
        "url": "https://www.163.com/dy/article/J04M86O005566DVL.html"
    },
    {
        "title": "重磅消息！全国即将解除限购政策；华发海上都荟现场火爆认购中！",
        "docid": "J08JET6A0556757N",
        "url": "https://www.163.com/dy/article/J08JET6A0556757N.html"
    },
    {
        "title": "锦系町站240米！东京墨田区1K双面采光公寓，卫浴分离，丸井百货180米，电车直达东京站！",
        "docid": "J0L8H9QS05359JWY",
        "url": "https://www.163.com/dy/article/J0L8H9QS05359JWY.html"
    },
    {
        "title": "给力，买房如何选楼层，有人终于整理出来了，收藏看看",
        "docid": "J0LA1NP10553TB8M",
        "url": "https://www.163.com/dy/article/J0LA1NP10553TB8M.html"
    },
    {
        "title": "房奴的功劳有多大？看完涨知识了",
        "docid": "J0N4MKUP0553TDTY",
        "url": "https://www.163.com/dy/article/J0N4MKUP0553TDTY.html"
    },
    {
        "title": "贝壳“赚麻”了？利润都是房东的眼泪？",
        "docid": "J0LE63NG0556720A",
        "url": "https://www.163.com/dy/article/J0LE63NG0556720A.html"
    },
    {
        "title": "老王好样的！万达卖地，卖酒店，但是没卖国，更没把负担丢给社会",
        "docid": "J0MR5J9405561UAV",
        "url": "https://www.163.com/dy/article/J0MR5J9405561UAV.html"
    },
    {
        "title": "中央一锤定音，旧改规模加大，共享电梯来了，老房子这下要吃香了",
        "docid": "J0I0KRBS0536UOB3",
        "url": "https://www.163.com/dy/article/J0I0KRBS0536UOB3.html"
    },
    {
        "title": "楼市突变！2021年4.9万，2024年2.9万，下滑40%，释放什么信号？",
        "docid": "J0IPMG1G05566C1Z",
        "url": "https://www.163.com/dy/article/J0IPMG1G05566C1Z.html"
    },
    {
        "title": "啊！纠结！想换房，但现在卖房又觉得很亏",
        "docid": "J0CCRA9J0530OLSK",
        "url": "https://www.163.com/dy/article/J0CCRA9J0530OLSK.html"
    },
    {
        "title": "澳洲华人女子坐拥6套房！疯狂收租成富婆！曾经只吃米饭和辣椒酱",
        "docid": "J0FI3O990552QDEA",
        "url": "https://www.163.com/dy/article/J0FI3O990552QDEA.html"
    },
    {
        "title": "难以接受，今年的房子，真的卖不动了！",
        "docid": "J0FMCALA05567IYR",
        "url": "https://www.163.com/dy/article/J0FMCALA05567IYR.html"
    },
    {
        "title": "原央行副行长：泡沫中狂欢的日子不多了，这是很多人需面对的事实",
        "docid": "J0G4E1HK0535BC2F",
        "url": "https://www.163.com/dy/article/J0G4E1HK0535BC2F.html"
    },
    {
        "title": "夫妻共有的房产，一方死亡后办理继承时需要注意什么？",
        "docid": "J0KGIGEE0552F71X",
        "url": "https://www.163.com/dy/article/J0KGIGEE0552F71X.html"
    },
    {
        "title": "希腊战后婴儿潮一代陆续退休，对希腊房地产市场带来什么影响？",
        "docid": "J0MUHQ880553TDXU",
        "url": "https://www.163.com/dy/article/J0MUHQ880553TDXU.html"
    },
    {
        "title": "“2024泰国宋干节暨国际非遗文化交流活动”圆满举行",
        "docid": "J0IDVUAB0519B68H",
        "url": "https://www.163.com/dy/article/J0IDVUAB0519B68H.html"
    },
    {
        "title": "聪明人为何避开高层住宅？内行人士揭秘，幸好提前了解！",
        "docid": "J0O6OOUK05258H6P",
        "url": "https://www.163.com/dy/article/J0O6OOUK05258H6P.html"
    },
    {
        "title": "一边是上亿套房空置，一边是老百姓买不起房？老干部提出解决方案",
        "docid": "J0LHJR290519GBC0",
        "url": "https://www.163.com/dy/article/J0LHJR290519GBC0.html"
    },
    {
        "title": "发现了没有，不知不觉方向变了，一部分人觉醒了。",
        "docid": "J0K1J1GV055640VF",
        "url": "https://www.163.com/dy/article/J0K1J1GV055640VF.html"
    },
    {
        "title": "被拆迁人速看！征收安置补偿款这些人也有资格获得，别再错过了",
        "docid": "J0HFJ4UE0553TDVP",
        "url": "https://www.163.com/dy/article/J0HFJ4UE0553TDVP.html"
    },
    {
        "title": "离谱言论！专家：老百姓不是没钱买房，而是把买房的钱存起来了！",
        "docid": "J0FLASF205536P04",
        "url": "https://www.163.com/dy/article/J0FLASF205536P04.html"
    },
    {
        "title": "刘嘉玲卖出海景房赚1900多万元，曾说：我其实不太懂投资",
        "docid": "J0I1FOM8051492T3",
        "url": "https://www.163.com/dy/article/J0I1FOM8051492T3.html"
    },
    {
        "title": "2024年最讽刺的话：房地产养活了太多人，所以房地产不能倒",
        "docid": "J0MKJ75N05562SWQ",
        "url": "https://www.163.com/dy/article/J0MKJ75N05562SWQ.html"
    },
    {
        "title": "万科欧泊业主：300多万贱卖？滚，想屁吃！",
        "docid": "J0NVEG340553TDXU",
        "url": "https://www.163.com/dy/article/J0NVEG340553TDXU.html"
    },
    {
        "title": "豪宅风云：刘嘉玲2100万赚翻天，王菲邻座却难觅买家！",
        "docid": "J0KKUMH0055657D6",
        "url": "https://www.163.com/dy/article/J0KKUMH0055657D6.html"
    },
    {
        "title": "TVB男星日本买房！趁日元创34年新低上车，看中民宿潜力掏空积蓄",
        "docid": "J0OCC6G0055616ZT",
        "url": "https://www.163.com/dy/article/J0OCC6G0055616ZT.html"
    },
    {
        "title": "澳洲房地产市场影响因素深度解析",
        "docid": "J0I6LRRU053661TJ",
        "url": "https://www.163.com/dy/article/J0I6LRRU053661TJ.html"
    },
    {
        "title": "整个房地产市场已经沦为了一个超级大的赌场。",
        "docid": "J0NMUFF30553GD76",
        "url": "https://www.163.com/dy/article/J0NMUFF30553GD76.html"
    },
    {
        "title": "悉尼房价疯涨，已经失控！",
        "docid": "J0JIRGN905199N88",
        "url": "https://www.163.com/dy/article/J0JIRGN905199N88.html"
    },
    {
        "title": "物业项目经理与品质经理，应该选哪个？",
        "docid": "J0K4K7SB055615MY",
        "url": "https://www.163.com/dy/article/J0K4K7SB055615MY.html"
    },
    {
        "title": "楼市风云，重磅利好越来越多，市场信号明显，我劝你不要急着买房",
        "docid": "J0K9Q1GH05566C1Z",
        "url": "https://www.163.com/dy/article/J0K9Q1GH05566C1Z.html"
    },
    {
        "title": "一手撑起的“支柱”，另一手却在“挤水分”，房地产未来何去何从",
        "docid": "J0KOQP9J05536P04",
        "url": "https://www.163.com/dy/article/J0KOQP9J05536P04.html"
    },
    {
        "title": "仇保兴谈房价：若房价暴跌，很多人将成为“负翁”",
        "docid": "J0K1K4P3055640VF",
        "url": "https://www.163.com/dy/article/J0K1K4P3055640VF.html"
    },
    {
        "title": "中原估价指数CVI单周升穿70点",
        "docid": "J0KVC6JI0519D45U",
        "url": "https://www.163.com/dy/article/J0KVC6JI0519D45U.html"
    },
    {
        "title": "从2.5万跌到4000元，房子还是卖不掉！炒房客：有人要就免费送",
        "docid": "J0A1BHQN05536P04",
        "url": "https://www.163.com/dy/article/J0A1BHQN05536P04.html"
    },
    {
        "title": "买房“一次性付清”和“还贷30年”有何区别？幸亏早知道",
        "docid": "J0D4D0EV0540SN7V",
        "url": "https://www.163.com/dy/article/J0D4D0EV0540SN7V.html"
    },
    {
        "title": "《民法典》明确规定 不动产登记收费有标准 相关人员不可乱收费!",
        "docid": "J0OBJ8R80552F71X",
        "url": "https://www.163.com/dy/article/J0OBJ8R80552F71X.html"
    },
    {
        "title": "维州要让所有房主大出血！新法案计划推行，有房人士要多花数万块",
        "docid": "J0N38I7205560ZCW",
        "url": "https://www.163.com/dy/article/J0N38I7205560ZCW.html"
    },
    {
        "title": "行政审批局：“保交楼”熙隽花园交房即发证",
        "docid": "J0H6UB6T0552ADWT",
        "url": "https://www.163.com/dy/article/J0H6UB6T0552ADWT.html"
    },
    {
        "title": "究竟是道德的沦丧，还是人性的泯灭！保利虹桥和颂再放大招！",
        "docid": "J0I4D4R705567507",
        "url": "https://www.163.com/dy/article/J0I4D4R705567507.html"
    },
    {
        "title": "房子转到子女名下，哪种方式最划算",
        "docid": "J0HBCFMJ0553TDTY",
        "url": "https://www.163.com/dy/article/J0HBCFMJ0553TDTY.html"
    },
    {
        "title": "房价不能下跌，不然很多人要睡大街无家可归了，这是为什么？",
        "docid": "J0IFISVO0552ZBYW",
        "url": "https://www.163.com/dy/article/J0IFISVO0552ZBYW.html"
    },
    {
        "title": "房地产的历史大底四月份出现了，本想着会是六月，没想到会是四月",
        "docid": "J0N8VD5T05563TCH",
        "url": "https://www.163.com/dy/article/J0N8VD5T05563TCH.html"
    },
    {
        "title": "物业“全面取消”？新规出台，今年开始有3个新权益业主们需知晓",
        "docid": "J0L6REL30535BC2F",
        "url": "https://www.163.com/dy/article/J0L6REL30535BC2F.html"
    },
    {
        "title": "楼市四面楚歌，房价到底会跌多少？住建部表态，孙宏斌给出底线！",
        "docid": "J0I7E9V00535BC2F",
        "url": "https://www.163.com/dy/article/J0I7E9V00535BC2F.html"
    },
    {
        "title": "房价越跌越厉害了，从11000跌到6000，还卖不出去",
        "docid": "J0HMF7O60553SPQJ",
        "url": "https://www.163.com/dy/article/J0HMF7O60553SPQJ.html"
    },
    {
        "title": "专家：中国或面临长时间房价暴涨，买房人注意了，不要看空楼市！",
        "docid": "J0N72EVO05562DLL",
        "url": "https://www.163.com/dy/article/J0N72EVO05562DLL.html"
    },
    {
        "title": "农村和城里生活，各有各的好，一边是繁华喧嚣一边是宁静闲适",
        "docid": "J0O9MSS00553TDTY",
        "url": "https://www.163.com/dy/article/J0O9MSS00553TDTY.html"
    },
    {
        "title": "从上海到西安，富豪集体出动买豪宅！",
        "docid": "J0JVA02H0515DC4C",
        "url": "https://www.163.com/dy/article/J0JVA02H0515DC4C.html"
    },
    {
        "title": "还说明年房价涨，我从 2020 年讲到现在了，房价涨了吗？",
        "docid": "J0IHQHUU0553K5ZV",
        "url": "https://www.163.com/dy/article/J0IHQHUU0553K5ZV.html"
    },
    {
        "title": "“不如让我去坐牢！”加拿大房东列出几十条奇葩租客条约，洗澡都要限制次数时间！网友被整崩溃了...",
        "docid": "J0JQFKKI0553TEQM",
        "url": "https://www.163.com/dy/article/J0JQFKKI0553TEQM.html"
    },
    {
        "title": "租客搬家留便条，警告租户不要来，网友称太解气",
        "docid": "J0IOJAJ805560ZCW",
        "url": "https://www.163.com/dy/article/J0IOJAJ805560ZCW.html"
    },
    {
        "title": "地产人，必须认清形势了",
        "docid": "J0EOL2L705158B67",
        "url": "https://www.163.com/dy/article/J0EOL2L705158B67.html"
    },
    {
        "title": "华发.横琴玺【网站】横琴玺售楼中心发布_横琴玺售楼处指定电话",
        "docid": "J0IGLTQU055644UJ",
        "url": "https://www.163.com/dy/article/J0IGLTQU055644UJ.html"
    },
    {
        "title": "入行10年，没见过这么逆天的豪宅车库",
        "docid": "J0HB9K660553TDTY",
        "url": "https://www.163.com/dy/article/J0HB9K660553TDTY.html"
    },
    {
        "title": "北京、广州房价跌了10000多元，某小区直接从1000万跌至550万",
        "docid": "J0MPDRHN0535JMSP",
        "url": "https://www.163.com/dy/article/J0MPDRHN0535JMSP.html"
    },
    {
        "title": "墙壁有洞 地板磨损！悉尼旧屋$1000万挂牌上市，曾是前总理的居所",
        "docid": "J0LAIAG20556124M",
        "url": "https://www.163.com/dy/article/J0LAIAG20556124M.html"
    },
    {
        "title": "葡萄牙黄金签证的文化遗产投资",
        "docid": "J0D0JD8D0553CZVR",
        "url": "https://www.163.com/dy/article/J0D0JD8D0553CZVR.html"
    },
    {
        "title": "全国限购即将全部打开；万科朗拾花语现场非常火爆！疯狂抢房中！",
        "docid": "J08J68FS0556757N",
        "url": "https://www.163.com/dy/article/J08J68FS0556757N.html"
    },
    {
        "title": "楼市重要信号！外资巨头罕见唱多",
        "docid": "J0N0FUA0053469RG",
        "url": "https://www.163.com/dy/article/J0N0FUA0053469RG.html"
    },
    {
        "title": "普通家庭一定要买学区房！",
        "docid": "J0BUKKOP0556124M",
        "url": "https://www.163.com/dy/article/J0BUKKOP0556124M.html"
    },
    {
        "title": "一套100万房子需要多少成本，有人整理出来了，看完你就知道了。",
        "docid": "J0OD6MB10553TB8M",
        "url": "https://www.163.com/dy/article/J0OD6MB10553TB8M.html"
    },
    {
        "title": "房子终于卖掉了，终于解脱了！",
        "docid": "J0BRT6K10556124M",
        "url": "https://www.163.com/dy/article/J0BRT6K10556124M.html"
    },
    {
        "title": "专家建议：取消房贷，别让买不起房的人压力太大，但后果很现实",
        "docid": "J0HM39J705536P04",
        "url": "https://www.163.com/dy/article/J0HM39J705536P04.html"
    },
    {
        "title": "聪明人从不选这种房子，听老师傅分析后，追悔莫及！",
        "docid": "J0FLAEIR0540H6M7",
        "url": "https://www.163.com/dy/article/J0FLAEIR0540H6M7.html"
    },
    {
        "title": "承包地上的树木和林木遇到征收时如何补偿？",
        "docid": "J0J08MUQ0532Q69P",
        "url": "https://www.163.com/dy/article/J0J08MUQ0532Q69P.html"
    },
    {
        "title": "好消息！多方专家们合力出房地产终极方案，房地产有了新的支撑！",
        "docid": "J0KCALLO0553TDTY",
        "url": "https://www.163.com/dy/article/J0KCALLO0553TDTY.html"
    },
    {
        "title": "房价下跌都有“前兆”！一旦楼市有“这3种”情况，建议保住“现金”！",
        "docid": "J06PHBPQ0553TB9L",
        "url": "https://www.163.com/dy/article/J06PHBPQ0553TB9L.html"
    },
    {
        "title": "刘嘉玲突然出手狂赚2100万 香港富人房子卖疯了",
        "docid": "J0I1DQK505148B29",
        "url": "https://www.163.com/dy/article/J0I1DQK505148B29.html"
    },
    {
        "title": "征地预公告！涉及这些地方…",
        "docid": "J0KAO1EP0553TDXU",
        "url": "https://www.163.com/dy/article/J0KAO1EP0553TDXU.html"
    },
    {
        "title": "2024年，是“尽快买房”还是“再等等”？央媒定调，答案很明显",
        "docid": "J0HLP79S05536P04",
        "url": "https://www.163.com/dy/article/J0HLP79S05536P04.html"
    },
    {
        "title": "上海限购即将解除；古北壹号公馆即将清盘，带你走进真实现场！",
        "docid": "J0LH251P0556757N",
        "url": "https://www.163.com/dy/article/J0LH251P0556757N.html"
    },
    {
        "title": "部分房价“触底反弹”只是时间问题，全面上涨非常难",
        "docid": "J0I3H8K705159LUU",
        "url": "https://www.163.com/dy/article/J0I3H8K705159LUU.html"
    },
    {
        "title": "郁亮又放大招！中国房地产，未来几年你必须知道的事！",
        "docid": "J0MPA1490540A6F8",
        "url": "https://www.163.com/dy/article/J0MPA1490540A6F8.html"
    },
    {
        "title": "姚景源：统计工作不应该搞一些模糊的东西，搞全国平均房价没意义",
        "docid": "J0IAIFK505564B67",
        "url": "https://www.163.com/dy/article/J0IAIFK505564B67.html"
    },
    {
        "title": "今天聊一聊年轻人还有必要买房吗？",
        "docid": "J0DGF6LE0553K5ZV",
        "url": "https://www.163.com/dy/article/J0DGF6LE0553K5ZV.html"
    },
    {
        "title": "楼市、就业双双遇冷，生活质量断崖式下降：最先返贫的往往是中产",
        "docid": "J0KN4M6K05567IYR",
        "url": "https://www.163.com/dy/article/J0KN4M6K05567IYR.html"
    },
    {
        "title": "开间12.5米自建房，一二层都有厨房，这个户型很适合兄弟共建",
        "docid": "J0OA1CD10553TEV3",
        "url": "https://www.163.com/dy/article/J0OA1CD10553TEV3.html"
    },
    {
        "title": "美国房主为什么不想卖房!",
        "docid": "J0L3MG7U0553FPIJ",
        "url": "https://www.163.com/dy/article/J0L3MG7U0553FPIJ.html"
    },
    {
        "title": "经济“怪象”：房价高了，商铺“倒了”，街上这“2样”却多了，马云的锅？",
        "docid": "J0M5INVN0553TEV3",
        "url": "https://www.163.com/dy/article/J0M5INVN0553TEV3.html"
    },
    {
        "title": "房产交易过程中，没有什么比安全更重要...",
        "docid": "J0FIE9OF05563EX9",
        "url": "https://www.163.com/dy/article/J0FIE9OF05563EX9.html"
    },
    {
        "title": "房屋拆迁补偿的头疼问题分析：百万现金和一套安置房哪个划算？",
        "docid": "J0FOAG6D0540SN7V",
        "url": "https://www.163.com/dy/article/J0FOAG6D0540SN7V.html"
    },
    {
        "title": "央企地产的一个朋友在职16年也被裁了，赔偿2n+1，瞬间喜提一套房",
        "docid": "J0K9PFCE0553TF8W",
        "url": "https://www.163.com/dy/article/J0K9PFCE0553TF8W.html"
    },
    {
        "title": "房价下跌后，3个新问题开始暴露！普通老百姓的生活会受到影响",
        "docid": "J0HR7G760536UOB3",
        "url": "https://www.163.com/dy/article/J0HR7G760536UOB3.html"
    },
    {
        "title": "布里斯班和阿德莱德房价中值有望突破100万，悉尼房价持续上涨，澳洲公寓涨幅超过独立屋！",
        "docid": "J0JIPLQV05199N88",
        "url": "https://www.163.com/dy/article/J0JIPLQV05199N88.html"
    },
    {
        "title": "美国加州逼仄楼梯间租金要$900！亚裔老人果断拿下：这是致富宝地",
        "docid": "J0KNLQ4E05566PML",
        "url": "https://www.163.com/dy/article/J0KNLQ4E05566PML.html"
    },
    {
        "title": "物业公司年收入排名情况出炉！",
        "docid": "J0JSL8C80553YGEK",
        "url": "https://www.163.com/dy/article/J0JSL8C80553YGEK.html"
    },
    {
        "title": "地产不行，宜家都要成折扣店了",
        "docid": "J0NJB3IR0553TEV3",
        "url": "https://www.163.com/dy/article/J0NJB3IR0553TEV3.html"
    },
    {
        "title": "365平米极尽奢华的大平层户型，成功人士标配大宅",
        "docid": "J0ONSLSL0553TB9L",
        "url": "https://www.163.com/dy/article/J0ONSLSL0553TB9L.html"
    },
    {
        "title": "提前还房贷，最省钱的办法，涨知识了，不知道的收藏",
        "docid": "J0OD0R3Q0553TEQM",
        "url": "https://www.163.com/dy/article/J0OD0R3Q0553TEQM.html"
    },
    {
        "title": "任守荣：关于提升压煤村庄搬迁安置小区运行与服务工作的建议",
        "docid": "J0O8QJ060553TDVP",
        "url": "https://www.163.com/dy/article/J0O8QJ060553TDVP.html"
    },
    {
        "title": "女大学生租房靠肉偿, 房东要求每月16次, 跟朋友轮流睡",
        "docid": "J0NI1R9M05534KYC",
        "url": "https://www.163.com/dy/article/J0NI1R9M05534KYC.html"
    },
    {
        "title": "烂尾楼在欧美国家属于开发商诈骗买房人几千万上亿房款，直接判死刑",
        "docid": "J0M5LBE50553TDTY",
        "url": "https://www.163.com/dy/article/J0M5LBE50553TDTY.html"
    },
    {
        "title": "CASSIA Rama 9 Bangkok酒店即将开业",
        "docid": "J0K6UK4U0524CMD3",
        "url": "https://www.163.com/dy/article/J0K6UK4U0524CMD3.html"
    },
    {
        "title": "财政吃紧，购房补贴难到位！有人购房7年，补贴才到手30%左右",
        "docid": "J0HBU9PF0519DDQ2",
        "url": "https://www.163.com/dy/article/J0HBU9PF0519DDQ2.html"
    },
    {
        "title": "二手别墅项目物业接管和服务方案",
        "docid": "J0K4ITQE055615MY",
        "url": "https://www.163.com/dy/article/J0K4ITQE055615MY.html"
    },
    {
        "title": "Nobu与埃及房地产开发商SODIC合作开设酒店和餐厅",
        "docid": "J0KKB5230524CMD3",
        "url": "https://www.163.com/dy/article/J0KKB5230524CMD3.html"
    },
    {
        "title": "(鲁能泰山9号) 售楼处：出大事了！优劣势分析",
        "docid": "J0MSC7QJ05565VIU",
        "url": "https://www.163.com/dy/article/J0MSC7QJ05565VIU.html"
    },
    {
        "title": "世邦魏理仕：住宅累进差饷制对持较多豪宅的发展商影响较大",
        "docid": "J0HLTJAH05198UNI",
        "url": "https://www.163.com/dy/article/J0HLTJAH05198UNI.html"
    },
    {
        "title": "刘嘉玲卖出海景房大赚1900多万 其在北京、苏州、上海都有豪宅 曾说:我其实不太懂投资 从小对数字没概念",
        "docid": "J0MOPU1U0553TB8M",
        "url": "https://www.163.com/dy/article/J0MOPU1U0553TB8M.html"
    },
    {
        "title": "专家是懂流量的！房价暴涨的噱头成大热门：百姓有钱信心才能回归",
        "docid": "J0NDEJ2D055219Q6",
        "url": "https://www.163.com/dy/article/J0NDEJ2D055219Q6.html"
    },
    {
        "title": "配售均价4.26万/㎡！南山安居房官宣已取证",
        "docid": "J0NLN1UD05566SC9",
        "url": "https://www.163.com/dy/article/J0NLN1UD05566SC9.html"
    },
    {
        "title": "笑死，专家建议年轻人买房不要总啃老，网友：退休金减一半再建议",
        "docid": "J0LOAK0G055616ZF",
        "url": "https://www.163.com/dy/article/J0LOAK0G055616ZF.html"
    },
    {
        "title": "一次惊艳的亮相 这家房企改写了东北豪宅史",
        "docid": "J0NKQHQG0514R9NP",
        "url": "https://www.163.com/dy/article/J0NKQHQG0514R9NP.html"
    },
    {
        "title": "经济学家左晓蕾：房地产是中国支柱产业是一种绑架说法，打脸吗？",
        "docid": "J0N8A9PO05562DLL",
        "url": "https://www.163.com/dy/article/J0N8A9PO05562DLL.html"
    },
    {
        "title": "2023年、2024年房价下降，是什么人想要看到的局面？",
        "docid": "J0FEMMC20535JMSP",
        "url": "https://www.163.com/dy/article/J0FEMMC20535JMSP.html"
    },
    {
        "title": "住宅库存增加，二手房以价换量，房企真的急了",
        "docid": "J0I0CMAV05567IYR",
        "url": "https://www.163.com/dy/article/J0I0CMAV05567IYR.html"
    },
    {
        "title": "50+创业女神独居6年，花巨资买下44岁别墅，探索生活无尽可能",
        "docid": "J0CSSFN005259PHJ",
        "url": "https://www.163.com/dy/article/J0CSSFN005259PHJ.html"
    },
    {
        "title": "澳洲房价竟然逆势上涨，房价中位数创历史记录！堪培拉房市复苏！",
        "docid": "J0M522HT05199N88",
        "url": "https://www.163.com/dy/article/J0M522HT05199N88.html"
    },
    {
        "title": "新加坡一季度私宅价格环比上升1.4%",
        "docid": "J0MIOKHR0519D45U",
        "url": "https://www.163.com/dy/article/J0MIOKHR0519D45U.html"
    },
    {
        "title": "买房人的福利！成都部分经纪公司调整二手房佣金！",
        "docid": "J0NBRF8C0553TDTY",
        "url": "https://www.163.com/dy/article/J0NBRF8C0553TDTY.html"
    },
    {
        "title": "炒房客噩梦丨续贷暴雷，房子评估价缩水，瞬间负债超百万！",
        "docid": "J0FQADRT05561Z7Y",
        "url": "https://www.163.com/dy/article/J0FQADRT05561Z7Y.html"
    },
    {
        "title": "传贝壳全国发文力挺房市，禁止唱衰楼市！贝壳总部予以否认",
        "docid": "J0I3SKG405148B29",
        "url": "https://www.163.com/dy/article/J0I3SKG405148B29.html"
    },
    {
        "title": "打算将房子卖掉于是告知租客190万租客拒绝后女子170万将房子卖了",
        "docid": "J0DCIEP405566SHW",
        "url": "https://www.163.com/dy/article/J0DCIEP405566SHW.html"
    },
    {
        "title": "公积金缴存20强城市，全年净增缴纳人数。西安增势喜人，苏州下滑",
        "docid": "J0MRJQBR0539KVTS",
        "url": "https://www.163.com/dy/article/J0MRJQBR0539KVTS.html"
    },
    {
        "title": "现在炒房的都是高位接盘，直接“坐牢”，我算个账就知道了",
        "docid": "J0OP4D3K0553TDXU",
        "url": "https://www.163.com/dy/article/J0OP4D3K0553TDXU.html"
    },
    {
        "title": "这是一款经典的246.85平米户型吗？",
        "docid": "J0J4DEEV0553TEQM",
        "url": "https://www.163.com/dy/article/J0J4DEEV0553TEQM.html"
    },
    {
        "title": "房贷设计太害人！房主哭诉：买房贷，置换再贷，我绝不再贷款买房",
        "docid": "J0FQTM9L05359WBS",
        "url": "https://www.163.com/dy/article/J0FQTM9L05359WBS.html"
    },
    {
        "title": "楼市上演“羊群效应”，未来两年，房价走势或大概率明朗了",
        "docid": "J0IFAIP605359WBS",
        "url": "https://www.163.com/dy/article/J0IFAIP605359WBS.html"
    },
    {
        "title": "高盛说了中国的房地产要跌到 2027 年，而且还要跌 40%。",
        "docid": "J0IGPU090553VNKO",
        "url": "https://www.163.com/dy/article/J0IGPU090553VNKO.html"
    },
    {
        "title": "连保障房都扛不住了？！",
        "docid": "J0O0UO1Q0515DBP5",
        "url": "https://www.163.com/dy/article/J0O0UO1Q0515DBP5.html"
    },
    {
        "title": "2024年04月26日 特价房地产精选",
        "docid": "J0MS0EIE0552R5MG",
        "url": "https://www.163.com/dy/article/J0MS0EIE0552R5MG.html"
    },
    {
        "title": "第四代空中大院，招商CID豪宅标杆天青雲麓开创新流派！",
        "docid": "J0K4RO86055616ZT",
        "url": "https://www.163.com/dy/article/J0K4RO86055616ZT.html"
    },
    {
        "title": "房地产后遗症来啦！各地水电气上调，老百姓要渐渐习惯过苦日子！",
        "docid": "J0HLETSG05562SWQ",
        "url": "https://www.163.com/dy/article/J0HLETSG05562SWQ.html"
    },
    {
        "title": "房价将开启新一轮的下跌？",
        "docid": "J0P27ONG05358KE1",
        "url": "https://www.163.com/dy/article/J0P27ONG05358KE1.html"
    },
    {
        "title": "当新手遇到二手房，这三类二手房万不要买，购房者万不能大意",
        "docid": "J0IHA7HF0553TDVP",
        "url": "https://www.163.com/dy/article/J0IHA7HF0553TDVP.html"
    },
    {
        "title": "城中村改造，已经是明牌了！",
        "docid": "J0JTLPJB05566SC9",
        "url": "https://www.163.com/dy/article/J0JTLPJB05566SC9.html"
    },
    {
        "title": "经济日报：房地产市场仍有发展空间，1.8亿农民工在城市没有房！",
        "docid": "J0HO2VVI05562DLL",
        "url": "https://www.163.com/dy/article/J0HO2VVI05562DLL.html"
    },
    {
        "title": "上海均价下降37%、北京下降27%！1-2月31个省市住宅销售数据出炉",
        "docid": "J0NETBTI0556124M",
        "url": "https://www.163.com/dy/article/J0NETBTI0556124M.html"
    },
    {
        "title": "$40亿澳元！日入千万！西澳房产再创纪录！",
        "docid": "J0KQEK57053661TJ",
        "url": "https://www.163.com/dy/article/J0KQEK57053661TJ.html"
    },
    {
        "title": "我的购房指北：买房之前可以关注什么？",
        "docid": "J0OCM1KE0553TB9L",
        "url": "https://www.163.com/dy/article/J0OCM1KE0553TB9L.html"
    },
    {
        "title": "选择自如，享受业主新生活，远离租房琐事",
        "docid": "J0F4CS4305375OHJ",
        "url": "https://www.163.com/dy/article/J0F4CS4305375OHJ.html"
    },
    {
        "title": "买房更难了！房价创纪录，美国购房成本达历史新高",
        "docid": "J0M9AM210552JRS3",
        "url": "https://www.163.com/dy/article/J0M9AM210552JRS3.html"
    },
    {
        "title": "256.89平米的极致户型",
        "docid": "J0HLGS690553TDTY",
        "url": "https://www.163.com/dy/article/J0HLGS690553TDTY.html"
    },
    {
        "title": "保利物业践行“双碳”战略，勇立潮头敢为先",
        "docid": "J0IEMLBU0553YQBD",
        "url": "https://www.163.com/dy/article/J0IEMLBU0553YQBD.html"
    },
    {
        "title": "物业工作有黄金时间，你知道吗？",
        "docid": "J0HJM6BC055615MY",
        "url": "https://www.163.com/dy/article/J0HJM6BC055615MY.html"
    },
    {
        "title": "李嘉诚预言再现神准：中国家庭坐拥两套房，为何逃不过这三大困境",
        "docid": "J0KIAHTL05567338",
        "url": "https://www.163.com/dy/article/J0KIAHTL05567338.html"
    },
    {
        "title": "华裔在美国为什么没有印度人混的好？",
        "docid": "J0K39P0N0535FFBB",
        "url": "https://www.163.com/dy/article/J0K39P0N0535FFBB.html"
    },
    {
        "title": "同安大道与旧324国道交叉口东北侧用地征收项目中标结果公示",
        "docid": "J0KPU9FA055616ZT",
        "url": "https://www.163.com/dy/article/J0KPU9FA055616ZT.html"
    },
    {
        "title": "在职提取公积金的条件！公积金提取条件！",
        "docid": "J0HF7QD00553TDVP",
        "url": "https://www.163.com/dy/article/J0HF7QD00553TDVP.html"
    },
    {
        "title": "黑石集团以16.4亿美元出售学生公寓组合予KKR",
        "docid": "J0MSQR2O055650O5",
        "url": "https://www.163.com/dy/article/J0MSQR2O055650O5.html"
    },
    {
        "title": "华泰证券：房价整体处于筑底阶段 二手房表现弱于新房",
        "docid": "J0JTEPFR0539AP40",
        "url": "https://www.163.com/dy/article/J0JTEPFR0539AP40.html"
    },
    {
        "title": "这是一款舒适的216.43平米户型吗？",
        "docid": "J0NPITP30553TB8M",
        "url": "https://www.163.com/dy/article/J0NPITP30553TB8M.html"
    },
    {
        "title": "在做三个准备了：有几个房企老板，近期准备跑路",
        "docid": "J0NORCT80553TB8M",
        "url": "https://www.163.com/dy/article/J0NORCT80553TB8M.html"
    },
    {
        "title": "农村人到城市里买房的人，如今肠子都悔青了",
        "docid": "J0I4LIJO05565QPS",
        "url": "https://www.163.com/dy/article/J0I4LIJO05565QPS.html"
    },
    {
        "title": "住房“以旧换新”如何换？专家：满足各方共同需求是关键",
        "docid": "J0HUF0I40530QRMB",
        "url": "https://www.163.com/dy/article/J0HUF0I40530QRMB.html"
    },
    {
        "title": "2024年卖掉房子，是“明智”还是“愚蠢”？内行人一语道破",
        "docid": "J0O4AMNM0556732K",
        "url": "https://www.163.com/dy/article/J0O4AMNM0556732K.html"
    },
    {
        "title": "美国3月成屋签约销售指数超预期 环比增长3.4%",
        "docid": "J0LIQPJ00519D45U",
        "url": "https://www.163.com/dy/article/J0LIQPJ00519D45U.html"
    },
    {
        "title": "征地补偿款能否分期支付呢？",
        "docid": "J0CGKDVM05561IXQ",
        "url": "https://www.163.com/dy/article/J0CGKDVM05561IXQ.html"
    },
    {
        "title": "今年最出人意料的产品创新，出现了",
        "docid": "J0JRU76P05158B67",
        "url": "https://www.163.com/dy/article/J0JRU76P05158B67.html"
    },
    {
        "title": "超40城支持住房“以旧换新”，专家：若配套政策完善有望发挥更大作用",
        "docid": "J0P4SCBC0514R9NP",
        "url": "https://www.163.com/dy/article/J0P4SCBC0514R9NP.html"
    },
    {
        "title": "额，又一个大佬转向，认为楼市会复苏",
        "docid": "J0MTGURA0553QMR9",
        "url": "https://www.163.com/dy/article/J0MTGURA0553QMR9.html"
    },
    {
        "title": "有5种漏财格局的房子，有钱人从来都不买，开发商白送都不要",
        "docid": "J0D477030540SN7V",
        "url": "https://www.163.com/dy/article/J0D477030540SN7V.html"
    },
    {
        "title": "女子首次购房陷入噩梦，花光存款，刷爆三张卡",
        "docid": "J0JL7MNU0514BT3D",
        "url": "https://www.163.com/dy/article/J0JL7MNU0514BT3D.html"
    },
    {
        "title": "为何越来越多人嫌弃“老破小”! 过来人坦言, 这4个缺点太明显",
        "docid": "J0I7F75P055324XV",
        "url": "https://www.163.com/dy/article/J0I7F75P055324XV.html"
    },
    {
        "title": "第一季度新加坡商业零售空置率升至6.7%",
        "docid": "J0ML819M0553TDXU",
        "url": "https://www.163.com/dy/article/J0ML819M0553TDXU.html"
    },
    {
        "title": "偿还购房贷款本息提取公积金，在线办理流程",
        "docid": "J0P9V56H0553TEV3",
        "url": "https://www.163.com/dy/article/J0P9V56H0553TEV3.html"
    },
    {
        "title": "国资撑腰也救不活？中交地产利润四年连滑，高管&quot;0元工资&quot;自救",
        "docid": "J0IFE04T05390TQD",
        "url": "https://www.163.com/dy/article/J0IFE04T05390TQD.html"
    },
    {
        "title": "泰国，举全国之力猛烈刺激楼市！",
        "docid": "J0MEKTUU05390F92",
        "url": "https://www.163.com/dy/article/J0MEKTUU05390F92.html"
    },
    {
        "title": "是否让好学生及格，可能是房产政策的风向标",
        "docid": "J0MG2GPH0519DM16",
        "url": "https://www.163.com/dy/article/J0MG2GPH0519DM16.html"
    },
    {
        "title": "市民建议：汉南这个小区配套商业承接汉南中高端商业综合体项目",
        "docid": "J0PDFIR90552TI8F",
        "url": "https://www.163.com/dy/article/J0PDFIR90552TI8F.html"
    },
    {
        "title": "房贷没有批下来，首付款能退吗？这2点情况是有区别的",
        "docid": "J0I3SUD20540KLAM",
        "url": "https://www.163.com/dy/article/J0I3SUD20540KLAM.html"
    },
    {
        "title": "这3个地段的房子，开发商优惠卖，也不要，麻烦多",
        "docid": "J0I6DGCA0540SN7V",
        "url": "https://www.163.com/dy/article/J0I6DGCA0540SN7V.html"
    },
    {
        "title": "回顾：今年的风向或变了，社会上出现很多“反常”现象，大家应该注意",
        "docid": "J0OGRJNE0553TB9L",
        "url": "https://www.163.com/dy/article/J0OGRJNE0553TB9L.html"
    },
    {
        "title": "中指研究院：一季度全国法拍市场各类法拍房拍品数量累计21.9万套 拍品清仓率17.3%",
        "docid": "J0MKK1UF05198UNI",
        "url": "https://www.163.com/dy/article/J0MKK1UF05198UNI.html"
    },
    {
        "title": "房地产巨头华发股份涉足低空经济，新型住宅产品体系建设赋能",
        "docid": "J0HP9PMJ0553TB9L",
        "url": "https://www.163.com/dy/article/J0HP9PMJ0553TB9L.html"
    },
    {
        "title": "这是一款美妙的436.83平米大户型吗?",
        "docid": "J081AGLE0552F71X",
        "url": "https://www.163.com/dy/article/J081AGLE0552F71X.html"
    },
    {
        "title": "一城值得一座D10，重塑城市峯层向往",
        "docid": "J0OAU0D805566SC9",
        "url": "https://www.163.com/dy/article/J0OAU0D805566SC9.html"
    },
    {
        "title": "如果TikTok被迫出售，谁是潜在买家？",
        "docid": "J0LB3LP10553TB8M",
        "url": "https://www.163.com/dy/article/J0LB3LP10553TB8M.html"
    },
    {
        "title": "40万买公寓 后悔了 如今每个月租金只有1000 多",
        "docid": "J0NTN7SH0553TB9L",
        "url": "https://www.163.com/dy/article/J0NTN7SH0553TB9L.html"
    },
    {
        "title": "天哪，“租房禁忌”不知道的赶紧收藏，太涨知识了",
        "docid": "J0IOLHIV0553TDTY",
        "url": "https://www.163.com/dy/article/J0IOLHIV0553TDTY.html"
    },
    {
        "title": "中指法拍市场监测报告：一季度全国法拍市场各类法拍房拍品数量累计21.9万套，拍品清仓率17.3%",
        "docid": "J0MFU3VK0553TB8M",
        "url": "https://www.163.com/dy/article/J0MFU3VK0553TB8M.html"
    },
    {
        "title": "有的房企，发工资都困难了！",
        "docid": "J0L6OP980556124M",
        "url": "https://www.163.com/dy/article/J0L6OP980556124M.html"
    },
    {
        "title": "社科院：适时降准并继续较大幅度降息，全面大幅放水又要开始了！",
        "docid": "J0KCKE6305562DLL",
        "url": "https://www.163.com/dy/article/J0KCKE6305562DLL.html"
    },
    {
        "title": "长租公寓洗牌三四年后，头部企业强者更强了",
        "docid": "J0KBSALV05129QAF",
        "url": "https://www.163.com/dy/article/J0KBSALV05129QAF.html"
    },
    {
        "title": "中国版QE来了，房价要涨了吗？",
        "docid": "J0NC6LMI055616ZT",
        "url": "https://www.163.com/dy/article/J0NC6LMI055616ZT.html"
    },
    {
        "title": "你的住房公积金达到了多少级",
        "docid": "J0OKPD2R0552F71X",
        "url": "https://www.163.com/dy/article/J0OKPD2R0552F71X.html"
    },
    {
        "title": "精编小区秩序维护、安全防范基础知识39条",
        "docid": "J0HPTUHK055615MY",
        "url": "https://www.163.com/dy/article/J0HPTUHK055615MY.html"
    },
    {
        "title": "带院的一楼不能买？自住6年的我亲自告诉你，胡扯！利大于弊",
        "docid": "J0KS2ISF054057BR",
        "url": "https://www.163.com/dy/article/J0KS2ISF054057BR.html"
    },
    {
        "title": "2024年最新定调！懂行人：现在卖掉房子，相当于白白送人钱",
        "docid": "J0KJQ1L905566H5Q",
        "url": "https://www.163.com/dy/article/J0KJQ1L905566H5Q.html"
    },
    {
        "title": "资本策略香港佐敦新盘“高临”首推52伙 折后售价最低479.3万港元",
        "docid": "J0IAKNGB0519D45U",
        "url": "https://www.163.com/dy/article/J0IAKNGB0519D45U.html"
    },
    {
        "title": "“提前还贷”再上热搜！预约需排队一个月以上，消费贷“置换”房贷趋势抬头",
        "docid": "J0NDHAOV0512D03F",
        "url": "https://www.163.com/dy/article/J0NDHAOV0512D03F.html"
    },
    {
        "title": "KKR斥资16.4亿没有收购黑石旗下美国学生宿舍资产",
        "docid": "J0MREFR10556124M",
        "url": "https://www.163.com/dy/article/J0MREFR10556124M.html"
    },
    {
        "title": "王思聪现身东京入管局，疑似移民？怎么又是选中了日本……",
        "docid": "J0NP16K305359JWY",
        "url": "https://www.163.com/dy/article/J0NP16K305359JWY.html"
    },
    {
        "title": "打算今年买房的，一定要收藏保存",
        "docid": "J0MQ5AN405566SC9",
        "url": "https://www.163.com/dy/article/J0MQ5AN405566SC9.html"
    },
    {
        "title": "潘石屹成为了中国地产良心！",
        "docid": "J08CGV9505562MS1",
        "url": "https://www.163.com/dy/article/J08CGV9505562MS1.html"
    },
    {
        "title": "Prometheans地板价突破0.08 BTC，创历史新高",
        "docid": "J0O6JNVM0553TDXU",
        "url": "https://www.163.com/dy/article/J0O6JNVM0553TDXU.html"
    },
    {
        "title": "如何选择一套好的房子 聪明人都会看 无论在忙都要看",
        "docid": "J0K30SS90540KLAM",
        "url": "https://www.163.com/dy/article/J0K30SS90540KLAM.html"
    },
    {
        "title": "方向已明确！未来房产如何发展？内行人预言：楼市或迎“新变局”",
        "docid": "J0KN20C90540A6F8",
        "url": "https://www.163.com/dy/article/J0KN20C90540A6F8.html"
    },
    {
        "title": "突传！成交翻番！昆山最新房价曝光",
        "docid": "J0NQ13HJ0553TEQM",
        "url": "https://www.163.com/dy/article/J0NQ13HJ0553TEQM.html"
    },
    {
        "title": "为什么成都房价这段时间突然下降了那么多，是什么原因导致的？",
        "docid": "J0I1JF270535JMSP",
        "url": "https://www.163.com/dy/article/J0I1JF270535JMSP.html"
    },
    {
        "title": "6月30日前，这些物业管理区域都将组建物业管理委员会",
        "docid": "J0JM5B02055616ZT",
        "url": "https://www.163.com/dy/article/J0JM5B02055616ZT.html"
    },
    {
        "title": "力高集团：2023年合约销售额94.03亿元 全年亏损同比减少67.7%",
        "docid": "J0K5OGF60519D45U",
        "url": "https://www.163.com/dy/article/J0K5OGF60519D45U.html"
    },
    {
        "title": "物业公司怎样划小区消防通道标识线？",
        "docid": "J0K627LV055615MY",
        "url": "https://www.163.com/dy/article/J0K627LV055615MY.html"
    },
    {
        "title": "江翰府VS潮映府，到底选哪个？",
        "docid": "J0K8HFVA0515WE4J",
        "url": "https://www.163.com/dy/article/J0K8HFVA0515WE4J.html"
    },
    {
        "title": "中信博沙特吉达工厂达成土地租赁协议",
        "docid": "J0PGHV5O0534A4SC",
        "url": "https://www.163.com/dy/article/J0PGHV5O0534A4SC.html"
    },
    {
        "title": "万科执笔，瑧藏系权益发布！豪居的N种可能，清晰了",
        "docid": "J0HGO2PT0535AWKA",
        "url": "https://www.163.com/dy/article/J0HGO2PT0535AWKA.html"
    },
    {
        "title": "房价还有可能回到十年前吗？",
        "docid": "J0L4TS5A0553VNKO",
        "url": "https://www.163.com/dy/article/J0L4TS5A0553VNKO.html"
    },
    {
        "title": "买房送户口！强省会，也绷不住了",
        "docid": "J0P4I1FR0515983V",
        "url": "https://www.163.com/dy/article/J0P4I1FR0515983V.html"
    },
    {
        "title": "房价下跌最先受影响的是穷人，不服来辩",
        "docid": "J0ASLF3405562O3H",
        "url": "https://www.163.com/dy/article/J0ASLF3405562O3H.html"
    },
    {
        "title": "碧桂园要破产了，万科也快不行了，现在房地产有这么难受吗？",
        "docid": "J0JAHOJG0553TDXU",
        "url": "https://www.163.com/dy/article/J0JAHOJG0553TDXU.html"
    },
    {
        "title": "经济学家：房地产不仅没有过剩，反而是严重的超调",
        "docid": "J0AN72EB05536P04",
        "url": "https://www.163.com/dy/article/J0AN72EB05536P04.html"
    },
    {
        "title": "国资平台收购，超40城已支持房子以旧换新！你会换吗？",
        "docid": "J0NFCMF70553TDXU",
        "url": "https://www.163.com/dy/article/J0NFCMF70553TDXU.html"
    },
    {
        "title": "意外！外资巨头开始唱多房地产",
        "docid": "J0P4UP2D055616ZT",
        "url": "https://www.163.com/dy/article/J0P4UP2D055616ZT.html"
    },
    {
        "title": "大名城回应毛利率走低：西北区域开发成本增加，房价下降",
        "docid": "J0JUMRA10553YQBK",
        "url": "https://www.163.com/dy/article/J0JUMRA10553YQBK.html"
    },
    {
        "title": "有记者怼王思聪:万达是不是不行了，资产都卖空了。",
        "docid": "J0PD9U7205566CTH",
        "url": "https://www.163.com/dy/article/J0PD9U7205566CTH.html"
    },
    {
        "title": "官方售楼电话「古北壹号行政公馆」古北封藏之作，上流社会社交场",
        "docid": "J0P8UQH605567507",
        "url": "https://www.163.com/dy/article/J0P8UQH605567507.html"
    },
    {
        "title": "负债1.1万亿的万科，开始卖卖卖自救！万科会成为“恒大”吗？",
        "docid": "J0KR2QAH0556124M",
        "url": "https://www.163.com/dy/article/J0KR2QAH0556124M.html"
    },
    {
        "title": "听说这是一款舒适的236.8平米户型",
        "docid": "J0CL34DE05566SC9",
        "url": "https://www.163.com/dy/article/J0CL34DE05566SC9.html"
    },
    {
        "title": "谁也不吃亏？国人赴日抢房，日本企业也到国内拼命抢人……",
        "docid": "J0L8HC3A05359JWY",
        "url": "https://www.163.com/dy/article/J0L8HC3A05359JWY.html"
    },
    {
        "title": "温暖 让美好发生｜金辉物业人用心服务共创美好家园",
        "docid": "J0KT77RJ0552RXIY",
        "url": "https://www.163.com/dy/article/J0KT77RJ0552RXIY.html"
    },
    {
        "title": "超越时间、延续传奇，不愧为地产界的“百达翡丽”！",
        "docid": "J0I9A20M053571DT",
        "url": "https://www.163.com/dy/article/J0I9A20M053571DT.html"
    },
    {
        "title": "德不配位？香港的竞争对手是深圳，难以逆转只能逆境求存",
        "docid": "J0D03CN405562A9W",
        "url": "https://www.163.com/dy/article/J0D03CN405562A9W.html"
    },
    {
        "title": "早稻田大学320米！东京新宿区2007年建1K电梯公寓，卫浴分离，3线3站可利用！",
        "docid": "J0G2S6QA05359JWY",
        "url": "https://www.163.com/dy/article/J0G2S6QA05359JWY.html"
    },
    {
        "title": "未来几年，现金才是手中的硬通货？行长透露：要做过苦日子准备了",
        "docid": "J0N8N9A20535BC2F",
        "url": "https://www.163.com/dy/article/J0N8N9A20535BC2F.html"
    },
    {
        "title": "恒大物业摆脱资不抵债，董事长段胜利2023年只领2.2万元年薪",
        "docid": "J0PB6J1O0553TDXU",
        "url": "https://www.163.com/dy/article/J0PB6J1O0553TDXU.html"
    },
    {
        "title": "&quot;支柱&quot;与&quot;挤水&quot;！房地产，到底何去何从？",
        "docid": "J0MOI9CF0540A6F8",
        "url": "https://www.163.com/dy/article/J0MOI9CF0540A6F8.html"
    },
    {
        "title": "买房0佣金？成都二手房中介杀疯了",
        "docid": "J0P6SVH6055616ZT",
        "url": "https://www.163.com/dy/article/J0P6SVH6055616ZT.html"
    },
    {
        "title": "泰禾、绿城玩剩下的，中建智地捡了起来",
        "docid": "J0NCHVVR05159JCF",
        "url": "https://www.163.com/dy/article/J0NCHVVR05159JCF.html"
    },
    {
        "title": "居民购房意愿仍处低位 需求释放相对缓慢",
        "docid": "J0K2F03U055676VQ",
        "url": "https://www.163.com/dy/article/J0K2F03U055676VQ.html"
    },
    {
        "title": "外资罕见看多中国房地产，料明年恢复，曾成功预测恒大，啥信号？",
        "docid": "J0NJHUSB05158I5P",
        "url": "https://www.163.com/dy/article/J0NJHUSB05158I5P.html"
    },
    {
        "title": "铺先生：接手转店要考虑什么？考虑清楚这些为好",
        "docid": "J0HUP5GN0553TDTY",
        "url": "https://www.163.com/dy/article/J0HUP5GN0553TDTY.html"
    },
    {
        "title": "2024乔迁搬家好日子吉日推荐",
        "docid": "J0L6IEP0055616ZT",
        "url": "https://www.163.com/dy/article/J0L6IEP0055616ZT.html"
    },
    {
        "title": "买房故事——梧桐星宸，万家灯火终有了属于我们的那一盏！",
        "docid": "J0K3RI0G0535NCM9",
        "url": "https://www.163.com/dy/article/J0K3RI0G0535NCM9.html"
    },
    {
        "title": "买房十不要，收藏起来看看吧",
        "docid": "J0NBR9OG0553TKHI",
        "url": "https://www.163.com/dy/article/J0NBR9OG0553TKHI.html"
    },
    {
        "title": "2024年04月25日 项目精选",
        "docid": "J0KBP5PM0552R5MG",
        "url": "https://www.163.com/dy/article/J0KBP5PM0552R5MG.html"
    },
    {
        "title": "专家建议年轻人买房要量力而行，不要去啃老为难父母！",
        "docid": "J0OU91CG0556142K",
        "url": "https://www.163.com/dy/article/J0OU91CG0556142K.html"
    },
    {
        "title": "发公告了！均价2.9万共有产权房，26日起开始申购",
        "docid": "J0NJ6G4I0553TEV3",
        "url": "https://www.163.com/dy/article/J0NJ6G4I0553TEV3.html"
    },
    {
        "title": "万科回应“出售深圳相关资产”：传闻不实，但积极推进交易",
        "docid": "J0INENST0519C6T9",
        "url": "https://www.163.com/dy/article/J0INENST0519C6T9.html"
    },
    {
        "title": "【荷兰】荷兰越来越多的商店铺面空置",
        "docid": "J0LO9EBK0514DCDB",
        "url": "https://www.163.com/dy/article/J0LO9EBK0514DCDB.html"
    },
    {
        "title": "近年首次！新发房贷利率低于企业贷，还能再降？",
        "docid": "J0C99IC505566ZJ6",
        "url": "https://www.163.com/dy/article/J0C99IC505566ZJ6.html"
    },
    {
        "title": "“职业背债人”诱发的各种风险值得警惕",
        "docid": "J0BB28CV0519JBB6",
        "url": "https://www.163.com/dy/article/J0BB28CV0519JBB6.html"
    },
    {
        "title": "大富靠时代！普通人，未来20年最大的机遇是什么？",
        "docid": "J0INM0AG0528D0S4",
        "url": "https://www.163.com/dy/article/J0INM0AG0528D0S4.html"
    },
    {
        "title": "认清现实！房地产的时代彻底结束了，不要和时代大势对抗",
        "docid": "J0C61A7F0535PKJN",
        "url": "https://www.163.com/dy/article/J0C61A7F0535PKJN.html"
    },
    {
        "title": "单校划片时代即将到来，未来入学人数减少的几点预测",
        "docid": "J0PJJI3405566E0N",
        "url": "https://www.163.com/dy/article/J0PJJI3405566E0N.html"
    },
    {
        "title": "高层住宅的优点，以及城镇化的未来",
        "docid": "J0HK07710536I1QE",
        "url": "https://www.163.com/dy/article/J0HK07710536I1QE.html"
    },
    {
        "title": "5年后，手持两套房及以上的家庭会面临什么结果？答案已经很清楚",
        "docid": "J0GDQP620535BC2F",
        "url": "https://www.163.com/dy/article/J0GDQP620535BC2F.html"
    },
    {
        "title": "出租房内煤气中毒，房东有责任吗？",
        "docid": "J0N4AHDN0553DVVU",
        "url": "https://www.163.com/dy/article/J0N4AHDN0553DVVU.html"
    },
    {
        "title": "2024年4月26日房产早参 #楼市资讯 #房产早参",
        "docid": "J0LUU80V0512B07B",
        "url": "https://www.163.com/dy/article/J0LUU80V0512B07B.html"
    },
    {
        "title": "你们相信老王还能东山再起吗？",
        "docid": "J0B33L9G0553VNKO",
        "url": "https://www.163.com/dy/article/J0B33L9G0553VNKO.html"
    },
    {
        "title": "高位接盘买房的人，不要急着降价卖房，再撑一撑楼市就会回暖！",
        "docid": "J0CE2K2N05566C1Z",
        "url": "https://www.163.com/dy/article/J0CE2K2N05566C1Z.html"
    },
    {
        "title": "黄埔至泰广场 156 方精装办公室出租地铁口附近交通便捷",
        "docid": "J0P71MDM05561TEZ",
        "url": "https://www.163.com/dy/article/J0P71MDM05561TEZ.html"
    },
    {
        "title": "4.25早看点|深圳鼓励商品房“以旧换新”，首批13个房地产项目参与",
        "docid": "J0K1VAPJ0515AF0E",
        "url": "https://www.163.com/dy/article/J0K1VAPJ0515AF0E.html"
    },
    {
        "title": "白衣骑士单伟建，中国房地产的救星",
        "docid": "J0L79AKJ0519CB4E",
        "url": "https://www.163.com/dy/article/J0L79AKJ0519CB4E.html"
    },
    {
        "title": "看了上海很火的“公主的家”，才理解住1200元串串房普通人的心酸",
        "docid": "J0K3V85P0556124M",
        "url": "https://www.163.com/dy/article/J0K3V85P0556124M.html"
    },
    {
        "title": "这家现象级房企竟然如此“内卷”？",
        "docid": "J0PO1HG50553PD9U",
        "url": "https://www.163.com/dy/article/J0PO1HG50553PD9U.html"
    },
    {
        "title": "被“地租经济”带偏的樟木头，如今终于活成了连自己都讨厌的模样",
        "docid": "J0JOTQ5F0556124M",
        "url": "https://www.163.com/dy/article/J0JOTQ5F0556124M.html"
    },
    {
        "title": "成都一地成新单价“地王”，溢价率高达48.5%！",
        "docid": "J0L8S4IK053469RG",
        "url": "https://www.163.com/dy/article/J0L8S4IK053469RG.html"
    },
    {
        "title": "终于有人把“公积金等级”，整理出来了，看完涨知识了。",
        "docid": "J0PG9MT90553TB8M",
        "url": "https://www.163.com/dy/article/J0PG9MT90553TB8M.html"
    },
    {
        "title": "三年看跌之后，外资首现看多中国房地产市场！“幸存”房企的股票要“暴力”反弹了？",
        "docid": "J0NP02DG0553TDXU",
        "url": "https://www.163.com/dy/article/J0NP02DG0553TDXU.html"
    },
    {
        "title": "商品房“预售”全面取消？央媒回应，官方表态，“新信号”已显现",
        "docid": "J0NU1F970535BC2F",
        "url": "https://www.163.com/dy/article/J0NU1F970535BC2F.html"
    },
    {
        "title": "物业费到底该怎么交？为何不住也要交物业费？",
        "docid": "J0GDAHH505563HTE",
        "url": "https://www.163.com/dy/article/J0GDAHH505563HTE.html"
    },
    {
        "title": "地产老男人们，开始集体失落了",
        "docid": "J0I0Q96T05567IYR",
        "url": "https://www.163.com/dy/article/J0I0Q96T05567IYR.html"
    },
    {
        "title": "你的住房公积金达到了多少级",
        "docid": "J0OF2F4B0553TB9L",
        "url": "https://www.163.com/dy/article/J0OF2F4B0553TB9L.html"
    },
    {
        "title": "楼市震荡！提高贷款额度，降低首付比例，灵活就业缴存公积金？",
        "docid": "J0KNIHJC05562DLL",
        "url": "https://www.163.com/dy/article/J0KNIHJC05562DLL.html"
    },
    {
        "title": "一季度商业地产圈高管变动：孙嘉执掌万科商业，恒隆陈启宗退休，罗臻毓离开合生",
        "docid": "J0LA6N5J05158BF0",
        "url": "https://www.163.com/dy/article/J0LA6N5J05158BF0.html"
    },
    {
        "title": "美国和欧洲人到中国，最感到不可理解的是什么？意想不到",
        "docid": "J0ESETF70535FFBB",
        "url": "https://www.163.com/dy/article/J0ESETF70535FFBB.html"
    },
    {
        "title": "房价见底了？该出手买房了？瑞士银行看多中国房地产",
        "docid": "J0NJI9ND05561A6X",
        "url": "https://www.163.com/dy/article/J0NJI9ND05561A6X.html"
    },
    {
        "title": "万科拟转让深圳10项资产金额逾87亿？公司回应称传闻不实",
        "docid": "J0MJL12H0553TEV3",
        "url": "https://www.163.com/dy/article/J0MJL12H0553TEV3.html"
    },
    {
        "title": "生活大危机！大批加拿大人认为房子已成富人特权！放弃买房",
        "docid": "J0PGP91N0553TDVP",
        "url": "https://www.163.com/dy/article/J0PGP91N0553TDVP.html"
    },
    {
        "title": "重大利好！首次！外资巨头突然转向 罕见唱多中国房地产市场",
        "docid": "J0PGCG27055633LF",
        "url": "https://www.163.com/dy/article/J0PGCG27055633LF.html"
    },
    {
        "title": "买房人注意，不要看空房地产，不要急着买房，房东还会降价买房！",
        "docid": "J0PR7HG505566C1Z",
        "url": "https://www.163.com/dy/article/J0PR7HG505566C1Z.html"
    },
    {
        "title": "上海内环内限购即将全面打开；古北壹号公馆会吸引全国的富豪吗？",
        "docid": "J0ITHF730556757N",
        "url": "https://www.163.com/dy/article/J0ITHF730556757N.html"
    },
    {
        "title": "AI时代，这个地产岗位真开挂了",
        "docid": "J0C52G1N05158B67",
        "url": "https://www.163.com/dy/article/J0C52G1N05158B67.html"
    },
    {
        "title": "四室一厅18万欧元！很多米兰人“逃到”Sesto生活，但不适合华人！",
        "docid": "J0NKQ6EN0525SGMA",
        "url": "https://www.163.com/dy/article/J0NKQ6EN0525SGMA.html"
    },
    {
        "title": "专家：房地产销售面积下降34.6%，开发投资下降13.2%，不要买房",
        "docid": "J0K6588L05566C1Z",
        "url": "https://www.163.com/dy/article/J0K6588L05566C1Z.html"
    },
    {
        "title": "归家成为“花”样旅行，万科这个盘交付实景超惊艳",
        "docid": "J0ICQKA605523LQD",
        "url": "https://www.163.com/dy/article/J0ICQKA605523LQD.html"
    },
    {
        "title": "网传谣言不攻自破！王健林又有大动作，为万达开辟开辟更大版图",
        "docid": "J0J6C68O05566SC3",
        "url": "https://www.163.com/dy/article/J0J6C68O05566SC3.html"
    },
    {
        "title": "蓝惠首府：一波刚平，一波又起",
        "docid": "J0PAGSA20534EOPO",
        "url": "https://www.163.com/dy/article/J0PAGSA20534EOPO.html"
    },
    {
        "title": "为什么相关法律规定空置房也必须要缴纳物业费呢？",
        "docid": "J0K8L8SQ05563EX9",
        "url": "https://www.163.com/dy/article/J0K8L8SQ05563EX9.html"
    },
    {
        "title": "新地The YOHO Hub II最快下周开价 首批不少于188伙",
        "docid": "J0KSTF310519D45U",
        "url": "https://www.163.com/dy/article/J0KSTF310519D45U.html"
    },
    {
        "title": "人均工资83万！正荣地产，去年还涨工资了",
        "docid": "J0MR115805566SC9",
        "url": "https://www.163.com/dy/article/J0MR115805566SC9.html"
    },
    {
        "title": "物业公司如何治理小区楼道里的小广告？",
        "docid": "J0K616NP055615MY",
        "url": "https://www.163.com/dy/article/J0K616NP055615MY.html"
    },
    {
        "title": "政府采购项目物业管理国优标准方案",
        "docid": "J0MPT0KH055615MY",
        "url": "https://www.163.com/dy/article/J0MPT0KH055615MY.html"
    },
    {
        "title": "外资巨头突然转向 罕见唱多中国房市",
        "docid": "J0NOO04H055616ZT",
        "url": "https://www.163.com/dy/article/J0NOO04H055616ZT.html"
    },
    {
        "title": "三大政策很热闹，但量级不足以稳楼市",
        "docid": "J0NDBN5C05567UBV",
        "url": "https://www.163.com/dy/article/J0NDBN5C05567UBV.html"
    },
    {
        "title": "土拍预告丨4月25日15城50宗地块挂牌截止，其中涉宅用地28宗",
        "docid": "J0JIGN2R0553TDXU",
        "url": "https://www.163.com/dy/article/J0JIGN2R0553TDXU.html"
    },
    {
        "title": "一套100万房子需要多少成本，有人整理出来了，看完你就知道了。",
        "docid": "J0PVHKVF0553TDTY",
        "url": "https://www.163.com/dy/article/J0PVHKVF0553TDTY.html"
    },
    {
        "title": "建房首选，架空大平层别墅，提高您的居住品质",
        "docid": "J0PL6OAN0553TDTY",
        "url": "https://www.163.com/dy/article/J0PL6OAN0553TDTY.html"
    },
    {
        "title": "大良核芯，超3000人次围观的硬核产品！第一波，能抢到吗？",
        "docid": "J0LE02KA053571DT",
        "url": "https://www.163.com/dy/article/J0LE02KA053571DT.html"
    },
    {
        "title": "逆势抄底房地产才是真英雄！房地产拐点来临之际，谁有火眼金睛？",
        "docid": "J0KB2H6V0553TDVP",
        "url": "https://www.163.com/dy/article/J0KB2H6V0553TDVP.html"
    },
    {
        "title": "关于劳动节期间暂停办理公积金业务的通知",
        "docid": "J0NR4GP50553TDVP",
        "url": "https://www.163.com/dy/article/J0NR4GP50553TDVP.html"
    },
    {
        "title": "我到苏州看了一套独栋别墅，心碎了",
        "docid": "J0B60S2C05567OKB",
        "url": "https://www.163.com/dy/article/J0B60S2C05567OKB.html"
    },
    {
        "title": "贝壳进军房地产开发才是处心积虑的后发制人",
        "docid": "J0JF0RA10552F71X",
        "url": "https://www.163.com/dy/article/J0JF0RA10552F71X.html"
    },
    {
        "title": "半岛调查丨五一“抢房大战”提前！预订量同比增一成，受益供给增多，价格整体低于去年",
        "docid": "J0ISDD1H0550EWRZ",
        "url": "https://www.163.com/dy/article/J0ISDD1H0550EWRZ.html"
    },
    {
        "title": "招保万金——中国房地产的四大金刚",
        "docid": "J0P8TJE30553TB9L",
        "url": "https://www.163.com/dy/article/J0P8TJE30553TB9L.html"
    },
    {
        "title": "宋家岗，组建城市更新公司，意欲何为？",
        "docid": "J0Q5N8G90545ACCK",
        "url": "https://www.163.com/dy/article/J0Q5N8G90545ACCK.html"
    },
    {
        "title": "为什么不拆老破小，反而提倡加装电梯？背后有什么深意？",
        "docid": "J0Q3B3U30553TDXU",
        "url": "https://www.163.com/dy/article/J0Q3B3U30553TDXU.html"
    },
    {
        "title": "未来5年，存款和房产或将“贬值”，这3样最值钱，看看你有几样？",
        "docid": "J0Q10I1I05563G28",
        "url": "https://www.163.com/dy/article/J0Q10I1I05563G28.html"
    },
    {
        "title": "为什么说三四线城市房价存在下跌风险？这4个方面告诉你真相！",
        "docid": "J0PCPKSN0553TEV3",
        "url": "https://www.163.com/dy/article/J0PCPKSN0553TEV3.html"
    },
    {
        "title": "买房一定要买一梯一户，真的太香了",
        "docid": "J0PVDUSR05566SC9",
        "url": "https://www.163.com/dy/article/J0PVDUSR05566SC9.html"
    },
    {
        "title": "每平米2万欧以上？！买不起房，法国流行看房地产广告“解馋”！这个地方房价最低！",
        "docid": "J0Q165CM0514BIA6",
        "url": "https://www.163.com/dy/article/J0Q165CM0514BIA6.html"
    },
    {
        "title": "你买房的首付是怎么凑来的？网友：东拼西凑，但是感觉赚了",
        "docid": "J0PKPCND0553TB8M",
        "url": "https://www.163.com/dy/article/J0PKPCND0553TB8M.html"
    },
    {
        "title": "房价好不容易被按住，为何买房热情反而没了？这3点你中招了吗？",
        "docid": "J0PLAEFP0553TDTY",
        "url": "https://www.163.com/dy/article/J0PLAEFP0553TDTY.html"
    },
    {
        "title": "经济学家樊纲：限什么都可以，千万别限房价，房价要上涨了吗？",
        "docid": "J0HN6Q1505562DLL",
        "url": "https://www.163.com/dy/article/J0HN6Q1505562DLL.html"
    },
    {
        "title": "3种房子已被“新政锁定”，将成“黄金屋”，懂行人正在暗暗下手",
        "docid": "J0OQGPG50553TDXU",
        "url": "https://www.163.com/dy/article/J0OQGPG50553TDXU.html"
    },
    {
        "title": "理想化的大平层户型，客厅开间近15米，主卧室开间8米",
        "docid": "J0OQM0BI0553TB9L",
        "url": "https://www.163.com/dy/article/J0OQM0BI0553TB9L.html"
    },
    {
        "title": "无法比价！二手房成交记录或隐藏？无锡跟不跟……",
        "docid": "J0PPRGU70535QYT5",
        "url": "https://www.163.com/dy/article/J0PPRGU70535QYT5.html"
    },
    {
        "title": "未来几年，让你一家无忧的，并非房子、车子，是这1点",
        "docid": "J07PC19V05564TV0",
        "url": "https://www.163.com/dy/article/J07PC19V05564TV0.html"
    },
    {
        "title": "说一下房地产以旧换新的真相，我估计没人跟你说这些。",
        "docid": "J0NO1CR70553K5ZV",
        "url": "https://www.163.com/dy/article/J0NO1CR70553K5ZV.html"
    },
    {
        "title": "4个豪宅项目回笼近450亿资金，房企有了新“Buff”？",
        "docid": "J0NB33500550WHYR",
        "url": "https://www.163.com/dy/article/J0NB33500550WHYR.html"
    },
    {
        "title": "高盛说中国房价未来三年还要跌40%？别扯淡了，",
        "docid": "J0L16MMK0519DP0A",
        "url": "https://www.163.com/dy/article/J0L16MMK0519DP0A.html"
    },
    {
        "title": "日元贬值中国买家抄底房产，四年前，巴菲特已提前入局日本市场",
        "docid": "J0IJ16MB0552F71X",
        "url": "https://www.163.com/dy/article/J0IJ16MB0552F71X.html"
    },
    {
        "title": "路劲2024年第一季度总物业销售额40.98亿元",
        "docid": "J0NFE1TG0519D45U",
        "url": "https://www.163.com/dy/article/J0NFE1TG0519D45U.html"
    },
    {
        "title": "这是一款优秀的246.83平米大宅户型吗？",
        "docid": "J0Q0AT760553TDTY",
        "url": "https://www.163.com/dy/article/J0Q0AT760553TDTY.html"
    },
    {
        "title": "房产真相启示录：从蓄水池陷阱到平民百姓的住房梦！",
        "docid": "J0G5EEAB0552TCVC",
        "url": "https://www.163.com/dy/article/J0G5EEAB0552TCVC.html"
    },
    {
        "title": "选好房买好房的5点基本方法",
        "docid": "J0PVS8080553TB8M",
        "url": "https://www.163.com/dy/article/J0PVS8080553TB8M.html"
    },
    {
        "title": "最新，英国十大租金收益率最高地区曝光！第一高达12.8%",
        "docid": "J0K4NEFA0552F71X",
        "url": "https://www.163.com/dy/article/J0K4NEFA0552F71X.html"
    },
    {
        "title": "2024年一季度中国租赁住房市场分析报告",
        "docid": "J0MU9S2M05530RXA",
        "url": "https://www.163.com/dy/article/J0MU9S2M05530RXA.html"
    },
    {
        "title": "解读：《2023年住房公积金年度报告》服务篇",
        "docid": "J0NL5MTV0552F71X",
        "url": "https://www.163.com/dy/article/J0NL5MTV0552F71X.html"
    },
    {
        "title": "三巽集团今年首季销售跌68.2%至1.22亿元",
        "docid": "J0NK3P4D055616ZT",
        "url": "https://www.163.com/dy/article/J0NK3P4D055616ZT.html"
    },
    {
        "title": "住房供应体系加速完善 配售型保障房建设发力丨智库",
        "docid": "J0PP8H480553TB8M",
        "url": "https://www.163.com/dy/article/J0PP8H480553TB8M.html"
    },
    {
        "title": "美国汉斯地产完成收购日本大阪欧力士物流仓储项目，建面达6万平",
        "docid": "J0MT40PR055650O5",
        "url": "https://www.163.com/dy/article/J0MT40PR055650O5.html"
    },
    {
        "title": "终于知道，为什么各地要求老破小的多层加装电梯，目的非常明确",
        "docid": "J0PNBH4S0519GBC0",
        "url": "https://www.163.com/dy/article/J0PNBH4S0519GBC0.html"
    },
    {
        "title": "年轻人排队还房贷，却被告知要等 3 个月。",
        "docid": "J0Q9N5HD0553VNKO",
        "url": "https://www.163.com/dy/article/J0Q9N5HD0553VNKO.html"
    },
    {
        "title": "7.8亿人负债，法拍房创历史新高，普通人的出路在哪？",
        "docid": "J0Q1KB0S0553TDVP",
        "url": "https://www.163.com/dy/article/J0Q1KB0S0553TDVP.html"
    },
    {
        "title": "房贷数据崩了？个人住房贷款余额缩水，六大行减少5000亿",
        "docid": "J0MUI8NA0536UOB3",
        "url": "https://www.163.com/dy/article/J0MUI8NA0536UOB3.html"
    },
    {
        "title": "金融所长：如果房地产崩了，不是买不买得起，而是有没有饭碗问题",
        "docid": "J0Q7LBI505566SC9",
        "url": "https://www.163.com/dy/article/J0Q7LBI505566SC9.html"
    },
    {
        "title": "都说地产不行了，外资却在疯狂收割，到底谁是对的？",
        "docid": "J0KFDELE05567IYR",
        "url": "https://www.163.com/dy/article/J0KFDELE05567IYR.html"
    },
    {
        "title": "你的住房公积金达到了多少级",
        "docid": "J0OHOJPJ0553TDXU",
        "url": "https://www.163.com/dy/article/J0OHOJPJ0553TDXU.html"
    },
    {
        "title": "加拿大房产委托书附加证明书从头至尾讲的明明白白",
        "docid": "J0CFBQKJ055364TO",
        "url": "https://www.163.com/dy/article/J0CFBQKJ055364TO.html"
    },
    {
        "title": "超40城支持住房“以旧换新”：“卖旧”仍是痛点，“换新”受量价限制",
        "docid": "J0KKV2JM0539AP40",
        "url": "https://www.163.com/dy/article/J0KKV2JM0539AP40.html"
    },
    {
        "title": "房地产的时代已经落幕了，能忍住没买房的都是高人。",
        "docid": "J0OODO9S055616ZT",
        "url": "https://www.163.com/dy/article/J0OODO9S055616ZT.html"
    },
    {
        "title": "物业服务人员应知应会大全",
        "docid": "J0P6VT41055615MY",
        "url": "https://www.163.com/dy/article/J0P6VT41055615MY.html"
    },
    {
        "title": "申花7万+次新房成交量追上奥体？你更中意哪个板块",
        "docid": "J0NBPUV50553TDXU",
        "url": "https://www.163.com/dy/article/J0NBPUV50553TDXU.html"
    },
    {
        "title": "不动产行业深度调整关键时点 政策积极引导至关重要｜资本市场",
        "docid": "J0NL2JMR0530P452",
        "url": "https://www.163.com/dy/article/J0NL2JMR0530P452.html"
    },
    {
        "title": "抢跑存量市场！龙湖大资管逻辑进一步明确",
        "docid": "J0KJF6HF05158K7T",
        "url": "https://www.163.com/dy/article/J0KJF6HF05158K7T.html"
    },
    {
        "title": "万科回应穆迪下调评级：坚决反对",
        "docid": "J0Q3QSO00519DDQ2",
        "url": "https://www.163.com/dy/article/J0Q3QSO00519DDQ2.html"
    },
    {
        "title": "清华五道口不动产中心召开研讨会 多角度探索房地产发展新模式",
        "docid": "J0L157VQ0552QJ47",
        "url": "https://www.163.com/dy/article/J0L157VQ0552QJ47.html"
    },
    {
        "title": "万科回应转让深圳87亿资产：正在积极推进资产交易",
        "docid": "J0K7GVJ50519D45U",
        "url": "https://www.163.com/dy/article/J0K7GVJ50519D45U.html"
    },
    {
        "title": "还有将近2亿农民工没有进城买房？",
        "docid": "J0F580QS0553JMK2",
        "url": "https://www.163.com/dy/article/J0F580QS0553JMK2.html"
    },
    {
        "title": "横琴玺【官方网站】华发横琴玺售楼中心发布_华发横琴玺指定电话",
        "docid": "J0QB4KPV055644UJ",
        "url": "https://www.163.com/dy/article/J0QB4KPV055644UJ.html"
    },
    {
        "title": "白衣骑士单伟建，中国房地产的救星",
        "docid": "J0L8V0T30553TB8M",
        "url": "https://www.163.com/dy/article/J0L8V0T30553TB8M.html"
    },
    {
        "title": "外资巨头瑞银唱多房地产，掉头真快！反正实体摆烂，谁最烂就买谁",
        "docid": "J0NCNSR9055616ZT",
        "url": "https://www.163.com/dy/article/J0NCNSR9055616ZT.html"
    },
    {
        "title": "十六年前，有高人见过王石后，预言了万科的命运，太准了",
        "docid": "J0HN7LA4051996QS",
        "url": "https://www.163.com/dy/article/J0HN7LA4051996QS.html"
    },
    {
        "title": "降息预期减弱引发震荡 欧洲商业地产销售额跌至13年新低",
        "docid": "J0KQQRFP05566WVZ",
        "url": "https://www.163.com/dy/article/J0KQQRFP05566WVZ.html"
    },
    {
        "title": "千亿房企的设计变更，低得可怕",
        "docid": "J0JRTR8L05158B67",
        "url": "https://www.163.com/dy/article/J0JRTR8L05158B67.html"
    },
    {
        "title": "２０２４年经济评估：要看房地产的最终解决方案",
        "docid": "J0MD0HHG05538DP3",
        "url": "https://www.163.com/dy/article/J0MD0HHG05538DP3.html"
    },
    {
        "title": "当前房地产市场调整过度了吗？",
        "docid": "J0LKJQTG0519NINF",
        "url": "https://www.163.com/dy/article/J0LKJQTG0519NINF.html"
    },
    {
        "title": "我爱我家一季度营收27.5亿元，长租业务在管房源量27.9万套",
        "docid": "J0NT64KG0514R9P4",
        "url": "https://www.163.com/dy/article/J0NT64KG0514R9P4.html"
    },
    {
        "title": "房价预测！未来三年再跌40%？",
        "docid": "J0QD9DOM05567IYR",
        "url": "https://www.163.com/dy/article/J0QD9DOM05567IYR.html"
    },
    {
        "title": "机构：法拍房累计21.9万套，清仓率17.3%，扛不住的人越来越多！",
        "docid": "J0PL4HMG05562DLL",
        "url": "https://www.163.com/dy/article/J0PL4HMG05562DLL.html"
    },
    {
        "title": "继续聊聊我在日本买房的琐事。房子挂的是1890万日元",
        "docid": "J0QDKK6I055653YJ",
        "url": "https://www.163.com/dy/article/J0QDKK6I055653YJ.html"
    },
    {
        "title": "留学生实惨！$950在加拿大多伦多能租到什么房？现在只有一个帐篷",
        "docid": "J0QB3VT60552QDEA",
        "url": "https://www.163.com/dy/article/J0QB3VT60552QDEA.html"
    },
    {
        "title": "三四线土地降至冰点，谁还在拿地？",
        "docid": "J0K2JJ6C0535A6CE",
        "url": "https://www.163.com/dy/article/J0K2JJ6C0535A6CE.html"
    },
    {
        "title": "一线城市，暴涨的关键是什么？",
        "docid": "J0C4EUDQ055614NP",
        "url": "https://www.163.com/dy/article/J0C4EUDQ055614NP.html"
    },
    {
        "title": "房价连跌三年，依旧是有很多人看好北京、上海的房地产",
        "docid": "J0N8217U0535JMSP",
        "url": "https://www.163.com/dy/article/J0N8217U0535JMSP.html"
    },
    {
        "title": "一次弄懂商业地产（资料领取）",
        "docid": "J0JS0EN705158B67",
        "url": "https://www.163.com/dy/article/J0JS0EN705158B67.html"
    },
    {
        "title": "陆挺：关于房地产行业的几点政策建议",
        "docid": "J0LAN2Q705534KO1",
        "url": "https://www.163.com/dy/article/J0LAN2Q705534KO1.html"
    },
    {
        "title": "好房子少得令人发指，换一批人做房地产吧",
        "docid": "J0DAKGT705562NEZ",
        "url": "https://www.163.com/dy/article/J0DAKGT705562NEZ.html"
    },
    {
        "title": "宋清辉：房地产周期是正常的市场经济现象",
        "docid": "J0QHE7GQ055616ZT",
        "url": "https://www.163.com/dy/article/J0QHE7GQ055616ZT.html"
    },
    {
        "title": "京熙润府的神奇CP:央企＋煤老板＋首富",
        "docid": "J0Q2FJ8C055381XS",
        "url": "https://www.163.com/dy/article/J0Q2FJ8C055381XS.html"
    },
    {
        "title": "心态崩了！炒房客今年开始集中暴雷",
        "docid": "J0MPQEV40535JMSP",
        "url": "https://www.163.com/dy/article/J0MPQEV40535JMSP.html"
    },
    {
        "title": "为什么只有通胀才能让房价上涨？",
        "docid": "J0FF08250535JMSP",
        "url": "https://www.163.com/dy/article/J0FF08250535JMSP.html"
    },
    {
        "title": "卢麒元:对房地产救市的看法",
        "docid": "J0QDE8NV0553TDVP",
        "url": "https://www.163.com/dy/article/J0QDE8NV0553TDVP.html"
    },
    {
        "title": "瑞银：看多2025年中国房地产",
        "docid": "J0QDV73R05567IYR",
        "url": "https://www.163.com/dy/article/J0QDV73R05567IYR.html"
    },
    {
        "title": "听到的一些消息，买房要当心了，房价起飞的七个原因",
        "docid": "J0CBKM7U0535JMSP",
        "url": "https://www.163.com/dy/article/J0CBKM7U0535JMSP.html"
    },
    {
        "title": "意外！外资巨头开始唱多房地产",
        "docid": "J0P3RR4105158B67",
        "url": "https://www.163.com/dy/article/J0P3RR4105158B67.html"
    },
    {
        "title": "终于发现：二手房中介是怎么让你的房价越来越低的",
        "docid": "J0QDQ9D005566SC9",
        "url": "https://www.163.com/dy/article/J0QDQ9D005566SC9.html"
    },
    {
        "title": "央行出大招，楼市或大涨！",
        "docid": "J0PKTJSP055633YB",
        "url": "https://www.163.com/dy/article/J0PKTJSP055633YB.html"
    },
    {
        "title": "万科再遭穆迪降级，除了“坚决反对”，还能做什么？",
        "docid": "J0Q6882J05566LWT",
        "url": "https://www.163.com/dy/article/J0Q6882J05566LWT.html"
    },
    {
        "title": "3年时间，我们就会有强烈的感受～",
        "docid": "J0JRMHAF055614NP",
        "url": "https://www.163.com/dy/article/J0JRMHAF055614NP.html"
    },
    {
        "title": "预言恒大暴雷的华尔街狂人，狂吹中国楼市，外资抄底要来了？",
        "docid": "J0NHT9N105563TCH",
        "url": "https://www.163.com/dy/article/J0NHT9N105563TCH.html"
    },
    {
        "title": "华泰证券：高基数下销售延续调整，二手房影响力增强",
        "docid": "J0JTARU80512B07B",
        "url": "https://www.163.com/dy/article/J0JTARU80512B07B.html"
    },
    {
        "title": "高新三期真正的问题是什么？",
        "docid": "J0K8ES1H0553TDXU",
        "url": "https://www.163.com/dy/article/J0K8ES1H0553TDXU.html"
    },
    {
        "title": "新加坡好多人想租房！房东都去哪了？能寄宿家庭的也求求了！",
        "docid": "J0NET9TL05371E5Q",
        "url": "https://www.163.com/dy/article/J0NET9TL05371E5Q.html"
    },
    {
        "title": "许多人对私有产权的理解，完全是错的",
        "docid": "J0CGB4UB05566M6I",
        "url": "https://www.163.com/dy/article/J0CGB4UB05566M6I.html"
    },
    {
        "title": "判断你的房子是否卖低了的简单办法",
        "docid": "J0QK0KBT055616ZT",
        "url": "https://www.163.com/dy/article/J0QK0KBT055616ZT.html"
    },
    {
        "title": "这个特大城市，房价卷疯了！",
        "docid": "J0QG1CRD05567IYR",
        "url": "https://www.163.com/dy/article/J0QG1CRD05567IYR.html"
    },
    {
        "title": "8款开间12米的别墅，农村二层设计，各种风格齐全，漂亮实惠户型",
        "docid": "J0QIP40Q055616ZT",
        "url": "https://www.163.com/dy/article/J0QIP40Q055616ZT.html"
    },
    {
        "title": "学区房出租，我踩了个大坑",
        "docid": "J0PUA6I10553TDTY",
        "url": "https://www.163.com/dy/article/J0PUA6I10553TDTY.html"
    },
    {
        "title": "悉尼这个区1年内上涨$25万！澳洲房价前十涨幅排行出炉！",
        "docid": "J0QIDPH40519B68H",
        "url": "https://www.163.com/dy/article/J0QIDPH40519B68H.html"
    },
    {
        "title": "房价｜高新云璟、四季金辉观岚、鹰游水岸花园、电厂宿舍、映象西班牙",
        "docid": "J0QHDQIT0534EYKX",
        "url": "https://www.163.com/dy/article/J0QHDQIT0534EYKX.html"
    },
    {
        "title": "地产股暴涨的原因找到了",
        "docid": "J0QF7D4O05567IYR",
        "url": "https://www.163.com/dy/article/J0QF7D4O05567IYR.html"
    },
    {
        "title": "广州、深圳房价不涨，就会越来越多的房东降价卖房子",
        "docid": "J0N7R8IH0535JMSP",
        "url": "https://www.163.com/dy/article/J0N7R8IH0535JMSP.html"
    },
    {
        "title": "中国学者呼吁年轻人不要&amp;",
        "docid": "J0Q6B9VJ05566S6P",
        "url": "https://www.163.com/dy/article/J0Q6B9VJ05566S6P.html"
    },
    {
        "title": "美国房地产市场进入百万美元时代",
        "docid": "J0O2SGNK0553FMJ7",
        "url": "https://www.163.com/dy/article/J0O2SGNK0553FMJ7.html"
    },
    {
        "title": "研究｜低效建设用地再开发工作面临的挑战",
        "docid": "J0ESJJAI0532KV9K",
        "url": "https://www.163.com/dy/article/J0ESJJAI0532KV9K.html"
    },
    {
        "title": "成都vs重庆，成都人口增长0.63%，重庆人口减少0.68%，怎么选？",
        "docid": "J0PMR9QR05562DLL",
        "url": "https://www.163.com/dy/article/J0PMR9QR05562DLL.html"
    },
    {
        "title": "2024中国房地产上市公司TOP10研究全面启动",
        "docid": "J0JTIMD10553TDXU",
        "url": "https://www.163.com/dy/article/J0JTIMD10553TDXU.html"
    },
    {
        "title": "美的置业增设执行总裁一职，由原中部区域总王大在担任",
        "docid": "J0LGH5U40534A4SC",
        "url": "https://www.163.com/dy/article/J0LGH5U40534A4SC.html"
    },
    {
        "title": "罕见，外资顶级投行唱多中国房地产！",
        "docid": "J0NE400F0553TDVP",
        "url": "https://www.163.com/dy/article/J0NE400F0553TDVP.html"
    },
    {
        "title": "穆迪再次下调万科评级，万科表示未能全面反映公司积极举措",
        "docid": "J0Q47LF605199NPP",
        "url": "https://www.163.com/dy/article/J0Q47LF605199NPP.html"
    },
    {
        "title": "中房协召集部分房企座谈商讨融资支持 旭辉、荣盛等企业参加",
        "docid": "J0NRP7G40512D3VJ",
        "url": "https://www.163.com/dy/article/J0NRP7G40512D3VJ.html"
    },
    {
        "title": "各地配售型保障性住房陆续开建，多地管理办法呼之欲出",
        "docid": "J0L6VPQR05199NPP",
        "url": "https://www.163.com/dy/article/J0L6VPQR05199NPP.html"
    }
]