[
    {
        "title": "【城市研究】武汉2023年第52周楼市快报（12.25-12.31）",
        "docid": "ININBTQK0534M7IC",
        "url": "https://www.163.com/dy/article/ININBTQK0534M7IC.html"
    },
    {
        "title": "参观马勒别墅开开眼界@HKVISIONSTUDIO 上海",
        "docid": "INHTEBBU0553SVY5",
        "url": "https://www.163.com/dy/article/INHTEBBU0553SVY5.html"
    },
    {
        "title": "5年后武汉市中心房价怎么样？",
        "docid": "INH6PMGL0553TDVP",
        "url": "https://www.163.com/dy/article/INH6PMGL0553TDVP.html"
    },
    {
        "title": "「民生」房贷办不下来怎么办？首付和定金能拿回吗？",
        "docid": "IN279R2S0553E0D8",
        "url": "https://www.163.com/dy/article/IN279R2S0553E0D8.html"
    },
    {
        "title": "王健林又卖了一家万达广场，这次是上海金山万达",
        "docid": "INKA3BMM05565FEX",
        "url": "https://www.163.com/dy/article/INKA3BMM05565FEX.html"
    },
    {
        "title": "彻底凉凉的节奏，成交逐渐走低，房东心态崩了，买房人别急着买房",
        "docid": "INHKC66E05562DLL",
        "url": "https://www.163.com/dy/article/INHKC66E05562DLL.html"
    },
    {
        "title": "太疯狂了，跌幅高达34.6%，房东急了，再等等，千万不要急着买房",
        "docid": "INHHKP5205562DLL",
        "url": "https://www.163.com/dy/article/INHHKP5205562DLL.html"
    },
    {
        "title": "23年大阪新塔楼公寓标出每间25亿日圆，24年日本公寓可能继续上涨",
        "docid": "INIPTF6M0549RI77",
        "url": "https://www.163.com/dy/article/INIPTF6M0549RI77.html"
    },
    {
        "title": "李嘉诚所言非虚！持有两套及以上房产家庭，将不得不面对4大麻烦",
        "docid": "INIM5UJ60539SQ59",
        "url": "https://www.163.com/dy/article/INIM5UJ60539SQ59.html"
    }
]