[
    {
        "title": "刚刚！武汉房价最新情况出炉！",
        "docid": "IRPQJJJ20553TDTY",
        "url": "https://www.163.com/dy/article/IRPQJJJ20553TDTY.html"
    },
    {
        "title": "270°瞰江大平层，武汉惟一Park-TOD封面地标",
        "docid": "IRPIE2IL05566SHL",
        "url": "https://www.163.com/dy/article/IRPIE2IL05566SHL.html"
    },
    {
        "title": "一年收租94亿，这栋全球租金最高的大厦，就在中国最富裕城市",
        "docid": "IRQHCML50553TEQM",
        "url": "https://www.163.com/dy/article/IRQHCML50553TEQM.html"
    },
    {
        "title": "年内开工！光谷这一商业地块！",
        "docid": "IRQVJ79U0545DG4X",
        "url": "https://www.163.com/dy/article/IRQVJ79U0545DG4X.html"
    },
    {
        "title": "李嘉诚再次预测2024年房地产趋势60%的家庭要面对“这几大难题！",
        "docid": "IRMUT6660553TDVP",
        "url": "https://www.163.com/dy/article/IRMUT6660553TDVP.html"
    },
    {
        "title": "只有经历过这些的租房经历，你才知道“拥有自己的房子”有多幸福",
        "docid": "IRPPE65L055669HQ",
        "url": "https://www.163.com/dy/article/IRPPE65L055669HQ.html"
    },
    {
        "title": "2023年武汉光谷中心城写字楼发生3笔大宗交易 购买方包括华康医疗等",
        "docid": "IRQKNO970519D45U",
        "url": "https://www.163.com/dy/article/IRQKNO970519D45U.html"
    },
    {
        "title": "房价会骗人，但是房租永远不会骗人。",
        "docid": "IRQL0GGO0553K5ZV",
        "url": "https://www.163.com/dy/article/IRQL0GGO0553K5ZV.html"
    },
    {
        "title": "伦敦白领的天堂：2024年三大伦敦通勤热点城市",
        "docid": "IRQC5EF60552F71X",
        "url": "https://www.163.com/dy/article/IRQC5EF60552F71X.html"
    },
    {
        "title": "10年售楼小姐说漏嘴，这5种楼房万万不要买，住进去别想发财！",
        "docid": "IRIAHR2N055669HQ",
        "url": "https://www.163.com/dy/article/IRIAHR2N055669HQ.html"
    },
    {
        "title": "美国房价升值最快的20个大都市！现金买房创新高！房价继续上涨",
        "docid": "IRR3SVJB0552QDEA",
        "url": "https://www.163.com/dy/article/IRR3SVJB0552QDEA.html"
    },
    {
        "title": "2024年别被房地产骗了，房地产最后一块遮羞布被扯下",
        "docid": "IRPETVDD0534M7IC",
        "url": "https://www.163.com/dy/article/IRPETVDD0534M7IC.html"
    },
    {
        "title": "“老小区”为何又受欢迎了？中央定调，今后持有两类房子或将获益",
        "docid": "IRQ9T79F05359WBS",
        "url": "https://www.163.com/dy/article/IRQ9T79F05359WBS.html"
    },
    {
        "title": "买房之后的感受像是在赎罪",
        "docid": "IRKHUN6K055669HQ",
        "url": "https://www.163.com/dy/article/IRKHUN6K055669HQ.html"
    },
    {
        "title": "为何内行人建议买房要买中间户，避开“边户”？分析的甚有道理",
        "docid": "IRIK624F0540B07R",
        "url": "https://www.163.com/dy/article/IRIK624F0540B07R.html"
    },
    {
        "title": "今明两年，应该“买房”还是“存钱”？5年后就一目了然",
        "docid": "IRLAEOJA0519GBC0",
        "url": "https://www.163.com/dy/article/IRLAEOJA0519GBC0.html"
    },
    {
        "title": "一定不要到非限购的区域去买房",
        "docid": "IRIC8OJK055669HQ",
        "url": "https://www.163.com/dy/article/IRIC8OJK055669HQ.html"
    },
    {
        "title": "售楼小姐离职劝告！聪明人都会买在这几层，不知道的人都吃过亏！",
        "docid": "IRPR8AHF055669HQ",
        "url": "https://www.163.com/dy/article/IRPR8AHF055669HQ.html"
    },
    {
        "title": "高层住宅迎来“禁锢”新规，明年起，刚需买房需做好“选择题”？",
        "docid": "IRSP0KNN0540KLAM",
        "url": "https://www.163.com/dy/article/IRSP0KNN0540KLAM.html"
    },
    {
        "title": "未来10年，有3类城市房价或“大幅下跌”，你所在的城市属于吗？",
        "docid": "IROOP3HS0535BC2F",
        "url": "https://www.163.com/dy/article/IROOP3HS0535BC2F.html"
    },
    {
        "title": "这轮房价下跌，将颠覆大家的认知",
        "docid": "IRLTJOEB05563TCH",
        "url": "https://www.163.com/dy/article/IRLTJOEB05563TCH.html"
    },
    {
        "title": "4楼和18楼我都住过，没人比我更有发言权，真实的感受才有说服力",
        "docid": "IRPPH17605536P04",
        "url": "https://www.163.com/dy/article/IRPPH17605536P04.html"
    },
    {
        "title": "一个房地产朋友说: “穷人才会买高层。”",
        "docid": "IRPOD0I20553YGEK",
        "url": "https://www.163.com/dy/article/IRPOD0I20553YGEK.html"
    },
    {
        "title": "揭秘！这种结构的房子存在哪些弊端？购买前一定要知道！",
        "docid": "IRICKJ6D0540FQWZ",
        "url": "https://www.163.com/dy/article/IRICKJ6D0540FQWZ.html"
    },
    {
        "title": "一过三十岁，我终于知道买房的重要性了",
        "docid": "IRICNF09055669HQ",
        "url": "https://www.163.com/dy/article/IRICNF09055669HQ.html"
    },
    {
        "title": "买在学区比较好，买在郊区适合只有父母养生居住",
        "docid": "IRKD631K055669HQ",
        "url": "https://www.163.com/dy/article/IRKD631K055669HQ.html"
    },
    {
        "title": "为什么有钱人买房都选这几个楼层？难怪身体越住越健康，后悔选错",
        "docid": "IRPT1M1E05565UDW",
        "url": "https://www.163.com/dy/article/IRPT1M1E05565UDW.html"
    },
    {
        "title": "澳洲取消“黄金签证”之后父母签证存在争议？",
        "docid": "IRM8QR6I0549RI77",
        "url": "https://www.163.com/dy/article/IRM8QR6I0549RI77.html"
    },
    {
        "title": "网友热议！新加坡这个杂物间无床出租！租金竟要600新～",
        "docid": "IRQN3U4B05371E5Q",
        "url": "https://www.163.com/dy/article/IRQN3U4B05371E5Q.html"
    },
    {
        "title": "终于有人把“各城市房价排名”整理出来了，看看哪里最高呢？",
        "docid": "IRR22RCJ05566SC9",
        "url": "https://www.163.com/dy/article/IRR22RCJ05566SC9.html"
    },
    {
        "title": "这是一款豪横的220多平米房子！",
        "docid": "IRJET6OG0540MBU3",
        "url": "https://www.163.com/dy/article/IRJET6OG0540MBU3.html"
    },
    {
        "title": "这是一款相当到位的168.4平米户型！",
        "docid": "IROBHP6R0553TDXU",
        "url": "https://www.163.com/dy/article/IROBHP6R0553TDXU.html"
    },
    {
        "title": "手握11万亩地皮，银行存七百多亿，她才是我国隐形“地产女富豪”",
        "docid": "IRM1V05E0552BKBE",
        "url": "https://www.163.com/dy/article/IRM1V05E0552BKBE.html"
    },
    {
        "title": "浪费就是可耻！纽约近5000套政府楼公寓处于空置状态",
        "docid": "IRSEGA340553TDVP",
        "url": "https://www.163.com/dy/article/IRSEGA340553TDVP.html"
    },
    {
        "title": "分享♥40平小户型的家",
        "docid": "IRSP9N9T055616ZT",
        "url": "https://www.163.com/dy/article/IRSP9N9T055616ZT.html"
    },
    {
        "title": "买房子，从看到相中我就用了一天",
        "docid": "IRKN6ORE055669HQ",
        "url": "https://www.163.com/dy/article/IRKN6ORE055669HQ.html"
    },
    {
        "title": "武汉新城总部效应加速显现",
        "docid": "IRSTRSQ00553TDVP",
        "url": "https://www.163.com/dy/article/IRSTRSQ00553TDVP.html"
    },
    {
        "title": "当初坚持加装电梯的老小区高层业主后悔了，加装电梯带来4个麻烦",
        "docid": "IRN4RK7G0540MBU3",
        "url": "https://www.163.com/dy/article/IRN4RK7G0540MBU3.html"
    },
    {
        "title": "武汉：灵活就业人员即日起可在汉缴存住房公积金",
        "docid": "IRSRVN1P0519QIKK",
        "url": "https://www.163.com/dy/article/IRSRVN1P0519QIKK.html"
    },
    {
        "title": "买房子就是黎明前的黑暗",
        "docid": "IRKMJ8B4055669HQ",
        "url": "https://www.163.com/dy/article/IRKMJ8B4055669HQ.html"
    },
    {
        "title": "你们知道吗？这几个楼层购房者们最喜欢！",
        "docid": "IRNH2O3G055669HQ",
        "url": "https://www.163.com/dy/article/IRNH2O3G055669HQ.html"
    },
    {
        "title": "高房价“恶果”显现？3大难题相继出现，已在各大城市蔓延",
        "docid": "IRMI4RTV0553TDXU",
        "url": "https://www.163.com/dy/article/IRMI4RTV0553TDXU.html"
    },
    {
        "title": "买房一直在观望，那些直接下手的，现在活的一个比一个潇洒",
        "docid": "IRKF5RL9055669HQ",
        "url": "https://www.163.com/dy/article/IRKF5RL9055669HQ.html"
    },
    {
        "title": "刚毕业的大学生现在有能力买到房吗？",
        "docid": "IRPN7Q1E055669HQ",
        "url": "https://www.163.com/dy/article/IRPN7Q1E055669HQ.html"
    },
    {
        "title": "开发商预留护栏能不能拆？我新家这样做，物业的人都看傻了！",
        "docid": "IRAU5A1F0540FQWZ",
        "url": "https://www.163.com/dy/article/IRAU5A1F0540FQWZ.html"
    },
    {
        "title": "通过多个小区的房价，可以发现风向标效应，一荣俱荣，一损俱损。",
        "docid": "IRS12LKR0549RI77",
        "url": "https://www.163.com/dy/article/IRS12LKR0549RI77.html"
    },
    {
        "title": "买房“三不要”原则：面积不要太大，开盘不要冲动，楼层不要多想",
        "docid": "IRSOKIIL0540KLAM",
        "url": "https://www.163.com/dy/article/IRSOKIIL0540KLAM.html"
    },
    {
        "title": "假如房价回到2000一平，房子只需要二三十万一套，会发生什么变化",
        "docid": "IRSS5D2F05564B67",
        "url": "https://www.163.com/dy/article/IRSS5D2F05564B67.html"
    },
    {
        "title": "十年后，这些房子可能会让你变成千万富翁！",
        "docid": "IRPOS36P055669HQ",
        "url": "https://www.163.com/dy/article/IRPOS36P055669HQ.html"
    },
    {
        "title": "为什么拼了命也要买房？网友：孩子的一句话，让我眼泪直流",
        "docid": "IRNRS4QR0553TB8M",
        "url": "https://www.163.com/dy/article/IRNRS4QR0553TB8M.html"
    },
    {
        "title": "曾经闹鬼！澳洲华人出售豪宅！荒废多年破败不堪，价格却超1000万",
        "docid": "IRNCCBRF05566SC9",
        "url": "https://www.163.com/dy/article/IRNCCBRF05566SC9.html"
    },
    {
        "title": "买房子是大事，值得去深思，但是在任何时候都不晚",
        "docid": "IRKMO0MO055669HQ",
        "url": "https://www.163.com/dy/article/IRKMO0MO055669HQ.html"
    },
    {
        "title": "你看到的每次开盘就被抢疯的楼盘可能不是真的",
        "docid": "IRNHE457055669HQ",
        "url": "https://www.163.com/dy/article/IRNHE457055669HQ.html"
    },
    {
        "title": "为了催生，这届专家终于对房价动手了...",
        "docid": "IRQJ1B9E055649GX",
        "url": "https://www.163.com/dy/article/IRQJ1B9E055649GX.html"
    },
    {
        "title": "买房要从长远出发，人这一辈子有多少年能真正奋斗的？",
        "docid": "IRN9CD9M055669HQ",
        "url": "https://www.163.com/dy/article/IRN9CD9M055669HQ.html"
    },
    {
        "title": "234平米的大平层竟然引起了一些争议，优点和缺点并存",
        "docid": "IRJUEAVS0556124M",
        "url": "https://www.163.com/dy/article/IRJUEAVS0556124M.html"
    },
    {
        "title": "楼市拐点终于来了？国家再定调！徐高预测楼市走向，或又是对的",
        "docid": "IRNQKLVD05359WBS",
        "url": "https://www.163.com/dy/article/IRNQKLVD05359WBS.html"
    },
    {
        "title": "业主直卖风潮来袭！看那些成功省下中介费的幸运儿如何做到？",
        "docid": "IRNF4FN30552F71X",
        "url": "https://www.163.com/dy/article/IRNF4FN30552F71X.html"
    },
    {
        "title": "什么样的家庭是富裕家庭？符合这四个条件之一，80%的人达不到！",
        "docid": "IRSF1BG80519GBC0",
        "url": "https://www.163.com/dy/article/IRSF1BG80519GBC0.html"
    },
    {
        "title": "知乎深度好文：现在大量33层的高层住宅未来怎么拆迁？拆得动吗？",
        "docid": "IRPDLAD90553SSPV",
        "url": "https://www.163.com/dy/article/IRPDLAD90553SSPV.html"
    },
    {
        "title": "买房之后回头想了想，如果不是有点经济基础，可能一辈子也买不了",
        "docid": "IRKHEECO055669HQ",
        "url": "https://www.163.com/dy/article/IRKHEECO055669HQ.html"
    },
    {
        "title": "｜翻修后的伦敦联排别墅",
        "docid": "IRQS4UQ20552F71X",
        "url": "https://www.163.com/dy/article/IRQS4UQ20552F71X.html"
    },
    {
        "title": "二手房买卖想绕过中介实现交易，只是理想很丰满",
        "docid": "IRQQULI105564G35",
        "url": "https://www.163.com/dy/article/IRQQULI105564G35.html"
    },
    {
        "title": "到时间不签字，拆迁奖励就没了？",
        "docid": "IRLC3BN70535W7UR",
        "url": "https://www.163.com/dy/article/IRLC3BN70535W7UR.html"
    },
    {
        "title": "2024年的楼市开年就是决战，大放水真来了！",
        "docid": "IRLP0M3R0553VNKO",
        "url": "https://www.163.com/dy/article/IRLP0M3R0553VNKO.html"
    },
    {
        "title": "在某些方面来说，房价高正是因为其城市竞争力高",
        "docid": "IRPTTMK1055669HQ",
        "url": "https://www.163.com/dy/article/IRPTTMK1055669HQ.html"
    },
    {
        "title": "首尔拟推出“一人户”合租住房项目，租金最多打五折",
        "docid": "IRSA0MSC05566WVY",
        "url": "https://www.163.com/dy/article/IRSA0MSC05566WVY.html"
    },
    {
        "title": "二十年之前买了一套别墅来投资，现在想想真是有点后悔",
        "docid": "IRNE51TB055669HQ",
        "url": "https://www.163.com/dy/article/IRNE51TB055669HQ.html"
    },
    {
        "title": "买房的现实就是这么残酷无情",
        "docid": "IRN85JNR055669HQ",
        "url": "https://www.163.com/dy/article/IRN85JNR055669HQ.html"
    },
    {
        "title": "老百姓已经被“包围”，各种收费让人举步维艰，但有的是“自愿”",
        "docid": "IRJJD53J05565SCJ",
        "url": "https://www.163.com/dy/article/IRJJD53J05565SCJ.html"
    },
    {
        "title": "买房看起来是你不得已而为之的事情，当你多年之后回头看看就懂了",
        "docid": "IRN8D3CQ055669HQ",
        "url": "https://www.163.com/dy/article/IRN8D3CQ055669HQ.html"
    },
    {
        "title": "其实租房好处是非常多的",
        "docid": "IRPLJD0N055669HQ",
        "url": "https://www.163.com/dy/article/IRPLJD0N055669HQ.html"
    },
    {
        "title": "买房应该在什么时机好？",
        "docid": "IRKO7LCV055669HQ",
        "url": "https://www.163.com/dy/article/IRKO7LCV055669HQ.html"
    },
    {
        "title": "你不是买不起房，是想买更好的于是买不起",
        "docid": "IRNGGK18055669HQ",
        "url": "https://www.163.com/dy/article/IRNGGK18055669HQ.html"
    },
    {
        "title": "181.9平米的华丽户型，挑高两层空中菜园！",
        "docid": "IRT1HFHI0553TEQM",
        "url": "https://www.163.com/dy/article/IRT1HFHI0553TEQM.html"
    },
    {
        "title": "为什么说买房子一定要量力而行呢？看了网友的回复！再也不做房奴",
        "docid": "IRJ6ADVM0553TB8M",
        "url": "https://www.163.com/dy/article/IRJ6ADVM0553TB8M.html"
    },
    {
        "title": "买房的户型是居住舒适度影响最大的因素",
        "docid": "IRN7NNS8055669HQ",
        "url": "https://www.163.com/dy/article/IRN7NNS8055669HQ.html"
    },
    {
        "title": "上海陆家嘴汤臣一品，如果掉到5万一平方。你告诉我有没有价值？",
        "docid": "IROFJJQT0553GD76",
        "url": "https://www.163.com/dy/article/IROFJJQT0553GD76.html"
    },
    {
        "title": "一定要有套房，因为你穷",
        "docid": "IRICA1RL055669HQ",
        "url": "https://www.163.com/dy/article/IRICA1RL055669HQ.html"
    },
    {
        "title": "大厂2024年1月二手房成交数据盘点",
        "docid": "IRS2IU220552F71X",
        "url": "https://www.163.com/dy/article/IRS2IU220552F71X.html"
    },
    {
        "title": "买房要趁早，别等后悔了已经买不起了",
        "docid": "IRN9MF9K055669HQ",
        "url": "https://www.163.com/dy/article/IRN9MF9K055669HQ.html"
    },
    {
        "title": "买房楼层重要吗？千万别买一楼，否则入住后有你好受的？",
        "docid": "IRN6RFVT055669HQ",
        "url": "https://www.163.com/dy/article/IRN6RFVT055669HQ.html"
    },
    {
        "title": "新西兰乡村别墅占地18亩，建筑面积260平米。约RMB760W。",
        "docid": "IRS27I0L0534M7IC",
        "url": "https://www.163.com/dy/article/IRS27I0L0534M7IC.html"
    },
    {
        "title": "买房不要买顶楼，后果很严重，买完就后悔",
        "docid": "IRQ1O4AH05565UDW",
        "url": "https://www.163.com/dy/article/IRQ1O4AH05565UDW.html"
    },
    {
        "title": "几年前母亲不愿意让买小房子，到了现在我发现什么都买不起了",
        "docid": "IRPM2T8V055669HQ",
        "url": "https://www.163.com/dy/article/IRPM2T8V055669HQ.html"
    },
    {
        "title": "北京上海深圳杭州合肥苏州东莞金华厦门成都二手房日成交2月22日",
        "docid": "IRNKUF460553TDTY",
        "url": "https://www.163.com/dy/article/IRNKUF460553TDTY.html"
    },
    {
        "title": "三四线楼市的坑，越来越大……",
        "docid": "IRR12VGC05563TCH",
        "url": "https://www.163.com/dy/article/IRR12VGC05563TCH.html"
    },
    {
        "title": "买房想着一步登天是不可能的，只能一步步来，从小户型买起",
        "docid": "IRKOTBVQ055669HQ",
        "url": "https://www.163.com/dy/article/IRKOTBVQ055669HQ.html"
    },
    {
        "title": "国内外复式住宅-珊瑚居 上海 300㎡ 顶层复式，黑金男性主张！",
        "docid": "IRS5DE0O0553TB9L",
        "url": "https://www.163.com/dy/article/IRS5DE0O0553TB9L.html"
    },
    {
        "title": "在钟意的房子和价格发生冲突的时候，还是建议房子优先",
        "docid": "IRPULQNQ055669HQ",
        "url": "https://www.163.com/dy/article/IRPULQNQ055669HQ.html"
    },
    {
        "title": "换了5次房才搞懂，这“3个楼层”越住越舒服，绝对是买房首选",
        "docid": "IRQVU7RK0535PKJN",
        "url": "https://www.163.com/dy/article/IRQVU7RK0535PKJN.html"
    },
    {
        "title": "中介不行了？越来越多业主开始自己卖房，释放了什么信号？",
        "docid": "IRNTLK1T05158I5P",
        "url": "https://www.163.com/dy/article/IRNTLK1T05158I5P.html"
    },
    {
        "title": "房产中介被“全面取缔”？明年起，买房或将省去一笔费用",
        "docid": "IRSVV6SD0553TB8M",
        "url": "https://www.163.com/dy/article/IRSVV6SD0553TB8M.html"
    },
    {
        "title": "农村自建房做三间的比较多，我家宅基地面宽小，做两间我看也合适",
        "docid": "IRSOM85T0549RI77",
        "url": "https://www.163.com/dy/article/IRSOM85T0549RI77.html"
    },
    {
        "title": "南北通透户型大揭秘：教你辨别真假南北通透，避免被坑！",
        "docid": "IRICQ2CV0540FQWZ",
        "url": "https://www.163.com/dy/article/IRICQ2CV0540FQWZ.html"
    },
    {
        "title": "住在老破小和住在新小区的区别",
        "docid": "IRQ8ESL50553TDVP",
        "url": "https://www.163.com/dy/article/IRQ8ESL50553TDVP.html"
    },
    {
        "title": "不看不知道，一看吓一跳！贷款买房的利息居然这么高！",
        "docid": "IRNR6NDL0553TDVP",
        "url": "https://www.163.com/dy/article/IRNR6NDL0553TDVP.html"
    },
    {
        "title": "钱房两空！加拿大公寓楼花买家不仅失去首付！还被开发商索要赔偿",
        "docid": "IRR40NHG0552QDEA",
        "url": "https://www.163.com/dy/article/IRR40NHG0552QDEA.html"
    },
    {
        "title": "近1个月厦门岛内市场大揭秘",
        "docid": "IRR7JFSC055644RG",
        "url": "https://www.163.com/dy/article/IRR7JFSC055644RG.html"
    },
    {
        "title": "140多平米的房子，有大横厅",
        "docid": "IRNTLN9F0553TB8M",
        "url": "https://www.163.com/dy/article/IRNTLN9F0553TB8M.html"
    },
    {
        "title": "昔日地产大佬，近亿元豪宅被拍卖！此前被判19年",
        "docid": "IRT5F11L0553TEV3",
        "url": "https://www.163.com/dy/article/IRT5F11L0553TEV3.html"
    },
    {
        "title": "新房不到一年，每平方降超4000元，业主睡醒亏50万，笑死在评论区",
        "docid": "IRH4HFLF05566CPP",
        "url": "https://www.163.com/dy/article/IRH4HFLF05566CPP.html"
    },
    {
        "title": "买房之前认真计划下，能省下好多钱",
        "docid": "IRKGUEEP055669HQ",
        "url": "https://www.163.com/dy/article/IRKGUEEP055669HQ.html"
    },
    {
        "title": "你在大城市呆不下去的原因是不是全因为房价？",
        "docid": "IRNH6KHA055669HQ",
        "url": "https://www.163.com/dy/article/IRNH6KHA055669HQ.html"
    },
    {
        "title": "看完住建部长最新表态，我对明年楼市的2个预判，或是大概率事件",
        "docid": "IRSLT4BP0540A6F8",
        "url": "https://www.163.com/dy/article/IRSLT4BP0540A6F8.html"
    },
    {
        "title": "『官方』浦东三林招商臻境售楼处：89-148㎡高层&amp;叠拼即将入市！",
        "docid": "IRKI7KH905565QXD",
        "url": "https://www.163.com/dy/article/IRKI7KH905565QXD.html"
    },
    {
        "title": "买房看售楼部访客量很重要",
        "docid": "IRN8AATH055669HQ",
        "url": "https://www.163.com/dy/article/IRN8AATH055669HQ.html"
    },
    {
        "title": "老家房子做得好，生活也会越来越旺，亲朋好友都会羡慕",
        "docid": "IRL9MP6205566SC9",
        "url": "https://www.163.com/dy/article/IRL9MP6205566SC9.html"
    },
    {
        "title": "买房不起房子是单单工资低的问题吗？",
        "docid": "IRKG1BE7055669HQ",
        "url": "https://www.163.com/dy/article/IRKG1BE7055669HQ.html"
    },
    {
        "title": "买房重要的不是选时间，而是选地点",
        "docid": "IRNBU1GS055669HQ",
        "url": "https://www.163.com/dy/article/IRNBU1GS055669HQ.html"
    },
    {
        "title": "过年回家我总算明白了在老家建房有没有意义？",
        "docid": "IRSC30V00553TF9H",
        "url": "https://www.163.com/dy/article/IRSC30V00553TF9H.html"
    },
    {
        "title": "现在全国房价波动大，跌的最惨的地方你绝对想不到！",
        "docid": "IRQI156H055616ZT",
        "url": "https://www.163.com/dy/article/IRQI156H055616ZT.html"
    },
    {
        "title": "房价现在真是降了，不但降了，而且非常难买！",
        "docid": "IRQ3VF7805566T2K",
        "url": "https://www.163.com/dy/article/IRQ3VF7805566T2K.html"
    },
    {
        "title": "​人都麻了！房子从330万跌到240万，我已经没打工的动力了！",
        "docid": "IRSU27AF05563SS0",
        "url": "https://www.163.com/dy/article/IRSU27AF05563SS0.html"
    },
    {
        "title": "天天关注房价涨跌，而犹豫不定对刚需是有百害而无一利",
        "docid": "IRPVL5EM055669HQ",
        "url": "https://www.163.com/dy/article/IRPVL5EM055669HQ.html"
    },
    {
        "title": "我国各城市房价跌价榜，有人整理出来了，看看有哪些城市房价下跌",
        "docid": "IRSG43150556124M",
        "url": "https://www.163.com/dy/article/IRSG43150556124M.html"
    },
    {
        "title": "男子交了21万首付，购房合同却被别人签了字，售楼部：都是一家人",
        "docid": "IRLKMF4J05564TV4",
        "url": "https://www.163.com/dy/article/IRLKMF4J05564TV4.html"
    },
    {
        "title": "大城市里你愿意找月薪一万有房，还是月薪三万但是没房子的人？",
        "docid": "IRPVDOQM055669HQ",
        "url": "https://www.163.com/dy/article/IRPVDOQM055669HQ.html"
    },
    {
        "title": "朋友爸爸走大运了，幸好没买那400万的商铺",
        "docid": "IRMI69UG0549RI77",
        "url": "https://www.163.com/dy/article/IRMI69UG0549RI77.html"
    },
    {
        "title": "刚买房前两年，我天天拿着计算器算房贷，现在也没什么感觉了",
        "docid": "IRPMO4OH055669HQ",
        "url": "https://www.163.com/dy/article/IRPMO4OH055669HQ.html"
    },
    {
        "title": "刚需总得买的，与其追涨，不如在形式不好的时候入手一套",
        "docid": "IRPNKV7L055669HQ",
        "url": "https://www.163.com/dy/article/IRPNKV7L055669HQ.html"
    },
    {
        "title": "房价最便宜的十个城市，我大铜仁居然上榜了，看看有你的城市吗？",
        "docid": "IRO9ORON0552F71X",
        "url": "https://www.163.com/dy/article/IRO9ORON0552F71X.html"
    },
    {
        "title": "许家印留下的烂摊子，比地产更难收拾的是文旅，他忽悠了多少人?",
        "docid": "IRP5TGV105566SC9",
        "url": "https://www.163.com/dy/article/IRP5TGV105566SC9.html"
    },
    {
        "title": "一旦未来像马云所说房价如葱，最头疼的这5种人，炒房客不在其中",
        "docid": "IRMCIA490540MBU3",
        "url": "https://www.163.com/dy/article/IRMCIA490540MBU3.html"
    },
    {
        "title": "央行首提“6字”新规，房价或成为2024年焦点！",
        "docid": "IRS549N80540A6F8",
        "url": "https://www.163.com/dy/article/IRS549N80540A6F8.html"
    },
    {
        "title": "2024年起，加装电梯潮来了？两类人身价或统统迎补涨",
        "docid": "IRQ92F2O0552ZPFN",
        "url": "https://www.163.com/dy/article/IRQ92F2O0552ZPFN.html"
    },
    {
        "title": "2024年，这4样东西或迎来大降价，老百姓别买贵了",
        "docid": "IRQVF4DF0535PKJN",
        "url": "https://www.163.com/dy/article/IRQVF4DF0535PKJN.html"
    },
    {
        "title": "买房风水不能忽视，别让风水坏了你的财运",
        "docid": "IRNCE5BO055669HQ",
        "url": "https://www.163.com/dy/article/IRNCE5BO055669HQ.html"
    },
    {
        "title": "2024年澳洲印花税全攻略",
        "docid": "IRDH3Q3D053661TJ",
        "url": "https://www.163.com/dy/article/IRDH3Q3D053661TJ.html"
    },
    {
        "title": "为什么高楼层房子卖不出去？售楼小姐说漏嘴，真后悔察觉太晚了",
        "docid": "IRPVO05O05565UDW",
        "url": "https://www.163.com/dy/article/IRPVO05O05565UDW.html"
    },
    {
        "title": "武汉城建集团推出三大安居项目 共292套房源",
        "docid": "IRTE9KFN0519D45U",
        "url": "https://www.163.com/dy/article/IRTE9KFN0519D45U.html"
    },
    {
        "title": "越来越多业主选择自己挂牌卖房，本人直卖，省十多万中介费！",
        "docid": "IRR22TA505560VAR",
        "url": "https://www.163.com/dy/article/IRR22TA505560VAR.html"
    },
    {
        "title": "离职售楼小姐的告诫：小心这些楼层的陷阱！",
        "docid": "IRIE33FQ0540FQWZ",
        "url": "https://www.163.com/dy/article/IRIE33FQ0540FQWZ.html"
    },
    {
        "title": "回村建房到底值不值？3个方面分析都值得！你要放弃吗？",
        "docid": "IRKV3IPK055631K5",
        "url": "https://www.163.com/dy/article/IRKV3IPK055631K5.html"
    },
    {
        "title": "买房要小心部分产权人拿首付跑路",
        "docid": "IRN9JV9L055669HQ",
        "url": "https://www.163.com/dy/article/IRN9JV9L055669HQ.html"
    },
    {
        "title": "这两款户型是不是可以打98分呢?",
        "docid": "IRJ5SJLC0556124M",
        "url": "https://www.163.com/dy/article/IRJ5SJLC0556124M.html"
    },
    {
        "title": "甲有5套房，不上班，靠收房租生活；乙有1套房，上班赚工资……",
        "docid": "IRMGQJJ40553TDXU",
        "url": "https://www.163.com/dy/article/IRMGQJJ40553TDXU.html"
    },
    {
        "title": "买房是投资，是为了未来，而对现在的让步，是对自由的妥协",
        "docid": "IRKRUCPG055669HQ",
        "url": "https://www.163.com/dy/article/IRKRUCPG055669HQ.html"
    },
    {
        "title": "有人预测，未来三到五年可能会发生的社会现象",
        "docid": "IRQA9LHB05566S6P",
        "url": "https://www.163.com/dy/article/IRQA9LHB05566S6P.html"
    },
    {
        "title": "18三层别墅自建房小楼房，能住在这样一栋漂亮别墅中，简直太享受",
        "docid": "IRPPL5780520BKDJ",
        "url": "https://www.163.com/dy/article/IRPPL5780520BKDJ.html"
    },
    {
        "title": "未来5年房子是“钻石价”还是“白菜价”李嘉诚和王健林看法一致",
        "docid": "IRKVIHNT0553G0M4",
        "url": "https://www.163.com/dy/article/IRKVIHNT0553G0M4.html"
    },
    {
        "title": "刚需者能买到满足这六种条件的房子，想贬值都很难的哦！",
        "docid": "IRPNR9QI055669HQ",
        "url": "https://www.163.com/dy/article/IRPNR9QI055669HQ.html"
    },
    {
        "title": "买过房子，我才知道看房子是一件大工程",
        "docid": "IRNDO4LB055669HQ",
        "url": "https://www.163.com/dy/article/IRNDO4LB055669HQ.html"
    },
    {
        "title": "1月全国法拍房挂拍房源超10万套",
        "docid": "IRR21GB70553TEV3",
        "url": "https://www.163.com/dy/article/IRR21GB70553TEV3.html"
    },
    {
        "title": "如今的房贷真的已经降到历史的最低点了，那该不该买房呢？",
        "docid": "IRJ2P2BL0553VNKO",
        "url": "https://www.163.com/dy/article/IRJ2P2BL0553VNKO.html"
    },
    {
        "title": "买房最佳的两次机会：第1次：2008年到2009年。08",
        "docid": "IRS4FHPQ0553TEV3",
        "url": "https://www.163.com/dy/article/IRS4FHPQ0553TEV3.html"
    },
    {
        "title": "房价跌幅榜，终于有人整理出来了，太好啦！你们那边房价多少了？",
        "docid": "IRPT87UE0534M7IC",
        "url": "https://www.163.com/dy/article/IRPT87UE0534M7IC.html"
    },
    {
        "title": "买房时就差一个月，我一辆宝马五系就没了",
        "docid": "IRKQ9F3C055669HQ",
        "url": "https://www.163.com/dy/article/IRKQ9F3C055669HQ.html"
    },
    {
        "title": "你见过哪些因为“聪明”倒闭的店面？看完网友的分享，我觉得活该",
        "docid": "IRMC86PS05561256",
        "url": "https://www.163.com/dy/article/IRMC86PS05561256.html"
    },
    {
        "title": "买房能在沿海就别去西南",
        "docid": "IRN924JM055669HQ",
        "url": "https://www.163.com/dy/article/IRN924JM055669HQ.html"
    },
    {
        "title": "如果不是当年把钱变成了房子，现在估计全要喝西北风",
        "docid": "IRQ1DP5T055669HQ",
        "url": "https://www.163.com/dy/article/IRQ1DP5T055669HQ.html"
    },
    {
        "title": "从“排队买房”到“排队卖房”，房价走下坡路，楼市经历了什么？",
        "docid": "IRE3PAUD0535BC2F",
        "url": "https://www.163.com/dy/article/IRE3PAUD0535BC2F.html"
    },
    {
        "title": "如果未来房价下跌甚至腰斩，你敢断供吗？看完这个再做决定！",
        "docid": "IRKGB31G0553AF6B",
        "url": "https://www.163.com/dy/article/IRKGB31G0553AF6B.html"
    },
    {
        "title": "为啥越来越多人都喜欢买小户型房子？售楼经理揭露内幕",
        "docid": "IRATA2OL0540FQWZ",
        "url": "https://www.163.com/dy/article/IRATA2OL0540FQWZ.html"
    },
    {
        "title": "买房不难，但是买到丈母娘满意的房子，很难",
        "docid": "IRKG78DN055669HQ",
        "url": "https://www.163.com/dy/article/IRKG78DN055669HQ.html"
    },
    {
        "title": "2023年全国房价排行：杭州超4万，武汉接近2万，重庆1.2万",
        "docid": "IRPRILP30553YGEK",
        "url": "https://www.163.com/dy/article/IRPRILP30553YGEK.html"
    },
    {
        "title": "炒房时代已经过去，未来这3个行业比房地产更赚钱！聪明人已布局",
        "docid": "IRRNS1DK0545PEDS",
        "url": "https://www.163.com/dy/article/IRRNS1DK0545PEDS.html"
    },
    {
        "title": "诡异的县城房价，怎么还没跌？",
        "docid": "IRS42A6G05563TCH",
        "url": "https://www.163.com/dy/article/IRS42A6G05563TCH.html"
    },
    {
        "title": "起火了心好痛，高层怎么逃？吉利的楼层呢？现我想卖四楼中介说不",
        "docid": "IRNCM88805566PZK",
        "url": "https://www.163.com/dy/article/IRNCM88805566PZK.html"
    },
    {
        "title": "04年老太太拆迁拿到70万，全部存起来不买房，现在后悔了",
        "docid": "IRIANJ2S055669HQ",
        "url": "https://www.163.com/dy/article/IRIANJ2S055669HQ.html"
    },
    {
        "title": "往农村走一遭，随处都能看到的小别墅，就是我们生活变好的证据",
        "docid": "IRO6GMPB0549RI77",
        "url": "https://www.163.com/dy/article/IRO6GMPB0549RI77.html"
    },
    {
        "title": "今年3月起，这4种东西或迎来大降价，建议提前准备",
        "docid": "IROB34QL0535PKJN",
        "url": "https://www.163.com/dy/article/IROB34QL0535PKJN.html"
    }
]