[
    {
        "title": "推动阳逻组团港产城统筹发展用地调整！",
        "docid": "J2OJ0OC10534SV3Y",
        "url": "https://www.163.com/dy/article/J2OJ0OC10534SV3Y.html"
    },
    {
        "title": "中天精装：近期房地产行业政策利好频出，预计房地产行业形势会好转",
        "docid": "J2NUD9E6051984TV",
        "url": "https://www.163.com/dy/article/J2NUD9E6051984TV.html"
    },
    {
        "title": "给东湖高新区房地产新政策的建议",
        "docid": "J2OHS1KS0534FOQ8",
        "url": "https://www.163.com/dy/article/J2OHS1KS0534FOQ8.html"
    },
    {
        "title": "日本东京房价上涨，有没有性价比高的位置？",
        "docid": "J2O4E2UO0553TDTY",
        "url": "https://www.163.com/dy/article/J2O4E2UO0553TDTY.html"
    },
    {
        "title": "售楼处很多漂亮女生，一年卖不出几套房，为何还干得津津有味？",
        "docid": "J2B6SVRG05565D74",
        "url": "https://www.163.com/dy/article/J2B6SVRG05565D74.html"
    },
    {
        "title": "这个厉害的政策，要是全国都能落实，不但能救房地产，房价还要涨",
        "docid": "J2NTJABA0553SL3P",
        "url": "https://www.163.com/dy/article/J2NTJABA0553SL3P.html"
    },
    {
        "title": "武汉8宗土地顺利成交！",
        "docid": "J2OJ0FVJ0534SV3Y",
        "url": "https://www.163.com/dy/article/J2OJ0FVJ0534SV3Y.html"
    },
    {
        "title": "24-25财年澳洲雇主担保领跑，配额增长20%，482工作经验缩至1年",
        "docid": "J2O4SNAM0556124M",
        "url": "https://www.163.com/dy/article/J2O4SNAM0556124M.html"
    },
    {
        "title": "在农村建一个一层小院需要花多少钱呢？ 今天就给大家算一算，想建房又不想花费太多的朋友，不妨参考这一套",
        "docid": "VS1QHF9FQ",
        "url": "https://www.163.com/dy/article/VS1QHF9FQ.html"
    },
    {
        "title": "碧桂园在鸟不拉屎地方，开发万人社区，当时是涨价去库存的第二年，2017年，结果哪里是去库存呀，就是大",
        "docid": "VF1DKMB6P",
        "url": "https://www.163.com/dy/article/VF1DKMB6P.html"
    },
    {
        "title": "高房价背后的一双黑手浮出水面",
        "docid": "J2NVJ5LV05565ZNH",
        "url": "https://www.163.com/dy/article/J2NVJ5LV05565ZNH.html"
    },
    {
        "title": "新西兰房地产“明线规则”修改即将生效，7月后买卖合同按新规办",
        "docid": "J2MVPGK605560ZCW",
        "url": "https://www.163.com/dy/article/J2MVPGK605560ZCW.html"
    },
    {
        "title": "重磅政策接二连三，房企处境边际改善",
        "docid": "J2O56G0605199NPP",
        "url": "https://www.163.com/dy/article/J2O56G0605199NPP.html"
    },
    {
        "title": "我们降首付、降利率、放开限购，但本质上并没有降低房价。",
        "docid": "J2O130CH0553K5ZV",
        "url": "https://www.163.com/dy/article/J2O130CH0553K5ZV.html"
    },
    {
        "title": "丈母娘带我去看房，140个平方668000元，砍价60000块值得买吗？",
        "docid": "VZ1DKFKFP",
        "url": "https://www.163.com/dy/article/VZ1DKFKFP.html"
    },
    {
        "title": "公公新房建设2年多，公婆总计投入了200多万，儿媳赶忙拿出彩礼钱",
        "docid": "VQ1NIDCBD",
        "url": "https://www.163.com/dy/article/VQ1NIDCBD.html"
    },
    {
        "title": "2024年楼市大局已定，出现4个明确信号",
        "docid": "VW1PJ371I",
        "url": "https://www.163.com/dy/article/VW1PJ371I.html"
    },
    {
        "title": "现有二手房，法拍房足以解决很多人住房问题",
        "docid": "VF1D5J9FD",
        "url": "https://www.163.com/dy/article/VF1D5J9FD.html"
    },
    {
        "title": "或许，这就是买房的意义吧",
        "docid": "VS1Q8RJQM",
        "url": "https://www.163.com/dy/article/VS1Q8RJQM.html"
    },
    {
        "title": "花210万买了新房,接农村的母亲来住!",
        "docid": "VM1AHF59O",
        "url": "https://www.163.com/dy/article/VM1AHF59O.html"
    },
    {
        "title": "不用再争了！老旧小区加装电梯，对于一票否决，国家有了明确规定",
        "docid": "J2OCG7DE0519GBC0",
        "url": "https://www.163.com/dy/article/J2OCG7DE0519GBC0.html"
    },
    {
        "title": "房贷新政背后：看看42家A股上市银行房地产类贷款的量与质",
        "docid": "J2ODH1V60519D8T4",
        "url": "https://www.163.com/dy/article/J2ODH1V60519D8T4.html"
    },
    {
        "title": "自建房，自由搭配，自己选择。一切都是你说了算，还有什么可犹豫的呢?",
        "docid": "VW1QM5FPE",
        "url": "https://www.163.com/dy/article/VW1QM5FPE.html"
    },
    {
        "title": "新一波楼市政策调整解读房价会不会“报复性”上涨？业内人士：2024年的重心在于“去库存”",
        "docid": "VC1Q4A2MB",
        "url": "https://www.163.com/dy/article/VC1Q4A2MB.html"
    },
    {
        "title": "你买房子的契税退了吗？",
        "docid": "VC1QHL35I",
        "url": "https://www.163.com/dy/article/VC1QHL35I.html"
    },
    {
        "title": "什么？专家说要干掉农民 #专家 #农民#三农",
        "docid": "VA19VHC6O",
        "url": "https://www.163.com/dy/article/VA19VHC6O.html"
    },
    {
        "title": "封个7米的阳台就花掉了30000元，邻居们都说便宜，你们觉得值吗",
        "docid": "VS1C10QQ3",
        "url": "https://www.163.com/dy/article/VS1C10QQ3.html"
    },
    {
        "title": "反弓桥加持！买这种楼盘洋房，明知很差还要买，买了有噪音苦受了",
        "docid": "VB1DH8PTN",
        "url": "https://www.163.com/dy/article/VB1DH8PTN.html"
    },
    {
        "title": "新营房入住！变的是环境，不变的是使命。（随州/王东东、董建亮",
        "docid": "VP1PTC25L",
        "url": "https://www.163.com/dy/article/VP1PTC25L.html"
    },
    {
        "title": "武汉最大的废弃小区，上百栋一线江景楼建成后废弃多年无人问津，如今却变成了附近居民的菜园，车库变鱼塘，",
        "docid": "VS1QN1J93",
        "url": "https://www.163.com/dy/article/VS1QN1J93.html"
    },
    {
        "title": "这是一款美妙的143.56平米洋房户型",
        "docid": "J2BMP00A05566S5I",
        "url": "https://www.163.com/dy/article/J2BMP00A05566S5I.html"
    },
    {
        "title": "这两年里，我们印钱都印“疯”了，印了近 60 万亿。",
        "docid": "J2O2N2QR0553VNKO",
        "url": "https://www.163.com/dy/article/J2O2N2QR0553VNKO.html"
    },
    {
        "title": "土地确权的好处与作用！",
        "docid": "J2OE4OKE0532Q69P",
        "url": "https://www.163.com/dy/article/J2OE4OKE0532Q69P.html"
    },
    {
        "title": "东京目黑区68万电梯房，双面采光，壁芯面积21㎡，电车直达涩谷！",
        "docid": "J2B8442I05359JWY",
        "url": "https://www.163.com/dy/article/J2B8442I05359JWY.html"
    },
    {
        "title": "千亿地产巨头，正式宣布退市",
        "docid": "J2O3QLOA0552F71X",
        "url": "https://www.163.com/dy/article/J2O3QLOA0552F71X.html"
    },
    {
        "title": "网友发言：房价一定会大涨！",
        "docid": "J2OHFCET0553TB9L",
        "url": "https://www.163.com/dy/article/J2OHFCET0553TB9L.html"
    },
    {
        "title": "投资2亿！占地500亩！国家能源局刚要调查，驻马店重要项目烂尾了",
        "docid": "VI1QLGBET",
        "url": "https://www.163.com/dy/article/VI1QLGBET.html"
    },
    {
        "title": "涨收入与降房价 既不肯提高我们的收入",
        "docid": "VE1Q77GS1",
        "url": "https://www.163.com/dy/article/VE1Q77GS1.html"
    },
    {
        "title": "5月21日 央行5·17楼市新政后，“凌晨卖房”“等客入场”等现象已经在大湾区部分楼盘现场上演。有楼",
        "docid": "VP1QLH8MN",
        "url": "https://www.163.com/dy/article/VP1QLH8MN.html"
    },
    {
        "title": "史诗级政策救市，房地产决战时刻到来，如何深刻影响经济和股市？",
        "docid": "VM1QPNJV4",
        "url": "https://www.163.com/dy/article/VM1QPNJV4.html"
    },
    {
        "title": "选房避开这三层：影响舒适度，还浪费钱！",
        "docid": "J2B8IOV705258H6P",
        "url": "https://www.163.com/dy/article/J2B8IOV705258H6P.html"
    },
    {
        "title": "各地，打响一场“军备竞赛”！",
        "docid": "J2OBCN2N05560OBP",
        "url": "https://www.163.com/dy/article/J2OBCN2N05560OBP.html"
    },
    {
        "title": "刘陈杰 ：政策助力，地产徐行",
        "docid": "J2OJG1EF0519IGF7",
        "url": "https://www.163.com/dy/article/J2OJG1EF0519IGF7.html"
    },
    {
        "title": "房价持续下跌，穷人会更加痛苦",
        "docid": "VJ1D92JEE",
        "url": "https://www.163.com/dy/article/VJ1D92JEE.html"
    },
    {
        "title": "房价不能在下降了，下降苦的是我们穷人！",
        "docid": "VJ1AQB8V3",
        "url": "https://www.163.com/dy/article/VJ1AQB8V3.html"
    },
    {
        "title": "广西最美“鬼城”，人烟稀少房价惊人，宽阔道路媲美北上广深",
        "docid": "VI1C0O7IL",
        "url": "https://www.163.com/dy/article/VI1C0O7IL.html"
    },
    {
        "title": "大家评论区说下，情况这么棒么，一手信息厉害了",
        "docid": "VO1PCJPE6",
        "url": "https://www.163.com/dy/article/VO1PCJPE6.html"
    },
    {
        "title": "五年后，120万的房子还能值多少钱",
        "docid": "VM1DBCE72",
        "url": "https://www.163.com/dy/article/VM1DBCE72.html"
    },
    {
        "title": "介文汲：老百姓并不是买不起房子，而是消费的信心有些悲观！",
        "docid": "VF1PSPA2O",
        "url": "https://www.163.com/dy/article/VF1PSPA2O.html"
    },
    {
        "title": "皇庭国际回应“增收不增利”原因：融资成本高企、投资性房地产减值亏损  快报",
        "docid": "VP1N341HP",
        "url": "https://www.163.com/dy/article/VP1N341HP.html"
    },
    {
        "title": "农村宅基地申请需要缴纳费用吗？",
        "docid": "J2BKCH9F0532Q69P",
        "url": "https://www.163.com/dy/article/J2BKCH9F0532Q69P.html"
    },
    {
        "title": "麻烦转给北上广深各市长。",
        "docid": "J2OJ2FTU0552G3VY",
        "url": "https://www.163.com/dy/article/J2OJ2FTU0552G3VY.html"
    },
    {
        "title": "第18课 问答：婚房首付应该谁出？",
        "docid": "VW1DTG1I1",
        "url": "https://www.163.com/dy/article/VW1DTG1I1.html"
    },
    {
        "title": "房地产判断失误有多可怕 #凯叔说房产 #一个敢说真话的房产人",
        "docid": "VN1D7Q6S2",
        "url": "https://www.163.com/dy/article/VN1D7Q6S2.html"
    },
    {
        "title": "带日本女友图图、去看房子了",
        "docid": "VZ1DH5FGT",
        "url": "https://www.163.com/dy/article/VZ1DH5FGT.html"
    },
    {
        "title": "房东是一名热心肠，他今天过来帮助拉齐亚他们一家完善浴室的修建",
        "docid": "VR1DJ5ROK",
        "url": "https://www.163.com/dy/article/VR1DJ5ROK.html"
    },
    {
        "title": "尊华：房地产存量时代的资产运营创业机遇",
        "docid": "VM197S9UA",
        "url": "https://www.163.com/dy/article/VM197S9UA.html"
    },
    {
        "title": "单身女性迎来买房热潮，单身女性选择购房主要是为了实现财务独立和个人生活愿景1",
        "docid": "VY1D8B72N",
        "url": "https://www.163.com/dy/article/VY1D8B72N.html"
    },
    {
        "title": "取消限购，下一个超一线城市将是杭州？",
        "docid": "VQ1PK27NP",
        "url": "https://www.163.com/dy/article/VQ1PK27NP.html"
    },
    {
        "title": "房价从22000跌到8000，免费送房无人问，走投无路只能断供吗？",
        "docid": "VI1C467TB",
        "url": "https://www.163.com/dy/article/VI1C467TB.html"
    },
    {
        "title": "房地产去库存持续推进！60余城市或地区支持“以旧换新”",
        "docid": "J2N2HB3K0512B07B",
        "url": "https://www.163.com/dy/article/J2N2HB3K0512B07B.html"
    },
    {
        "title": "什么是物业费？物业费包含什么？业主交的物业费去了哪里？",
        "docid": "J2BNMQ2U055616ZT",
        "url": "https://www.163.com/dy/article/J2BNMQ2U055616ZT.html"
    },
    {
        "title": "关于组建住房银行收储的必要性",
        "docid": "J2BN44M70519NINF",
        "url": "https://www.163.com/dy/article/J2BN44M70519NINF.html"
    },
    {
        "title": "高盛深度分析：楼市下跌或仅是序幕，市场松绑能否逆转跌势？",
        "docid": "J2ODKV2L05562SWQ",
        "url": "https://www.163.com/dy/article/J2ODKV2L05562SWQ.html"
    },
    {
        "title": "王石“预言”已经应验？超过41%的城镇家庭，未来将面临什么？",
        "docid": "J2OQJ5E90553TDVP",
        "url": "https://www.163.com/dy/article/J2OQJ5E90553TDVP.html"
    },
    {
        "title": "取消限售！重庆发布支持楼市“渝6条”，现房买来就能上市交易",
        "docid": "VJ1NNLBF4",
        "url": "https://www.163.com/dy/article/VJ1NNLBF4.html"
    },
    {
        "title": "北漂的同学们都看过来，4000块也能在二环内租好房！",
        "docid": "VF1DRN44B",
        "url": "https://www.163.com/dy/article/VF1DRN44B.html"
    },
    {
        "title": "许家印豪宅出售，买家以约4.7亿港元承接，较一年前估值8.8亿港元低近一半 ",
        "docid": "VM1PF6T7P",
        "url": "https://www.163.com/dy/article/VM1PF6T7P.html"
    },
    {
        "title": "仅900多个就可以拿下的苏州英伦风独栋",
        "docid": "VW1QQRPN2",
        "url": "https://www.163.com/dy/article/VW1QQRPN2.html"
    },
    {
        "title": "这几种人千万不要轻易卖掉房子",
        "docid": "VN1C5GQQ2",
        "url": "https://www.163.com/dy/article/VN1C5GQQ2.html"
    },
    {
        "title": "直接“印钞”给房地产，极其罕见……",
        "docid": "J2NTQFHU0552GHFT",
        "url": "https://www.163.com/dy/article/J2NTQFHU0552GHFT.html"
    },
    {
        "title": "罗志恒丨新一轮房地产去库存：政策逻辑、难点与展望",
        "docid": "J2OIFQ640519IGF7",
        "url": "https://www.163.com/dy/article/J2OIFQ640519IGF7.html"
    },
    {
        "title": "深圳房价四连跌，北京、上海楼市能有机会吗？",
        "docid": "J2NN4KTQ0535JMSP",
        "url": "https://www.163.com/dy/article/J2NN4KTQ0535JMSP.html"
    },
    {
        "title": "大家帮我看看这是变相裁员吗？公司直接把我的公积金降了四千块。",
        "docid": "J2OHF3F90553EANU",
        "url": "https://www.163.com/dy/article/J2OHF3F90553EANU.html"
    },
    {
        "title": "昨天还只是传，要亲自下场买房公租，这就有城市落地了。。60-70",
        "docid": "VP1DQBNTI",
        "url": "https://www.163.com/dy/article/VP1DQBNTI.html"
    },
    {
        "title": "2024年的楼市，来到了命运关口 ",
        "docid": "VF1PUSJFG",
        "url": "https://www.163.com/dy/article/VF1PUSJFG.html"
    },
    {
        "title": "全面回暖，但千万别抱幻想，记住三条铁律！",
        "docid": "VY1QG1USE",
        "url": "https://www.163.com/dy/article/VY1QG1USE.html"
    },
    {
        "title": "房租如何成为房价的“定海神针”？#一个敢说真话的房产人",
        "docid": "VF1AITPT1",
        "url": "https://www.163.com/dy/article/VF1AITPT1.html"
    },
    {
        "title": "再便宜也不买这几个楼层",
        "docid": "VQ1D5Q8SH",
        "url": "https://www.163.com/dy/article/VQ1D5Q8SH.html"
    },
    {
        "title": "最高院：非消费购房人，没有这种特殊情况和证据，不能排除执行！",
        "docid": "VU1PRD7PE",
        "url": "https://www.163.com/dy/article/VU1PRD7PE.html"
    },
    {
        "title": "多地密集优化楼市政策  统筹消化存量优化增量",
        "docid": "J2HQOQ2S0514R9NP",
        "url": "https://www.163.com/dy/article/J2HQOQ2S0514R9NP.html"
    },
    {
        "title": "“取消”公摊面积？已经买了房的人！能获得补偿吗？国家回应来了",
        "docid": "J2EAROJB0535BC2F",
        "url": "https://www.163.com/dy/article/J2EAROJB0535BC2F.html"
    },
    {
        "title": "5年后，房子“白菜价”还是“黄金价”？王健林、马光远看法一致",
        "docid": "J2LO8SOB0535BC2F",
        "url": "https://www.163.com/dy/article/J2LO8SOB0535BC2F.html"
    },
    {
        "title": "这7种房子将沦为穷人房，不好卖，也不好住，懂行的人已悄悄脱手",
        "docid": "J2NTPTI205563SS0",
        "url": "https://www.163.com/dy/article/J2NTPTI205563SS0.html"
    },
    {
        "title": "盘点贷款买房人的心酸，你有后悔过吗",
        "docid": "VZ1E1FO63",
        "url": "https://www.163.com/dy/article/VZ1E1FO63.html"
    },
    {
        "title": "怪不得中国人都不买房了，原因很真 实、看完都忍不住了！",
        "docid": "VW1PF3TO1",
        "url": "https://www.163.com/dy/article/VW1PF3TO1.html"
    },
    {
        "title": "200万预算，结果在老家洋房都买不起，静琦都发愁死了！",
        "docid": "VZ1PHLHVM",
        "url": "https://www.163.com/dy/article/VZ1PHLHVM.html"
    },
    {
        "title": "专家称十年后房子不可能卖白菜价",
        "docid": "VP1QI1GHT",
        "url": "https://www.163.com/dy/article/VP1QI1GHT.html"
    },
    {
        "title": "武汉首开向下突破房地产贷款利率，看来救市还有很大空间啊",
        "docid": "VJ1QOG952",
        "url": "https://www.163.com/dy/article/VJ1QOG952.html"
    },
    {
        "title": "九郡弘750平新房开荒保洁管家式深度清洁 ",
        "docid": "VS1C6S65E",
        "url": "https://www.163.com/dy/article/VS1C6S65E.html"
    },
    {
        "title": "零利率的极端方案：能解中国楼市之困吗？",
        "docid": "J2O99UCR05538DP3",
        "url": "https://www.163.com/dy/article/J2O99UCR05538DP3.html"
    },
    {
        "title": "当初不听劝！贷款买房后悲惨生活就开始了，哭都没眼泪彻底后悔了",
        "docid": "VF1E1TOL9",
        "url": "https://www.163.com/dy/article/VF1E1TOL9.html"
    },
    {
        "title": "孟晓苏称只有房价不跌老百姓才会回归购房市场，大家认可吗",
        "docid": "VE1QUSOS8",
        "url": "https://www.163.com/dy/article/VE1QUSOS8.html"
    },
    {
        "title": "传许家印香港别墅以约4.7亿港元售出，较一年前估值折价近半",
        "docid": "VR1Q7QMUE",
        "url": "https://www.163.com/dy/article/VR1Q7QMUE.html"
    },
    {
        "title": "骆驼湾·荣府，低密居境，奢阔院墅，都市繁华与山林谧静",
        "docid": "VV1MRKCI6",
        "url": "https://www.163.com/dy/article/VV1MRKCI6.html"
    },
    {
        "title": "住房城乡建设部：做好住房公积金个人住房贷款利率下调相关工作",
        "docid": "VD1Q2RDJN",
        "url": "https://www.163.com/dy/article/VD1Q2RDJN.html"
    },
    {
        "title": "五年后3类房子将会一文不值，很多人还不知道，内行人已开始抛售",
        "docid": "VP1P6BMUT",
        "url": "https://www.163.com/dy/article/VP1P6BMUT.html"
    },
    {
        "title": "刚需买不起，炒房客卖不掉？楼市僵局如何打破？曹德旺一语道破",
        "docid": "VR1P8SV5S",
        "url": "https://www.163.com/dy/article/VR1P8SV5S.html"
    },
    {
        "title": "昆明：个人住房公积金贷款利率下调0.25%",
        "docid": "VF1PCHJEQ",
        "url": "https://www.163.com/dy/article/VF1PCHJEQ.html"
    },
    {
        "title": "不提前知道这三件事，一定不要买房",
        "docid": "VC1MS9EN3",
        "url": "https://www.163.com/dy/article/VC1MS9EN3.html"
    },
    {
        "title": "揭秘！小区门面房频换租户，大型超市如何逆境求生？",
        "docid": "J2OT840S05563523",
        "url": "https://www.163.com/dy/article/J2OT840S05563523.html"
    },
    {
        "title": "武汉首套房首付比例降至15%？贝壳武汉：消息属实 已收到银行相关通知",
        "docid": "J2NC8NQ205198CJN",
        "url": "https://www.163.com/dy/article/J2NC8NQ205198CJN.html"
    },
    {
        "title": "退休了，公积金终于可以提取了。把攒了一辈子的钱拿去给儿子买房",
        "docid": "J2P1A9CD0553EANU",
        "url": "https://www.163.com/dy/article/J2P1A9CD0553EANU.html"
    },
    {
        "title": "大姨捡漏53年的房子，里面没一处好地，买到即坑到",
        "docid": "VI1D3EMKO",
        "url": "https://www.163.com/dy/article/VI1D3EMKO.html"
    },
    {
        "title": "任何唱衰房价的谎言都阻止不了大城市的房价上涨",
        "docid": "VC1PU23M3",
        "url": "https://www.163.com/dy/article/VC1PU23M3.html"
    },
    {
        "title": "法拍房市场火爆，竞拍之前，这几个细节提前说明",
        "docid": "VU1C7GLPS",
        "url": "https://www.163.com/dy/article/VU1C7GLPS.html"
    },
    {
        "title": "小沈看了两次房又直接买，但老婆这次很满意，看看这房值不值？",
        "docid": "VW1R1C4DK",
        "url": "https://www.163.com/dy/article/VW1R1C4DK.html"
    },
    {
        "title": "有钱了，你们是先还房贷还是拿去投资？",
        "docid": "VQ1CPM60U",
        "url": "https://www.163.com/dy/article/VQ1CPM60U.html"
    },
    {
        "title": "房地产救市：连出三招！有史以来最低首付比例购房！贷款利率下调",
        "docid": "VM1P598B1",
        "url": "https://www.163.com/dy/article/VM1P598B1.html"
    },
    {
        "title": "理智的看房价还有很大的想象空间",
        "docid": "VG1PFH5T2",
        "url": "https://www.163.com/dy/article/VG1PFH5T2.html"
    },
    {
        "title": "购买房产的最佳时机是什么时候呢,房价会一直涨吗？",
        "docid": "J2AJFM3T0511HC7V",
        "url": "https://www.163.com/dy/article/J2AJFM3T0511HC7V.html"
    },
    {
        "title": "5.17地产新政力度空前！市场还在担心什么？",
        "docid": "J2O3RK510515APM9",
        "url": "https://www.163.com/dy/article/J2O3RK510515APM9.html"
    },
    {
        "title": "武汉有银行开始执行：首套首付15% 首套房贷利率由3.55%降至3.25%",
        "docid": "J2ND664J05198CJN",
        "url": "https://www.163.com/dy/article/J2ND664J05198CJN.html"
    },
    {
        "title": "湖景大宅独栋别墅。建面439平、实际850平、花园1050平",
        "docid": "VV1MQNF68",
        "url": "https://www.163.com/dy/article/VV1MQNF68.html"
    },
    {
        "title": "专家称十年后房子不可能卖白菜价，历年房价十强省，有你家乡吗？",
        "docid": "VQ1PBP1J6",
        "url": "https://www.163.com/dy/article/VQ1PBP1J6.html"
    },
    {
        "title": "赶紧去房管局查产调报告",
        "docid": "VZ1MSMJDV",
        "url": "https://www.163.com/dy/article/VZ1MSMJDV.html"
    },
    {
        "title": "心平气和，迎接更大的涨幅！ 更多精彩内容来老严直播间！",
        "docid": "VK1NC5D9R",
        "url": "https://www.163.com/dy/article/VK1NC5D9R.html"
    },
    {
        "title": "终于想明白了！未来房子严重过剩，现在还有必要跟风买房吗？",
        "docid": "VS1PDKA05",
        "url": "https://www.163.com/dy/article/VS1PDKA05.html"
    },
    {
        "title": "关注我了解更多房产知识",
        "docid": "VE1P8RFOV",
        "url": "https://www.163.com/dy/article/VE1P8RFOV.html"
    },
    {
        "title": "房价变成“白菜价”！对谁影响最大？",
        "docid": "VD1NJUR4D",
        "url": "https://www.163.com/dy/article/VD1NJUR4D.html"
    },
    {
        "title": "新州乡镇地区房租飙涨60%，海外购房者首选黄金海岸，维州房产大受海外租户、买家喜欢！",
        "docid": "J2P2NKUO05199N88",
        "url": "https://www.163.com/dy/article/J2P2NKUO05199N88.html"
    },
    {
        "title": "国内政策跟踪： 稳地产全面加码，“去库存”思路明确",
        "docid": "J2ORFI9Q055633G0",
        "url": "https://www.163.com/dy/article/J2ORFI9Q055633G0.html"
    },
    {
        "title": "这一步没有操作，公租房跟你永无缘",
        "docid": "VT1N7V2PB",
        "url": "https://www.163.com/dy/article/VT1N7V2PB.html"
    },
    {
        "title": "“凌晨都在接待购房人”，楼市新政后，部分楼盘“人山人海”，看房热度主要集中于一些热门楼盘",
        "docid": "VY1Q6D4HA",
        "url": "https://www.163.com/dy/article/VY1Q6D4HA.html"
    },
    {
        "title": "明明是扎心的话，看到最后却",
        "docid": "VC1CINUKH",
        "url": "https://www.163.com/dy/article/VC1CINUKH.html"
    },
    {
        "title": "一栋三层大楼四周都被挖空，地基开裂摇摇欲坠，这样的房子还敢住吗？",
        "docid": "VP1DHVM21",
        "url": "https://www.163.com/dy/article/VP1DHVM21.html"
    },
    {
        "title": "房价从22000跌到8000，免费送房无人问，走投无路只能断供吗？",
        "docid": "VF1C4RC6J",
        "url": "https://www.163.com/dy/article/VF1C4RC6J.html"
    },
    {
        "title": "单身女性迎来买房热潮，单身女性选择购房主要是为了实现财务独立和个人生活愿景",
        "docid": "VY1D8B6AK",
        "url": "https://www.163.com/dy/article/VY1D8B6AK.html"
    },
    {
        "title": "当前的经济形式，我建议大家不要买房和投资。",
        "docid": "VS1DS5QMK",
        "url": "https://www.163.com/dy/article/VS1DS5QMK.html"
    },
    {
        "title": "央行下调个人住房公积金贷款利率 贷款100万还贷30年可省近5万",
        "docid": "VW1JSK9PS",
        "url": "https://www.163.com/dy/article/VW1JSK9PS.html"
    },
    {
        "title": "首付大降，上车容易下车难！购房前必看的警示文！",
        "docid": "J2P541D40553TB9L",
        "url": "https://www.163.com/dy/article/J2P541D40553TB9L.html"
    },
    {
        "title": "花600w装修，只卖400w？还带800平大花园！",
        "docid": "VF1E39G35",
        "url": "https://www.163.com/dy/article/VF1E39G35.html"
    },
    {
        "title": "金融学教授从租售比和升值空间分析租房划算还是买房划算",
        "docid": "VH1A88D7E",
        "url": "https://www.163.com/dy/article/VH1A88D7E.html"
    },
    {
        "title": "新一波楼市政策调整解读房价会不会“报复性”上涨？业内人士：2024年的重心在于“去库存”2",
        "docid": "VC1Q6JRPR",
        "url": "https://www.163.com/dy/article/VC1Q6JRPR.html"
    },
    {
        "title": "楼市新政后部分楼盘“人山人海”，有楼盘周末开盘卖了近15亿元",
        "docid": "VV1PQ3AJJ",
        "url": "https://www.163.com/dy/article/VV1PQ3AJJ.html"
    },
    {
        "title": "猜一下，如果不还房贷的话会发生什么？",
        "docid": "VM1PEE4DD",
        "url": "https://www.163.com/dy/article/VM1PEE4DD.html"
    },
    {
        "title": "如何避免楼市硬着陆？看政府如何给泡沫“放气”",
        "docid": "VF1NTM7K0",
        "url": "https://www.163.com/dy/article/VF1NTM7K0.html"
    },
    {
        "title": "中国人民银行下调个人住房公积金贷款利率",
        "docid": "VX1N9TSQA",
        "url": "https://www.163.com/dy/article/VX1N9TSQA.html"
    },
    {
        "title": "华润置地与华为终端签署全屋智能战略合作协议",
        "docid": "VD1QGK3RJ",
        "url": "https://www.163.com/dy/article/VD1QGK3RJ.html"
    },
    {
        "title": "验资1个亿才能看的豪宅长什么样？今天来带你大饱眼福",
        "docid": "VR1P6PPSE",
        "url": "https://www.163.com/dy/article/VR1P6PPSE.html"
    },
    {
        "title": "楼市重磅；武汉打响“第一枪”；首套房比例降至15%；有何影响",
        "docid": "J2P8TQ8B05562L3S",
        "url": "https://www.163.com/dy/article/J2P8TQ8B05562L3S.html"
    },
    {
        "title": "武汉率先下调首付利率，房地产今天会上涨吗？这个方向政策大利好",
        "docid": "VD1QBKJVJ",
        "url": "https://www.163.com/dy/article/VD1QBKJVJ.html"
    },
    {
        "title": "165万的别墅，位置还好，你说气不气",
        "docid": "VF1DT3NFB",
        "url": "https://www.163.com/dy/article/VF1DT3NFB.html"
    },
    {
        "title": "十年后房子白菜价？陈淮：不可能",
        "docid": "VF1PQ5RCC",
        "url": "https://www.163.com/dy/article/VF1PQ5RCC.html"
    },
    {
        "title": "二手房市场流动性受阻，房东如何应对？#房价下降",
        "docid": "VF1CLK703",
        "url": "https://www.163.com/dy/article/VF1CLK703.html"
    },
    {
        "title": "二手房如何卖个好价钱？",
        "docid": "VG1CIV2IC",
        "url": "https://www.163.com/dy/article/VG1CIV2IC.html"
    },
    {
        "title": "武汉城建集团启动首批先租后售社区建设预计提供1055套房源  快报",
        "docid": "VP1O0DKNO",
        "url": "https://www.163.com/dy/article/VP1O0DKNO.html"
    },
    {
        "title": "现在买房都变态到什么程度了",
        "docid": "VQ1NH9HRN",
        "url": "https://www.163.com/dy/article/VQ1NH9HRN.html"
    },
    {
        "title": "楼市新政后 部分楼盘“人山人海”",
        "docid": "VR1Q7JAV6",
        "url": "https://www.163.com/dy/article/VR1Q7JAV6.html"
    },
    {
        "title": "没有一个年轻人可以从这套房子平静的走出去，看完直接沸腾了",
        "docid": "VH1NCP4Q0",
        "url": "https://www.163.com/dy/article/VH1NCP4Q0.html"
    },
    {
        "title": "金融街控股：加速回款、保障安全、自我革新、谋划未来",
        "docid": "J2PALP5C05159A0N",
        "url": "https://www.163.com/dy/article/J2PALP5C05159A0N.html"
    },
    {
        "title": "未来几年房价将大涨？北大教授大放厥词，网友：谁家的狗谁牵走",
        "docid": "VE1Q4VP7U",
        "url": "https://www.163.com/dy/article/VE1Q4VP7U.html"
    },
    {
        "title": "拿了1800万的拆迁款",
        "docid": "VZ1A1RC28",
        "url": "https://www.163.com/dy/article/VZ1A1RC28.html"
    },
    {
        "title": "楼市要大变天，未来房价走势会怎么样？房产专家全面分析",
        "docid": "VI1REFH1S",
        "url": "https://www.163.com/dy/article/VI1REFH1S.html"
    },
    {
        "title": "嘴巴一张一合，贷款买房竟能剩下一大笔钱？",
        "docid": "VC1A0FNVK",
        "url": "https://www.163.com/dy/article/VC1A0FNVK.html"
    },
    {
        "title": "买到这样的户型，好晦气！恨不得赶紧再卖掉，实得面积才占0.625",
        "docid": "VB1QG7U96",
        "url": "https://www.163.com/dy/article/VB1QG7U96.html"
    },
    {
        "title": "今天你cityread了吗？一起漫读城市发现读行之乐",
        "docid": "VO1PD0B1A",
        "url": "https://www.163.com/dy/article/VO1PD0B1A.html"
    },
    {
        "title": "Lily想买套房子，在广西北海旅居1个多月，买房该考虑哪些因素？",
        "docid": "VL1P45UB8",
        "url": "https://www.163.com/dy/article/VL1P45UB8.html"
    },
    {
        "title": "丈母娘非非常喜欢这套房，139平方要价100多万，准备要签合同了",
        "docid": "VP1Q68GO3",
        "url": "https://www.163.com/dy/article/VP1Q68GO3.html"
    },
    {
        "title": "中指研究院：4月百城二手住宅均价环比下跌0.75%",
        "docid": "VD1P05FBU",
        "url": "https://www.163.com/dy/article/VD1P05FBU.html"
    },
    {
        "title": "你降你的，我愁我的，互不成全",
        "docid": "J2P4U5H10553TDTY",
        "url": "https://www.163.com/dy/article/J2P4U5H10553TDTY.html"
    },
    {
        "title": "楼市怪象：炒房客高位套现全身而退，而普通人却在砸锅卖铁买房",
        "docid": "J2P60U3B0553TDXU",
        "url": "https://www.163.com/dy/article/J2P60U3B0553TDXU.html"
    },
    {
        "title": "买二手房时，最好先去阳台看一看，为什么，我来告诉你答案",
        "docid": "J2P3VF590556124M",
        "url": "https://www.163.com/dy/article/J2P3VF590556124M.html"
    },
    {
        "title": "紫来花园业主很孝顺，为了照顾父母卖房子…",
        "docid": "VK1RGEB6F",
        "url": "https://www.163.com/dy/article/VK1RGEB6F.html"
    },
    {
        "title": "深圳楼市以价换量，二手房市场活跃却存隐忧",
        "docid": "VF1PTVKE3",
        "url": "https://www.163.com/dy/article/VF1PTVKE3.html"
    },
    {
        "title": "房子过户给子女，最好选择这一种方式，可以省下不少钱",
        "docid": "VP1BT7IS0",
        "url": "https://www.163.com/dy/article/VP1BT7IS0.html"
    },
    {
        "title": "一门定江山，水火要有情 ",
        "docid": "VC1DPD6EP",
        "url": "https://www.163.com/dy/article/VC1DPD6EP.html"
    },
    {
        "title": "新房交房半年现1789条裂纹？这样的房子你敢住吗？",
        "docid": "VW1LGPL8G",
        "url": "https://www.163.com/dy/article/VW1LGPL8G.html"
    },
    {
        "title": "父母花光积蓄给6女儿盖别墅，只为出嫁后能有退路，环视一圈壮观",
        "docid": "VB1CCHNKD",
        "url": "https://www.163.com/dy/article/VB1CCHNKD.html"
    },
    {
        "title": "200W存款和200W房惨10年后谁更保值？",
        "docid": "VP1LA0F8E",
        "url": "https://www.163.com/dy/article/VP1LA0F8E.html"
    },
    {
        "title": "买房首付15%的时代，也是“安静的人”最好的时代｜韩牧专栏",
        "docid": "J2PC2EGC0553TB8M",
        "url": "https://www.163.com/dy/article/J2PC2EGC0553TB8M.html"
    },
    {
        "title": "门面评估价是如何产生的#商铺买卖税费多少 #干货分享 #房产",
        "docid": "VV1EL12P4",
        "url": "https://www.163.com/dy/article/VV1EL12P4.html"
    },
    {
        "title": "房型查看缺角，内外环境对比，来看解析",
        "docid": "VS1P5U4HH",
        "url": "https://www.163.com/dy/article/VS1P5U4HH.html"
    },
    {
        "title": "楼市新政“四箭齐发”房价会不会报复性上涨？中国哪些省房价贵？",
        "docid": "VQ1PDRNUN",
        "url": "https://www.163.com/dy/article/VQ1PDRNUN.html"
    },
    {
        "title": "房地产到底是不是经济支柱？",
        "docid": "VG1MO8TE8",
        "url": "https://www.163.com/dy/article/VG1MO8TE8.html"
    },
    {
        "title": "风华总书包 捡漏房5000多一平。3天必没 手慢无！",
        "docid": "VW1AP4KMV",
        "url": "https://www.163.com/dy/article/VW1AP4KMV.html"
    },
    {
        "title": "华北最大省会楼市“崩翻天”，撑不住了，逼死我算了！",
        "docid": "VY1PDTL28",
        "url": "https://www.163.com/dy/article/VY1PDTL28.html"
    },
    {
        "title": "全款VS贷款买房：房价下跌，心态大不同",
        "docid": "VF1PTJRA9",
        "url": "https://www.163.com/dy/article/VF1PTJRA9.html"
    },
    {
        "title": "首付1.5成气氛又燥起来了，赶紧约朋友再次看房",
        "docid": "VF1MD6VKN",
        "url": "https://www.163.com/dy/article/VF1MD6VKN.html"
    },
    {
        "title": "粤港澳大湾区经济萧条，别墅降至200个W，昔日豪宅不再受人追棒！",
        "docid": "VC1HA3LKV",
        "url": "https://www.163.com/dy/article/VC1HA3LKV.html"
    },
    {
        "title": "尾盘去化，必须另辟蹊径了",
        "docid": "J2PCGCHH05158B67",
        "url": "https://www.163.com/dy/article/J2PCGCHH05158B67.html"
    },
    {
        "title": "中信建投：当前房地产行业可能正接近触发拥挤指标阈值的状态",
        "docid": "J2PGDDOI0519D45U",
        "url": "https://www.163.com/dy/article/J2PGDDOI0519D45U.html"
    },
    {
        "title": "全国各地售楼部，又被挤爆了…",
        "docid": "J2PE2FEA0552HI5G",
        "url": "https://www.163.com/dy/article/J2PE2FEA0552HI5G.html"
    },
    {
        "title": "中国，一定不会走日本的老路",
        "docid": "J2PATFCL0519DKT1",
        "url": "https://www.163.com/dy/article/J2PATFCL0519DKT1.html"
    },
    {
        "title": "操盘必读丨何立峰：严厉打击非法金融活动；许家印豪宅出售，估值“腰斩”",
        "docid": "J2PARLQC053469M5",
        "url": "https://www.163.com/dy/article/J2PARLQC053469M5.html"
    },
    {
        "title": "十年后房价会怎样？贬还是升？",
        "docid": "J2PGJ2DF0519B623",
        "url": "https://www.163.com/dy/article/J2PGJ2DF0519B623.html"
    },
    {
        "title": "证券日报：消化存量房产，为楼市复苏创造更优环境",
        "docid": "J2PBVO3C0539AP40",
        "url": "https://www.163.com/dy/article/J2PBVO3C0539AP40.html"
    },
    {
        "title": "地产项目不要盲目建样板房",
        "docid": "J2PCEKQC05158B67",
        "url": "https://www.163.com/dy/article/J2PCEKQC05158B67.html"
    },
    {
        "title": "中国大妈有多疯狂？此国房子被中国大妈抢购一空，本国人无房可住",
        "docid": "J2CABFUR055616ZT",
        "url": "https://www.163.com/dy/article/J2CABFUR055616ZT.html"
    },
    {
        "title": "说实话，160平米的户型做到这种程度，真的没有瑕疵",
        "docid": "J2C9GJSS0553TDXU",
        "url": "https://www.163.com/dy/article/J2C9GJSS0553TDXU.html"
    },
    {
        "title": "易闻天下丨武汉公积金调整，汉阳又上新一家医院",
        "docid": "J27JU95T05567SKQ",
        "url": "https://www.163.com/dy/article/J27JU95T05567SKQ.html"
    },
    {
        "title": "买房送户口！核心城市抢人“放大招”",
        "docid": "J2PEB4I10556124M",
        "url": "https://www.163.com/dy/article/J2PEB4I10556124M.html"
    },
    {
        "title": "第二轮救市开启！最强措施引爆地产ETF，房价即将暴涨？",
        "docid": "J2MR64JJ05561UAV",
        "url": "https://www.163.com/dy/article/J2MR64JJ05561UAV.html"
    },
    {
        "title": "金茂府3.0，豪宅圈新顶流",
        "docid": "J2PG35LP05567NEL",
        "url": "https://www.163.com/dy/article/J2PG35LP05567NEL.html"
    },
    {
        "title": "地产行业，迎来全新的拐点",
        "docid": "J2PCF8IM05158B67",
        "url": "https://www.163.com/dy/article/J2PCF8IM05158B67.html"
    },
    {
        "title": "武汉一个占地约419亩的工厂拍卖，被一个公司5520万竞得",
        "docid": "J2OCRFUM05564G35",
        "url": "https://www.163.com/dy/article/J2OCRFUM05564G35.html"
    },
    {
        "title": "农村爆款的小洋楼，你们说楼梯是设计在旁边好还是正面好？",
        "docid": "VL1REOS2O",
        "url": "https://www.163.com/dy/article/VL1REOS2O.html"
    },
    {
        "title": "独栋大别墅 狂降280万 也难寻有缘人  有点后悔买大了 心酸啊",
        "docid": "VN1EEILJN",
        "url": "https://www.163.com/dy/article/VN1EEILJN.html"
    },
    {
        "title": "我们的财富将会大洗牌，谁会被收割？ ",
        "docid": "VB1RKV8HS",
        "url": "https://www.163.com/dy/article/VB1RKV8HS.html"
    },
    {
        "title": "真正的步步高升户型，四水归堂，中式四合院！",
        "docid": "VW1RMC1DK",
        "url": "https://www.163.com/dy/article/VW1RMC1DK.html"
    },
    {
        "title": "去房地产库存，杭州要1年多，深圳要3年",
        "docid": "J2PFCRAP0553TEQM",
        "url": "https://www.163.com/dy/article/J2PFCRAP0553TEQM.html"
    },
    {
        "title": "国家统计局：1-4月全国分省市房地产投资数据出炉",
        "docid": "J2PKOIA90514AHGG",
        "url": "https://www.163.com/dy/article/J2PKOIA90514AHGG.html"
    },
    {
        "title": "要买房现在可以出手了吗！",
        "docid": "J2PD23RL0553Y7J3",
        "url": "https://www.163.com/dy/article/J2PD23RL0553Y7J3.html"
    },
    {
        "title": "房地产板块走强 渝开发二连板",
        "docid": "J2PK4AD80539AP40",
        "url": "https://www.163.com/dy/article/J2PK4AD80539AP40.html"
    },
    {
        "title": "安徽芜湖的房价快成笑话了 现在卖房子可笑到什么程度 至今想不明白",
        "docid": "J2PKUMDD0553TDXU",
        "url": "https://www.163.com/dy/article/J2PKUMDD0553TDXU.html"
    },
    {
        "title": "大家提前做好准备，6月开始，不出意外的话，或将呈现5个趋势",
        "docid": "J2PIC2M705566MKM",
        "url": "https://www.163.com/dy/article/J2PIC2M705566MKM.html"
    },
    {
        "title": "没房的可以幸灾乐祸吗？如果房地产崩盘，会造成什么影响？",
        "docid": "J2PIHVKP05566MKM",
        "url": "https://www.163.com/dy/article/J2PIHVKP05566MKM.html"
    },
    {
        "title": "顶奢大平层户型，确实很少见",
        "docid": "J2P6IEJH05566SC9",
        "url": "https://www.163.com/dy/article/J2P6IEJH05566SC9.html"
    },
    {
        "title": "重磅！地产企稳，保利发展、万科、滨江集团，谁会笑到最后",
        "docid": "J2PKU9LM0552F71X",
        "url": "https://www.163.com/dy/article/J2PKU9LM0552F71X.html"
    },
    {
        "title": "关于房地产就只能说它差吗？",
        "docid": "VE1RN92QU",
        "url": "https://www.163.com/dy/article/VE1RN92QU.html"
    },
    {
        "title": "许家印腰斩出售豪宅，万科保利的危机？？",
        "docid": "J2PE7KLF0553Y7J3",
        "url": "https://www.163.com/dy/article/J2PE7KLF0553Y7J3.html"
    },
    {
        "title": "又有涨停！知名游资方新侠出手它！地产的行情还没走完？",
        "docid": "J2PJGHJ805199FB7",
        "url": "https://www.163.com/dy/article/J2PJGHJ805199FB7.html"
    },
    {
        "title": "未来房子不再“贵”了？马云、任正非透露：留房不如留这4样东西",
        "docid": "J2C9BJSQ0553TDXU",
        "url": "https://www.163.com/dy/article/J2C9BJSQ0553TDXU.html"
    },
    {
        "title": "中国房地产走到今天，到底谁该负主要责任？",
        "docid": "J2CM7CAI05524QHN",
        "url": "https://www.163.com/dy/article/J2CM7CAI05524QHN.html"
    },
    {
        "title": "你迟早会明白，这“三楼层”才是真正的“黄金楼层”，越住越值钱",
        "docid": "J2PIGL4905566MKM",
        "url": "https://www.163.com/dy/article/J2PIGL4905566MKM.html"
    },
    {
        "title": "月供3000的安居房卖不完，月租1500的公租房抢着要",
        "docid": "J2PM14IB05526CPY",
        "url": "https://www.163.com/dy/article/J2PM14IB05526CPY.html"
    },
    {
        "title": "【黑马早报】许家印豪宅接近半价售出；余承东：新车型对标远超迈巴赫；AI大模型打响“价格战”；《歌手》15秒广告位报价9000万...",
        "docid": "J2PFHPEO05118I96",
        "url": "https://www.163.com/dy/article/J2PFHPEO05118I96.html"
    },
    {
        "title": "硚口区城市更新沙龙圆满举行，“硚帮住”供应链上线",
        "docid": "J2PLCGHB0553DJOL",
        "url": "https://www.163.com/dy/article/J2PLCGHB0553DJOL.html"
    },
    {
        "title": "李嘉诚7折卖房，他嗅到了什么？",
        "docid": "VD1RK0VP9",
        "url": "https://www.163.com/dy/article/VD1RK0VP9.html"
    },
    {
        "title": "当初就是为了这两个露台，才果断相中这套房，如今苦不堪言！",
        "docid": "VS1RK40J9",
        "url": "https://www.163.com/dy/article/VS1RK40J9.html"
    },
    {
        "title": "着急用钱，如何提取住房公积金？",
        "docid": "J2PM1GL40525J4HI",
        "url": "https://www.163.com/dy/article/J2PM1GL40525J4HI.html"
    },
    {
        "title": "武汉市的一套大面积工业用房第二次拍卖，被人以370万元竞得了！",
        "docid": "J1OCKNV505566YRJ",
        "url": "https://www.163.com/dy/article/J1OCKNV505566YRJ.html"
    },
    {
        "title": "42万排名家庭选完大鹏公租房，背后的原因令人深思",
        "docid": "J2PN1NMB05526CPY",
        "url": "https://www.163.com/dy/article/J2PN1NMB05526CPY.html"
    },
    {
        "title": "如何挑选一个旺宅风水宝地？",
        "docid": "J2PGSB9J05566SC9",
        "url": "https://www.163.com/dy/article/J2PGSB9J05566SC9.html"
    },
    {
        "title": "中国房地产的真实需求→→",
        "docid": "J2PES8SV0539BX8Z",
        "url": "https://www.163.com/dy/article/J2PES8SV0539BX8Z.html"
    },
    {
        "title": "郑州、合肥等多城首套房首付比例降至15%，专家：市场见底企稳已经可以预期",
        "docid": "J2PIE1Q00514R9P4",
        "url": "https://www.163.com/dy/article/J2PIE1Q00514R9P4.html"
    },
    {
        "title": "房价要起飞的最强地级市",
        "docid": "J2PNM37D0553TEV3",
        "url": "https://www.163.com/dy/article/J2PNM37D0553TEV3.html"
    },
    {
        "title": "爱尔兰科克，名校名企聚集地！房价亲民！",
        "docid": "J2PK52BE05562NI7",
        "url": "https://www.163.com/dy/article/J2PK52BE05562NI7.html"
    },
    {
        "title": "许家印香港别墅以约4.7亿港元售出，降价幅度高达4.1亿港元，减值近一半",
        "docid": "VB1PB4DM6",
        "url": "https://www.163.com/dy/article/VB1PB4DM6.html"
    },
    {
        "title": "你买不起房是小事，中国还有更大的目标？",
        "docid": "VW1ELIN91",
        "url": "https://www.163.com/dy/article/VW1ELIN91.html"
    },
    {
        "title": "中国银河证券：头部房企展现优秀的运营管理能力具有资金优势，市占率有望进一步抬升",
        "docid": "J2PHJ6H40512B07B",
        "url": "https://www.163.com/dy/article/J2PHJ6H40512B07B.html"
    },
    {
        "title": "靠自己去破茧成蝶，从企划专员到一名优秀的房产经纪人",
        "docid": "J2CL539N05563EX9",
        "url": "https://www.163.com/dy/article/J2CL539N05563EX9.html"
    },
    {
        "title": "4、14、18、24层不能买？内行人坦言：这3层才是人们需避开的楼层",
        "docid": "J2OBRNVT0535BC2F",
        "url": "https://www.163.com/dy/article/J2OBRNVT0535BC2F.html"
    },
    {
        "title": "自然资源部公开征求《土地储备管理办法》（征求意见稿）意见",
        "docid": "J2PJ66GN0553TDTY",
        "url": "https://www.163.com/dy/article/J2PJ66GN0553TDTY.html"
    },
    {
        "title": "2024年5月20日房产早参 #楼市资讯 #房产早参",
        "docid": "J2J41CGS0512B07B",
        "url": "https://www.163.com/dy/article/J2J41CGS0512B07B.html"
    },
    {
        "title": "领涨两市！房地产板块盘中异动拉升",
        "docid": "J2PNK16U0512B07B",
        "url": "https://www.163.com/dy/article/J2PNK16U0512B07B.html"
    },
    {
        "title": "我市6区新建商品房转移登记实现掌上办",
        "docid": "VD1RPTSS7",
        "url": "https://www.163.com/dy/article/VD1RPTSS7.html"
    },
    {
        "title": "房价会不会报复性上涨 业内人士：2024年的重心在于“去库存”",
        "docid": "VZ1PC6N13",
        "url": "https://www.163.com/dy/article/VZ1PC6N13.html"
    },
    {
        "title": "买房的沉痛打击！房奴不是你能当的！套路太深！谁为买房买单！",
        "docid": "VP1RRRAPM",
        "url": "https://www.163.com/dy/article/VP1RRRAPM.html"
    },
    {
        "title": "不让卖地是因为造出来的房子没人要",
        "docid": "VF1QBUIPR",
        "url": "https://www.163.com/dy/article/VF1QBUIPR.html"
    },
    {
        "title": "悬着的心终于死了，澳洲188系列正式落幕",
        "docid": "J2PP2AKP0553TDXU",
        "url": "https://www.163.com/dy/article/J2PP2AKP0553TDXU.html"
    },
    {
        "title": "未来10年，房子越靠近这3处位置越值钱，懂行人：是真黄金位置",
        "docid": "J2BMH3AT0535BC2F",
        "url": "https://www.163.com/dy/article/J2BMH3AT0535BC2F.html"
    },
    {
        "title": "黑石以7.05亿美元出售美国凤凰城地标酒店",
        "docid": "J2POQHMV0519D45U",
        "url": "https://www.163.com/dy/article/J2POQHMV0519D45U.html"
    },
    {
        "title": "碧桂园清盘呈请聆讯延期至6月11日",
        "docid": "J2O1JGP70519860S",
        "url": "https://www.163.com/dy/article/J2O1JGP70519860S.html"
    },
    {
        "title": "一勺言｜历史的伏笔正在水落石出",
        "docid": "J2PP2O4F05159QMG",
        "url": "https://www.163.com/dy/article/J2PP2O4F05159QMG.html"
    },
    {
        "title": "普通刚需买房。找对好楼盘，好的房源，好的价格。量力而行",
        "docid": "VR1ERU79M",
        "url": "https://www.163.com/dy/article/VR1ERU79M.html"
    },
    {
        "title": "中国08年以后三次房地产救市背景对比",
        "docid": "VY1RNGK2T",
        "url": "https://www.163.com/dy/article/VY1RNGK2T.html"
    },
    {
        "title": "40年最强楼市调控落地，一二线刚需可以放心下手了",
        "docid": "VW1RVFGH0",
        "url": "https://www.163.com/dy/article/VW1RVFGH0.html"
    },
    {
        "title": "楼市躁动，买房的好时机？",
        "docid": "VX1ROLCUU",
        "url": "https://www.163.com/dy/article/VX1ROLCUU.html"
    },
    {
        "title": "小区业主都后悔了，如果阳台可以重装，一定不会选择用玻璃封",
        "docid": "VI1RJJ9I3",
        "url": "https://www.163.com/dy/article/VI1RJJ9I3.html"
    },
    {
        "title": "外媒：日本房屋空置率创新高",
        "docid": "J2PQI2EN0519C6T9",
        "url": "https://www.163.com/dy/article/J2PQI2EN0519C6T9.html"
    },
    {
        "title": "李嘉诚预言或要成真？我国41.5%的城镇家庭，可能将面对这3大难题",
        "docid": "J2PJQ72V0540A6F8",
        "url": "https://www.163.com/dy/article/J2PJQ72V0540A6F8.html"
    },
    {
        "title": "为什么很多人从高层搬回低层？过来人的感受：高层有5大“硬伤”",
        "docid": "J2ON1VL40535BC2F",
        "url": "https://www.163.com/dy/article/J2ON1VL40535BC2F.html"
    },
    {
        "title": "八卦｜不住车库，住凶宅了？！张大龙自爆父母喜提“二手房”：房东他爸过世了！",
        "docid": "J2PRHASV0552F71X",
        "url": "https://www.163.com/dy/article/J2PRHASV0552F71X.html"
    },
    {
        "title": "房地产板块再走强 专家：能否走成主线还有待观察|谈股论金",
        "docid": "J2POB8ED0534JESX",
        "url": "https://www.163.com/dy/article/J2POB8ED0534JESX.html"
    },
    {
        "title": "房地产新政催化不断！银行板块或将充分受益",
        "docid": "J2PK0OOI0512B07B",
        "url": "https://www.163.com/dy/article/J2PK0OOI0512B07B.html"
    },
    {
        "title": "2024房地产上市公司综合实力50强揭晓",
        "docid": "J2PRI3OQ0515AN84",
        "url": "https://www.163.com/dy/article/J2PRI3OQ0515AN84.html"
    },
    {
        "title": "存量住房公积金个人住房贷款利率下调，建材ETF易方达(159787)早盘收涨1.73%",
        "docid": "J2PRF7OP0534A4SC",
        "url": "https://www.163.com/dy/article/J2PRF7OP0534A4SC.html"
    },
    {
        "title": "厉害了，这波楼市怎么走，有人算出数据了",
        "docid": "J2PRQJ880553QMR9",
        "url": "https://www.163.com/dy/article/J2PRQJ880553QMR9.html"
    },
    {
        "title": "政策频出，楼市再次被点燃了吗？",
        "docid": "J2PIJL560536UOB3",
        "url": "https://www.163.com/dy/article/J2PIJL560536UOB3.html"
    },
    {
        "title": "“核弹级”利好！楼市满血复活？",
        "docid": "J2PMBPVK0552GHFT",
        "url": "https://www.163.com/dy/article/J2PMBPVK0552GHFT.html"
    },
    {
        "title": "我敢说你现在可以下手买房了",
        "docid": "J2POVKN0055616ZT",
        "url": "https://www.163.com/dy/article/J2POVKN0055616ZT.html"
    },
    {
        "title": "四大省会城市降首付、利率在行动",
        "docid": "J2PKLGQM0550ASNM",
        "url": "https://www.163.com/dy/article/J2PKLGQM0550ASNM.html"
    },
    {
        "title": "国家统计局：2024年1-4月数据",
        "docid": "J2JIU7JN05566SC9",
        "url": "https://www.163.com/dy/article/J2JIU7JN05566SC9.html"
    },
    {
        "title": "政策“组合拳”提振地产行业信心，房地产ETF(159768)早盘一度涨超4%，价格创今年新高",
        "docid": "J2PSJEE1051987V2",
        "url": "https://www.163.com/dy/article/J2PSJEE1051987V2.html"
    },
    {
        "title": "今年不买房，5年后房子“黄金价”还是“大葱价”？马光远说透了",
        "docid": "J2BOB38L0535BC2F",
        "url": "https://www.163.com/dy/article/J2BOB38L0535BC2F.html"
    },
    {
        "title": "地产政策暖风频吹，房地产走成主线了吗？",
        "docid": "J2PQJRML0534A4SC",
        "url": "https://www.163.com/dy/article/J2PQJRML0534A4SC.html"
    },
    {
        "title": "九溪湖建面约138-188㎡典藏合院",
        "docid": "VV1RVVT2D",
        "url": "https://www.163.com/dy/article/VV1RVVT2D.html"
    },
    {
        "title": "怪不得大家都不买房了！看完后都哭了，太真实了，多场大戏正上演",
        "docid": "VY1ETHEEA",
        "url": "https://www.163.com/dy/article/VY1ETHEEA.html"
    },
    {
        "title": "买房跟着大众思维走，很容易踩坑！",
        "docid": "VB1RPPNUI",
        "url": "https://www.163.com/dy/article/VB1RPPNUI.html"
    },
    {
        "title": "楼市接力赛！首套房利率低至3.25%，武汉抢跑了，不等房价下跌！",
        "docid": "J2PRL80905562DLL",
        "url": "https://www.163.com/dy/article/J2PRL80905562DLL.html"
    },
    {
        "title": "从50个长租公寓大宗交易案例，看未来行业发展的五大趋势",
        "docid": "J2PP12TM05530RXA",
        "url": "https://www.163.com/dy/article/J2PP12TM05530RXA.html"
    },
    {
        "title": "谷歌华人杀妻案凶宅挂牌上市！多图曝光！别说，这房子还真不错",
        "docid": "J2PUESSE0552N0VG",
        "url": "https://www.163.com/dy/article/J2PUESSE0552N0VG.html"
    },
    {
        "title": "越来越多城市开始不卖地了",
        "docid": "J2PL7UJN0515I4G5",
        "url": "https://www.163.com/dy/article/J2PL7UJN0515I4G5.html"
    },
    {
        "title": "中国的房价不能永远涨上去，美国的股票就能永远涨上去，可能吗？",
        "docid": "J2PPNF5V0553TDVP",
        "url": "https://www.163.com/dy/article/J2PPNF5V0553TDVP.html"
    },
    {
        "title": "陈准：人们对住房需求有四个阶段，现在大多数人还在前两阶段",
        "docid": "VU1RH1TBM",
        "url": "https://www.163.com/dy/article/VU1RH1TBM.html"
    },
    {
        "title": "房子买完以后这两件事一定要尽快做",
        "docid": "VG1S1133D",
        "url": "https://www.163.com/dy/article/VG1S1133D.html"
    },
    {
        "title": "楼市：为什么只有房价涨才能去库存？打败你的从来都不是房价！",
        "docid": "VY1S2FVPV",
        "url": "https://www.163.com/dy/article/VY1S2FVPV.html"
    },
    {
        "title": "楼市风向变？启动政府购房试点，购房者迎来新机遇？",
        "docid": "VF1RJGTQJ",
        "url": "https://www.163.com/dy/article/VF1RJGTQJ.html"
    },
    {
        "title": "房价下跌，武汉盘龙城180万的房子80万出手了，全家积蓄变一场空",
        "docid": "VY1S09DC3",
        "url": "https://www.163.com/dy/article/VY1S09DC3.html"
    },
    {
        "title": "四种颜色的房产证分别都有什么用，终于有人说清楚了，收藏看看",
        "docid": "J2Q15LPC0553TB9L",
        "url": "https://www.163.com/dy/article/J2Q15LPC0553TB9L.html"
    },
    {
        "title": "你以为是在救楼市，实际上他们是在救房贷",
        "docid": "J2PV652905567IYR",
        "url": "https://www.163.com/dy/article/J2PV652905567IYR.html"
    },
    {
        "title": "如何才能选到保值增值的好房子？",
        "docid": "J2PVHCK405567IYR",
        "url": "https://www.163.com/dy/article/J2PVHCK405567IYR.html"
    },
    {
        "title": "真正的转折点到了？能不能上车抄底？",
        "docid": "J2PV9QA705567IYR",
        "url": "https://www.163.com/dy/article/J2PV9QA705567IYR.html"
    },
    {
        "title": "好兄弟想常聚的，不如住一起更加增进感情，这款双拼就不错",
        "docid": "J2PVR6HK0553TEV3",
        "url": "https://www.163.com/dy/article/J2PVR6HK0553TEV3.html"
    },
    {
        "title": "中国城市创新动能强劲：京沪荣登全球前十创新城市",
        "docid": "J2Q1TERS05159OAM",
        "url": "https://www.163.com/dy/article/J2Q1TERS05159OAM.html"
    },
    {
        "title": "无论涨跌，这样的房子都可以买！",
        "docid": "J2PQ0R820515WE4J",
        "url": "https://www.163.com/dy/article/J2PQ0R820515WE4J.html"
    },
    {
        "title": "房子已经严重过剩,为什么开发商还在不断盖楼,主要有4个原因",
        "docid": "J2CUHT8M0535PKJN",
        "url": "https://www.163.com/dy/article/J2CUHT8M0535PKJN.html"
    },
    {
        "title": "房地产政策，哪有那么快起效？",
        "docid": "VC1RNQRPU",
        "url": "https://www.163.com/dy/article/VC1RNQRPU.html"
    },
    {
        "title": "这些年没买房是亏了还是赚了",
        "docid": "VE1F03QJK",
        "url": "https://www.163.com/dy/article/VE1F03QJK.html"
    },
    {
        "title": "中国装配式模块化建筑（PPVC）行业规模评估及现状分析分析2024",
        "docid": "J2POID6I05567X4Q",
        "url": "https://www.163.com/dy/article/J2POID6I05567X4Q.html"
    },
    {
        "title": "自家宅基地的老房能翻建、翻新吗？需要满足几点要求",
        "docid": "J2CTK3BT05561IXQ",
        "url": "https://www.163.com/dy/article/J2CTK3BT05561IXQ.html"
    },
    {
        "title": "寸土寸金的东京，穷人和富人住房差距有多大，东京住哪比较幸福？",
        "docid": "J2PTVCK00533RNN0",
        "url": "https://www.163.com/dy/article/J2PTVCK00533RNN0.html"
    },
    {
        "title": "“租住时还好，一到退租麻烦就来了！”退租定损到底谁说了算",
        "docid": "J2PN7041053469LG",
        "url": "https://www.163.com/dy/article/J2PN7041053469LG.html"
    },
    {
        "title": "央行新政落地！国内多地下调首付比例和房贷利率，你的城市动了吗",
        "docid": "J2PRJGIN0535HK01",
        "url": "https://www.163.com/dy/article/J2PRJGIN0535HK01.html"
    },
    {
        "title": "再便宜也不买！这6种房不好住也卖不掉，内行人：妥妥“穷人房”",
        "docid": "J2D1AB6A0553TDVP",
        "url": "https://www.163.com/dy/article/J2D1AB6A0553TDVP.html"
    },
    {
        "title": "真正重要的变化，才刚刚开始，很难熬，但我们必须面对",
        "docid": "J2PP80K4051996QS",
        "url": "https://www.163.com/dy/article/J2PP80K4051996QS.html"
    },
    {
        "title": "以后不再发 说房视频了.  楼盘 公平分享 不褒不贬.不带货.不打PK.    什么叫唱衰啊！ 还得",
        "docid": "VW1S8TKSI",
        "url": "https://www.163.com/dy/article/VW1S8TKSI.html"
    },
    {
        "title": "买房首付降到15%，取消房贷利率下限，救市态度很明确",
        "docid": "VQ1S1P3QR",
        "url": "https://www.163.com/dy/article/VQ1S1P3QR.html"
    },
    {
        "title": "五年之后， 一套100万的房子值多少钱？听听内行人怎么说",
        "docid": "VX1EHGOMQ",
        "url": "https://www.163.com/dy/article/VX1EHGOMQ.html"
    },
    {
        "title": "格力地产智慧建筑：BIM技术引领革新 匠心理念打磨细节",
        "docid": "J2Q2845O0556813E",
        "url": "https://www.163.com/dy/article/J2Q2845O0556813E.html"
    },
    {
        "title": "普通人要做好准备，6月开始，不出意外的话，社会将出现5个趋势",
        "docid": "J2PNKGHL05536P04",
        "url": "https://www.163.com/dy/article/J2PNKGHL05536P04.html"
    },
    {
        "title": "远洋建管新拓面积百万平米，代建成房企发展新方向",
        "docid": "J2Q41AOP0553YQBK",
        "url": "https://www.163.com/dy/article/J2Q41AOP0553YQBK.html"
    },
    {
        "title": "看了一圈，还是没人看到这轮新政的重点！",
        "docid": "J2PV1VF70515UN97",
        "url": "https://www.163.com/dy/article/J2PV1VF70515UN97.html"
    },
    {
        "title": "刷新主城豪宅天花板，它是如何做到的？",
        "docid": "J2POC1BV0515CLTI",
        "url": "https://www.163.com/dy/article/J2POC1BV0515CLTI.html"
    },
    {
        "title": "网传一房子3年调价16次仍然卖不掉，专业人士评价：只因没做到遥遥领先",
        "docid": "J2PV664O0553A9YO",
        "url": "https://www.163.com/dy/article/J2PV664O0553A9YO.html"
    },
    {
        "title": "突发！武汉楼市政策调整！",
        "docid": "J2Q6HQT90514BINQ",
        "url": "https://www.163.com/dy/article/J2Q6HQT90514BINQ.html"
    },
    {
        "title": "房子已经严重过剩,为什么开发商还在不断盖楼,主要有4个原因",
        "docid": "VM1F798H2",
        "url": "https://www.163.com/dy/article/VM1F798H2.html"
    },
    {
        "title": "#抖音平台要升级#中视频参与者更加热情",
        "docid": "VG1RVHAV8",
        "url": "https://www.163.com/dy/article/VG1RVHAV8.html"
    },
    {
        "title": "大招一波接一波，“517新政”引爆楼市，一线城市房价集体回暖",
        "docid": "VP1RKO3IG",
        "url": "https://www.163.com/dy/article/VP1RKO3IG.html"
    },
    {
        "title": "首付砍半，那下一步房价是不是会砍半？",
        "docid": "J2Q2IHOJ0516ARPR",
        "url": "https://www.163.com/dy/article/J2Q2IHOJ0516ARPR.html"
    },
    {
        "title": "为何高层宁愿降购房首付，也唯独不用降价这一招呢？看完不要转发",
        "docid": "IUS5TQRV05359WBS",
        "url": "https://www.163.com/dy/article/IUS5TQRV05359WBS.html"
    },
    {
        "title": "房地产大变局：面临2大救市难题，或将决定经济转型成败",
        "docid": "J2BH0KNA0535PKJN",
        "url": "https://www.163.com/dy/article/J2BH0KNA0535PKJN.html"
    },
    {
        "title": "武汉房贷新政深度解析：首付降至15%，银行端显著发力",
        "docid": "J2PI02540539SRZ6",
        "url": "https://www.163.com/dy/article/J2PI02540539SRZ6.html"
    },
    {
        "title": "当初就是为了这两个露台，才果断相中这套房，如今苦不堪言！",
        "docid": "VC1RKST3P",
        "url": "https://www.163.com/dy/article/VC1RKST3P.html"
    },
    {
        "title": "高盛预测中国房价还要下跌40%，是精准预测还是故意唱衰",
        "docid": "VW1RQ0768",
        "url": "https://www.163.com/dy/article/VW1RQ0768.html"
    },
    {
        "title": "楼市大招频出，5个数据表明楼市已经变天了！",
        "docid": "VG1RN6BPM",
        "url": "https://www.163.com/dy/article/VG1RN6BPM.html"
    },
    {
        "title": "这样的楼层，也太垃圾了吧！很多人明知太差，迫于某些无奈还得选",
        "docid": "VB1QFMFE6",
        "url": "https://www.163.com/dy/article/VB1QFMFE6.html"
    },
    {
        "title": "房价下跌，一位买了20套房子的大哥说了几句话，让人瞬间通透了",
        "docid": "VY1RVD968",
        "url": "https://www.163.com/dy/article/VY1RVD968.html"
    },
    {
        "title": "千万豪宅竟被改装成10间群租房？二房东遭邻居举报被罚了",
        "docid": "VT1NKTT9P",
        "url": "https://www.163.com/dy/article/VT1NKTT9P.html"
    },
    {
        "title": "谢逸枫：颤抖吧！4月全国土地收入雪崩式下滑",
        "docid": "J2PME1UJ0515ALUG",
        "url": "https://www.163.com/dy/article/J2PME1UJ0515ALUG.html"
    },
    {
        "title": "房地产板块大涨！基金经理策略分化：丘栋荣精准布局，董理提前减仓",
        "docid": "J2Q897J70530QRMB",
        "url": "https://www.163.com/dy/article/J2Q897J70530QRMB.html"
    },
    {
        "title": "“串串房”又被称为“白血病套餐房”，大家千万不要去租住啊！",
        "docid": "J2Q475GP054057BR",
        "url": "https://www.163.com/dy/article/J2Q475GP054057BR.html"
    },
    {
        "title": "继蚂蚁集团杭州退地后，小米上海“退地”，拿地2年时间内未对地块进行开发",
        "docid": "J2Q7OJRI0512B07B",
        "url": "https://www.163.com/dy/article/J2Q7OJRI0512B07B.html"
    },
    {
        "title": "如果你对中国经济抱有信心就买房吧！",
        "docid": "J2PVJ31805567IYR",
        "url": "https://www.163.com/dy/article/J2PVJ31805567IYR.html"
    },
    {
        "title": "又一种见证奇迹的救市创新药，上架了",
        "docid": "J2PV7UBT05567IYR",
        "url": "https://www.163.com/dy/article/J2PV7UBT05567IYR.html"
    },
    {
        "title": "央行取消全国首套房、二套房贷款利率下限，会带来怎样的影响。",
        "docid": "J2J324RQ0552A0VF",
        "url": "https://www.163.com/dy/article/J2J324RQ0552A0VF.html"
    },
    {
        "title": "一图看懂：新一轮房地产政策组合拳",
        "docid": "J2Q70R4A0514CQIE",
        "url": "https://www.163.com/dy/article/J2Q70R4A0514CQIE.html"
    },
    {
        "title": "上面下场买房，其背后会造成什么影响？",
        "docid": "VQ1S21K7R",
        "url": "https://www.163.com/dy/article/VQ1S21K7R.html"
    },
    {
        "title": "稳房地产国家出手三个王炸，到底上不上车？",
        "docid": "VI1S2HM32",
        "url": "https://www.163.com/dy/article/VI1S2HM32.html"
    },
    {
        "title": "不是谁都可以征收房屋的，征收主体很重要",
        "docid": "J29236150532Q69P",
        "url": "https://www.163.com/dy/article/J29236150532Q69P.html"
    },
    {
        "title": "一夜之间，楼市又开始沸腾了",
        "docid": "J2Q4STGR055648NS",
        "url": "https://www.163.com/dy/article/J2Q4STGR055648NS.html"
    },
    {
        "title": "现房再交易包含哪类房屋？还未网签的新购住房能领补贴吗？这些热点问题解答来了",
        "docid": "J2QA3KF3053469M5",
        "url": "https://www.163.com/dy/article/J2QA3KF3053469M5.html"
    },
    {
        "title": "掌楼热评 | 楼市进入重大历史时刻！新政利好应出尽出！",
        "docid": "J2KE2PR405529GIK",
        "url": "https://www.163.com/dy/article/J2KE2PR405529GIK.html"
    },
    {
        "title": "做行业的“白手套”！地产业新周期，保利华南以责任质敬美好",
        "docid": "J2Q4IK3L05129QAF",
        "url": "https://www.163.com/dy/article/J2Q4IK3L05129QAF.html"
    },
    {
        "title": "央行新政落地！国内多地下调首付比例和房贷利率，你的城市动了吗",
        "docid": "VJ1S2BFKI",
        "url": "https://www.163.com/dy/article/VJ1S2BFKI.html"
    },
    {
        "title": "注意啦，或许与你有关？房地产新政策出台，“加减”同行",
        "docid": "VN1SGDRO3",
        "url": "https://www.163.com/dy/article/VN1SGDRO3.html"
    },
    {
        "title": "楼市去库存，汪汪队亲自下场。还没买房的朋友应该怎么办？注意",
        "docid": "VS1RVGBOG",
        "url": "https://www.163.com/dy/article/VS1RVGBOG.html"
    },
    {
        "title": "心态崩了！炒房客，全军覆没！遭遇楼市房贷利率双杀",
        "docid": "VN1RRAOQ7",
        "url": "https://www.163.com/dy/article/VN1RRAOQ7.html"
    },
    {
        "title": "房价下跌，560万的房子含泪350万卖掉，底层人无法抗拒时代的发展",
        "docid": "VY1SBLSB3",
        "url": "https://www.163.com/dy/article/VY1SBLSB3.html"
    },
    {
        "title": "高品质社交圈，谁才是会所天花板",
        "docid": "J2QBKVPG05567SKQ",
        "url": "https://www.163.com/dy/article/J2QBKVPG05567SKQ.html"
    },
    {
        "title": "三十华章 | JLL携手瑞安同心助力中国城市发展",
        "docid": "J2Q181KC05159OAM",
        "url": "https://www.163.com/dy/article/J2Q181KC05159OAM.html"
    },
    {
        "title": "这6个城市房价上涨！上海第一！",
        "docid": "J2KI75E705352LE9",
        "url": "https://www.163.com/dy/article/J2KI75E705352LE9.html"
    },
    {
        "title": "滨江集团：栖江揽月轩预计今年12月底前交付",
        "docid": "J2QBS9UO0512B07B",
        "url": "https://www.163.com/dy/article/J2QBS9UO0512B07B.html"
    },
    {
        "title": "如果下决心稳房地产市场，你要相信政府有足够的筹码",
        "docid": "VG1SD6O57",
        "url": "https://www.163.com/dy/article/VG1SD6O57.html"
    },
    {
        "title": "许家印“腰斩割肉”，香港豪宅近5折出售，较1年前削价近半！",
        "docid": "VZ1S6MM0H",
        "url": "https://www.163.com/dy/article/VZ1S6MM0H.html"
    },
    {
        "title": "日本房价飞涨，物管费也在飙升，路人:每月各种费用要5700块",
        "docid": "VY1SF90PA",
        "url": "https://www.163.com/dy/article/VY1SF90PA.html"
    },
    {
        "title": "老百姓最关心的问题来了",
        "docid": "VE1RSF87R",
        "url": "https://www.163.com/dy/article/VE1RSF87R.html"
    },
    {
        "title": "房子没有十全十美，适合自己就是最好的！ ",
        "docid": "VC1EM50I6",
        "url": "https://www.163.com/dy/article/VC1EM50I6.html"
    },
    {
        "title": "新一轮大拆迁“全面启动”？这2类人最为受益，恭喜了！",
        "docid": "VB1S1DRVD",
        "url": "https://www.163.com/dy/article/VB1S1DRVD.html"
    },
    {
        "title": "城西超配绿奢科技大宅，中绿园领秀金沙五批次已取证",
        "docid": "J2Q8GCE50514D3UH",
        "url": "https://www.163.com/dy/article/J2Q8GCE50514D3UH.html"
    },
    {
        "title": "“问必答”精选丨房东出租“串串房”是否构成违法？",
        "docid": "J2Q8SVNR05199NPP",
        "url": "https://www.163.com/dy/article/J2Q8SVNR05199NPP.html"
    },
    {
        "title": "一位刚需的执拗：卖掉80平唯一住房，手持100万，准备2020年再买",
        "docid": "J2DDFCGH0540SN7V",
        "url": "https://www.163.com/dy/article/J2DDFCGH0540SN7V.html"
    },
    {
        "title": "国联证券家电专题研究：地产政策积极 后周期板块有望迎来拐点",
        "docid": "J2Q7N34005198UNI",
        "url": "https://www.163.com/dy/article/J2Q7N34005198UNI.html"
    },
    {
        "title": "地产的【绝招】，神之一手！",
        "docid": "J2D8SL5G05391F7O",
        "url": "https://www.163.com/dy/article/J2D8SL5G05391F7O.html"
    },
    {
        "title": "17年某楼盘被曝229名“关系户”竟有是172人是公务员，后来怎样了",
        "docid": "J1O2M74U05564TUU",
        "url": "https://www.163.com/dy/article/J1O2M74U05564TUU.html"
    },
    {
        "title": "汉南首个中高端商业体地块成功拍出！竟然被这家公司拍得~",
        "docid": "J2QE5TL30552TI8F",
        "url": "https://www.163.com/dy/article/J2QE5TL30552TI8F.html"
    },
    {
        "title": "关于房价的涨跌这个问题，有谁能说的深入浅出啊",
        "docid": "VJ1QJTO8F",
        "url": "https://www.163.com/dy/article/VJ1QJTO8F.html"
    },
    {
        "title": "物业以商家不属于合作伙伴为由，禁止进入小区给住户施工安装",
        "docid": "VU1SH23JE",
        "url": "https://www.163.com/dy/article/VU1SH23JE.html"
    },
    {
        "title": "《财经马管盛》楼市史诗级动作透视上",
        "docid": "VK1SGR224",
        "url": "https://www.163.com/dy/article/VK1SGR224.html"
    },
    {
        "title": "贪便宜买顶楼带露台房子，入住之后，被邻居喊话：愿意多花10万，快搬出去......",
        "docid": "J2PVBPVU0515AJG5",
        "url": "https://www.163.com/dy/article/J2PVBPVU0515AJG5.html"
    },
    {
        "title": "买房时，为何售楼小姐都热衷于推荐7、8楼？内行人终于说出了原因",
        "docid": "J2QDD2DD0520BENO",
        "url": "https://www.163.com/dy/article/J2QDD2DD0520BENO.html"
    },
    {
        "title": "“政策包”落地 楼市现“忽悠式”促销、多楼盘降价遭投诉...丨地产市相",
        "docid": "J2Q9JJCU0519860S",
        "url": "https://www.163.com/dy/article/J2Q9JJCU0519860S.html"
    },
    {
        "title": "房贷逾期了该怎么办？专业人士：不能破罐子破摔，否则竹篮打水",
        "docid": "J2PR0LJO0552257Z",
        "url": "https://www.163.com/dy/article/J2PR0LJO0552257Z.html"
    },
    {
        "title": "央行：拟设立保障性住房再贷款，规模3000亿元，可展期4次",
        "docid": "J2MU2CDI0553TEQM",
        "url": "https://www.163.com/dy/article/J2MU2CDI0553TEQM.html"
    },
    {
        "title": "揭秘楼层陷阱：富人为何拒买？入住实录揭真相！",
        "docid": "J2QCERIE05258H6P",
        "url": "https://www.163.com/dy/article/J2QCERIE05258H6P.html"
    },
    {
        "title": "欧派家居(603833.SH)：存量在住旧房的改造需求量日益庞大",
        "docid": "J2QAQ6LH05198ETO",
        "url": "https://www.163.com/dy/article/J2QAQ6LH05198ETO.html"
    },
    {
        "title": "一线城市的行情来了，留此视频为证！",
        "docid": "VU1SH7J0L",
        "url": "https://www.163.com/dy/article/VU1SH7J0L.html"
    },
    {
        "title": "楼市政策放开，房价会报复性上涨吗？",
        "docid": "VA1RPGLFT",
        "url": "https://www.163.com/dy/article/VA1RPGLFT.html"
    },
    {
        "title": "聪明人买房就这一招一套顶别人三套",
        "docid": "VQ1Q09PUR",
        "url": "https://www.163.com/dy/article/VQ1Q09PUR.html"
    },
    {
        "title": "“星八客”正佳朗强势反弹！4月河西南二手房成交数据出炉！",
        "docid": "J2QGAOJ60515WLA7",
        "url": "https://www.163.com/dy/article/J2QGAOJ60515WLA7.html"
    },
    {
        "title": "远洋商业签约武汉铁投一宗商业项目管理合同",
        "docid": "J2QHGDQP0519D45U",
        "url": "https://www.163.com/dy/article/J2QHGDQP0519D45U.html"
    },
    {
        "title": "华润置地、金茂...曝出了多个炸裂讯号！",
        "docid": "J2Q0TAA60553PD9U",
        "url": "https://www.163.com/dy/article/J2Q0TAA60553PD9U.html"
    },
    {
        "title": "业内人建议：非必要不卖房！3个原因很现实",
        "docid": "J2QE5MEC05563G28",
        "url": "https://www.163.com/dy/article/J2QE5MEC05563G28.html"
    },
    {
        "title": "瞄准细分赛道，物管总裁下海记",
        "docid": "J2QG3Q6L0552NVEU",
        "url": "https://www.163.com/dy/article/J2QG3Q6L0552NVEU.html"
    },
    {
        "title": "公权力把首付比降至15%，这应该让市场自己去调节",
        "docid": "VV1Q40IVV",
        "url": "https://www.163.com/dy/article/VV1Q40IVV.html"
    },
    {
        "title": "2024年第一季度房地产开发企业信用状况报告发布",
        "docid": "VU1Q18URJ",
        "url": "https://www.163.com/dy/article/VU1Q18URJ.html"
    },
    {
        "title": "美国人太坏，唱衰中国楼市出新招",
        "docid": "VP1SCI9MJ",
        "url": "https://www.163.com/dy/article/VP1SCI9MJ.html"
    },
    {
        "title": "关注我了解更多房产知识",
        "docid": "VE1CD3C1P",
        "url": "https://www.163.com/dy/article/VE1CD3C1P.html"
    },
    {
        "title": "房子卖不出去，上面心里没点数吗？",
        "docid": "VR1RQAQOS",
        "url": "https://www.163.com/dy/article/VR1RQAQOS.html"
    },
    {
        "title": "【澳洲卖房攻略】超级干货来了！详解澳洲卖房流程",
        "docid": "J2DGCFO1053661TJ",
        "url": "https://www.163.com/dy/article/J2DGCFO1053661TJ.html"
    },
    {
        "title": "关于举办物业承接查验与设施设备管理专业技术岗位培训班（武汉）的通知",
        "docid": "J2QI74Q2055615MY",
        "url": "https://www.163.com/dy/article/J2QI74Q2055615MY.html"
    },
    {
        "title": "远洋集团与武汉铁投签署商业运营管理服务合同",
        "docid": "J2QI7BKJ0512D3VJ",
        "url": "https://www.163.com/dy/article/J2QI7BKJ0512D3VJ.html"
    },
    {
        "title": "本周重大事件：多地上演“高校外迁潮”，近半数银行人均薪酬下降",
        "docid": "J2QHKECV05566YTZ",
        "url": "https://www.163.com/dy/article/J2QHKECV05566YTZ.html"
    },
    {
        "title": "517新政后沪蓉深汉多地新房活跃度提升，二手房迎点状复苏",
        "docid": "J2QF8V4Q0515ARL3",
        "url": "https://www.163.com/dy/article/J2QF8V4Q0515ARL3.html"
    },
    {
        "title": "2023年公积金缴存“体制内”占比榜单：哈尔滨70%排第二，第一出人意料",
        "docid": "J2Q5EE3H055342ZM",
        "url": "https://www.163.com/dy/article/J2Q5EE3H055342ZM.html"
    },
    {
        "title": "为什么有钱人都不愿意买二手房？一听内行人讲，我就后悔才察觉",
        "docid": "J2QDERH80540B07R",
        "url": "https://www.163.com/dy/article/J2QDERH80540B07R.html"
    },
    {
        "title": "史诗级大救市：国家下场收储，房地产能否破局？",
        "docid": "VS1SLP1VT",
        "url": "https://www.163.com/dy/article/VS1SLP1VT.html"
    },
    {
        "title": "朱国勇：国家队下场收房，普通人上车的时机到了没？ ",
        "docid": "VQ1SKSU7A",
        "url": "https://www.163.com/dy/article/VQ1SKSU7A.html"
    },
    {
        "title": "房地产经纪人证书是不是很难考",
        "docid": "VR1ER2OU8",
        "url": "https://www.163.com/dy/article/VR1ER2OU8.html"
    },
    {
        "title": "对话孙长毅：如何成为一名金牌置业顾问？丨12次的问",
        "docid": "J2QH353H05523LQD",
        "url": "https://www.163.com/dy/article/J2QH353H05523LQD.html"
    },
    {
        "title": "前三年月供本金只要1元！为买家减负，卓越拼了！",
        "docid": "J2QER58L0535MCVM",
        "url": "https://www.163.com/dy/article/J2QER58L0535MCVM.html"
    },
    {
        "title": "“收储去库存”+“金融杠杆”，又是一出好戏",
        "docid": "J2QL5HRO0556589C",
        "url": "https://www.163.com/dy/article/J2QL5HRO0556589C.html"
    },
    {
        "title": "下调公积金房贷利率后，100万房贷30年累积可节省月供4.8万元",
        "docid": "J2F7K85B0511CP73",
        "url": "https://www.163.com/dy/article/J2F7K85B0511CP73.html"
    },
    {
        "title": "5月起，多地公积金政策出新变化！带来哪些利好？有你的城市吗？",
        "docid": "VQ1SKU2E7",
        "url": "https://www.163.com/dy/article/VQ1SKU2E7.html"
    },
    {
        "title": "《财经马管盛》楼市史诗级动作透视下",
        "docid": "VK1SGR5I5",
        "url": "https://www.163.com/dy/article/VK1SGR5I5.html"
    },
    {
        "title": "房价不降反降首付利息，老客户无法开发，只能吸引00后新客户了",
        "docid": "VW1SJ5V7D",
        "url": "https://www.163.com/dy/article/VW1SJ5V7D.html"
    },
    {
        "title": "房价下跌，受损失最大的就是最底层的穷人，有钱人根本无影响！",
        "docid": "VS1ETM8JO",
        "url": "https://www.163.com/dy/article/VS1ETM8JO.html"
    },
    {
        "title": "在泰国花240元就能住独栋别墅，还有花园泳池，休息两天享受一下",
        "docid": "VW1GJHHBD",
        "url": "https://www.163.com/dy/article/VW1GJHHBD.html"
    },
    {
        "title": "武汉有银行开始执行：首套首付15%首套房贷利率由3.55%降至3.25%  快报",
        "docid": "VP1PKAJ8G",
        "url": "https://www.163.com/dy/article/VP1PKAJ8G.html"
    },
    {
        "title": "100万存款 吃利息好 还是买房收租金更好？",
        "docid": "J2QJ5VM605567IYR",
        "url": "https://www.163.com/dy/article/J2QJ5VM605567IYR.html"
    },
    {
        "title": "以旧换新、购房补贴先行 长三角楼市去库存多管齐下",
        "docid": "J2QJP55P05199NPP",
        "url": "https://www.163.com/dy/article/J2QJP55P05199NPP.html"
    },
    {
        "title": "又一家民企暴雷了，新一轮暴雷潮要来了？",
        "docid": "J2QDHTCK0552FI8M",
        "url": "https://www.163.com/dy/article/J2QDHTCK0552FI8M.html"
    },
    {
        "title": "中交地产：与地方国资平台积极对接 进一步加强去库存",
        "docid": "J2QJOQHT0519D45U",
        "url": "https://www.163.com/dy/article/J2QJOQHT0519D45U.html"
    },
    {
        "title": "雅居乐旗下各地项目借政策热度推出优惠促销活动",
        "docid": "J2QD2HA20519D45U",
        "url": "https://www.163.com/dy/article/J2QD2HA20519D45U.html"
    },
    {
        "title": "房价暴跌之后，一位买了30套房的资深炒房客说了三段话！太现实",
        "docid": "VM1SGRRH2",
        "url": "https://www.163.com/dy/article/VM1SGRRH2.html"
    },
    {
        "title": "400多万的房子被法拍了150万，还倒欠银行很多钱，真是万万没想到",
        "docid": "VY1RU9ED9",
        "url": "https://www.163.com/dy/article/VY1RU9ED9.html"
    },
    {
        "title": "好好的住宅小区，非要搞一搞公建化立面，确实好看，就只为了好看",
        "docid": "VB1J0544N",
        "url": "https://www.163.com/dy/article/VB1J0544N.html"
    },
    {
        "title": "新房交付半年惊现1800条裂纹 小区350多户业主吓慌了",
        "docid": "VT1NIH4OK",
        "url": "https://www.163.com/dy/article/VT1NIH4OK.html"
    },
    {
        "title": "许家印的麻烦事又来了！其终极末路，国家到底会怎么处罚呢？",
        "docid": "VB1SO81V5",
        "url": "https://www.163.com/dy/article/VB1SO81V5.html"
    },
    {
        "title": "房地产优化政策加速落地，地产股再度爆发",
        "docid": "J2QL3E0C0534A4SC",
        "url": "https://www.163.com/dy/article/J2QL3E0C0534A4SC.html"
    },
    {
        "title": "金朝阳集团(00878)将有条件地出售其于希云大厦物业的全部权益",
        "docid": "J2QLJICC05198UNI",
        "url": "https://www.163.com/dy/article/J2QLJICC05198UNI.html"
    },
    {
        "title": "派克斯深度研报|李嘉诚都逃离地产了，黄金是更好选择？",
        "docid": "J2QNQ01C0519IPBM",
        "url": "https://www.163.com/dy/article/J2QNQ01C0519IPBM.html"
    },
    {
        "title": "万达、华润、新城、龙湖、宝龙...12家企业租金收入与运营情况：越来越卷了",
        "docid": "J2QO9N1S05158BF0",
        "url": "https://www.163.com/dy/article/J2QO9N1S05158BF0.html"
    },
    {
        "title": "中房协会长冯俊：房企必须改变资本筹集和使用方式",
        "docid": "J2QO280E05199NPP",
        "url": "https://www.163.com/dy/article/J2QO280E05199NPP.html"
    },
    {
        "title": "售楼经理说漏嘴：这种阳台的房子万万不要买，好多人刚入手就后悔",
        "docid": "J2QF7D290540B07R",
        "url": "https://www.163.com/dy/article/J2QF7D290540B07R.html"
    },
    {
        "title": "房产证上不管写谁的名字已经不重要了，以下四条规定你要知道",
        "docid": "VF1SN3A0J",
        "url": "https://www.163.com/dy/article/VF1SN3A0J.html"
    },
    {
        "title": "房地产新政后首个周末，售楼处称忙不过来，今明2年调整末期！",
        "docid": "VV1SHL6I7",
        "url": "https://www.163.com/dy/article/VV1SHL6I7.html"
    },
    {
        "title": "有院子的二层农村自建别墅",
        "docid": "VC1SRTU1A",
        "url": "https://www.163.com/dy/article/VC1SRTU1A.html"
    },
    {
        "title": "15%首付利好？郑州二手房市场解析",
        "docid": "VW1SRNUBA",
        "url": "https://www.163.com/dy/article/VW1SRNUBA.html"
    },
    {
        "title": "多地落实房产新政，取消利率下限如何实施成普遍期待",
        "docid": "J2QQ0B29053469RG",
        "url": "https://www.163.com/dy/article/J2QQ0B29053469RG.html"
    },
    {
        "title": "房贷新政落地进行时：长三角首套房利率低至3.25%，购房者仍以刚需为主",
        "docid": "J2QO29K005199NPP",
        "url": "https://www.163.com/dy/article/J2QO29K005199NPP.html"
    },
    {
        "title": "如何消化存量房产，三种模式与经验",
        "docid": "J2L9H9PR05159A0N",
        "url": "https://www.163.com/dy/article/J2L9H9PR05159A0N.html"
    },
    {
        "title": "地产重磅利好，真核另有他选，核心资产受追捧！",
        "docid": "J2KHGV300539AESA",
        "url": "https://www.163.com/dy/article/J2KHGV300539AESA.html"
    },
    {
        "title": "多地下调首付比例、贷款利率 部分城市公积金贷款利率进入“1时代”",
        "docid": "J2QM7HAB05199NPP",
        "url": "https://www.163.com/dy/article/J2QM7HAB05199NPP.html"
    },
    {
        "title": "不得不承认，普通人买套小房子收租，远比其他投资靠谱的多！",
        "docid": "J2DQKRI205566SC9",
        "url": "https://www.163.com/dy/article/J2DQKRI205566SC9.html"
    },
    {
        "title": "老旧小区改造，越来越多人呼吁，希望原拆原建，好处有哪些？",
        "docid": "J2QOKMT00552ZPCC",
        "url": "https://www.163.com/dy/article/J2QOKMT00552ZPCC.html"
    },
    {
        "title": "房产楼市迎利好，建筑设计再振兴",
        "docid": "J2QOV2V405567IYR",
        "url": "https://www.163.com/dy/article/J2QOV2V405567IYR.html"
    },
    {
        "title": "中国10个烂尾建筑，有一个耗资6000亿人民币！你看过哪几个？",
        "docid": "J2DPVC5G0552ZPCC",
        "url": "https://www.163.com/dy/article/J2DPVC5G0552ZPCC.html"
    },
    {
        "title": "滇池畔古滇度假区，70年产权别墅160 万起，私家花园",
        "docid": "VV1Q71RF6",
        "url": "https://www.163.com/dy/article/VV1Q71RF6.html"
    },
    {
        "title": "4.7亿港元，神秘买家购进许家印香港豪宅",
        "docid": "J2QGQQH30553TEV3",
        "url": "https://www.163.com/dy/article/J2QGQQH30553TEV3.html"
    },
    {
        "title": "楼市近期热闹非凡，最终的大招到底是啥",
        "docid": "J2QNSSSV055629OM",
        "url": "https://www.163.com/dy/article/J2QNSSSV055629OM.html"
    },
    {
        "title": "解锁“数据城投”有望代替土地财政？地方政府的突围之路",
        "docid": "J2QLJBGD05564U3V",
        "url": "https://www.163.com/dy/article/J2QLJBGD05564U3V.html"
    },
    {
        "title": "多部门联合出手稳楼市！ 地产股批量大涨",
        "docid": "J2J9IG170512B07B",
        "url": "https://www.163.com/dy/article/J2J9IG170512B07B.html"
    },
    {
        "title": "从“爆买”转为“爆入学”？华人家庭抢占东京教育重镇，日本精英阶层开始紧张了……",
        "docid": "J2QMV8T505359JWY",
        "url": "https://www.163.com/dy/article/J2QMV8T505359JWY.html"
    },
    {
        "title": "房价降万物涨，是这样吗?",
        "docid": "J2QQA4NK0535PKJN",
        "url": "https://www.163.com/dy/article/J2QQA4NK0535PKJN.html"
    },
    {
        "title": "新政策：在京都买二手房给200万，移住最高领500万，你心动了吗？",
        "docid": "J2Q9LTNU05564SLK",
        "url": "https://www.163.com/dy/article/J2Q9LTNU05564SLK.html"
    },
    {
        "title": "专家：市场见底企稳已经可以预期 ",
        "docid": "VM1S1K7V3",
        "url": "https://www.163.com/dy/article/VM1S1K7V3.html"
    },
    {
        "title": "当初就是为了这两个露台，才果断相中这套房，如今苦不堪言！",
        "docid": "VS1RJVBM6",
        "url": "https://www.163.com/dy/article/VS1RJVBM6.html"
    },
    {
        "title": "U派领寓34-47平百变loft，商居皆宜买一层得两层",
        "docid": "VV1Q5D0IT",
        "url": "https://www.163.com/dy/article/VV1Q5D0IT.html"
    },
    {
        "title": "为什么中国的房地产市场将会迎来报复性上涨？",
        "docid": "J2QSB4P30553K5ZV",
        "url": "https://www.163.com/dy/article/J2QSB4P30553K5ZV.html"
    },
    {
        "title": "2024年，救市之后楼价还能涨吗？",
        "docid": "J2PLT2TI055684B9",
        "url": "https://www.163.com/dy/article/J2PLT2TI055684B9.html"
    },
    {
        "title": "中国地产40年：从规模到生态圈",
        "docid": "J2QQQ3570519MSIV",
        "url": "https://www.163.com/dy/article/J2QQQ3570519MSIV.html"
    },
    {
        "title": "机构研选 | 房地产再迎重磅政策！机构看好房地产板块龙头",
        "docid": "J2Q7IIJQ0519AAFH",
        "url": "https://www.163.com/dy/article/J2Q7IIJQ0519AAFH.html"
    },
    {
        "title": "魏晨阳等：消化存量房产的原因、规模及路径｜宏观经济",
        "docid": "J2QK22V90530P452",
        "url": "https://www.163.com/dy/article/J2QK22V90530P452.html"
    },
    {
        "title": "到底要有多少钱才能算成中产阶级？",
        "docid": "J2QRMC080553VNKO",
        "url": "https://www.163.com/dy/article/J2QRMC080553VNKO.html"
    },
    {
        "title": "新政后的第一个周末，感觉各地楼市都“疯”了，涨价消息漫天飞",
        "docid": "J2QS8BD30553K5ZV",
        "url": "https://www.163.com/dy/article/J2QS8BD30553K5ZV.html"
    },
    {
        "title": "24年房价真实的走势！暴跌或是暴涨一目了然！",
        "docid": "VV1Q8KNMB",
        "url": "https://www.163.com/dy/article/VV1Q8KNMB.html"
    },
    {
        "title": "房价下跌不可怕，比房价下跌更可怕的事已经发生",
        "docid": "VJ1PLPBE3",
        "url": "https://www.163.com/dy/article/VJ1PLPBE3.html"
    },
    {
        "title": "老婆，听说很多地方，开始“以旧换新”收房子了？",
        "docid": "VS1S9A722",
        "url": "https://www.163.com/dy/article/VS1S9A722.html"
    },
    {
        "title": "赵伟：地产政策“工具箱”，还有哪些空间？",
        "docid": "J2QVDFKM0519IGF7",
        "url": "https://www.163.com/dy/article/J2QVDFKM0519IGF7.html"
    },
    {
        "title": "房地产“史诗级救市新政”到底是不是政策底？",
        "docid": "J2QODS0V05567IYR",
        "url": "https://www.163.com/dy/article/J2QODS0V05567IYR.html"
    },
    {
        "title": "每经热评｜央行再贷款收储存量住房是重要的货币政策创新",
        "docid": "J2KG87LK0512B07B",
        "url": "https://www.163.com/dy/article/J2KG87LK0512B07B.html"
    },
    {
        "title": "央行连发三个大招， 专家称史上最宽松,首套房首付款或省一半",
        "docid": "J2QQ1FD70535PKJN",
        "url": "https://www.163.com/dy/article/J2QQ1FD70535PKJN.html"
    },
    {
        "title": "房地产利好政策密集出台 大盘有望迎来“脉冲”行情",
        "docid": "J2QVED9E0519BOCB",
        "url": "https://www.163.com/dy/article/J2QVED9E0519BOCB.html"
    },
    {
        "title": "力标十里蓝山建面96平半山独门独院",
        "docid": "VV1Q60L11",
        "url": "https://www.163.com/dy/article/VV1Q60L11.html"
    },
    {
        "title": "真不敢相信！这么大楼间距，阳光竟然非常差，买房路上的坑太多了",
        "docid": "VB1T1HA15",
        "url": "https://www.163.com/dy/article/VB1T1HA15.html"
    },
    {
        "title": "取得房地产经纪人证书以后如何备案",
        "docid": "VR1P3K5Q1",
        "url": "https://www.163.com/dy/article/VR1P3K5Q1.html"
    },
    {
        "title": "高人预测，2024年下半年，社会可能会出现这5种奇怪的现象",
        "docid": "VG1RTQ5A6",
        "url": "https://www.163.com/dy/article/VG1RTQ5A6.html"
    },
    {
        "title": "400万打造一个现代简约风，私家入户小院联排别墅，厨房最是经典",
        "docid": "VB1B5RNP9",
        "url": "https://www.163.com/dy/article/VB1B5RNP9.html"
    },
    {
        "title": "当初坚持选“中间户”的业主，现在都后悔了，4大原因很现实",
        "docid": "J2QUS6NG055332YH",
        "url": "https://www.163.com/dy/article/J2QUS6NG055332YH.html"
    },
    {
        "title": "之所以会有这么多政策，更多的是为了不让它跌得更猛。",
        "docid": "J2QS9HC00553K5ZV",
        "url": "https://www.163.com/dy/article/J2QS9HC00553K5ZV.html"
    },
    {
        "title": "利率和房价上升打压需求，美国楼市连续第二个月降温",
        "docid": "J2QVGBH205566WVY",
        "url": "https://www.163.com/dy/article/J2QVGBH205566WVY.html"
    },
    {
        "title": "2年巨亏近300亿！又一知名房企官宣暴雷，网友：0违约守不住了",
        "docid": "J2QKROV105390TQD",
        "url": "https://www.163.com/dy/article/J2QKROV105390TQD.html"
    },
    {
        "title": "美国4月二手房销量季调后折年率为414万户，预估为422万户，前值为419万户",
        "docid": "J2QUOFNS0512B07B",
        "url": "https://www.163.com/dy/article/J2QUOFNS0512B07B.html"
    },
    {
        "title": "南昌、昆明等多地下调房贷首付比例，看房人数增多市场“回温”",
        "docid": "J2QTHUVI055284JB",
        "url": "https://www.163.com/dy/article/J2QTHUVI055284JB.html"
    },
    {
        "title": "深圳路边遇到一个老小区，环境不错，这里的房子应该要几百万一套",
        "docid": "VR1ROCFQ0",
        "url": "https://www.163.com/dy/article/VR1ROCFQ0.html"
    },
    {
        "title": "上海楼市风貌别墅面临崩盘？",
        "docid": "VC1T6ANO8",
        "url": "https://www.163.com/dy/article/VC1T6ANO8.html"
    },
    {
        "title": "统计局最新数据出炉，下跌的势头还在",
        "docid": "VJ1T4LB4C",
        "url": "https://www.163.com/dy/article/VJ1T4LB4C.html"
    },
    {
        "title": "都是房子有啥不一样？为啥大城市房价贵?这样比喻听着很新鲜",
        "docid": "VP1T422IA",
        "url": "https://www.163.com/dy/article/VP1T422IA.html"
    },
    {
        "title": "“保交房”的核心还是让房地产企业活下去，市场运转下去",
        "docid": "J2QJUL3J05567A7C",
        "url": "https://www.163.com/dy/article/J2QJUL3J05567A7C.html"
    },
    {
        "title": "闺蜜：这就是梦想中的户型，应该可以一步到位吧",
        "docid": "J2DVN39Q0556124M",
        "url": "https://www.163.com/dy/article/J2DVN39Q0556124M.html"
    },
    {
        "title": "风水实战13：商铺怎么选",
        "docid": "J2QVLG4V0553TEV3",
        "url": "https://www.163.com/dy/article/J2QVLG4V0553TEV3.html"
    },
    {
        "title": "央行下调个人住房公积金贷款利率；喜马拉雅助贷业务受证监会关注丨21消费金融参考",
        "docid": "J2KISICL05199NPP",
        "url": "https://www.163.com/dy/article/J2KISICL05199NPP.html"
    },
    {
        "title": "政策转变！楼市企稳信号已现，市场底部来临",
        "docid": "VF1T7KMEI",
        "url": "https://www.163.com/dy/article/VF1T7KMEI.html"
    },
    {
        "title": "自然资源部发布《土地储备管理办法》修订版优化土地资源配置  快报",
        "docid": "VP1QGVRD5",
        "url": "https://www.163.com/dy/article/VP1QGVRD5.html"
    },
    {
        "title": "各种利好就是不买房！到底是哪里出了问题？",
        "docid": "VJ1T6TKM2",
        "url": "https://www.163.com/dy/article/VJ1T6TKM2.html"
    },
    {
        "title": "实拍粤西4个亿的第一豪宅，还专门修了条护城河，入伙两年就翻修",
        "docid": "VN1T52P77",
        "url": "https://www.163.com/dy/article/VN1T52P77.html"
    },
    {
        "title": "00后开放式浴室如此大胆！江北嘴看江大平层，意式暗黑系装修风格",
        "docid": "VB1T75JK7",
        "url": "https://www.163.com/dy/article/VB1T75JK7.html"
    },
    {
        "title": "零利率的极端方案：能解中国楼市之吗？",
        "docid": "VL1QEOP75",
        "url": "https://www.163.com/dy/article/VL1QEOP75.html"
    }
]