[
    {
        "title": "买房要远离这6类房子，否则一不小心就赔了！",
        "docid": "IRN9OV3S055669HQ",
        "url": "https://www.163.com/dy/article/IRN9OV3S055669HQ.html"
    },
    {
        "title": "中央部委定调！楼市，一个新表态来了！",
        "docid": "IRSR4UPV0519ICVN",
        "url": "https://www.163.com/dy/article/IRSR4UPV0519ICVN.html"
    },
    {
        "title": "10年想卖掉房子，现在想想幸好没卖",
        "docid": "IRIARAV4055669HQ",
        "url": "https://www.163.com/dy/article/IRIARAV4055669HQ.html"
    },
    {
        "title": "希望房价下跌的呼声越大，说明需求越大，房价上涨空间就越大。",
        "docid": "IRTB6PJ50553K5ZV",
        "url": "https://www.163.com/dy/article/IRTB6PJ50553K5ZV.html"
    },
    {
        "title": "丈母娘贪便宜买架空层的二楼，送我当婚房，遭我亲戚狂吐槽",
        "docid": "IRNFJQAJ05565UDW",
        "url": "https://www.163.com/dy/article/IRNFJQAJ05565UDW.html"
    },
    {
        "title": "重磅！澳洲计划推行“先租后买”购房新模式！租金就能当首付",
        "docid": "IRR8DTD60553TB8M",
        "url": "https://www.163.com/dy/article/IRR8DTD60553TB8M.html"
    },
    {
        "title": "曹德旺所言非虚！家有两套及以上房子的家庭，或将面对4大麻烦",
        "docid": "IRLQONOG05563SS0",
        "url": "https://www.163.com/dy/article/IRLQONOG05563SS0.html"
    },
    {
        "title": "终于有人说清楚了！“公摊面积”取消后，先前买房的人会有补偿金吗？",
        "docid": "IRMH14SR05566SC9",
        "url": "https://www.163.com/dy/article/IRMH14SR05566SC9.html"
    },
    {
        "title": "最新楼市信号，要注意了",
        "docid": "IRTEHA4505563TCH",
        "url": "https://www.163.com/dy/article/IRTEHA4505563TCH.html"
    },
    {
        "title": "售楼小姐忠告：7层以上刚需者一定要买，升值快容易出手！",
        "docid": "IRPR0VLD055669HQ",
        "url": "https://www.163.com/dy/article/IRPR0VLD055669HQ.html"
    },
    {
        "title": "如果仔细想想，房贷其实没有想象中的那么可怕",
        "docid": "IRQ1SRMS055669HQ",
        "url": "https://www.163.com/dy/article/IRQ1SRMS055669HQ.html"
    },
    {
        "title": "将住宅改商铺，需要征求邻居同意吗？住宅到期可以续期吗？法院告诉你！",
        "docid": "IRT2P9N20535A6CE",
        "url": "https://www.163.com/dy/article/IRT2P9N20535A6CE.html"
    },
    {
        "title": "房价还要持续调整，信念崩塌后才是价格底色",
        "docid": "IRTAU3JL055629OM",
        "url": "https://www.163.com/dy/article/IRTAU3JL055629OM.html"
    },
    {
        "title": "如果买房之后，我就活成了自己最不想活成的样子",
        "docid": "IRQ1P0A1055669HQ",
        "url": "https://www.163.com/dy/article/IRQ1P0A1055669HQ.html"
    },
    {
        "title": "10年同学劝我买房，我嫌太破，后来同学赚发了",
        "docid": "IRIAOT47055669HQ",
        "url": "https://www.163.com/dy/article/IRIAOT47055669HQ.html"
    },
    {
        "title": "买房商贷30年为什么还要提前还贷？除非你家是这三种理由！",
        "docid": "IRKLR3J1055669HQ",
        "url": "https://www.163.com/dy/article/IRKLR3J1055669HQ.html"
    },
    {
        "title": "作为一个女生，买房让我成长太多了",
        "docid": "IRNG09TK055669HQ",
        "url": "https://www.163.com/dy/article/IRNG09TK055669HQ.html"
    },
    {
        "title": "80后有没有房产主要看父母有没有意识",
        "docid": "IRIBJILN055669HQ",
        "url": "https://www.163.com/dy/article/IRIBJILN055669HQ.html"
    },
    {
        "title": "买房之后最怕的就是上班堵车",
        "docid": "IRKHP95S055669HQ",
        "url": "https://www.163.com/dy/article/IRKHP95S055669HQ.html"
    },
    {
        "title": "买房时你在决定时想过这几个问题吗？",
        "docid": "IRKQ4523055669HQ",
        "url": "https://www.163.com/dy/article/IRKQ4523055669HQ.html"
    },
    {
        "title": "万达广场提供诸多“岗位”，为就业者带来好心情",
        "docid": "IRSGJS2L0545PEDS",
        "url": "https://www.163.com/dy/article/IRSGJS2L0545PEDS.html"
    },
    {
        "title": "13年买房心一狠贷了400万，现在想想真的佩服我自己",
        "docid": "IRIAMBT1055669HQ",
        "url": "https://www.163.com/dy/article/IRIAMBT1055669HQ.html"
    },
    {
        "title": "房屋朝向，哪边才是真的好？传统观念可能误导你！",
        "docid": "IRDBM8N90540H6M7",
        "url": "https://www.163.com/dy/article/IRDBM8N90540H6M7.html"
    },
    {
        "title": "人们买房的需求几乎是无限的，但是这个需求很难满足",
        "docid": "IRNEBL39055669HQ",
        "url": "https://www.163.com/dy/article/IRNEBL39055669HQ.html"
    },
    {
        "title": "售楼经理透漏，明眼人买房都注意这几个问题，错了再便宜都不买！",
        "docid": "IRPRNTSS055669HQ",
        "url": "https://www.163.com/dy/article/IRPRNTSS055669HQ.html"
    },
    {
        "title": "24年很有可能是加速下跌的一年。",
        "docid": "IRTARUIJ0553VNKO",
        "url": "https://www.163.com/dy/article/IRTARUIJ0553VNKO.html"
    },
    {
        "title": "100万的贷款可以少还5.2万，你觉得年轻人有必要买房子吗？",
        "docid": "IRQKS5VH0553K5ZV",
        "url": "https://www.163.com/dy/article/IRQKS5VH0553K5ZV.html"
    },
    {
        "title": "意外！县城的房价居然没跌？",
        "docid": "IRTIK4FA0515DBP5",
        "url": "https://www.163.com/dy/article/IRTIK4FA0515DBP5.html"
    },
    {
        "title": "复式房子购买价值高，多位业主力荐，体验极佳，满意度高",
        "docid": "IRSOLG0F0520W6PK",
        "url": "https://www.163.com/dy/article/IRSOLG0F0520W6PK.html"
    },
    {
        "title": "湖南别墅附近的洋房是什么样子？如果只半个小目标能不能拿下",
        "docid": "IRSB7DJC0553TEQM",
        "url": "https://www.163.com/dy/article/IRSB7DJC0553TEQM.html"
    },
    {
        "title": "知道什么是真正实用的大平层户型吗?",
        "docid": "IRQCCS8E0556124M",
        "url": "https://www.163.com/dy/article/IRQCCS8E0556124M.html"
    },
    {
        "title": "20年售楼总监透漏，高层买房都会中风水大忌，入住后败财毁身！",
        "docid": "IRIBBK3K055669HQ",
        "url": "https://www.163.com/dy/article/IRIBBK3K055669HQ.html"
    },
    {
        "title": "2024年投资酒店，这9个酒店投资破产原因必须知道(上）！",
        "docid": "IRPF1C7Q0553TDTY",
        "url": "https://www.163.com/dy/article/IRPF1C7Q0553TDTY.html"
    },
    {
        "title": "一线城市楼价呈下跌趋势",
        "docid": "IRON71700553TB8M",
        "url": "https://www.163.com/dy/article/IRON71700553TB8M.html"
    },
    {
        "title": "信号！房价上涨城市数量增加了",
        "docid": "IRS9RCPB05352LE9",
        "url": "https://www.163.com/dy/article/IRS9RCPB05352LE9.html"
    },
    {
        "title": "买房规划很重要，最怕眼高手低只能回老家",
        "docid": "IRN9RIBT055669HQ",
        "url": "https://www.163.com/dy/article/IRN9RIBT055669HQ.html"
    },
    {
        "title": "10年后，100万的房子到底能值多少钱？房产大佬们两点说清楚了！",
        "docid": "IRR7RB9K0535BC2F",
        "url": "https://www.163.com/dy/article/IRR7RB9K0535BC2F.html"
    },
    {
        "title": "地产行业冷暖交替变化大，家居厂商如何“变被动为主动”？",
        "docid": "IRS4NI3N05561CVS",
        "url": "https://www.163.com/dy/article/IRS4NI3N05561CVS.html"
    },
    {
        "title": "买房没注意这几点，最后竟然亏了十几万！",
        "docid": "IRN70LA3055669HQ",
        "url": "https://www.163.com/dy/article/IRN70LA3055669HQ.html"
    },
    {
        "title": "如果你是刚需，不论啥时候买房，都别纠结，一定要早买",
        "docid": "IRQ20KEI055669HQ",
        "url": "https://www.163.com/dy/article/IRQ20KEI055669HQ.html"
    },
    {
        "title": "你买房仅仅是为了归属感吗？",
        "docid": "IRNGJI61055669HQ",
        "url": "https://www.163.com/dy/article/IRNGJI61055669HQ.html"
    },
    {
        "title": "买大户型的改善住房，需要注意哪3个方面？",
        "docid": "IM0NMTG90535WDMF",
        "url": "https://www.163.com/dy/article/IM0NMTG90535WDMF.html"
    },
    {
        "title": "女生现在买单身公寓划算吗？",
        "docid": "IRQ09A7B055669HQ",
        "url": "https://www.163.com/dy/article/IRQ09A7B055669HQ.html"
    },
    {
        "title": "史上最大降息潮来了，通胀已成定局。",
        "docid": "IRPEN2TM0553K5ZV",
        "url": "https://www.163.com/dy/article/IRPEN2TM0553K5ZV.html"
    },
    {
        "title": "买房不要买配套不完善的小区",
        "docid": "IRKFH0OD055669HQ",
        "url": "https://www.163.com/dy/article/IRKFH0OD055669HQ.html"
    },
    {
        "title": "两个180多平米的房子，代表了不同的品味！",
        "docid": "IROI94BR0534M7IC",
        "url": "https://www.163.com/dy/article/IROI94BR0534M7IC.html"
    },
    {
        "title": "两人月薪加起来不到两万，应该怎么在上海买房子？",
        "docid": "IRIDFCEB055669HQ",
        "url": "https://www.163.com/dy/article/IRIDFCEB055669HQ.html"
    },
    {
        "title": "取消远郊容积率1.0限制，叠拼别墅vs市区高层，谁会先淘汰？",
        "docid": "IHVDLQAQ0535WDMF",
        "url": "https://www.163.com/dy/article/IHVDLQAQ0535WDMF.html"
    },
    {
        "title": "买房和租房的优缺点你知道几个？",
        "docid": "IRKLME7A055669HQ",
        "url": "https://www.163.com/dy/article/IRKLME7A055669HQ.html"
    },
    {
        "title": "买房划算，提高自己生活品质的“好机会”",
        "docid": "IRKKAUG8055669HQ",
        "url": "https://www.163.com/dy/article/IRKKAUG8055669HQ.html"
    },
    {
        "title": "买房作为居住地和投资是本质的区别",
        "docid": "IRKJN56O055669HQ",
        "url": "https://www.163.com/dy/article/IRKJN56O055669HQ.html"
    },
    {
        "title": "买房就差了一个念头，现在我想买了不行了",
        "docid": "IRKNNHAC055669HQ",
        "url": "https://www.163.com/dy/article/IRKNNHAC055669HQ.html"
    },
    {
        "title": "听老人的话，我早早上了买房的车，现在月供的压力已经快没了",
        "docid": "IRPQD7AO055669HQ",
        "url": "https://www.163.com/dy/article/IRPQD7AO055669HQ.html"
    },
    {
        "title": "买房能买三居就别买两居",
        "docid": "IRN8VITJ055669HQ",
        "url": "https://www.163.com/dy/article/IRN8VITJ055669HQ.html"
    },
    {
        "title": "谁才是房子的继承人，一定不要弄错了！",
        "docid": "IRSQETB9055616ZT",
        "url": "https://www.163.com/dy/article/IRSQETB9055616ZT.html"
    },
    {
        "title": "刚买完房没多久我就想换个更好的",
        "docid": "IRPMHBBC055669HQ",
        "url": "https://www.163.com/dy/article/IRPMHBBC055669HQ.html"
    },
    {
        "title": "买房与其犹豫进退，不如买了再说",
        "docid": "IRKGDIGN055669HQ",
        "url": "https://www.163.com/dy/article/IRKGDIGN055669HQ.html"
    },
    {
        "title": "4楼的房子不吉利？其实，4楼才是真正的“黄金楼层”",
        "docid": "IRT22RLK0520E3F7",
        "url": "https://www.163.com/dy/article/IRT22RLK0520E3F7.html"
    },
    {
        "title": "房地产大揭秘——你所认为的“买房”其实是在跟银行“租房”",
        "docid": "IRR1JMPA055616ZT",
        "url": "https://www.163.com/dy/article/IRR1JMPA055616ZT.html"
    },
    {
        "title": "为何房价低能吸引人口，拉动消费统统没有兑现？",
        "docid": "IRT7T3P00540MBU3",
        "url": "https://www.163.com/dy/article/IRT7T3P00540MBU3.html"
    },
    {
        "title": "买房知识：学会这些，买二手房没人敢坑你",
        "docid": "IRPINKB505566SC9",
        "url": "https://www.163.com/dy/article/IRPINKB505566SC9.html"
    },
    {
        "title": "二手房验收注意，要买房的都注意看过来了",
        "docid": "IRHTSPHK05565UDU",
        "url": "https://www.163.com/dy/article/IRHTSPHK05565UDU.html"
    },
    {
        "title": "售楼小姐大揭秘！买房99%的人都曾遭遇过这样的“陷阱”",
        "docid": "IRPQSTRJ055669HQ",
        "url": "https://www.163.com/dy/article/IRPQSTRJ055669HQ.html"
    },
    {
        "title": "买房其实就是，看你愿意为了房子放弃什么",
        "docid": "IRKK601I055669HQ",
        "url": "https://www.163.com/dy/article/IRKK601I055669HQ.html"
    },
    {
        "title": "澳大利亚将严查租房广告虚假宣传现象，鼓励租房者提交可疑广告",
        "docid": "IRTVJTJ6055625PT",
        "url": "https://www.163.com/dy/article/IRTVJTJ6055625PT.html"
    },
    {
        "title": "网上的臆想都是假的，真实的豪宅业主群是这样的",
        "docid": "IRP48P350553TDVP",
        "url": "https://www.163.com/dy/article/IRP48P350553TDVP.html"
    },
    {
        "title": "专家称一二线城市房价大概率要涨，众多网友吐槽：没钱，咋买",
        "docid": "IRNRG0TH0552D877",
        "url": "https://www.163.com/dy/article/IRNRG0TH0552D877.html"
    },
    {
        "title": "“开门四见，大祸临头”，开门不能见哪四样东西，这有啥老讲究？",
        "docid": "IRNJH22P055616ZT",
        "url": "https://www.163.com/dy/article/IRNJH22P055616ZT.html"
    },
    {
        "title": "避坑指南！日本这一类“永久产权”的房子千万别碰！",
        "docid": "IRGK4FDC0553ND8Q",
        "url": "https://www.163.com/dy/article/IRGK4FDC0553ND8Q.html"
    },
    {
        "title": "在一线城市买房之后，我再也不敢轻易说老娘不干了",
        "docid": "IRPSJ72F055669HQ",
        "url": "https://www.163.com/dy/article/IRPSJ72F055669HQ.html"
    },
    {
        "title": "1月70城房价环比降幅收窄 旅游地产受关注",
        "docid": "IRS683B805535IDK",
        "url": "https://www.163.com/dy/article/IRS683B805535IDK.html"
    },
    {
        "title": "2024年最新趋势，越来越多业主开始自己卖房了！",
        "docid": "IRO881AA05563SS0",
        "url": "https://www.163.com/dy/article/IRO881AA05563SS0.html"
    },
    {
        "title": "买房一定要把握现在，抓住机遇，不要犹豫",
        "docid": "IRKE8PDO055669HQ",
        "url": "https://www.163.com/dy/article/IRKE8PDO055669HQ.html"
    },
    {
        "title": "28定律适用于各行各业，尤其是房地产",
        "docid": "IRIBGVG7055669HQ",
        "url": "https://www.163.com/dy/article/IRIBGVG7055669HQ.html"
    },
    {
        "title": "刚买房我就想攒钱换套大的，是不是太做了",
        "docid": "IRPMVD5U055669HQ",
        "url": "https://www.163.com/dy/article/IRPMVD5U055669HQ.html"
    },
    {
        "title": "如何看待有些人租房结婚？",
        "docid": "IRQ11LUV055669HQ",
        "url": "https://www.163.com/dy/article/IRQ11LUV055669HQ.html"
    },
    {
        "title": "月薪3000，非要买100万的房，专家建议：取消房贷，没钱别买",
        "docid": "IRN4SRJP0540MBU3",
        "url": "https://www.163.com/dy/article/IRN4SRJP0540MBU3.html"
    },
    {
        "title": "买房时，什么样的布局才是“黄金户型”？",
        "docid": "IRKQTCFO055669HQ",
        "url": "https://www.163.com/dy/article/IRKQTCFO055669HQ.html"
    },
    {
        "title": "物业的七十条品质铁律，学到用到!",
        "docid": "IRN0EE3E055615MY",
        "url": "https://www.163.com/dy/article/IRN0EE3E055615MY.html"
    },
    {
        "title": "8个165平米的户型，空间阔绰，待客接物也有一定的排面",
        "docid": "IRRLKACC0553TDXU",
        "url": "https://www.163.com/dy/article/IRRLKACC0553TDXU.html"
    },
    {
        "title": "大家帮我看看这是变相裁员吗？公司直接把我的公积金降了四千块。",
        "docid": "IRGI2ACN05564Z4P",
        "url": "https://www.163.com/dy/article/IRGI2ACN05564Z4P.html"
    },
    {
        "title": "热搜上引发讨论“女子卖房痛哭”事件，撕开当下买房养房残酷真相",
        "docid": "IRJDGLCK05566CP6",
        "url": "https://www.163.com/dy/article/IRJDGLCK05566CP6.html"
    },
    {
        "title": "为什么有些人买房贷30年坚决不贷20年呢？换成你又会怎样",
        "docid": "IRIDPS3E055669HQ",
        "url": "https://www.163.com/dy/article/IRIDPS3E055669HQ.html"
    },
    {
        "title": "只要手里有一点钱，我就愿意买房",
        "docid": "IRPPLVS9055669HQ",
        "url": "https://www.163.com/dy/article/IRPPLVS9055669HQ.html"
    },
    {
        "title": "买房签合同的时候，这几个容易忽略的小细节你都做好了吗？",
        "docid": "IRN8QFPV055669HQ",
        "url": "https://www.163.com/dy/article/IRN8QFPV055669HQ.html"
    },
    {
        "title": "BC重磅官宣：2025年1月1日起开征20%炒房税！",
        "docid": "IRMTM8RT0553TB9L",
        "url": "https://www.163.com/dy/article/IRMTM8RT0553TB9L.html"
    },
    {
        "title": "听了跟我合租小姐姐的故事，我明白了为什么要有房",
        "docid": "IRPQ53OQ055669HQ",
        "url": "https://www.163.com/dy/article/IRPQ53OQ055669HQ.html"
    },
    {
        "title": "震撼登场！我敢说，这是2024年三水最值得期待项目",
        "docid": "IRS7N3B4053571DT",
        "url": "https://www.163.com/dy/article/IRS7N3B4053571DT.html"
    },
    {
        "title": "以前太年轻，总想着买房这个人生大事要往后拖，结果越拖越后悔",
        "docid": "IRNFM77B055669HQ",
        "url": "https://www.163.com/dy/article/IRNFM77B055669HQ.html"
    },
    {
        "title": "资深房产经纪：在二线城市买房的最佳时机，别等降价再考虑了",
        "docid": "IRIAV3P1055669HQ",
        "url": "https://www.163.com/dy/article/IRIAV3P1055669HQ.html"
    },
    {
        "title": "美国这类房地产迎来50年最猛暴跌！几百家银行瑟瑟发抖",
        "docid": "IROFGJEV0552QDEA",
        "url": "https://www.163.com/dy/article/IROFGJEV0552QDEA.html"
    },
    {
        "title": "2024年1月全国新房房价涨跌排行榜：西安同比涨幅最大",
        "docid": "IRS9EDKV051481OF",
        "url": "https://www.163.com/dy/article/IRS9EDKV051481OF.html"
    },
    {
        "title": "为什么盘楼销售员，都推荐顾客买7层，8层的楼房？",
        "docid": "IRIDTH93055669HQ",
        "url": "https://www.163.com/dy/article/IRIDTH93055669HQ.html"
    },
    {
        "title": "买房最大的感触就是矛盾",
        "docid": "IRKSEEKI055669HQ",
        "url": "https://www.163.com/dy/article/IRKSEEKI055669HQ.html"
    },
    {
        "title": "在大城市上班，老家买房是我的追求",
        "docid": "IRPTI5SR055669HQ",
        "url": "https://www.163.com/dy/article/IRPTI5SR055669HQ.html"
    },
    {
        "title": "买房选楼层的秘密：哪层赚哪层赔？这几个特殊楼层要慎买！",
        "docid": "IRNBMCF3055669HQ",
        "url": "https://www.163.com/dy/article/IRNBMCF3055669HQ.html"
    },
    {
        "title": "买房只要熬过头一年就好了",
        "docid": "IRKLHU7A055669HQ",
        "url": "https://www.163.com/dy/article/IRKLHU7A055669HQ.html"
    },
    {
        "title": "买房不仅要看时机，地点更为重要",
        "docid": "IRKFBQ9M055669HQ",
        "url": "https://www.163.com/dy/article/IRKFBQ9M055669HQ.html"
    },
    {
        "title": "专家：今年想买房可以考虑出手，一二线城市大概率要涨",
        "docid": "IRNL09GC0524G3IU",
        "url": "https://www.163.com/dy/article/IRNL09GC0524G3IU.html"
    },
    {
        "title": "只要量力而行，养个房子并不会有想象得那样困难",
        "docid": "IRPQ1982055669HQ",
        "url": "https://www.163.com/dy/article/IRPQ1982055669HQ.html"
    },
    {
        "title": "比较如今在售和去年此时成交 让你明了老静安房价跌几何？",
        "docid": "IRPRBM1R0553TDXU",
        "url": "https://www.163.com/dy/article/IRPRBM1R0553TDXU.html"
    },
    {
        "title": "如何才能不和房价互相伤害？",
        "docid": "IRQ0TVNT055669HQ",
        "url": "https://www.163.com/dy/article/IRQ0TVNT055669HQ.html"
    },
    {
        "title": "买房能攒到买得起房的一个首付就赶紧买了，不要拖",
        "docid": "IRN94R3N055669HQ",
        "url": "https://www.163.com/dy/article/IRN94R3N055669HQ.html"
    },
    {
        "title": "7年经验的离职售楼小姐透露，这5类最浪费面积的户型不要买！",
        "docid": "IRIDSOO10540FQWZ",
        "url": "https://www.163.com/dy/article/IRIDSOO10540FQWZ.html"
    },
    {
        "title": "如果不是认识这么多朋友，我一月几千的收入可能一辈子都买不起房",
        "docid": "IRQ1L16I055669HQ",
        "url": "https://www.163.com/dy/article/IRQ1L16I055669HQ.html"
    },
    {
        "title": "买房怎么看风水？这个真的实在是太重要了！",
        "docid": "IRKOGQAP055669HQ",
        "url": "https://www.163.com/dy/article/IRKOGQAP055669HQ.html"
    },
    {
        "title": "年薪达15万美元，在全美15座大城市却沦&quot;低中产阶级&quot;",
        "docid": "IRR8IJN7055625PT",
        "url": "https://www.163.com/dy/article/IRR8IJN7055625PT.html"
    },
    {
        "title": "楼市“露出本色”，开发商已经意识到了，买房人还蒙在鼓里？",
        "docid": "IRP49M3A0549RI77",
        "url": "https://www.163.com/dy/article/IRP49M3A0549RI77.html"
    },
    {
        "title": "刚需赶紧上车珍惜处女贷，投资客要谨慎，土豪无所谓了",
        "docid": "IRPNVDFJ055669HQ",
        "url": "https://www.163.com/dy/article/IRPNVDFJ055669HQ.html"
    },
    {
        "title": "刚需如果经济条件允许赶紧买，因为毕竟不得不用啊",
        "docid": "IRPNGIKD055669HQ",
        "url": "https://www.163.com/dy/article/IRPNGIKD055669HQ.html"
    },
    {
        "title": "听说买房一定不要买13层，这是真的吗？",
        "docid": "IRPQH08Q055669HQ",
        "url": "https://www.163.com/dy/article/IRPQH08Q055669HQ.html"
    },
    {
        "title": "碧桂园集团坏消息：债务问题愈演愈烈，但是发展动能依然强劲！",
        "docid": "IRT7NOIT0552F71X",
        "url": "https://www.163.com/dy/article/IRT7NOIT0552F71X.html"
    },
    {
        "title": "孙维老底再被扒，房产大亨身家超千万澳币！驱逐她可能比较悬？",
        "docid": "IRMT39PN05564O2L",
        "url": "https://www.163.com/dy/article/IRMT39PN05564O2L.html"
    },
    {
        "title": "一个毕业大学生的买房日记",
        "docid": "IRIC1VV4055669HQ",
        "url": "https://www.163.com/dy/article/IRIC1VV4055669HQ.html"
    },
    {
        "title": "买房一定要熬过这一天，别办房产证",
        "docid": "IRKEEHMP055669HQ",
        "url": "https://www.163.com/dy/article/IRKEEHMP055669HQ.html"
    },
    {
        "title": "如果一个人只能购买一套房子会怎么样？",
        "docid": "IRQ165E2055669HQ",
        "url": "https://www.163.com/dy/article/IRQ165E2055669HQ.html"
    },
    {
        "title": "中式豪宅，天作之和、瑞见东方",
        "docid": "IROLN5FH05566S5I",
        "url": "https://www.163.com/dy/article/IROLN5FH05566S5I.html"
    },
    {
        "title": "去年低价卖掉房子的人，今年都将后悔?再过两个月楼市或迎2大转变",
        "docid": "IRR6H1UA0535BC2F",
        "url": "https://www.163.com/dy/article/IRR6H1UA0535BC2F.html"
    },
    {
        "title": "买房常见八大误区，买房前不在意买房后吃大亏！",
        "docid": "IRKO31T5055669HQ",
        "url": "https://www.163.com/dy/article/IRKO31T5055669HQ.html"
    },
    {
        "title": "你选择跟买房子的人站一路，还是选择和愿意买不起房的人一路？",
        "docid": "IRNHHQ8G055669HQ",
        "url": "https://www.163.com/dy/article/IRNHHQ8G055669HQ.html"
    },
    {
        "title": "买房，几乎用掉了我半辈子的勇气",
        "docid": "IRNCVMUS055669HQ",
        "url": "https://www.163.com/dy/article/IRNCVMUS055669HQ.html"
    },
    {
        "title": "从各个角度来分析，为什么买房很必要？",
        "docid": "IRNFD749055669HQ",
        "url": "https://www.163.com/dy/article/IRNFD749055669HQ.html"
    },
    {
        "title": "投资600万拿永住签证！？与美国新加坡相比，日本将创设的投资者签证为何更具吸引力？（仲和不动产）",
        "docid": "IRQGKLPO0517BACO",
        "url": "https://www.163.com/dy/article/IRQGKLPO0517BACO.html"
    },
    {
        "title": "买房30岁之前不要想退路",
        "docid": "IRKDTDVG055669HQ",
        "url": "https://www.163.com/dy/article/IRKDTDVG055669HQ.html"
    },
    {
        "title": "买房找个好时机就上车吧",
        "docid": "IRKP85JE055669HQ",
        "url": "https://www.163.com/dy/article/IRKP85JE055669HQ.html"
    },
    {
        "title": "中国人不敢消费的真相揭秘：房价暴涨300倍，工资只涨了5倍！",
        "docid": "IRIDUDSD0540A6F8",
        "url": "https://www.163.com/dy/article/IRIDUDSD0540A6F8.html"
    },
    {
        "title": "买房之后我的心态发生了巨大的变化",
        "docid": "IRKHJSVN055669HQ",
        "url": "https://www.163.com/dy/article/IRKHJSVN055669HQ.html"
    },
    {
        "title": "遇到个香港网友，说他家本是深圳人，70年代走的，现在后悔了",
        "docid": "IRMV5R3A0535FFBB",
        "url": "https://www.163.com/dy/article/IRMV5R3A0535FFBB.html"
    },
    {
        "title": "买房如何挑选楼层，选哪几层比较好？",
        "docid": "IRKM4RCJ055669HQ",
        "url": "https://www.163.com/dy/article/IRKM4RCJ055669HQ.html"
    },
    {
        "title": "买房还是要不管三七二十一，先上车再说，别观望",
        "docid": "IRNBFD91055669HQ",
        "url": "https://www.163.com/dy/article/IRNBFD91055669HQ.html"
    },
    {
        "title": "好好算一笔账，就知道房子该不该买了",
        "docid": "IRQ0ML8E055669HQ",
        "url": "https://www.163.com/dy/article/IRQ0ML8E055669HQ.html"
    },
    {
        "title": "买二手房最重要的是合同",
        "docid": "IRKCPS5G055669HQ",
        "url": "https://www.163.com/dy/article/IRKCPS5G055669HQ.html"
    },
    {
        "title": "做一个手里很多房的土著是一个什么样的体验？",
        "docid": "IRNHQJK5055669HQ",
        "url": "https://www.163.com/dy/article/IRNHQJK5055669HQ.html"
    },
    {
        "title": "买房要不要买顶楼呢？一分钟看完照片后才算真的搞明白！",
        "docid": "IRN99NV3055669HQ",
        "url": "https://www.163.com/dy/article/IRN99NV3055669HQ.html"
    },
    {
        "title": "90后房产取决于上几代人打的基础",
        "docid": "IRIBOQSR055669HQ",
        "url": "https://www.163.com/dy/article/IRIBOQSR055669HQ.html"
    },
    {
        "title": "买房只是第一步，绝不会是最后一步",
        "docid": "IRKLDB79055669HQ",
        "url": "https://www.163.com/dy/article/IRKLDB79055669HQ.html"
    },
    {
        "title": "2024年为什么说我们不能买房子，看看网友们的回复，你就知道了！",
        "docid": "IRLUQPG70553TDTY",
        "url": "https://www.163.com/dy/article/IRLUQPG70553TDTY.html"
    },
    {
        "title": "只能租房过活的无非两种人、一种很穷的、一种特别有钱的",
        "docid": "IRPPI1FO055669HQ",
        "url": "https://www.163.com/dy/article/IRPPI1FO055669HQ.html"
    },
    {
        "title": "降本增效，公积金从12%调到5%，各大公司新妙招",
        "docid": "IRS8Q7PL0556607X",
        "url": "https://www.163.com/dy/article/IRS8Q7PL0556607X.html"
    },
    {
        "title": "理想的户型，需要六个卧室吗？",
        "docid": "IRLK8IB20540MBU3",
        "url": "https://www.163.com/dy/article/IRLK8IB20540MBU3.html"
    },
    {
        "title": "23年全澳最贵房产终于揭晓！售价近8000万，曾传出买家为华人富豪",
        "docid": "IRQSKH1P05566SC9",
        "url": "https://www.163.com/dy/article/IRQSKH1P05566SC9.html"
    },
    {
        "title": "买房早期正确的投资，为的是早点解决后顾之忧",
        "docid": "IRKPORJM055669HQ",
        "url": "https://www.163.com/dy/article/IRKPORJM055669HQ.html"
    },
    {
        "title": "房周刊 | 未来6个月，悉尼哪些城区房价增长最快？AI给出预测：看好这25区",
        "docid": "IRQ2NVIT05199N88",
        "url": "https://www.163.com/dy/article/IRQ2NVIT05199N88.html"
    },
    {
        "title": "为了让我们买房，真是操碎了心",
        "docid": "IRT4LNVL0519DKT1",
        "url": "https://www.163.com/dy/article/IRT4LNVL0519DKT1.html"
    },
    {
        "title": "2024年不买房，5年后是买不起还是随便挑？",
        "docid": "IROJC1T10535BC2F",
        "url": "https://www.163.com/dy/article/IROJC1T10535BC2F.html"
    },
    {
        "title": "买房，一切可以被取代的非稀缺资源都是流氓",
        "docid": "IRNCNEMK055669HQ",
        "url": "https://www.163.com/dy/article/IRNCNEMK055669HQ.html"
    },
    {
        "title": "各省房价跌幅榜，石家庄排第二",
        "docid": "IRN260UO0553TEV3",
        "url": "https://www.163.com/dy/article/IRN260UO0553TEV3.html"
    },
    {
        "title": "老房子装电梯有3大利好, 为何还有人反对! 新规或“强制”施行!",
        "docid": "IRSIR4C905533NA6",
        "url": "https://www.163.com/dy/article/IRSIR4C905533NA6.html"
    },
    {
        "title": "买房砍价的冷知识你确定不来学习一下？",
        "docid": "IRN8KNJD055669HQ",
        "url": "https://www.163.com/dy/article/IRN8KNJD055669HQ.html"
    },
    {
        "title": "“我的房贷到底降了吗？”专家解读新年首次降息",
        "docid": "IRN6BLPK0550B6IS",
        "url": "https://www.163.com/dy/article/IRN6BLPK0550B6IS.html"
    },
    {
        "title": "2024年，3大趋势暗示刚需买房或更容易",
        "docid": "IRON9O3D0535BC2F",
        "url": "https://www.163.com/dy/article/IRON9O3D0535BC2F.html"
    },
    {
        "title": "【收藏】婚前买房、婚后买房、父母出资购房房产归属一览表 来源：最高人民法院司法案例研究院",
        "docid": "IRMMB1L3055616XS",
        "url": "https://www.163.com/dy/article/IRMMB1L3055616XS.html"
    },
    {
        "title": "不要买1楼，毕竟这些问题你根本就忍受不了，何苦花钱买罪受！",
        "docid": "IRID6U3P055669HQ",
        "url": "https://www.163.com/dy/article/IRID6U3P055669HQ.html"
    },
    {
        "title": "买了房但是过得很苦逼怎么办？",
        "docid": "IRIE4IPK055669HQ",
        "url": "https://www.163.com/dy/article/IRIE4IPK055669HQ.html"
    },
    {
        "title": "买房是你离开大城市最根本的原因吗？",
        "docid": "IRKRD315055669HQ",
        "url": "https://www.163.com/dy/article/IRKRD315055669HQ.html"
    },
    {
        "title": "等额本息提前还款没有任何鸟用。",
        "docid": "IRTBEPSQ0553K5ZV",
        "url": "https://www.163.com/dy/article/IRTBEPSQ0553K5ZV.html"
    },
    {
        "title": "年轻人买房十大金律，学会这些，买房不吃亏哦",
        "docid": "IROL5V160553TB9L",
        "url": "https://www.163.com/dy/article/IROL5V160553TB9L.html"
    },
    {
        "title": "最新月报出炉！日本再次出现严重“单极化”现象！",
        "docid": "IRTECT8U0553ND8Q",
        "url": "https://www.163.com/dy/article/IRTECT8U0553ND8Q.html"
    },
    {
        "title": "集体破4！最猛降息背后的重大信号",
        "docid": "IRPGVT6805199NPP",
        "url": "https://www.163.com/dy/article/IRPGVT6805199NPP.html"
    },
    {
        "title": "五年期LPR贷款利率调整到3.95%，现在该果断买房了吗？",
        "docid": "IRS9D7AT05565TCI",
        "url": "https://www.163.com/dy/article/IRS9D7AT05565TCI.html"
    },
    {
        "title": "大家不要在垃圾堆里捡金子，因为整个房地产行业就是下行的。",
        "docid": "IRTB80T40553K5ZV",
        "url": "https://www.163.com/dy/article/IRTB80T40553K5ZV.html"
    },
    {
        "title": "买房你还在纠结楼层数字？懂行的人只看这几点！",
        "docid": "IRKJRS1L055669HQ",
        "url": "https://www.163.com/dy/article/IRKJRS1L055669HQ.html"
    },
    {
        "title": "国内房价的泡沫，如果说没有楼市调控的话，早就已经破了",
        "docid": "IRP3GLDG0534M7IC",
        "url": "https://www.163.com/dy/article/IRP3GLDG0534M7IC.html"
    },
    {
        "title": "聪明的人一定不买的10种房子，看完非常受益，你细品！",
        "docid": "IRUHS5400549RI77",
        "url": "https://www.163.com/dy/article/IRUHS5400549RI77.html"
    },
    {
        "title": "房子降价会提高生育率，增加消费吗？",
        "docid": "IRQKT2KO0553K5ZV",
        "url": "https://www.163.com/dy/article/IRQKT2KO0553K5ZV.html"
    },
    {
        "title": "不是大城市，但是购房依然对我来说是一座大山",
        "docid": "IRID2EQL055669HQ",
        "url": "https://www.163.com/dy/article/IRID2EQL055669HQ.html"
    },
    {
        "title": "买房最佳的时机有且只有现在",
        "docid": "IRKS698S055669HQ",
        "url": "https://www.163.com/dy/article/IRKS698S055669HQ.html"
    },
    {
        "title": "去年不买房的很后悔，今年想买的，要跨过这3道槛！",
        "docid": "IRPP93RC055669HQ",
        "url": "https://www.163.com/dy/article/IRPP93RC055669HQ.html"
    },
    {
        "title": "一二线城市房子的使用价值不会跌",
        "docid": "IRIC65EF055669HQ",
        "url": "https://www.163.com/dy/article/IRIC65EF055669HQ.html"
    },
    {
        "title": "不就是三十年的房贷吗，咬咬牙就过去了",
        "docid": "IRID02SI055669HQ",
        "url": "https://www.163.com/dy/article/IRID02SI055669HQ.html"
    },
    {
        "title": "买房子，图的就是个安心",
        "docid": "IRKNCK2F055669HQ",
        "url": "https://www.163.com/dy/article/IRKNCK2F055669HQ.html"
    },
    {
        "title": "“账单”公布，2023年日本政府把钱都花在了哪里？",
        "docid": "IRT5S91M05359JWY",
        "url": "https://www.163.com/dy/article/IRT5S91M05359JWY.html"
    },
    {
        "title": "买房没注意这点，让我气得跺脚",
        "docid": "IRN75CF1055669HQ",
        "url": "https://www.163.com/dy/article/IRN75CF1055669HQ.html"
    },
    {
        "title": "限价16000元/㎡，精装员工福利房，衢州体育公园旁这个项目来了！",
        "docid": "IRTR4L0P0553TDVP",
        "url": "https://www.163.com/dy/article/IRTR4L0P0553TDVP.html"
    },
    {
        "title": "买房要多看多走多谈，找到平衡点",
        "docid": "IRN9HK7I055669HQ",
        "url": "https://www.163.com/dy/article/IRN9HK7I055669HQ.html"
    },
    {
        "title": "海口、三亚人才落户购房及高考政策，海南人才引进落户政策2024",
        "docid": "IRNGNUE305566S80",
        "url": "https://www.163.com/dy/article/IRNGNUE305566S80.html"
    },
    {
        "title": "买房全款的，大多可以鉴定是傻大缺了",
        "docid": "IRKK0TVA055669HQ",
        "url": "https://www.163.com/dy/article/IRKK0TVA055669HQ.html"
    },
    {
        "title": "天大的误会！不是新房不给力，而是二手房更有性价比...",
        "docid": "IRPQ4CUL0552Z6M7",
        "url": "https://www.163.com/dy/article/IRPQ4CUL0552Z6M7.html"
    },
    {
        "title": "终于有人把买房的流程整理出来了，骨灰级买房攻略，再忙也要看看",
        "docid": "IRNAU0V60540MBU3",
        "url": "https://www.163.com/dy/article/IRNAU0V60540MBU3.html"
    },
    {
        "title": "人生的第一套房子不需要想太多，前提是得先有一个",
        "docid": "IRNEM40I055669HQ",
        "url": "https://www.163.com/dy/article/IRNEM40I055669HQ.html"
    },
    {
        "title": "房价居高不下，租房已经比买房更划算，为什么还是要拼命买房？",
        "docid": "IRQB1UHS055616ZT",
        "url": "https://www.163.com/dy/article/IRQB1UHS055616ZT.html"
    },
    {
        "title": "起底那些美国有房有资产还和中国普通老百姓抢饭碗的人",
        "docid": "IRUO79RI0553TEWN",
        "url": "https://www.163.com/dy/article/IRUO79RI0553TEWN.html"
    },
    {
        "title": "房贷利率再度下调，手握30万现金要不要买房？银行人给出答案",
        "docid": "IRUO5BBM05566DVL",
        "url": "https://www.163.com/dy/article/IRUO5BBM05566DVL.html"
    },
    {
        "title": "最美二层新中式兄弟双拼别墅，大气庄重品味，6种布局方案任你选",
        "docid": "IRJ391N50520BKDJ",
        "url": "https://www.163.com/dy/article/IRJ391N50520BKDJ.html"
    },
    {
        "title": "全国房价排行榜，你们那里的房价多少",
        "docid": "IRSK5TQD0553TDVP",
        "url": "https://www.163.com/dy/article/IRSK5TQD0553TDVP.html"
    },
    {
        "title": "不管租还是买，你必须考虑要过怎么样的日子",
        "docid": "IRID5DPV055669HQ",
        "url": "https://www.163.com/dy/article/IRID5DPV055669HQ.html"
    },
    {
        "title": "房贷迎来史上最猛降息，接近历史最低点，楼市拐点要来了？",
        "docid": "IRO3R2V305561QDT",
        "url": "https://www.163.com/dy/article/IRO3R2V305561QDT.html"
    },
    {
        "title": "2024年电商风口，听进去年后直接换套房！",
        "docid": "IRRSIAJI0545PEDS",
        "url": "https://www.163.com/dy/article/IRRSIAJI0545PEDS.html"
    },
    {
        "title": "阵地丨70城房价环比跌幅收窄，但同比跌幅仍在加大",
        "docid": "IRS682P30535A6CE",
        "url": "https://www.163.com/dy/article/IRS682P30535A6CE.html"
    },
    {
        "title": "221平米的经典五居室大户型，值得体验吗?",
        "docid": "IRQ3S70N0545PEDS",
        "url": "https://www.163.com/dy/article/IRQ3S70N0545PEDS.html"
    },
    {
        "title": "前几年没买房，选择背井离乡，结果现在看来毫无意义",
        "docid": "IRPOBMEB055669HQ",
        "url": "https://www.163.com/dy/article/IRPOBMEB055669HQ.html"
    },
    {
        "title": "农村别墅和城里套房相比，是不自量力吗？",
        "docid": "IRDGOTGO0520K44K",
        "url": "https://www.163.com/dy/article/IRDGOTGO0520K44K.html"
    },
    {
        "title": "听说，买这种房的人今后比别人多赚十几万！",
        "docid": "IRPQL2SF055669HQ",
        "url": "https://www.163.com/dy/article/IRPQL2SF055669HQ.html"
    },
    {
        "title": "清迈香格里拉酒店旁边Astra两卧公寓出售，500万铢",
        "docid": "IRULIIC90534M7IC",
        "url": "https://www.163.com/dy/article/IRULIIC90534M7IC.html"
    },
    {
        "title": "买房记得退税！别再白白交钱了！",
        "docid": "IRSOC8650552CRMN",
        "url": "https://www.163.com/dy/article/IRSOC8650552CRMN.html"
    },
    {
        "title": "苏州房价大降，成都怕不怕？",
        "docid": "IRPKA3T0055616ZT",
        "url": "https://www.163.com/dy/article/IRPKA3T0055616ZT.html"
    },
    {
        "title": "于海青：为何说马云妻子张瑛在新加坡购置房产引发了我的深思考？",
        "docid": "IRPFC8EP0553TEQM",
        "url": "https://www.163.com/dy/article/IRPFC8EP0553TEQM.html"
    },
    {
        "title": "156平米的房子，可以如此豪华吗？",
        "docid": "IRNCQ59G0556124M",
        "url": "https://www.163.com/dy/article/IRNCQ59G0556124M.html"
    },
    {
        "title": "为什么有人从不买二手房？一听售楼人员透露，真懊悔察觉晚了",
        "docid": "IRPSHR3905565UDW",
        "url": "https://www.163.com/dy/article/IRPSHR3905565UDW.html"
    },
    {
        "title": "如果你能连过这四关，那你就可以租房了否则，还是买房吧",
        "docid": "IRQ24FHC055669HQ",
        "url": "https://www.163.com/dy/article/IRQ24FHC055669HQ.html"
    },
    {
        "title": "这可能是比较有档次的190多平米户型！",
        "docid": "IRQKOH3N055616ZT",
        "url": "https://www.163.com/dy/article/IRQKOH3N055616ZT.html"
    },
    {
        "title": "买房别看绝对市值，要看家庭的相对购买力",
        "docid": "IRKKQODE055669HQ",
        "url": "https://www.163.com/dy/article/IRKKQODE055669HQ.html"
    },
    {
        "title": "如果夫妻双方都有公积金的话，我还是强烈推荐买房子",
        "docid": "IRQ2GB0K055669HQ",
        "url": "https://www.163.com/dy/article/IRQ2GB0K055669HQ.html"
    },
    {
        "title": "二手房水电改造费用，二手房装修省钱误区！",
        "docid": "IRHSLSOU05565UDU",
        "url": "https://www.163.com/dy/article/IRHSLSOU05565UDU.html"
    },
    {
        "title": "1月新房、二手房价格环比跌幅均收窄，部分城市有望迎来“小阳春”",
        "docid": "IRNKN6F10514R9NP",
        "url": "https://www.163.com/dy/article/IRNKN6F10514R9NP.html"
    },
    {
        "title": "印钞救市、旧城改造、房票安置：地产行业的三大利器能否救市？",
        "docid": "IRRCBKOF0553TDXU",
        "url": "https://www.163.com/dy/article/IRRCBKOF0553TDXU.html"
    },
    {
        "title": "城中村改造专项借款和城中村改造贷款有何区别？",
        "docid": "IRRQ42Q80553TB8M",
        "url": "https://www.163.com/dy/article/IRRQ42Q80553TB8M.html"
    },
    {
        "title": "24年想买房的兄弟们，不要再研究预判房地产未来怎么样了！",
        "docid": "IRP1U4GC05566SC9",
        "url": "https://www.163.com/dy/article/IRP1U4GC05566SC9.html"
    },
    {
        "title": "“我在老家做房东，有点痛苦。”",
        "docid": "IRFM7J260515I4G5",
        "url": "https://www.163.com/dy/article/IRFM7J260515I4G5.html"
    },
    {
        "title": "买房过了头两年就过去了",
        "docid": "IRNBB72E055669HQ",
        "url": "https://www.163.com/dy/article/IRNBB72E055669HQ.html"
    },
    {
        "title": "买房之后七个月内的感受",
        "docid": "IRKH9I0V055669HQ",
        "url": "https://www.163.com/dy/article/IRKH9I0V055669HQ.html"
    },
    {
        "title": "买房楼层选择大有讲究购房者们你选对了吗",
        "docid": "IRKTVT1E055669HQ",
        "url": "https://www.163.com/dy/article/IRKTVT1E055669HQ.html"
    },
    {
        "title": "三南朝向的户型科普，看看你家的房子达标了吗？",
        "docid": "IRIBV0SG0540FQWZ",
        "url": "https://www.163.com/dy/article/IRIBV0SG0540FQWZ.html"
    },
    {
        "title": "为什么别人看起来不怎么地，却能买到房？你真正知道这几点吗？",
        "docid": "IRIDKCD5055669HQ",
        "url": "https://www.163.com/dy/article/IRIDKCD5055669HQ.html"
    },
    {
        "title": "实际上，很多房子已经丧失土地价值",
        "docid": "IRSBA42H0515I4G5",
        "url": "https://www.163.com/dy/article/IRSBA42H0515I4G5.html"
    },
    {
        "title": "执行中被执行人唯一住房能否执行？",
        "docid": "IRUOQETL055616X5",
        "url": "https://www.163.com/dy/article/IRUOQETL055616X5.html"
    },
    {
        "title": "可不可以通过减免房贷的方式促进消费提振经济呢？",
        "docid": "IRPG4G4705562SWQ",
        "url": "https://www.163.com/dy/article/IRPG4G4705562SWQ.html"
    },
    {
        "title": "房价从2.5万元跌到4000元，却依旧无人问津，业主：根本就卖不掉",
        "docid": "IRTMP5PH0535BC2F",
        "url": "https://www.163.com/dy/article/IRTMP5PH0535BC2F.html"
    },
    {
        "title": "房价暴涨在即？徐高专家预测：未来1-2年一二线城市房价将上涨！",
        "docid": "IRUS96G40553TB8M",
        "url": "https://www.163.com/dy/article/IRUS96G40553TB8M.html"
    },
    {
        "title": "物业环境外包管控要点，纯干货！",
        "docid": "IRPIU8GL055615MY",
        "url": "https://www.163.com/dy/article/IRPIU8GL055615MY.html"
    },
    {
        "title": "买房贷款之前应该知道哪些不得不考虑的东西？",
        "docid": "IRNA8QDT055669HQ",
        "url": "https://www.163.com/dy/article/IRNA8QDT055669HQ.html"
    },
    {
        "title": "金地环湾城，能安安静静地做自己，亦是时光赋予的美",
        "docid": "IRIPRTTL05565R0S",
        "url": "https://www.163.com/dy/article/IRIPRTTL05565R0S.html"
    },
    {
        "title": "买房莫放弃，也不要眼高手低",
        "docid": "IRN978M5055669HQ",
        "url": "https://www.163.com/dy/article/IRN978M5055669HQ.html"
    },
    {
        "title": "现在顶级豪宅的地库，简直逆天",
        "docid": "IRRUECJJ05158B67",
        "url": "https://www.163.com/dy/article/IRRUECJJ05158B67.html"
    },
    {
        "title": "拆迁小知识，您了解几个？",
        "docid": "IRKKFPJH055656SV",
        "url": "https://www.163.com/dy/article/IRKKFPJH055656SV.html"
    },
    {
        "title": "房子继承人的顺序，终于有人整理出来了，收藏看看吧。",
        "docid": "IRUTMRL60553TB8M",
        "url": "https://www.163.com/dy/article/IRUTMRL60553TB8M.html"
    },
    {
        "title": "房产保值力全国第一，这座城市因为楼市，又火了",
        "docid": "IRS9EAES0512B07B",
        "url": "https://www.163.com/dy/article/IRS9EAES0512B07B.html"
    },
    {
        "title": "全面逾期了, 该如何挽救!",
        "docid": "IRIEUR7O05534E6I",
        "url": "https://www.163.com/dy/article/IRIEUR7O05534E6I.html"
    },
    {
        "title": "买房到底选一楼还是顶楼好？一听过来人说的话，后悔我家察觉晚了",
        "docid": "IRQ1VFK205565UDW",
        "url": "https://www.163.com/dy/article/IRQ1VFK205565UDW.html"
    },
    {
        "title": "止跌！上涨！楼市，出现三大积极信号",
        "docid": "IRUTUP3A0553T1K6",
        "url": "https://www.163.com/dy/article/IRUTUP3A0553T1K6.html"
    },
    {
        "title": "在14万套二手挂牌里，我看到房东心态的变化",
        "docid": "IRUPF79K0515I4G5",
        "url": "https://www.163.com/dy/article/IRUPF79K0515I4G5.html"
    },
    {
        "title": "“抢人”大战持续！郑州最下“血本”：A类人才购房补300万元",
        "docid": "IRQ3111P0553TDTY",
        "url": "https://www.163.com/dy/article/IRQ3111P0553TDTY.html"
    },
    {
        "title": "年轻人纷纷回老家盖房，专家：快停下来，是想回去做农民吗？",
        "docid": "IRT9UFQP0549M7RH",
        "url": "https://www.163.com/dy/article/IRT9UFQP0549M7RH.html"
    },
    {
        "title": "大竖厅是亮点，850万，花语前湾123㎡户型是否值得购买？",
        "docid": "IRQT5ONH0515U60S",
        "url": "https://www.163.com/dy/article/IRQT5ONH0515U60S.html"
    },
    {
        "title": "一居室真的太小了，想和公公住一起都住不下",
        "docid": "IRICBCEK055669HQ",
        "url": "https://www.163.com/dy/article/IRICBCEK055669HQ.html"
    },
    {
        "title": "为什么现在这么多女生都要攒钱买房？",
        "docid": "IRIDSKC9055669HQ",
        "url": "https://www.163.com/dy/article/IRIDSKC9055669HQ.html"
    },
    {
        "title": "买完房子的感觉真是棒极了",
        "docid": "IRKDGERN055669HQ",
        "url": "https://www.163.com/dy/article/IRKDGERN055669HQ.html"
    },
    {
        "title": "注意了，2024年，记住这5点很重要！",
        "docid": "IRTLCHJ90535PKJN",
        "url": "https://www.163.com/dy/article/IRTLCHJ90535PKJN.html"
    },
    {
        "title": "买房买几楼最好高层住宅几楼最好？",
        "docid": "IRKJCD1H055669HQ",
        "url": "https://www.163.com/dy/article/IRKJCD1H055669HQ.html"
    },
    {
        "title": "第8周政策|房贷利率迎史上最大降幅五年期LPR降至3.95%，扬州取消住宅限售",
        "docid": "IRUO6VMS0515AF0E",
        "url": "https://www.163.com/dy/article/IRUO6VMS0515AF0E.html"
    },
    {
        "title": "从金融思维来看，房子应不应该买？",
        "docid": "IRNFGL11055669HQ",
        "url": "https://www.163.com/dy/article/IRNFGL11055669HQ.html"
    },
    {
        "title": "买个很差的房子不如回老家生活，这句话对吗？",
        "docid": "IRIE17SS055669HQ",
        "url": "https://www.163.com/dy/article/IRIE17SS055669HQ.html"
    },
    {
        "title": "南京大火15人遇难，低档高层小区前景堪忧",
        "docid": "IRPUBMF305565PRU",
        "url": "https://www.163.com/dy/article/IRPUBMF305565PRU.html"
    },
    {
        "title": "二手房毛坯装修，需要注意哪些问题？",
        "docid": "IRHSDJ0T05565UDU",
        "url": "https://www.163.com/dy/article/IRHSDJ0T05565UDU.html"
    },
    {
        "title": "2000万豪宅，却是为三口之家打造，这款大平层户型到底有何魅力？",
        "docid": "IRTDIAMA0515U60S",
        "url": "https://www.163.com/dy/article/IRTDIAMA0515U60S.html"
    },
    {
        "title": "什么样的房子才算户型方正？",
        "docid": "IRNF26S1055669HQ",
        "url": "https://www.163.com/dy/article/IRNF26S1055669HQ.html"
    },
    {
        "title": "看完知识暴涨，你买的是几楼，哪个楼层好，值得收藏",
        "docid": "IRSOMN680553TDXU",
        "url": "https://www.163.com/dy/article/IRSOMN680553TDXU.html"
    },
    {
        "title": "评价不一的大平层户型！细节还可以改进",
        "docid": "IRU969NV0553TEV3",
        "url": "https://www.163.com/dy/article/IRU969NV0553TEV3.html"
    },
    {
        "title": "“等等党”的胜利？ | 房叔说No.857",
        "docid": "IRV1J2Q10553TDTY",
        "url": "https://www.163.com/dy/article/IRV1J2Q10553TDTY.html"
    },
    {
        "title": "人生还有许多事情要做，远不只是一套房子",
        "docid": "IRNEPB2D055669HQ",
        "url": "https://www.163.com/dy/article/IRNEPB2D055669HQ.html"
    },
    {
        "title": "关键的降息被视为支撑房地产的举措",
        "docid": "IRUL49FC05562DPA",
        "url": "https://www.163.com/dy/article/IRUL49FC05562DPA.html"
    },
    {
        "title": "楼层的美好寓意，对号入座，你家住几楼？",
        "docid": "IRU4EJSD0553W1VY",
        "url": "https://www.163.com/dy/article/IRU4EJSD0553W1VY.html"
    },
    {
        "title": "这可能是你见到过最好的260平米户型",
        "docid": "IRP4K2AM05566SC9",
        "url": "https://www.163.com/dy/article/IRP4K2AM05566SC9.html"
    },
    {
        "title": "作为一个普通人，我就想老老实实买个房",
        "docid": "IRNG841T055669HQ",
        "url": "https://www.163.com/dy/article/IRNG841T055669HQ.html"
    },
    {
        "title": "村民到底能申请几处宅基地！",
        "docid": "IRNDOPUV0532AYDR",
        "url": "https://www.163.com/dy/article/IRNDOPUV0532AYDR.html"
    },
    {
        "title": "买房时这些爸妈教不了的知识你知道几个？",
        "docid": "IRKQOJ66055669HQ",
        "url": "https://www.163.com/dy/article/IRKQOJ66055669HQ.html"
    },
    {
        "title": "售楼员悄悄告诉你，那些买房的原来是这些人",
        "docid": "IRPQOQQ6055669HQ",
        "url": "https://www.163.com/dy/article/IRPQOQQ6055669HQ.html"
    },
    {
        "title": "248平米的奢华户型，功能齐全！",
        "docid": "IRV218SG0545PEDS",
        "url": "https://www.163.com/dy/article/IRV218SG0545PEDS.html"
    },
    {
        "title": "悉尼轨道大基建获批，房价要涨吗？澳洲人不想纳税了，电动车充电站太少引发不满！",
        "docid": "IRRHNLJ205199N88",
        "url": "https://www.163.com/dy/article/IRRHNLJ205199N88.html"
    },
    {
        "title": "2024年第08周新房成交1198套，二手房1915套，涨价房源1103套",
        "docid": "IRT7D3U20553TB9L",
        "url": "https://www.163.com/dy/article/IRT7D3U20553TB9L.html"
    },
    {
        "title": "2023年最新版房建工程、安装工程项目成本测算手册",
        "docid": "IRQUR4B60545PEDS",
        "url": "https://www.163.com/dy/article/IRQUR4B60545PEDS.html"
    },
    {
        "title": "买房这几点建议帮你找到心仪的房子",
        "docid": "IRNBILAI055669HQ",
        "url": "https://www.163.com/dy/article/IRNBILAI055669HQ.html"
    },
    {
        "title": "买房不要高兴的太早，这些一定要在买房前提前了解！",
        "docid": "IRKFRDBK055669HQ",
        "url": "https://www.163.com/dy/article/IRKFRDBK055669HQ.html"
    },
    {
        "title": "其实很多人没有想明白自己买房为什么纠结",
        "docid": "IRNI9JCM055669HQ",
        "url": "https://www.163.com/dy/article/IRNI9JCM055669HQ.html"
    },
    {
        "title": "当下的二手楼市，确实有股暗流涌动",
        "docid": "IRQ46GFR0515I4G5",
        "url": "https://www.163.com/dy/article/IRQ46GFR0515I4G5.html"
    },
    {
        "title": "两年前卖到36万/平，如今20万/平成交，北京顶豪也撑不住了？",
        "docid": "IRT8CQ7L0512B07B",
        "url": "https://www.163.com/dy/article/IRT8CQ7L0512B07B.html"
    },
    {
        "title": "为什么日本年轻人都喜欢租房不买房？｜阿拉蕾看日本",
        "docid": "IRUFO6NQ05390F92",
        "url": "https://www.163.com/dy/article/IRUFO6NQ05390F92.html"
    },
    {
        "title": "买到18层楼是种什么样的体验？",
        "docid": "IRKD0D62055669HQ",
        "url": "https://www.163.com/dy/article/IRKD0D62055669HQ.html"
    },
    {
        "title": "曼彻斯特：文化之都的光影下的房地产市场",
        "docid": "IRSM8U4E0514DPPR",
        "url": "https://www.163.com/dy/article/IRSM8U4E0514DPPR.html"
    },
    {
        "title": "穆迪撤销旭辉、正荣、宝龙等房企评级",
        "docid": "IRUHEHKA0553TDTY",
        "url": "https://www.163.com/dy/article/IRUHEHKA0553TDTY.html"
    },
    {
        "title": "买二手房的注意事项，应有有人整理出来了，血的教训，收藏备用",
        "docid": "IRUUKNFA0540MBU3",
        "url": "https://www.163.com/dy/article/IRUUKNFA0540MBU3.html"
    },
    {
        "title": "世邦魏理仕：市场预期港府减辣或撤辣 短期楼价有一定支持",
        "docid": "IRV6QNVD05198UNI",
        "url": "https://www.163.com/dy/article/IRV6QNVD05198UNI.html"
    },
    {
        "title": "买房前没攒到钱，但是我还是毅然决定借钱买",
        "docid": "IRKL4DJP055669HQ",
        "url": "https://www.163.com/dy/article/IRKL4DJP055669HQ.html"
    },
    {
        "title": "如果你问我买房还是租房，我一定毫不犹豫的说，买！",
        "docid": "IRQ28BBB055669HQ",
        "url": "https://www.163.com/dy/article/IRQ28BBB055669HQ.html"
    },
    {
        "title": "10年进地产23年退出，小赚了400万，现在躺平了",
        "docid": "IRV0MPAB0545PEDS",
        "url": "https://www.163.com/dy/article/IRV0MPAB0545PEDS.html"
    },
    {
        "title": "买房需要的是现金，而不是毕业学校",
        "docid": "IRNC5TF1055669HQ",
        "url": "https://www.163.com/dy/article/IRNC5TF1055669HQ.html"
    },
    {
        "title": "土拍预告丨2月27日16城37宗地块挂牌截止，其中涉宅用地19宗",
        "docid": "IRTJSH830552F71X",
        "url": "https://www.163.com/dy/article/IRTJSH830552F71X.html"
    },
    {
        "title": "买房真的最好别选这层，买过的人都说后悔了！",
        "docid": "IRN8IG9V055669HQ",
        "url": "https://www.163.com/dy/article/IRN8IG9V055669HQ.html"
    },
    {
        "title": "几年前我肯定想不到，我现在会这么迫切的想买房",
        "docid": "IRPLRQPF055669HQ",
        "url": "https://www.163.com/dy/article/IRPLRQPF055669HQ.html"
    },
    {
        "title": "看清那些自相矛盾的统计数据|不是楼市回暖，是不动产洗牌！",
        "docid": "IRV90PMQ05566SC9",
        "url": "https://www.163.com/dy/article/IRV90PMQ05566SC9.html"
    },
    {
        "title": "买房让我明白了人生是多么的公平",
        "docid": "IRNA1FON055669HQ",
        "url": "https://www.163.com/dy/article/IRNA1FON055669HQ.html"
    },
    {
        "title": "房产税真要来了？教授提出“免征面积”理论，胡锡进给出5字建议",
        "docid": "IROLGR250535BC2F",
        "url": "https://www.163.com/dy/article/IROLGR250535BC2F.html"
    },
    {
        "title": "买房有风险，选楼需谨慎，这些“坑”要注意，千万别踩！",
        "docid": "IRKTNI7A055669HQ",
        "url": "https://www.163.com/dy/article/IRKTNI7A055669HQ.html"
    },
    {
        "title": "房产证更名流程是怎样的？",
        "docid": "IRKDBMJ305562SWQ",
        "url": "https://www.163.com/dy/article/IRKDBMJ305562SWQ.html"
    },
    {
        "title": "买房忽略这点能让你吃大亏",
        "docid": "IRKOBV2I055669HQ",
        "url": "https://www.163.com/dy/article/IRKOBV2I055669HQ.html"
    },
    {
        "title": "警报拉响！一线城市，业主正在“免费送房”？",
        "docid": "IRR2414F05563TCH",
        "url": "https://www.163.com/dy/article/IRR2414F05563TCH.html"
    },
    {
        "title": "清迈湄林绿谷高尔夫球场附近400平方米土地出售，27万人民币",
        "docid": "IRULI55K0553TEQM",
        "url": "https://www.163.com/dy/article/IRULI55K0553TEQM.html"
    },
    {
        "title": "买房的时候忽略哪些因素会让人悔恨不已？",
        "docid": "IRN7Q077055669HQ",
        "url": "https://www.163.com/dy/article/IRN7Q077055669HQ.html"
    },
    {
        "title": "缅甸国内投资涌入仰光房地产市场，实际只有租赁市场活跃",
        "docid": "IROBOGFL0545PEDS",
        "url": "https://www.163.com/dy/article/IROBOGFL0545PEDS.html"
    },
    {
        "title": "舒适度相当高的142平米户型是什么格局?",
        "docid": "IRNC97RS0545PEDS",
        "url": "https://www.163.com/dy/article/IRNC97RS0545PEDS.html"
    },
    {
        "title": "原来这就是理想的246平米华丽户型",
        "docid": "IRSR84MP0553TDTY",
        "url": "https://www.163.com/dy/article/IRSR84MP0553TDTY.html"
    },
    {
        "title": "到底现在哪些人是购房的主力？",
        "docid": "IRPO7UKD055669HQ",
        "url": "https://www.163.com/dy/article/IRPO7UKD055669HQ.html"
    },
    {
        "title": "男子摇号买房, 销售员在群里发了一条微信, 让不少人都怒了",
        "docid": "IRLU8NP405564TV4",
        "url": "https://www.163.com/dy/article/IRLU8NP405564TV4.html"
    },
    {
        "title": "农村建房到底多少钱？108款造价给你参考，建议收藏",
        "docid": "IRRS4TJQ0553RVN3",
        "url": "https://www.163.com/dy/article/IRRS4TJQ0553RVN3.html"
    },
    {
        "title": "买二手房其实完全是信任之间的拼搏",
        "docid": "IRKCEVB2055669HQ",
        "url": "https://www.163.com/dy/article/IRKCEVB2055669HQ.html"
    },
    {
        "title": "招商蛇口为何取消华中区域？",
        "docid": "IRS8K5ON05158B15",
        "url": "https://www.163.com/dy/article/IRS8K5ON05158B15.html"
    },
    {
        "title": "发布预征地通告和征地公告的区别是什么？",
        "docid": "IROFTHB80532Q69P",
        "url": "https://www.163.com/dy/article/IROFTHB80532Q69P.html"
    },
    {
        "title": "法拍房市场挂牌火爆，增长近五成",
        "docid": "IRV86FH105565D7X",
        "url": "https://www.163.com/dy/article/IRV86FH105565D7X.html"
    },
    {
        "title": "搞大了，搞大了，然而并没什么用",
        "docid": "IRV06HEF0553QMR9",
        "url": "https://www.163.com/dy/article/IRV06HEF0553QMR9.html"
    },
    {
        "title": "整理一下网上对于加装电梯应装尽装的一些意见反馈",
        "docid": "IRPIM3BE0553TEQM",
        "url": "https://www.163.com/dy/article/IRPIM3BE0553TEQM.html"
    },
    {
        "title": "买房贷款怎么贷最划算？",
        "docid": "IRNACNKR055669HQ",
        "url": "https://www.163.com/dy/article/IRNACNKR055669HQ.html"
    },
    {
        "title": "一张图片中介小伙想卖2个小目标？比利时领事馆领居",
        "docid": "IRPOLBRO0553TDTY",
        "url": "https://www.163.com/dy/article/IRPOLBRO0553TDTY.html"
    },
    {
        "title": "银行开年就降息，意味着什么？",
        "docid": "IROILJU90532B8U9",
        "url": "https://www.163.com/dy/article/IROILJU90532B8U9.html"
    },
    {
        "title": "Mysteel周报：10大城市新房成交较节前一周增12.3%",
        "docid": "IRUSV7VE0514AHGG",
        "url": "https://www.163.com/dy/article/IRUSV7VE0514AHGG.html"
    },
    {
        "title": "地产周刊丨楼市小幅回升是大概率事件“小阳春”可期",
        "docid": "IRUPUT2V0512D71I",
        "url": "https://www.163.com/dy/article/IRUPUT2V0512D71I.html"
    },
    {
        "title": "牧云溪谷，红尘之外悠然自得，心中那一方寸之地",
        "docid": "IRL2V1DO05566HYK",
        "url": "https://www.163.com/dy/article/IRL2V1DO05566HYK.html"
    },
    {
        "title": "2024年做好房价“硬着陆”准备，3大趋势下，房价会继续下跌？",
        "docid": "IRTQQ0LN0535BC2F",
        "url": "https://www.163.com/dy/article/IRTQQ0LN0535BC2F.html"
    },
    {
        "title": "南方自建房好浓的一股霸道总裁味！总能刷新我的世界观",
        "docid": "IRVDE5QG0553TB8M",
        "url": "https://www.163.com/dy/article/IRVDE5QG0553TB8M.html"
    },
    {
        "title": "买了这样的学区房，真的是哭到没眼泪！",
        "docid": "IRG2D6PU0535AGF9",
        "url": "https://www.163.com/dy/article/IRG2D6PU0535AGF9.html"
    },
    {
        "title": "买房和装修都必备的神器——最全面最合理的户型尺寸攻略",
        "docid": "IRQ233AL05565UDW",
        "url": "https://www.163.com/dy/article/IRQ233AL05565UDW.html"
    },
    {
        "title": "房子是买不动了，有闲置资金买哪个车位比较好",
        "docid": "IRVBVNE60553TB8M",
        "url": "https://www.163.com/dy/article/IRVBVNE60553TB8M.html"
    },
    {
        "title": "滨江集团(002244.SZ)竞得2处土地使用权",
        "docid": "IRVGFVPA05198UNI",
        "url": "https://www.163.com/dy/article/IRVGFVPA05198UNI.html"
    },
    {
        "title": "相寓利用AI算法推出“双人通勤租房”功能",
        "docid": "IRVC8BMR0519D45U",
        "url": "https://www.163.com/dy/article/IRVC8BMR0519D45U.html"
    },
    {
        "title": "张歆艺：我在上海宁愿花1000w租房，也不愿买房！",
        "docid": "IRSNCCIQ0556517F",
        "url": "https://www.163.com/dy/article/IRSNCCIQ0556517F.html"
    },
    {
        "title": "90后为什么很少人能买起房子？",
        "docid": "IRIBMA2N055669HQ",
        "url": "https://www.163.com/dy/article/IRIBMA2N055669HQ.html"
    },
    {
        "title": "“涨价去库存”又启动？房价还会涨吗？看看三个趋势或许就明白了",
        "docid": "IRV3V6K80536UOB3",
        "url": "https://www.163.com/dy/article/IRV3V6K80536UOB3.html"
    },
    {
        "title": "2024节后租房调查报告：调查称超六成人希望房租在3000元以下",
        "docid": "IRVAC2CQ0539AP40",
        "url": "https://www.163.com/dy/article/IRVAC2CQ0539AP40.html"
    },
    {
        "title": "不能再降了？专家：房价应该上涨，越涨大家购买意愿越强！",
        "docid": "IRVEH8J90552O6NO",
        "url": "https://www.163.com/dy/article/IRVEH8J90552O6NO.html"
    },
    {
        "title": "在县城买房农民仅有34%是长期入住",
        "docid": "IRUP3IMQ0514D4FG",
        "url": "https://www.163.com/dy/article/IRUP3IMQ0514D4FG.html"
    },
    {
        "title": "二手房销售暴增70%，这是一个扭曲的信号",
        "docid": "IRTF1FT60553TDTY",
        "url": "https://www.163.com/dy/article/IRTF1FT60553TDTY.html"
    },
    {
        "title": "还有谁能吹响2024年小阳春最后的冲锋号？",
        "docid": "IRUO95CS055616ZT",
        "url": "https://www.163.com/dy/article/IRUO95CS055616ZT.html"
    },
    {
        "title": "买完房子之后这几点让我太爽了",
        "docid": "IRKDB6JR055669HQ",
        "url": "https://www.163.com/dy/article/IRKDB6JR055669HQ.html"
    },
    {
        "title": "女生结婚之前该不该先买套房？",
        "docid": "IRQ0CVIC055669HQ",
        "url": "https://www.163.com/dy/article/IRQ0CVIC055669HQ.html"
    },
    {
        "title": "在美国这些城市，年入$15万被认为是“下层中产阶级”",
        "docid": "IRRK4NI10552JRS3",
        "url": "https://www.163.com/dy/article/IRRK4NI10552JRS3.html"
    },
    {
        "title": "2024年起，还没买房的人或迎来“3个利好”，刚需的好机会来了？",
        "docid": "IRVEIEAH0540SN7V",
        "url": "https://www.163.com/dy/article/IRVEIEAH0540SN7V.html"
    },
    {
        "title": "买房时，采光其实很重要",
        "docid": "IRKR3KMH055669HQ",
        "url": "https://www.163.com/dy/article/IRKR3KMH055669HQ.html"
    },
    {
        "title": "千万别买凸阳台的房子，白给都不要，否则后悔一辈子！",
        "docid": "IRSRKQ1B0540FQWZ",
        "url": "https://www.163.com/dy/article/IRSRKQ1B0540FQWZ.html"
    },
    {
        "title": "销售型保障房开建，这些城市推进速度加快",
        "docid": "IRUQKK8B0535A6CE",
        "url": "https://www.163.com/dy/article/IRUQKK8B0535A6CE.html"
    },
    {
        "title": "为什么有那么多人热衷于买房子？",
        "docid": "IRIDRP0Q055669HQ",
        "url": "https://www.163.com/dy/article/IRIDRP0Q055669HQ.html"
    },
    {
        "title": "再转让一座万达广场！多个万达广场悄然易主~",
        "docid": "IRVENH9R0545E51P",
        "url": "https://www.163.com/dy/article/IRVENH9R0545E51P.html"
    },
    {
        "title": "东京港区431万2LDK自住好房，全新装修，楼下抬头即可见东京塔，山手线车站640米！",
        "docid": "IRLILS8A05359JWY",
        "url": "https://www.163.com/dy/article/IRLILS8A05359JWY.html"
    },
    {
        "title": "刚需还是第一套的，赶紧上车吧",
        "docid": "IRPO3HGC055669HQ",
        "url": "https://www.163.com/dy/article/IRPO3HGC055669HQ.html"
    },
    {
        "title": "2023年江苏、浙江、山东、四川和广东分居土地出让收入前五名",
        "docid": "IRSHPM630519D45U",
        "url": "https://www.163.com/dy/article/IRSHPM630519D45U.html"
    },
    {
        "title": "实锤了！郭徐岭和洪山小区将要进行征收！",
        "docid": "IRVKKKM105149MGC",
        "url": "https://www.163.com/dy/article/IRVKKKM105149MGC.html"
    },
    {
        "title": "聚众吸毒、入室盗窃、霉菌遍地，学生来巴黎租房一定要避开这里！",
        "docid": "IRV22IKH0553TEV3",
        "url": "https://www.163.com/dy/article/IRV22IKH0553TEV3.html"
    },
    {
        "title": "小城房价破万，好房难买！专家：不急，将来炒房客会哭着卖房",
        "docid": "IRK0UEVE0553TDVP",
        "url": "https://www.163.com/dy/article/IRK0UEVE0553TDVP.html"
    },
    {
        "title": "“制造业”和“楼市”保哪个! 著名企业家愤怒发声, 高层会议定调",
        "docid": "IRV725V60553FMCE",
        "url": "https://www.163.com/dy/article/IRV725V60553FMCE.html"
    },
    {
        "title": "连跌27星期后暂见回稳 “美联楼价指数”环比上周升0.25%",
        "docid": "IRT8PR1905198UNI",
        "url": "https://www.163.com/dy/article/IRT8PR1905198UNI.html"
    },
    {
        "title": "曼谷TM30如何办理，清迈TM30如何办理",
        "docid": "IRTJQNIQ0544LVR1",
        "url": "https://www.163.com/dy/article/IRTJQNIQ0544LVR1.html"
    },
    {
        "title": "今年楼市行不行，就看这个了？",
        "docid": "IRSS9VUN0553QMR9",
        "url": "https://www.163.com/dy/article/IRSS9VUN0553QMR9.html"
    },
    {
        "title": "万达广场将春风送到家，就业“平台”为您搭建",
        "docid": "IRSFUHEF0553TB8M",
        "url": "https://www.163.com/dy/article/IRSFUHEF0553TB8M.html"
    },
    {
        "title": "早八点 | 楼市整体环比上升，土地整体供求环比走高，宅地成交量增近六成",
        "docid": "IRRST32605159A0N",
        "url": "https://www.163.com/dy/article/IRRST32605159A0N.html"
    },
    {
        "title": "入住3年，我从一楼搬到了顶楼，虽折腾，但现在住着真舒服",
        "docid": "IRVLEO0H0540MBU3",
        "url": "https://www.163.com/dy/article/IRVLEO0H0540MBU3.html"
    },
    {
        "title": "2024，新一轮的拆迁潮，来了",
        "docid": "IRVE3RFN0519E14O",
        "url": "https://www.163.com/dy/article/IRVE3RFN0519E14O.html"
    },
    {
        "title": "一个房子满足了这些，就算是好户型",
        "docid": "IRIC0JDJ055669HQ",
        "url": "https://www.163.com/dy/article/IRIC0JDJ055669HQ.html"
    },
    {
        "title": "房贷利率下降，美国1月新屋销售同环比均上涨，但房价同比五连跌",
        "docid": "IRU8GS6B05198NMR",
        "url": "https://www.163.com/dy/article/IRU8GS6B05198NMR.html"
    },
    {
        "title": "一线城市楼市喜迎“春色”，2024年的“小阳春”，或会提前到来！",
        "docid": "IRT68R5T0535HK01",
        "url": "https://www.163.com/dy/article/IRT68R5T0535HK01.html"
    },
    {
        "title": "4514亿！房地产真正的航母舰队，浮出水面…",
        "docid": "IRVKATBU055211ZC",
        "url": "https://www.163.com/dy/article/IRVKATBU055211ZC.html"
    },
    {
        "title": "loft复式公寓vs平层soho公寓，哪个才更具有性价比？",
        "docid": "IPP9HATV0535WDMF",
        "url": "https://www.163.com/dy/article/IPP9HATV0535WDMF.html"
    },
    {
        "title": "消息称中交地产组织结构大变革：撤销区域公司 由总部直管城市公司",
        "docid": "IRVG4MMV05562SCF",
        "url": "https://www.163.com/dy/article/IRVG4MMV05562SCF.html"
    },
    {
        "title": "美国房屋委托书附加证明书Apostille一文说清楚",
        "docid": "IRKJPEAQ055364TO",
        "url": "https://www.163.com/dy/article/IRKJPEAQ055364TO.html"
    },
    {
        "title": "2024年，该“抄底买房”还是“存到银行”？内行人提醒，明白了！",
        "docid": "IRVHMCTF0552O6TB",
        "url": "https://www.163.com/dy/article/IRVHMCTF0552O6TB.html"
    },
    {
        "title": "房产证尽量不要写夫妻俩人名字，这到底是为什么？",
        "docid": "IRVHNLPK0553TB9L",
        "url": "https://www.163.com/dy/article/IRVHNLPK0553TB9L.html"
    },
    {
        "title": "各省房价跌幅榜，收藏起来看看，你就知道了！",
        "docid": "IRPE9KSU0553TEQM",
        "url": "https://www.163.com/dy/article/IRPE9KSU0553TEQM.html"
    },
    {
        "title": "MSCI报告：香港去年商业地产投资额636亿港元 低于新加坡",
        "docid": "IRVFTJIH0519D45U",
        "url": "https://www.163.com/dy/article/IRVFTJIH0519D45U.html"
    },
    {
        "title": "拆迁户倒贴钱买安置房？",
        "docid": "IRGEHA1F0532Q69P",
        "url": "https://www.163.com/dy/article/IRGEHA1F0532Q69P.html"
    },
    {
        "title": "集体农用地转为建设用地，需要符合哪些程序性规定",
        "docid": "IRFFF4VF05561IXQ",
        "url": "https://www.163.com/dy/article/IRFFF4VF05561IXQ.html"
    },
    {
        "title": "认房不认贷款：一个政策出台楼市能大卖吗？",
        "docid": "INJPEPCD05538DP3",
        "url": "https://www.163.com/dy/article/INJPEPCD05538DP3.html"
    },
    {
        "title": "诸葛找房：上周重点监测城市新房成交环比上涨713.17%，二手住宅成交环比上涨611.02%",
        "docid": "IRSP826H0519QIKK",
        "url": "https://www.163.com/dy/article/IRSP826H0519QIKK.html"
    },
    {
        "title": "已经火了5年二层新中式二层别墅，这才是新中式农村别墅应该样子",
        "docid": "IRJ6Q4T10520BKDJ",
        "url": "https://www.163.com/dy/article/IRJ6Q4T10520BKDJ.html"
    },
    {
        "title": "10套自建房别墅图纸，简约大气，经济实用户型，适合90%农村家庭",
        "docid": "IRO4AOHO0556124M",
        "url": "https://www.163.com/dy/article/IRO4AOHO0556124M.html"
    },
    {
        "title": "买房时真正纠缠你的不是钱，而是你自己",
        "docid": "IRKQJPH3055669HQ",
        "url": "https://www.163.com/dy/article/IRKQJPH3055669HQ.html"
    },
    {
        "title": "买楼房选对风水，能让你人生更上一层楼",
        "docid": "IRNDF8L0055669HQ",
        "url": "https://www.163.com/dy/article/IRNDF8L0055669HQ.html"
    },
    {
        "title": "中海地产这样管理项目工程合约",
        "docid": "IRUDQSPA0553TDVP",
        "url": "https://www.163.com/dy/article/IRUDQSPA0553TDVP.html"
    },
    {
        "title": "伯明翰房产投资的优势和机遇：如何在英国房产市场占得一席之地？",
        "docid": "IRL0VDN20514DPPR",
        "url": "https://www.163.com/dy/article/IRL0VDN20514DPPR.html"
    },
    {
        "title": "天风宏观宋雪涛：土地改革的重要信号——中央深改委第四次会议解读",
        "docid": "IRRVC4370519QIKK",
        "url": "https://www.163.com/dy/article/IRRVC4370519QIKK.html"
    },
    {
        "title": "00后年轻人买房会越来越容易，但是00后却不喜欢买房了",
        "docid": "IRE3B0JF0535JMSP",
        "url": "https://www.163.com/dy/article/IRE3B0JF0535JMSP.html"
    },
    {
        "title": "申请政府信息公开，关键要点一文读懂",
        "docid": "IRHCT2V505561WMS",
        "url": "https://www.163.com/dy/article/IRHCT2V505561WMS.html"
    },
    {
        "title": "年轻人如何实现“无痛”花钱？",
        "docid": "IRSACGS805509VFK",
        "url": "https://www.163.com/dy/article/IRSACGS805509VFK.html"
    },
    {
        "title": "讲真，这是我见过的最完美的大平层户型，没有之一",
        "docid": "IRE093030515U60S",
        "url": "https://www.163.com/dy/article/IRE093030515U60S.html"
    },
    {
        "title": "【通楼优选】军山花园顶复洋房，精装挑空客厅，采光充足",
        "docid": "IRVITPOL0525QU8R",
        "url": "https://www.163.com/dy/article/IRVITPOL0525QU8R.html"
    },
    {
        "title": "买房注意事项有哪些？这7个买房细节让你住得更舒适",
        "docid": "IRN7AJFS055669HQ",
        "url": "https://www.163.com/dy/article/IRN7AJFS055669HQ.html"
    },
    {
        "title": "“住房公积金”有多吃香？这四条告诉你。记得收藏看看",
        "docid": "IROB6FQU055616ZT",
        "url": "https://www.163.com/dy/article/IROB6FQU055616ZT.html"
    },
    {
        "title": "匈牙利黄金签证计划复活，投资者轻松实现欧洲梦",
        "docid": "IRVIEJOR0514DPPR",
        "url": "https://www.163.com/dy/article/IRVIEJOR0514DPPR.html"
    },
    {
        "title": "还是喜欢你桀骜不驯的样子",
        "docid": "IRVLF14B05525O8Q",
        "url": "https://www.163.com/dy/article/IRVLF14B05525O8Q.html"
    },
    {
        "title": "“减辣”机会大于完全“撤辣”!香港经济动力有赖于投资者信心",
        "docid": "IRVFLG4905562A9U",
        "url": "https://www.163.com/dy/article/IRVFLG4905562A9U.html"
    },
    {
        "title": "【每日学“典”：融资租赁合同的租金 可由当事人约定】",
        "docid": "IRT684ET0552F71X",
        "url": "https://www.163.com/dy/article/IRT684ET0552F71X.html"
    },
    {
        "title": "在这些地方省钱？小心，以后有你花大钱的地方",
        "docid": "IRTDGA320520B5DI",
        "url": "https://www.163.com/dy/article/IRTDGA320520B5DI.html"
    },
    {
        "title": "售楼部工作12年，总结出来的12个买房建议！看完真是涨知识了",
        "docid": "IRS8537R055616ZT",
        "url": "https://www.163.com/dy/article/IRS8537R055616ZT.html"
    },
    {
        "title": "房子已经严重过剩，为什么开发商还要不停的盖房？和4个原因有关",
        "docid": "IRVQK1KR0535PKJN",
        "url": "https://www.163.com/dy/article/IRVQK1KR0535PKJN.html"
    },
    {
        "title": "不出5年，国内“最贵的”不是房子车子，而是这4样不起眼的东西？",
        "docid": "IRNOGTKK0553TB9L",
        "url": "https://www.163.com/dy/article/IRNOGTKK0553TB9L.html"
    },
    {
        "title": "2024年全国主要城市最新房价排名，新鲜出炉，你家乡房价多少了",
        "docid": "IRVA9T9N0553TB9L",
        "url": "https://www.163.com/dy/article/IRVA9T9N0553TB9L.html"
    },
    {
        "title": "新生儿跌至902万，给了房价要命一下",
        "docid": "IRE3FT900535JMSP",
        "url": "https://www.163.com/dy/article/IRE3FT900535JMSP.html"
    },
    {
        "title": "30款占地100平以内的二层别墅，小户型也能这么美，二层小别墅",
        "docid": "IRGJQLR40520BKDJ",
        "url": "https://www.163.com/dy/article/IRGJQLR40520BKDJ.html"
    },
    {
        "title": "9-11楼PM2.5浓度最大？买房的“黑色楼层”你避开了吗？",
        "docid": "IRIBKTR4055669HQ",
        "url": "https://www.163.com/dy/article/IRIBKTR4055669HQ.html"
    },
    {
        "title": "如果不是前几年年买了房，估计再过几年我真的什么都买不到了",
        "docid": "IRQ1A425055669HQ",
        "url": "https://www.163.com/dy/article/IRQ1A425055669HQ.html"
    },
    {
        "title": "安徽一市公告！房贷“商转公”自27日起可办理",
        "docid": "IRVIT9U00530OLSK",
        "url": "https://www.163.com/dy/article/IRVIT9U00530OLSK.html"
    },
    {
        "title": "知名资本大佬上海豪宅被拍卖： 估值1.27亿，9000万起拍！",
        "docid": "IRVDO0TG0512B07B",
        "url": "https://www.163.com/dy/article/IRVDO0TG0512B07B.html"
    },
    {
        "title": "房价跌幅榜，看看你的城市怎么样？",
        "docid": "IRSQPB7E0549RI77",
        "url": "https://www.163.com/dy/article/IRSQPB7E0549RI77.html"
    },
    {
        "title": "买房之后，我发现卡里余额只能够活两个月了",
        "docid": "IRKIF035055669HQ",
        "url": "https://www.163.com/dy/article/IRKIF035055669HQ.html"
    },
    {
        "title": "大多数说买不起房的是没有认清自己的购买力",
        "docid": "IRPVHN2C055669HQ",
        "url": "https://www.163.com/dy/article/IRPVHN2C055669HQ.html"
    },
    {
        "title": "非居住房拆迁如何补偿？",
        "docid": "IRJ05CT90532Q69P",
        "url": "https://www.163.com/dy/article/IRJ05CT90532Q69P.html"
    },
    {
        "title": "开年就降价，这些楼盘突然爆火！",
        "docid": "IRSUN1PM05522QVI",
        "url": "https://www.163.com/dy/article/IRSUN1PM05522QVI.html"
    },
    {
        "title": "房产早参 | 1月份一线城市新房销售价格环比下降0.3%；国开行已发放城中村改造专项借款360多亿元",
        "docid": "IRS0D4CP0512B07B",
        "url": "https://www.163.com/dy/article/IRS0D4CP0512B07B.html"
    },
    {
        "title": "撤销区域公司！又一地产央企大规模调整组织架构！",
        "docid": "IRTKPBD90549RI77",
        "url": "https://www.163.com/dy/article/IRTKPBD90549RI77.html"
    },
    {
        "title": "德国商业地产市场承压 巨大敞口或令德国银行遭受冲击",
        "docid": "IRVADR2A05198UNI",
        "url": "https://www.163.com/dy/article/IRVADR2A05198UNI.html"
    },
    {
        "title": "不买房五年又白忙 vs 做好跌30%预案",
        "docid": "IRPC3U7O0552F71X",
        "url": "https://www.163.com/dy/article/IRPC3U7O0552F71X.html"
    },
    {
        "title": "卖了房子买保险：中产家庭的新选择？",
        "docid": "IRUIHB7R0534I0NW",
        "url": "https://www.163.com/dy/article/IRUIHB7R0534I0NW.html"
    },
    {
        "title": "行业大洗牌：谁是拿地王",
        "docid": "IRSUKTMQ0552TUV8",
        "url": "https://www.163.com/dy/article/IRSUKTMQ0552TUV8.html"
    },
    {
        "title": "一周楼市：楼市有序复工 LPR下调助力小阳春",
        "docid": "IRUVM1S40519AFSG",
        "url": "https://www.163.com/dy/article/IRUVM1S40519AFSG.html"
    },
    {
        "title": "住建部：科学安排土地供应 防止房地产市场大起大落",
        "docid": "IRVSK10Q0514R9KQ",
        "url": "https://www.163.com/dy/article/IRVSK10Q0514R9KQ.html"
    },
    {
        "title": "专家预测全球楼市拐点已至",
        "docid": "IRVPC0NV0514BQ68",
        "url": "https://www.163.com/dy/article/IRVPC0NV0514BQ68.html"
    },
    {
        "title": "港媒：许家印前妻向亲生儿子许腾鹤追讨逾10亿港元",
        "docid": "IRVC5QG30534A4SC",
        "url": "https://www.163.com/dy/article/IRVC5QG30534A4SC.html"
    },
    {
        "title": "黄奇帆的十个指标：可以定义楼市的未来吗？",
        "docid": "IRHQ3J2N05538DP3",
        "url": "https://www.163.com/dy/article/IRHQ3J2N05538DP3.html"
    },
    {
        "title": "太子地产携手丽笙酒店集团 柬埔寨酒店及公寓2026年开业",
        "docid": "IRUQKCN60519D45U",
        "url": "https://www.163.com/dy/article/IRUQKCN60519D45U.html"
    },
    {
        "title": "三四线楼市被逼疯，只要买房都好谈",
        "docid": "IRVUTDUE055629OM",
        "url": "https://www.163.com/dy/article/IRVUTDUE055629OM.html"
    },
    {
        "title": "东京大学旁！东京文京区投资公寓，千代田线车站160米，近上野、秋叶原商圈！",
        "docid": "IRVQORDO05359JWY",
        "url": "https://www.163.com/dy/article/IRVQORDO05359JWY.html"
    },
    {
        "title": "买房之前，你考虑过房屋租售比吗？",
        "docid": "IRKH3EVD055669HQ",
        "url": "https://www.163.com/dy/article/IRKH3EVD055669HQ.html"
    },
    {
        "title": "听有人说90后靠自己买房很难？",
        "docid": "IRPQ98P5055669HQ",
        "url": "https://www.163.com/dy/article/IRPQ98P5055669HQ.html"
    },
    {
        "title": "只要你能做到这三点，武汉、成都、西安等二线城市，随便买套房",
        "docid": "IRE3C91F0535JMSP",
        "url": "https://www.163.com/dy/article/IRE3C91F0535JMSP.html"
    },
    {
        "title": "港房屋局目标10年内建造41万个过渡性住房单位",
        "docid": "IRSTVLD50519D45U",
        "url": "https://www.163.com/dy/article/IRSTVLD50519D45U.html"
    },
    {
        "title": "注意！房屋出租人不按规定登记承租人身份信息被处罚",
        "docid": "IRSJ8UVA0553TDXU",
        "url": "https://www.163.com/dy/article/IRSJ8UVA0553TDXU.html"
    },
    {
        "title": "“2•23”事件第九年，链家做了怎样的“复盘”？",
        "docid": "IRSOO8JM05565F2I",
        "url": "https://www.163.com/dy/article/IRSOO8JM05565F2I.html"
    },
    {
        "title": "五折去库存？这狠招都谁研究的！",
        "docid": "IRUIH6N30552HI5G",
        "url": "https://www.163.com/dy/article/IRUIH6N30552HI5G.html"
    },
    {
        "title": "小姨子买套二手房，住了半年大呼后悔，可我觉得还不错啊！",
        "docid": "IRARKUSG0540FQWZ",
        "url": "https://www.163.com/dy/article/IRARKUSG0540FQWZ.html"
    },
    {
        "title": "买房六买六不买，高手买房技巧全都整理好了，收藏起来看看吧",
        "docid": "IS053GN80556124M",
        "url": "https://www.163.com/dy/article/IS053GN80556124M.html"
    },
    {
        "title": "租了8年的店铺，共给了68W租金，合同到期了",
        "docid": "IRGAGQ710556544R",
        "url": "https://www.163.com/dy/article/IRGAGQ710556544R.html"
    },
    {
        "title": "中国第一豪宅：历经3任传奇主人，世界首富也未必买的起",
        "docid": "IRL9TQOT05560S0F",
        "url": "https://www.163.com/dy/article/IRL9TQOT05560S0F.html"
    },
    {
        "title": "与其在市区花大价钱买套房，不如找个潜力的郊区",
        "docid": "IRIDC99N055669HQ",
        "url": "https://www.163.com/dy/article/IRIDC99N055669HQ.html"
    },
    {
        "title": "为什么很多人都房子看衰？",
        "docid": "IRIDNRBF055669HQ",
        "url": "https://www.163.com/dy/article/IRIDNRBF055669HQ.html"
    },
    {
        "title": "刚需买房越早越好，投资需谨慎",
        "docid": "IRPNBR05055669HQ",
        "url": "https://www.163.com/dy/article/IRPNBR05055669HQ.html"
    },
    {
        "title": "谢逸枫：楼市小阳春来袭！1月70城房价边际改善",
        "docid": "IRS9FOER0515ALUG",
        "url": "https://www.163.com/dy/article/IRS9FOER0515ALUG.html"
    },
    {
        "title": "越南度假地产市场呈现积极迹象",
        "docid": "IRVIBDJP0553TDVP",
        "url": "https://www.163.com/dy/article/IRVIBDJP0553TDVP.html"
    },
    {
        "title": "社论：二手房市场自主销售潮起，中介模式何去何从？",
        "docid": "IRO5OUO5055665GS",
        "url": "https://www.163.com/dy/article/IRO5OUO5055665GS.html"
    },
    {
        "title": "银行降低五年期以上贷款利率的影响分析",
        "docid": "IRIJV2FQ0556567I",
        "url": "https://www.163.com/dy/article/IRIJV2FQ0556567I.html"
    },
    {
        "title": "楼市新房库存规模下降，“供大于求”逐步转向“供小于求”",
        "docid": "IRVLU9320519DDQ2",
        "url": "https://www.163.com/dy/article/IRVLU9320519DDQ2.html"
    },
    {
        "title": "允许老外进场，地产大招还是来了！",
        "docid": "IS00QGS80549RI77",
        "url": "https://www.163.com/dy/article/IS00QGS80549RI77.html"
    },
    {
        "title": "拆迁补偿标准没统一，遇上拆迁该如何补偿呢？",
        "docid": "IRVTL8V20532Q69P",
        "url": "https://www.163.com/dy/article/IRVTL8V20532Q69P.html"
    },
    {
        "title": "出险房企近400个项目入围“白名单”，已有项目获得金融机构驰援",
        "docid": "IRTBFKHA0539AP40",
        "url": "https://www.163.com/dy/article/IRTBFKHA0539AP40.html"
    },
    {
        "title": "不论你今年买房不买房，这三件事都应该知道！",
        "docid": "IRIDAB6N055669HQ",
        "url": "https://www.163.com/dy/article/IRIDAB6N055669HQ.html"
    },
    {
        "title": "谢逸枫：降准降息！现在不买房，五年又白忙",
        "docid": "IRVUEA6L0515ALUG",
        "url": "https://www.163.com/dy/article/IRVUEA6L0515ALUG.html"
    },
    {
        "title": "如果楼市销量继续下滑：要价格，还是要销量？",
        "docid": "IRDHK57K05538DP3",
        "url": "https://www.163.com/dy/article/IRDHK57K05538DP3.html"
    }
]