[
    {
        "title": "买房时要谨记“7个字”：买边、买中、不买三，差房子会远离你！",
        "docid": "IQTNQAU70553BZTN",
        "url": "https://www.163.com/dy/article/IQTNQAU70553BZTN.html"
    },
    {
        "title": "家里有两套房是什么水平？这种情况下，有两套房照样觉得没房住",
        "docid": "IQKIV2F305565UDU",
        "url": "https://www.163.com/dy/article/IQKIV2F305565UDU.html"
    },
    {
        "title": "买房还送露台？老公买下二手房，花20天做大改造！原房主：卖亏了",
        "docid": "IQLM4MAP05565UDW",
        "url": "https://www.163.com/dy/article/IQLM4MAP05565UDW.html"
    },
    {
        "title": "追悔莫及，斥资百万买高层，赔本卖掉！换了一套50年二手房，真香",
        "docid": "IR0441280556124M",
        "url": "https://www.163.com/dy/article/IR0441280556124M.html"
    },
    {
        "title": "同一栋楼，东户没人买，西户却卖光了？内行人透露真相，涨知识了",
        "docid": "IQS7QH600556123R",
        "url": "https://www.163.com/dy/article/IQS7QH600556123R.html"
    },
    {
        "title": "同样的小区，为何人家卖出的房子比你高几万十几万？3点要注意",
        "docid": "IQI5LSEC05565UDU",
        "url": "https://www.163.com/dy/article/IQI5LSEC05565UDU.html"
    },
    {
        "title": "地段好的房子一定好？一个买过3套房的人，教你如何选房才正确",
        "docid": "IQILROJ705565UDU",
        "url": "https://www.163.com/dy/article/IQILROJ705565UDU.html"
    },
    {
        "title": "青山区 | 青山沿江片2街坊-1地块！",
        "docid": "IR0TMVDJ0534SV3Y",
        "url": "https://www.163.com/dy/article/IR0TMVDJ0534SV3Y.html"
    },
    {
        "title": "小县的房子不好卖，为什么房价还没下降？看看如何解释",
        "docid": "IQKMSNRN05565UDU",
        "url": "https://www.163.com/dy/article/IQKMSNRN05565UDU.html"
    },
    {
        "title": "01年武汉女子花110万买房，政府拆迁赔1500万，女子：我要三千万",
        "docid": "IR3D05EH05565ANN",
        "url": "https://www.163.com/dy/article/IR3D05EH05565ANN.html"
    },
    {
        "title": "买房时“一次性付清”和“还贷20年”，区别有多大？幸亏知道得早",
        "docid": "IQQSF9BS0553TB9L",
        "url": "https://www.163.com/dy/article/IQQSF9BS0553TB9L.html"
    },
    {
        "title": "越来越多人选择从别墅搬回高层？过来人指出关键的“3个问题”！",
        "docid": "IR198M5605565UDW",
        "url": "https://www.163.com/dy/article/IR198M5605565UDW.html"
    },
    {
        "title": "随着高层房变贫民窟，商铺变仓库？未来什么房才最保值！",
        "docid": "IR3JQD0T05565UDW",
        "url": "https://www.163.com/dy/article/IR3JQD0T05565UDW.html"
    },
    {
        "title": "房产证上尽量别写夫妻两人的名字？之前不明白，现在知晓还来得及",
        "docid": "IQPNSSUT05565UDW",
        "url": "https://www.163.com/dy/article/IQPNSSUT05565UDW.html"
    },
    {
        "title": "为何有钱人买房不选这一层？听售楼人员一说，后悔没早知道",
        "docid": "IR24T50K05565UDU",
        "url": "https://www.163.com/dy/article/IR24T50K05565UDU.html"
    },
    {
        "title": "房子靠近这3处地方，将来越住越值钱，买了不容易后悔",
        "docid": "IR00K9CF05566N4D",
        "url": "https://www.163.com/dy/article/IR00K9CF05566N4D.html"
    },
    {
        "title": "这“4个证件”比房产证还要重要，千万别搞丢了，会带来很多麻烦",
        "docid": "IQS4SEVD054057BR",
        "url": "https://www.163.com/dy/article/IQS4SEVD054057BR.html"
    },
    {
        "title": "开春建房怕潮湿？20款带架空层自建房别墅，梅雨天让你不再受困扰",
        "docid": "IR0VKSV00520BKDJ",
        "url": "https://www.163.com/dy/article/IR0VKSV00520BKDJ.html"
    }
]